This is BibTeX, Version 0.99d (TeX Live 2016)
Capacity: max_strings=35307, hash_size=35307, hash_prime=30011
The top-level auxiliary file: emnlp2017_arxiv.aux
The style file: emnlp_natbib.bst
Reallocated glb_str_ptr (elt_size=4) to 20 items from 10.
Reallocated global_strs (elt_size=20001) to 20 items from 10.
Reallocated glb_str_end (elt_size=4) to 20 items from 10.
Reallocated singl_function (elt_size=4) to 100 items from 50.
Database file #1: biblio.bib
Reallocated wiz_functions (elt_size=4) to 6000 items from 3000.
You've used 22 entries,
            3571 wiz_defined-function locations,
            808 strings with 9666 characters,
and the built_in function-call counts, 15576 in all, are:
= -- 1291
> -- 837
< -- 12
+ -- 271
- -- 240
* -- 1031
:= -- 2357
add.period$ -- 90
call.type$ -- 22
change.case$ -- 210
chr.to.int$ -- 23
cite$ -- 22
duplicate$ -- 1059
empty$ -- 1103
format.name$ -- 318
if$ -- 3353
int.to.chr$ -- 2
int.to.str$ -- 1
missing$ -- 223
newline$ -- 114
num.names$ -- 88
pop$ -- 542
preamble$ -- 1
purify$ -- 168
quote$ -- 0
skip$ -- 703
stack$ -- 0
substring$ -- 456
swap$ -- 483
text.length$ -- 2
text.prefix$ -- 0
top$ -- 0
type$ -- 195
warning$ -- 0
while$ -- 82
width$ -- 0
write$ -- 277
