\relax 
\providecommand\hyper@newdestlabel[2]{}
\providecommand\HyperFirstAtBeginDocument{\AtBeginDocument}
\HyperFirstAtBeginDocument{\ifx\hyper@anchor\@undefined
\global\let\oldcontentsline\contentsline
\gdef\contentsline#1#2#3#4{\oldcontentsline{#1}{#2}{#3}}
\global\let\oldnewlabel\newlabel
\gdef\newlabel#1#2{\newlabelxx{#1}#2}
\gdef\newlabelxx#1#2#3#4#5#6{\oldnewlabel{#1}{{#2}{#3}}}
\AtEndDocument{\ifx\hyper@anchor\@undefined
\let\contentsline\oldcontentsline
\let\newlabel\oldnewlabel
\fi}
\fi}
\global\let\hyper@last\relax 
\gdef\HyperFirstAtBeginDocument#1{#1}
\providecommand\HyField@AuxAddToFields[1]{}
\providecommand\HyField@AuxAddToCoFields[2]{}
\providecommand*\new@tpo@label[2]{}
\citation{fang:misconduct:12}
\citation{markowitz_linguistic_2015}
\citation{varma_bias_2006,scheffer_error_1999}
\providecommand \oddpage@label [2]{}
\citation{markowitz_linguistic_2015}
\citation{mcnamara2013coh}
\citation{pennebaker2007linguistic}
\citation{mihalcea2009lie}
\citation{feng2012syntactic}
\citation{ott2011finding}
\citation{feng2012distributional}
\citation{mihalcea2009lie}
\citation{markowitz_linguistic_2015}
\citation{markowitz_linguistic_2015}
\citation{stone:general:1966}
\newlabel{sec:data}{{3}{2}{Data}{section.3}{}}
\citation{udpipe:2016}
\citation{johannsen:cross:2015}
\citation{prasad:penn:2008}
\citation{lin:automatically:2011}
\citation{rutherford:improving:2015,lin:pdtb:2014}
\citation{lin:recognizing:2009}
\citation{pitler:using:2009,pitler:easily:2008,lin:pdtb:2014}
\citation{meinshausen2010stability}
\citation{scikit-learn}
\citation{markowitz_linguistic_2015}
\citation{varma_bias_2006,scheffer_error_1999}
\providecommand*\caption@xref[2]{\@setref\relax\@undefined{#1}}
\newlabel{table:vocab}{{1}{3}{Size of the original vocabulary and number of selected features for $n$-grams and treelets.\relax }{table.caption.6}{}}
\newlabel{sec:expe}{{5}{3}{Classification}{section.5}{}}
\citation{markowitz_linguistic_2015}
\citation{markowitz_linguistic_2015}
\citation{markowitz_linguistic_2015}
\citation{markowitz_linguistic_2015}
\newlabel{fig:sfig1}{{1a}{4}{Unigrams\relax }{figure.caption.9}{}}
\newlabel{sub@fig:sfig1}{{a}{4}{Unigrams\relax }{figure.caption.9}{}}
\newlabel{fig:sfig2}{{1b}{4}{2-3-grams\relax }{figure.caption.9}{}}
\newlabel{sub@fig:sfig2}{{b}{4}{2-3-grams\relax }{figure.caption.9}{}}
\newlabel{fig:sfig3}{{1c}{4}{Treelets\relax }{figure.caption.9}{}}
\newlabel{sub@fig:sfig3}{{c}{4}{Treelets\relax }{figure.caption.9}{}}
\newlabel{fig:diffloo}{{1}{4}{Accuracy difference between LOO and Nested LOO for each trial for different features.\relax }{figure.caption.9}{}}
\newlabel{tab:results}{{2}{4}{Results (accuracy, in \%).\relax }{table.caption.11}{}}
\bibdata{biblio}
\bibcite{fang:misconduct:12}{{1}{2012}{{Fang et~al.}}{{Fang, Steen, and Casadevall}}}
\bibcite{feng2012syntactic}{{2}{2012{a}}{{Feng et~al.}}{{Feng, Banerjee, and Choi}}}
\bibcite{feng2012distributional}{{3}{2012{b}}{{Feng et~al.}}{{Feng, Xing, Gogar, and Choi}}}
\bibcite{johannsen:cross:2015}{{4}{2015}{{Johannsen et~al.}}{{Johannsen, Hovy, and S{\o }gaard}}}
\bibcite{lin:recognizing:2009}{{5}{2009}{{Lin et~al.}}{{Lin, Kan, and Ng}}}
\bibcite{lin:automatically:2011}{{6}{2011}{{Lin et~al.}}{{Lin, Ng, and Kan}}}
\bibcite{lin:pdtb:2014}{{7}{2014}{{Lin et~al.}}{{Lin, Ng, and Kan}}}
\bibcite{markowitz_linguistic_2015}{{8}{2015}{{Markowitz and Hancock}}{{}}}
\bibcite{mcnamara2013coh}{{9}{2013}{{McNamara et~al.}}{{McNamara, Louwerse, Cai, and Graesser}}}
\newlabel{tab:indicators}{{3}{5}{Pearson $\rho $ and original $p$-value (before Bonferroni correction) for some features.\relax }{table.caption.18}{}}
\bibcite{meinshausen2010stability}{{10}{2010}{{Meinshausen and B{\"u}hlmann}}{{}}}
\bibcite{mihalcea2009lie}{{11}{2009}{{Mihalcea and Strapparava}}{{}}}
\bibcite{ott2011finding}{{12}{2011}{{Ott et~al.}}{{Ott, Choi, Cardie, and Hancock}}}
\bibcite{scikit-learn}{{13}{2011}{{Pedregosa et~al.}}{{Pedregosa, Varoquaux, Gramfort, Michel, Thirion, Grisel, Blondel, Prettenhofer, Weiss, Dubourg, Vanderplas, Passos, Cournapeau, Brucher, Perrot, and Duchesnay}}}
\bibcite{pennebaker2007linguistic}{{14}{2007}{{Pennebaker et~al.}}{{Pennebaker, Booth, and Francis}}}
\bibcite{pitler:using:2009}{{15}{2009}{{Pitler and Nenkova}}{{}}}
\bibcite{pitler:easily:2008}{{16}{2008}{{Pitler et~al.}}{{Pitler, Raghupathy, Mehta, Nenkova, Lee, and Joshi}}}
\bibcite{prasad:penn:2008}{{17}{2008}{{Prasad et~al.}}{{Prasad, Dinesh, Lee, Miltsakaki, Robaldo, Joshi, and Webber}}}
\bibcite{rutherford:improving:2015}{{18}{2015}{{Rutherford and Xue}}{{}}}
\bibcite{scheffer_error_1999}{{19}{1999}{{Scheffer}}{{}}}
\bibcite{stone:general:1966}{{20}{1966}{{Stone and Kirsh}}{{}}}
\bibcite{udpipe:2016}{{21}{2016}{{Straka et~al.}}{{Straka, Haji\v {c}, and Strakov\'{a}}}}
\bibcite{varma_bias_2006}{{22}{2006}{{Varma and Simon}}{{}}}
\bibstyle{emnlp_natbib}
