activation	560.21	7.583248596566987e-124
akt	507.89	1.82739599103276e-112
ddr1	460.0	4.8071897649703165e-102
nf	396.89	2.6126970203071015e-88
caveolin	328.71	1.8344704395990852e-73
il	288.66	9.726076949013129e-65
induced	213.56	2.3023671668690133e-48
oral	209.33	1.9273254855023553e-47
apoptosis	183.36	8.942457772200837e-42
gsb	182.0	1.773177466197292e-41
integrin	170.82	4.8899220129708267e-39
apap	168.0	2.023024950578071e-38
ivig	161.0	6.8417075438553265e-37
ad	155.91	8.870391045949595e-36
inkt	153.0	3.83065381956498e-35
npr1	153.0	3.83065381956498e-35
cdk1	137.15	1.1191601937019652e-31
cell	136.58	1.4914385167294237e-31
antibody	135.0	3.2979203692878357e-31
prx1	135.0	3.3016889607933147e-31
p43	134.0	5.46354749574181e-31
cells	129.43	5.451552083359975e-30
neurons	128.34	9.464608509589317e-30
hescs	125.0	5.08946897381438e-29
icl	111.0	5.917069919921499e-26
infection	109.58	1.2098620304700357e-25
erβ	108.04	2.6397829833363025e-25
css	104.04	1.9856923282282226e-24
propolis	103.0	3.351482314753789e-24
stress	102.43	4.478296361702959e-24
years	102.42	4.481833401341308e-24
stat3	96.8	7.650737967578058e-23
imatinib	94.34	2.657766107426568e-22
,	89.58	2.9398699873652615e-21
and	89.5	3.070754050428441e-21
qynad	87.0	1.0852117784135194e-20
=	79.01	6.17806491852382e-19
xpg	72.73	1.488626730612815e-17
bicarbonate	70.13	5.560707334976521e-17
patient	69.34	8.287722407868048e-17
wall	68.63	1.185400370029082e-16
receptor	67.11	2.5737492579848223e-16
mgc5306	67.0	2.7150713219425247e-16
secretion	66.65	3.2496940727415764e-16
islets	64.83	8.147998350267652e-16
2	64.65	8.952427773358237e-16
b	61.19	5.195422624576185e-15
-	59.15	1.4628897454784828e-14
±	57.17	3.987777882956899e-14
between	57.09	4.1691208805526015e-14
mice	56.46	5.741410697812603e-14
vascular	54.03	1.973138507454719e-13
low	51.59	6.844679978146452e-13
twins	51.0	9.236596617173982e-13
pen2	50.0	1.537459794428033e-12
oh	49.78	1.718289126453115e-12
be	48.96	2.6069499647455174e-12
dna	46.61	8.682786602395007e-12
from	46.56	8.867652826825528e-12
enos	43.65	3.9176613675083014e-11
aba	42.67	6.490901215801173e-11
by	42.56	6.852139072718665e-11
dag	42.0	9.127341799289188e-11
lif	41.78	1.0219791959443149e-10
g	40.82	1.6691975953804798e-10
the	37.18	1.0780388203009046e-09
strains	34.57	4.1217251701367125e-09
observed	30.01	4.29642117413085e-08
level	28.03	1.1958261210442385e-07
nac	26.38	2.7975991718067565e-07
expression	25.1	5.448477421374635e-07
with	24.88	6.086049295463274e-07
levels	24.7	6.687942531206268e-07
we	24.61	7.028259677258324e-07
hsc	23.09	1.5479926480282844e-06
+	22.19	2.4737622530405417e-06
hcg	19.6	9.54691984523815e-06
garlic	19.27	1.1321797223183818e-05
.	18.82	1.43709745997855e-05
tissue	18.28	1.903181502609481e-05
d	16.43	5.040230078044617e-05
a	15.12	0.00010071477771036173
–	15.08	0.000102876341734931
that	14.63	0.00013073216568047134
;	12.95	0.0003204371536621879
to	11.88	0.0005681021439881817
cox	11.18	0.0008288410006095723
use	11.1	0.0008632265431305247
of	9.29	0.0023023718607857336
children	7.81	0.005188607552315582
were	7.65	0.005692733084531265
patients	7.47	0.006265955679985625
their	7.19	0.007348979582922355
hbv	6.96	0.008351423441556899
have	5.73	0.016663129670548473
mm	5.13	0.023486262478336056
for	4.81	0.028347242052508062
3	4.56	0.032636156002517284
group	4.16	0.04137886863342789
temperature	3.81	0.05099459850193932
was	3.8	0.051278326856673585
genes	3.49	0.0617935192484387
α	3.32	0.06826471365879694
after	1.8	0.180204716393486
μm	1.75	0.1854399550067446
4	1.46	0.2267544097144596
on	1.2	0.2735981683621751
1	0.62	0.432489785311856
pain	0.52	0.47249761400068846
no	0.32	0.5719639214735119
in	0.26	0.608073691173356
effect	0.11	0.7396437179126436
flow	0.11	0.7435587257984981
gastric	0.08	0.7834508015949052
clinical	0.07	0.7959817718817616
h	0.04	0.8324365954944607
/	0.01	0.9396377038694285
concentration	0.0	0.9759355823043047
