69	+	0.74
208	,	0.95
388	-	0.795
2613	.	0.77
2772	/	0.79
3841	1	0.905
6031	2	0.955
7154	3	0.905
8066	4	0.54
11313	;	0.835
11434	=	0.64
11656	a	0.775
11883	aba	0.54
12323	activation	0.915
12371	ad	0.595
12752	after	0.56
12997	akt	0.815
13673	and	0.995
14519	antibody	0.56
14777	apap	0.55
14888	apoptosis	0.505
16022	b	0.85
16522	be	0.91
16784	between	0.63
16849	bicarbonate	0.615
18073	by	0.535
19017	caveolin	0.625
19450	cdk1	0.65
19523	cell	0.525
19536	cells	0.74
20005	children	0.545
20484	clinical	0.535
21318	concentration	0.53
22114	cox	0.65
22434	css	0.715
22942	d	0.515
23048	dag	0.54
23253	ddr1	0.855
24881	dna	0.975
25872	effect	0.71
26615	enos	0.67
27059	erβ	0.56
27602	expression	0.58
28721	flow	0.52
28931	for	0.51
29240	from	0.835
29501	g	0.78
29759	garlic	0.58
29781	gastric	0.61
30057	genes	0.825
30987	group	0.655
31027	gsb	0.715
31262	h	0.59
31700	have	0.51
31738	hbv	0.665
31766	hcg	0.56
32150	hescs	0.555
32918	hsc	0.555
33643	icl	0.775
33913	il	0.78
34094	imatinib	0.645
34440	in	0.9
34627	induced	0.595
34697	infection	0.675
34876	inkt	0.535
35075	integrin	0.51
35661	islets	0.72
35839	ivig	0.625
37655	level	0.585
37657	levels	0.525
37766	lif	0.535
38258	low	0.74
40182	mgc5306	0.61
40238	mice	0.76
40879	mm	0.515
42169	nac	0.645
42716	neurons	0.695
42812	nf	0.8
43167	no	0.735
43953	npr1	0.635
44316	observed	0.69
44471	of	0.905
44582	oh	0.53
44739	on	0.535
44924	oral	0.84
45692	p43	0.6
45938	pain	0.725
46346	patient	0.905
46350	patients	0.575
46717	pen2	0.645
49756	propolis	0.65
49971	prx1	0.6
50664	qynad	0.635
51321	receptor	0.84
54131	secretion	0.545
56240	stat3	0.625
56501	strains	0.66
56559	stress	0.77
58116	temperature	0.62
58450	that	0.59
58466	the	0.965
58497	their	0.74
58946	tissue	0.67
59105	to	0.69
60171	twins	0.66
61011	use	0.67
61314	vascular	0.53
62144	wall	0.625
62192	was	0.79
62263	we	0.69
62358	were	0.52
62585	with	0.66
62966	xpg	0.51
63116	years	0.625
63504	±	0.93
63693	α	0.52
64261	μm	0.62
64441	–	0.75
