
--------------------------------------------
-- SPEARMAN conn
Data size: (506, 70)
if: -0.12889412902973982, p=0.0036801058883346657
so: -0.12827732460864516, p=0.003848248688243219
since: -0.1267995411483194, p=0.004279757466114903
moreover: 0.119677409422735, p=0.007036511620933235
as: -0.11169953726126162, p=0.011927657775525208
therefore: 0.0971821341535483, p=0.028828217384355186
that: -0.0961729787099287, p=0.030539388863559135
additionally: -0.0926368840952384, p=0.03723821801218409
but: -0.09249226214676425, p=0.03753685854501288
thereafter: 0.09036250314788406, p=0.042175392665080635
although: -0.08958418496760903, p=0.043987074151634956
thereby: 0.08943684454016967, p=0.04433730868141583
also: 0.07808090220500165, p=0.07930681802315745
thus: -0.06475785175003544, p=0.14577550376157944
long: -0.06337242505244779, p=0.15461068766620345
accordingly: 0.06299407883487121, p=0.15709260105809916
hence: -0.06299407883487121, p=0.15709260105809916
rather: -0.06299407883487121, p=0.15709260105809916
until: -0.05792719304520448, p=0.19328929040103296
then: 0.05046535774274073, p=0.25717027732419784
alternatively: -0.045193163411411885, p=0.31029686542598234
otherwise: 0.04485613040162566, p=0.3139226764886687
simultaneously: 0.04485613040162566, p=0.3139226764886687
addition: -0.04463218426774518, p=0.3163472008925484
besides: 0.04449941594899848, p=0.31779037028292534
example: -0.04449941594899848, p=0.31779037028292534
finally: 0.04449941594899848, p=0.31779037028292534
for: -0.04449941594899848, p=0.31779037028292534
much: -0.04449941594899848, p=0.31779037028292534
soon: -0.04449941594899848, p=0.31779037028292534
still: 0.04449941594899848, p=0.31779037028292534
ultimately: -0.04449941594899848, p=0.31779037028292534
whereas: 0.04445560416045126, p=0.3182675396106335
though: -0.042389340193619084, p=0.3413028413203544
however: -0.039231193195749574, p=0.3785124894953792
after: 0.037706598544624215, p=0.3973339503827761
while: -0.0369709001302495, p=0.40661410696761746
in: -0.03651483716701107, p=0.41243111680517996
neither: 0.03594457912738461, p=0.41977343888731655
result: -0.033508405021456376, p=0.4519909268933541
similarly: 0.032771480202097046, p=0.46200421016928284
specifically: 0.031873632738989285, p=0.47436919740791683
nevertheless: 0.0301949851249852, p=0.49796566368916173
nor: 0.029682348908100346, p=0.5052938697444556
when: -0.029173433875794044, p=0.5126245117491801
previously: -0.028784101678632525, p=0.5182697139680835
and: -0.027468146804220633, p=0.5375851006635859
afterward: 0.0257427761425514, p=0.5634443670610406
except: -0.0257427761425514, p=0.5634443670610406
likewise: 0.0257427761425514, p=0.5634443670610406
because: 0.02543977602640303, p=0.5680465937520829
indeed: -0.024551550404902218, p=0.5816400745026888
nonetheless: 0.02428702408554624, p=0.5857175125204024
before: -0.02204203468787078, p=0.6208421493737708
yet: -0.021676116927735474, p=0.6266527890712351
instead: -0.021644865016162255, p=0.6271501372045124
either: -0.021202623136285806, p=0.6342060761415343
once: -0.017406639653046344, p=0.6960826522154023
separately: 0.01355192713636236, p=0.7610493451480838
unless: 0.00824085643430329, p=0.8532932255993455
consequently: -0.006185710330584989, p=0.8896071554214848
or: 0.005886457342525157, p=0.8949160720173822
other: -0.001438528191079761, p=0.9742496523886336
hand: -0.0014120160156943294, p=0.9747240733013693
on: -0.0014120160156943294, p=0.9747240733013693
the: -0.0014120160156943294, p=0.9747240733013693
later: 0.0009905991640775293, p=0.9822661835811701
meanwhile: 0.000224481183908755, p=0.995980999880395
furthermore: 0.0, p=1.0
words: 0.0, p=1.0

--------------------------------------------
-- SPEARMAN hedges
Data size: (506, 121)
much: -0.1623687346661075, p=0.0002447156956476954
would: -0.1458555885574692, p=0.001000312425936212
overall: -0.12395318057328814, p=0.005236116017085086
practically: -0.11844009503637037, p=0.007652064627552518
appeared: -0.11768764615765825, p=0.008049520869308888
assume: -0.11243474769455725, p=0.011375995331069897
must: -0.11012178195595038, p=0.013191980940702007
occasionally: -0.10221862183176854, p=0.021465736439029
conceivably: 0.09989888873718121, p=0.024624924479326602
should: -0.0918087536826047, p=0.0389759253404768
most: -0.08881970325308662, p=0.04582987886598694
suggest: 0.08721033132470321, p=0.049921844139632195
effectively: 0.08578616109385902, p=0.05379348800997146
estimate: -0.08577689719636676, p=0.05381946784010592
assumed: -0.08524032393242766, p=0.055342160475832416
somehow: -0.08466593945725819, p=0.05701165137687017
perhaps: -0.08448179875325677, p=0.057555631997897934
will: -0.08293410232876153, p=0.06229992729384775
presumably: 0.08291763904425208, p=0.062352077057961815
speculate: -0.0825486209101386, p=0.06353047288801811
suggestive: -0.08235722961844336, p=0.06414883605507203
some: -0.07985115469756497, p=0.07271242569032713
find: 0.07931965341758943, p=0.07464357438749265
surely: 0.0772283284276542, p=0.08265147512248865
apparent: -0.076212885989731, p=0.08678282249060468
necessarily: -0.07110320363451139, p=0.1101556828605055
unlikely: -0.06957490286076065, p=0.11803550083148057
certainly: -0.06797960855856647, p=0.1267240633006515
possibility: 0.06615207958970037, p=0.13727856646086475
really: -0.0634967850635268, p=0.15380141739496264
fairly: -0.06299582423462323, p=0.15708108268509666
doubtful: -0.06299407883487121, p=0.15709260105809916
hopefully: -0.06299407883487121, p=0.15709260105809916
inconclusive: -0.06299407883487121, p=0.15709260105809916
presumable: -0.06299407883487121, p=0.15709260105809916
suppose: -0.06299407883487121, p=0.15709260105809916
supposedly: 0.06299407883487121, p=0.15709260105809916
can: 0.06233231527203886, p=0.1615059193629066
diagnostic: -0.05990351088625685, p=0.17850513910150376
clearly: -0.059569853589329376, p=0.18094044780936722
rather: -0.059532360048989756, p=0.1812156366149029
quite: -0.05918560817176977, p=0.18377536050072635
probably: -0.05749139365380825, p=0.1966667171913845
estimates: -0.057173102654742215, p=0.1991605488192328
definite: -0.0569635302103754, p=0.20081509459485455
frequently: -0.056872488065886254, p=0.20153696726022555
may: -0.05215313562253419, p=0.24157810569347454
roughly: -0.05201093363773783, p=0.24286563084991386
often: -0.05177711232385796, p=0.24499313790534144
several: 0.05157145059404985, p=0.2468751735892611
almost: 0.04970352700651828, p=0.2644315905651381
indicate: 0.04945561257834096, p=0.26682466346248435
believes: -0.04449941594899848, p=0.31779037028292534
guesses: 0.04449941594899848, p=0.31779037028292534
improbable: -0.04449941594899848, p=0.31779037028292534
probable: -0.042042535969485, p=0.34527090404842387
always: -0.0406664657920112, p=0.36130312393034547
consider: -0.04063940228825945, p=0.3616230294704771
understand: -0.03912679615954467, p=0.37978356995963103
mostly: -0.03718703425903568, p=0.40387448592143993
thought: 0.03695772046483424, p=0.40678152350753705
assumes: -0.03651483716701107, p=0.41243111680517996
likely: -0.03611338653892733, p=0.4175920274682361
tend: -0.03551626082211624, p=0.42533825307136963
about: -0.03450518006557592, p=0.4386435230030903
clear: 0.034439320552359376, p=0.4395183926393349
virtually: 0.03356017736778301, p=0.4512920767516636
mainly: -0.033383995857974684, p=0.4536727582172019
speculated: -0.03229384048137888, p=0.4685597298921633
sometimes: -0.03137685897350134, p=0.4812877929291012
around: -0.03112038327745023, p=0.4848810655286233
seems: -0.029261012011059434, p=0.5113590715214755
say: -0.028509144431432685, p=0.5222757319060761
possible: -0.028335257871767116, p=0.5248173554848894
little: 0.028208196529419284, p=0.5266785399570171
many: 0.027154153823130397, p=0.5422465402267304
apparently: -0.026484733146358852, p=0.5522511629964929
considers: -0.0257427761425514, p=0.5634443670610406
guess: -0.0257427761425514, p=0.5634443670610406
seldom: 0.0257427761425514, p=0.5634443670610406
possibly: -0.02559249325877875, p=0.5657247522495517
considered: 0.024263914753917204, p=0.5860743497515049
actually: -0.020989621710711438, p=0.6376164164552647
generally: -0.020796901909293005, p=0.640708637581789
like: -0.0206616593043572, p=0.6428823505670807
something: 0.019980029950087345, p=0.6538841107225811
definitely: -0.019742956840228462, p=0.6577283639210687
rarely: 0.019724314151685497, p=0.658031048791543
seem: -0.019274516022229668, p=0.665350868888495
estimated: -0.01875453091516949, p=0.6738526443570437
approximately: 0.01725808338811379, p=0.6985491381166777
understood: 0.016863088200914908, p=0.7051226529235037
read: -0.015975952953617815, p=0.7199659707350873
couple: -0.015424399208714386, p=0.7292481947301281
think: 0.013379102642074456, p=0.7640058448309349
might: -0.013178713640718284, p=0.7674381860756998
partially: -0.011609864884064871, p=0.7944624225076533
largely: -0.010356454253485126, p=0.8162329760868343
appears: 0.010015937503309041, p=0.8221727004697525
assumption: 0.009621835473801405, p=0.8290598135956324
seemed: -0.009440664422498269, p=0.8322302947925097
found: 0.007648404080215131, p=0.8637334482680019
rare: 0.007077320188189429, p=0.8738196410640061
probability: 0.006577771280041729, p=0.8826592721807883
few: -0.006226153210234809, p=0.8888900490263082
believe: -0.005730212630360137, p=0.8976898224366813
suggests: 0.005120457532925367, p=0.9085261819045515
could: -0.004291577745645071, p=0.9232836244652005
usually: -0.003028630658272899, p=0.9458182502291625
believed: -0.001690917246325959, p=0.9697337665402879
appear: -0.001198558581795509, p=0.9785440881543663
certain: 0.0011295660799067768, p=0.9797788808353718
basically: 0.00035282046583271675, p=0.9936833159919531
supposed: -0.0002806018152700068, p=0.9949762557601175
doubt: -0.00012449398286374882, p=0.9977711147812242
maybe: -0.00012449398286374882, p=0.9977711147812242
someone: 0.00012449398286374882, p=0.9977711147812242
suggested: -0.00010178095991762094, p=0.998177757916948
somewhat: -6.0756416259649395e-05, p=0.9989122429147936
evidently: 0.0, p=1.0
somewhere: 0.0, p=1.0

--------------------------------------------
-- SPEARMAN inquirer
Data size: (506, 180)
enlpt: 0.1860931917821381, p=2.5248989728889132e-05
compare: -0.15701757322151255, p=0.0003921627542245091
begin: 0.15511795951353582, p=0.0004619857623037941
rcends: -0.13808186328105201, p=0.0018499606155874748
exert: 0.1249240024345866, p=0.004890216526274808
solve: -0.12254043396318716, p=0.005778888101227881
affoth: 0.12249188348676111, p=0.005798408899323154
powpt: 0.12046923115854163, p=0.006666230664342499
powaupt: -0.1203706639030529, p=0.006711351830800572
natobj: 0.12009059624342858, p=0.006841055994059062
rspoth: -0.11469386376545407, p=0.009819545752954299
aquatic: 0.11003986032041722, p=0.013260740877752721
bldgpt: 0.10944495244862121, p=0.013769616037107898
wlttran: 0.10886363075696025, p=0.014283399991547688
freq: -0.10800198500185167, p=0.015075953422843666
pos: -0.10773977206726765, p=0.015324684279840853
rsptot: -0.10438657160905883, p=0.018837542955945297
undrst: -0.0995779721094105, p=0.025092145442161966
quan: -0.09578253484798369, p=0.03122440146511433
power: 0.09554157435901822, p=0.031653679667005025
wlbpsyc: 0.09305231150226789, p=0.036391564553877286
ought: -0.09259510228253238, p=0.03732428850497769
exch: 0.09068043956707987, p=0.041453657948369194
wlbpt: -0.0903613613708544, p=0.04217800354808775
afftot: 0.08798702855830612, p=0.04791040797413916
object: 0.08513203797846118, p=0.05565375660827735
affloss: 0.08466593945725819, p=0.05701165137687017
surelw: -0.08376932600812062, p=0.05970107128925833
powgain: -0.08365975714799126, p=0.060036806446083196
socrel: 0.08196775256629056, p=0.06542249467435715
pain: -0.08087805655811577, p=0.06909680457188135
affpt: 0.08070457003108401, p=0.0696970841693366
route: 0.080185737436195, p=0.07151780737196219
pleasur: 0.0784061519715865, p=0.07806013541887584
food: 0.07768037247210631, p=0.08086417605004247
male: -0.07762530672184062, p=0.08108020799872036
polit: -0.07731701382655025, p=0.08229833446820546
causal: 0.07715051672215996, p=0.08296232493539364
yes: -0.07473694354732621, p=0.09308240143381821
negaff: 0.0738828875456676, p=0.09689158826417556
our: 0.07354622921951752, p=0.09842685819547078
persist: -0.07252298333177387, p=0.10321233952991274
weak: -0.07167062431235385, p=0.10733785121127733
increas: 0.07007832392238769, p=0.11539261317217815
timespc: -0.06868064066502917, p=0.12284672789299275
rctot: -0.06813606387127824, p=0.12585059496713072
econ@: 0.06804296440829997, p=0.12636979117192843
powdoct: 0.06786319050525566, p=0.12737705673834174
powcon: -0.06594380201592065, p=0.13852312148999407
quality: -0.06451946079695317, p=0.14726769350396401
kin@: 0.06344730873390926, p=0.15412299820872347
means: 0.060725317866850766, p=0.1726107383705356
affgain: -0.056830858250407956, p=0.2018676777135519
card: -0.05651415153823609, p=0.20439654264156426
ovrst: -0.05631473200652034, p=0.20600062683412143
affil: -0.055890676846436, p=0.2094418927341334
milit: -0.0556603563560076, p=0.21132827871017446
sky: 0.05476589618885804, p=0.21877024588422997
vehicle: -0.05465580019779283, p=0.21969906527947367
exprsv: 0.054151164275240755, p=0.22399250951212327
try: -0.0538897741370745, p=0.2262397845499884
fetch: -0.0521404538915109, p=0.24169273370106537
time@: -0.05197270214027314, p=0.24321260537425335
anomie: 0.05062525454525311, p=0.25566392376581243
ord: 0.048304404569728426, p=0.27813138573714113
region: -0.04735167950347648, p=0.2877312502827644
fall: -0.04718114648431107, p=0.28947281606127806
wlbloss: -0.046455363730094505, p=0.29696390538394685
finish: 0.045766933470894014, p=0.30418788661771534
polit@: -0.04469388123177621, p=0.31567802696156827
female: -0.044274376319329616, p=0.3202463232286485
rcloss: 0.04407118762806546, p=0.3224744075560243
rel: 0.04402416214034991, p=0.3229915031929904
wltoth: -0.04399164469300443, p=0.32334938243507805
active: 0.04253810845604941, p=0.3396096221472923
ani: 0.042496776565127785, p=0.3400795050626283
numb: -0.0423027834104121, p=0.3422904701292586
feel: -0.041836930937921846, p=0.347637184712864
travel: 0.041591310283504664, p=0.35047744623127186
com: 0.041557479883879485, p=0.3508697942190825
nation: -0.04112604357766902, p=0.35589769882324007
think: -0.0401594442782701, p=0.3673257769712206
ritual: -0.040148679795474665, p=0.36745431524384753
hostile: 0.03888035715767565, p=0.38279443645206845
role: 0.03722201582774436, p=0.4034321130903714
sklasth: 0.03710638614915395, p=0.4048954549652741
natrpro: 0.03650643626713899, p=0.41253872821651505
land: -0.0358307893219713, p=0.4212476463927096
wltpt: -0.03447591797535764, p=0.43903211375548346
powauth: 0.0340769629446818, p=0.4443497344711608
self: 0.033858005643258436, p=0.4472836952199002
rise: 0.03359840013715706, p=0.4507765172496849
endslw: 0.033489725251345005, p=0.4522432258406366
vice: -0.03300525164825244, p=0.45881443917629594
decreas: -0.03276067503844794, p=0.4621519425718673
legal: 0.031990428177920506, p=0.47275052634167913
meanslw: 0.031773671395813274, p=0.4757569715846418
relig: 0.030434794212667766, p=0.49455701894206894
bodypt: 0.02990074388154811, p=0.5021649756071076
name: -0.029716409469367853, p=0.5048052190746849
pstv: 0.02876604253025458, p=0.5185323417757682
dav: 0.028676303737606535, p=0.5198383975293857
arenalw: -0.028533383087126905, p=0.5219219476543235
wlbphys: 0.02795717828266092, p=0.530365286005312
ngtv: -0.02765747606420285, p=0.534784109617775
comnobj: -0.02749770435708212, p=0.5371473343218114
rsploss: -0.02719252452575535, p=0.541675824915083
know: -0.02708800987797039, p=0.5432310484882212
space: -0.026965396310356247, p=0.5450584131418524
goal: 0.02682313110381591, p=0.5471824613981959
ptlw: 0.026337388768380657, p=0.554465322904194
rcrelig: 0.025849877026268626, p=0.5618219243276401
no: -0.025844424703460548, p=0.5619044656920852
positiv: 0.025761800248113816, p=0.5631560115459551
you: 0.0257427761425514, p=0.5634443670610406
iav: 0.025530941056721015, p=0.5666600163730575
dist: -0.024859394401956548, p=0.5769116596502536
work: -0.024740252481812677, p=0.578739509481818
sv: -0.024396677960294714, p=0.584025690488964
trnloss: -0.02434155156870831, p=0.584875938184808
abs: 0.024030679734347353, p=0.58968140784788
ipadj: 0.023417621872208, p=0.5992108645217225
powloss: 0.023342305774476626, p=0.6003863714296502
hu: 0.02328969973770147, p=0.6012080438931138
eval: -0.02310361740510777, p=0.6041185834787044
trngain: 0.022859106766682593, p=0.6079525674225763
social: -0.022426322466923127, p=0.6147650948378004
powends: -0.021709952868337757, p=0.6261145090173152
abs@: 0.021013948134294594, p=0.6372265401004811
coll: -0.02040952381266525, p=0.6469429855614393
rcgain: -0.02038141670051972, p=0.6473963026627736
passive: -0.020214522764114274, p=0.65009068313276
complet: 0.019490812271927616, p=0.6618269335898599
negativ: -0.01868573409855361, p=0.6749806218085866
powaren: 0.018547411237772298, p=0.6772507352724317
place: -0.0185164467760156, p=0.6777593163000386
stay: 0.01790676634484674, p=0.6878026871121727
enlloss: -0.0176580269160436, p=0.6919161617680738
doctrin: -0.017431837054570815, p=0.6956646155434416
formlw: 0.017292537476714772, p=0.6979768115795151
powtot: -0.0172782906462739, p=0.6982134489357502
race: -0.017243974588257414, p=0.6987835526919766
eval@: 0.01683903612061367, p=0.7055236437609782
vary: 0.01605966876320271, p=0.7185606496774435
comform: 0.01580336580005358, p=0.7228661323705463
wlbtot: 0.01443800501153204, p=0.7459466977403165
indadj: 0.014387575809655124, p=0.7468036873849937
submit: -0.01400521955784093, p=0.7533115067192278
enltot: 0.012745276896444413, p=0.7748777545857999
perceiv: -0.012410855226151526, p=0.7806319700666282
emot: -0.012005289705922116, p=0.7876263967413341
rspgain: 0.011739490682609032, p=0.7922197150660195
tool: -0.011733427544866004, p=0.7923245777739136
skloth: -0.01164506250029314, p=0.7938532861692221
intrj: -0.010052507238301624, p=0.8215343111308131
academ: 0.009880486759828682, p=0.8245382520860384
rcethic: 0.00910238515771281, p=0.8381574109466761
powoth: -0.007739845103934285, p=0.8621204737703543
posaff: 0.00717898744194286, p=0.8720225006477325
time: 0.007175444216515114, p=0.8720851221213043
skltot: -0.0070406465218461715, p=0.8744680698792074
sklpt: -0.006825423781113159, p=0.8782751134397592
wlttot: -0.006392463220063239, p=0.8859421089979994
virtue: -0.006088944633435335, p=0.8913233052329932
negate: 0.0054277674313610875, p=0.9030625255716966
color: -0.005364187007556917, p=0.9041925538340004
enlgain: -0.005006561946948569, p=0.9105522394623091
enlends: -0.00468697672839758, p=0.9162403092915503
powcoop: 0.0046632012113335996, p=0.9166636473549318
arousal: -0.004321168976409453, p=0.9227562958088988
strong: 0.003937227743224324, p=0.9296008426910571
need: 0.0026012604327866084, p=0.953454475682934
if: 0.0021384148247762, p=0.9617293595620433
wlbgain: 0.0020107335416168315, p=0.9640128428693734
nonadlt: -0.001986082270017895, p=0.9644537467167134
econ: 0.0018270775231866577, p=0.9672979033936022
enloth: 0.001190669068675298, p=0.9786852881042676
notlw: -0.0010558358259480473, p=0.9810985207148116
fail: 0.0002599597725279203, p=0.995345815465229
tranlw: -1.35325975965755e-05, p=0.9997577180461947

--------------------------------------------
-- SPEARMAN polarity
Data size: (506, 4)
both: -0.048670171045144074, p=0.2745042582624171
positive: -0.0368300999046235, p=0.4084047613216577
negative: -0.03674916098984957, p=0.40943623377036
neutral: -0.03356918799857051, p=0.45117050886376164

--------------------------------------------
-- SPEARMAN pronoun
Data size: (506, 3)
pro1st: 0.04763896834229714, p=0.2848132837810873
pro2nd: -0.02013781597703303, p=0.6513305924343902
pro3rd: 0.010086841051415878, p=0.8209350609787244

--------------------------------------------
-- SPEARMAN pronounsep
Data size: (506, 7)
we: 0.08117068387064948, p=0.0680938856147526
they: -0.08081353357435006, p=0.06931956367733155
he: -0.07880136337628134, p=0.07656674905190138
she: -0.06165969717450279, p=0.16608662742536145
you: -0.04472012608353082, p=0.31539365280858034
it: -0.03292453604870227, p=0.45991439632056064
i: 0.01385627252621663, p=0.7558513962494725

--------------------------------------------
-- SPEARMAN relexpl
Data size: (506, 4)
22_comparison: -0.0741826117012492, p=0.09554087243980874
31_expansion: 0.06871860628131109, p=0.12263941107093028
1_temporal: 0.01552848185237269, p=0.7274934845013777
6_contingency: -0.010031807481374708, p=0.8218956475186009

--------------------------------------------
-- SPEARMAN causal
Data size: (506, 68)
stimulation: 0.1579562671602974, p=0.0003614131995590172
preventive: 0.1267408264588595, p=0.0042977721407976305
therefore: 0.1153263081337415, p=0.009419159076642442
trend: -0.10753017481797218, p=0.015526087752536374
since: -0.10602082759253588, p=0.0170462496969966
stimulate: 0.10545406683375755, p=0.017649831565613148
impossible: -0.10466430427045988, p=0.018522011283498372
precipitate: 0.10465863721566232, p=0.01852840324193786
detrimental: -0.0928914384413972, p=0.036717467933440585
should: -0.0918087536826047, p=0.0389759253404768
thereby: 0.09103312645361872, p=0.04066526508296844
substantiate: -0.0809143368349422, p=0.06897180829821369
impetus: 0.0772283284276542, p=0.08265147512248865
liable: -0.0772283284276542, p=0.08265147512248865
result: 0.07595769320710595, p=0.08784679918084158
necessitate: -0.07476021733604278, p=0.09298029956228157
necessarily: -0.07110320363451139, p=0.1101556828605055
unlikely: -0.06957490286076065, p=0.11803550083148057
tendency: -0.06929218246829373, p=0.11954036813350748
why: -0.06741222397937377, p=0.12993120738897004
obtainable: -0.06299407883487121, p=0.15709260105809916
precedent: -0.06299407883487121, p=0.15709260105809916
deterministic: 0.0629939553290569, p=0.15709341613111694
possibility: 0.05979204321388821, p=0.17931600348619361
thus: -0.05276391627292667, p=0.23610247178098404
implicate: 0.0480771312301024, p=0.2804014571556151
stem: -0.04680942466943006, p=0.29329350483871974
chance: -0.046671054535400776, p=0.2947243005596237
signify: 0.04463218426774518, p=0.3163472008925484
accidental: -0.04449941594899848, p=0.31779037028292534
accountable: -0.04449941594899848, p=0.31779037028292534
hereby: -0.04449941594899848, p=0.31779037028292534
improbable: -0.04449941594899848, p=0.31779037028292534
motivate: 0.04449941594899848, p=0.31779037028292534
premise: 0.04449941594899848, p=0.31779037028292534
preparatory: -0.04449941594899848, p=0.31779037028292534
provocation: -0.04449941594899848, p=0.31779037028292534
prudent: 0.04449941594899848, p=0.31779037028292534
thank: 0.04449941594899848, p=0.31779037028292534
liability: -0.04436730457596846, p=0.3192306620821192
consequent: 0.04250751419938011, p=0.33995739399853586
responsible: 0.04215312343116179, p=0.34400241244665464
probable: -0.042042535969485, p=0.34527090404842387
contingency: 0.03622544255353485, p=0.4161476702110184
viability: 0.03614264211303769, p=0.4172146509970004
likely: -0.03611338653892733, p=0.4175920274682361
likelihood: -0.03579419449477308, p=0.4217223947299181
cause: -0.03414238102144014, p=0.44347528158398974
hence: 0.03230889117943876, p=0.4683523814933571
because: 0.027260708969475356, p=0.540662406282956
whereby: -0.027246937453935312, p=0.5408670147734436
intend: -0.02648852096694372, p=0.5521943001099772
prediction: 0.026400901259468024, p=0.5535103831042103
possible: -0.025983245024588666, p=0.5598047209398322
purpose: -0.025785780071560675, p=0.5627926414834563
plausibility: 0.0257427761425514, p=0.5634443670610406
predictable: -0.0257427761425514, p=0.5634443670610406
probability: 0.020623707489245937, p=0.6434928876591355
feasible: 0.01641453128103145, p=0.7126142234682716
fertile: -0.014656315419763907, p=0.7422403746221774
natural: -0.011692645674048527, p=0.7930300024459856
consequence: 0.011585420476255003, p=0.7948855354318438
give: 0.011031444417360453, p=0.8044903149222371
causal: 0.008810666180466754, p=0.8432761023924611
view: -0.004209604257505009, p=0.924744602680535
indicative: -0.0005660491509528464, p=0.9898659648347805
accident: 0.0001764107537811867, p=0.9968416240000942
imperative: 0.0, p=1.0

--------------------------------------------
-- SPEARMAN cat_causal
Data size: (506, 2)
ought: -0.09259510228253238, p=0.03732428850497769
causal: 0.07710936810723162, p=0.0831270908553363

--------------------------------------------
-- SPEARMAN relexpl-lvl2
Data size: (506, 10)
27_concession: -0.09463796847741258, p=0.03330870929974039
5_synchronous: -0.09344909608530982, p=0.035598232934040984
32_conjunction: 0.08317859580394407, p=0.061529685078970636
23_contrast: -0.06914277008120627, p=0.12034169247416054
2_asynchronous: 0.04900409847898659, p=0.27122110905573404
33_instantiation: -0.04449941594899848, p=0.31779037028292534
38_alternative: -0.04382999154627985, p=0.3251323213722168
43_list: -0.019742956840228462, p=0.6577283639210687
7_cause: 0.015269940318106034, p=0.7318547945144126
34_restatement: -0.014656315419763907, p=0.7422403746221774

--------------------------------------------
-- SPEARMAN bow
Data size: (506, 118)
activation: 0.2209860381820438, p=5.143815579458373e-07
akt: 0.2031998726613299, p=4.071068458903806e-06
induced: 0.1774677895539723, p=5.968001551622711e-05
cell: 0.13216806449786847, p=0.0028940612516389253
receptor: 0.129103144572203, p=0.003624656492820031
2: 0.12610143990550496, p=0.004498431978723309
between: -0.12559480904108355, p=0.004663396495843154
b: 0.12536183752275595, p=0.004741071695149143
g: 0.12462989536758629, p=0.004992763939082709
antibody: 0.12420198101058914, p=0.005145430287472615
integrin: 0.12173120199705119, p=0.0061120950403553585
ddr1: 0.11843640957330541, p=0.0076539678259893
d: 0.11392920429493482, p=0.010323776771382685
from: 0.11228685889370592, p=0.011485113136063815
low: -0.11021553587203131, p=0.01311367556254679
be: -0.10740420072422731, p=0.015648251293968757
vascular: 0.10561447885224874, p=0.017477131442434762
=: -0.10489875592716313, p=0.018259250426027173
nf: 0.10476694781897002, p=0.018406570596599545
apoptosis: 0.10108250727649892, p=0.02296608210838775
cells: 0.09899209592610539, p=0.025964874718202018
il: 0.09744031528742046, p=0.02840389049093763
patient: -0.09120247737513344, p=0.04029122581078014
by: 0.08951499355495192, p=0.04415125402094734
years: -0.08724804030301411, p=0.049822582974153956
that: 0.08456020725723402, p=0.057323477225669814
level: -0.08287243793172404, p=0.062495443069365324
we: 0.08117068387064948, p=0.0680938856147526
wall: -0.08075732621470177, p=0.06951409285786979
expression: 0.08069751042950206, p=0.0697216011500121
and: 0.0793685298653499, p=0.07446426103256448
mm: 0.07729228177772113, p=0.0823966933326754
twins: 0.07722802499971086, p=0.08265268545552729
hescs: 0.07722792385785784, p=0.08265308889988632
flow: 0.07333552762326406, p=0.09939753832022365
hsc: 0.0726672282104412, p=0.10252678117753503
ad: -0.07126295462084713, p=0.10935652378897227
their: 0.0659943244953445, p=0.13822043301002893
caveolin: 0.06380814477319702, p=0.15178933545930903
-: 0.06371422221846865, p=0.15239416940657993
apap: 0.0629939553290569, p=0.15709341613111694
dag: 0.0629939553290569, p=0.15709341613111694
inkt: -0.0629939553290569, p=0.15709341613111694
ivig: -0.0629939553290569, p=0.15709341613111694
clinical: 0.06185135276189018, p=0.1647715886491008
observed: -0.06166672312605739, p=0.1660382805250534
concentration: 0.06069150733558629, p=0.17285034556264853
erβ: 0.06017610518143407, p=0.17653363416522763
,: 0.05991056148501109, p=0.17845394159173233
with: 0.0571833568344344, p=0.1990798491115358
.: 0.053200371785612155, p=0.23224366207005345
secretion: 0.05233692697471113, p=0.23992112880161437
1: 0.05224865718031796, p=0.2407159284388686
xpg: 0.051226589346782585, p=0.25005365741496144
temperature: 0.0500468054200683, p=0.26114240674307243
have: -0.04782366180057997, p=0.28294794489050273
for: 0.046252334591682966, p=0.29908237995981335
bicarbonate: 0.045940552563507875, p=0.30235515105921584
were: 0.045682361522149106, p=0.3050832928003073
of: 0.044947097416787055, p=0.3129413237114924
gsb: 0.04449941594899848, p=0.31779037028292534
icl: -0.04449941594899848, p=0.31779037028292534
mgc5306: -0.04449941594899848, p=0.31779037028292534
npr1: -0.04449941594899848, p=0.31779037028292534
p43: -0.04449941594899848, p=0.31779037028292534
pen2: -0.04449941594899848, p=0.31779037028292534
propolis: 0.04449941594899848, p=0.31779037028292534
prx1: -0.04449941594899848, p=0.31779037028292534
qynad: 0.04449941594899848, p=0.31779037028292534
imatinib: 0.04436730457596846, p=0.3192306620821192
/: 0.04179567866794208, p=0.3481131872898252
h: 0.04072758841033052, p=0.3605812721546743
pain: -0.039126992814903366, p=0.37978117313592985
oh: -0.038569089263534896, p=0.3866181257571677
levels: -0.0385219295574881, p=0.38719946730023125
stat3: 0.037420538180931245, p=0.40092710764446926
cox: 0.03710271182393306, p=0.4049420068979155
mice: 0.03640182175842122, p=0.41388017809957844
the: 0.036016813500072936, p=0.4188391749737095
no: -0.03223714221070228, p=0.4693412975894876
α: -0.031145503919363715, p=0.4845284817179617
tissue: 0.030622577090139703, p=0.4918965824006788
–: -0.030202614468552266, p=0.4978570286203058
+: -0.02971354601889636, p=0.5048462900734567
infection: -0.028053674795428384, p=0.5289464813844741
css: 0.025946140426553032, p=0.5603655796843292
aba: 0.025742641285952612, p=0.563446411386457
dna: 0.022027715833612346, p=0.6210690878229966
±: -0.021509388348132586, p=0.6293080872699606
μm: -0.020963379964092636, p=0.6380371015448056
after: 0.020188042011024355, p=0.6505186162684055
hbv: -0.020137657106947655, p=0.6513331614530588
hcg: 0.019821787927217786, p=0.656449072101718
was: -0.019093546891913147, p=0.6683049261923826
3: 0.01887388919735043, p=0.6718974069106958
genes: 0.0160042325296854, p=0.7194911411694777
neurons: -0.015060914995953373, p=0.7353871533977681
group: -0.014931302495131166, p=0.7375803110261606
children: 0.013951571592249665, p=0.7542260229085432
in: 0.013827976457668863, p=0.7563342077426767
patients: -0.013685547753057985, p=0.758765883843454
a: -0.013409741832592746, p=0.7634814501702432
4: 0.01083436829982722, p=0.8079143897523516
strains: 0.010648788729814508, p=0.8111420777843847
effect: -0.009767755675449644, p=0.8265082340638273
gastric: -0.008692192953339084, p=0.845356809910339
oral: 0.005646877557061753, p=0.899169748988426
;: -0.0045112731374778794, p=0.9193693737637582
use: 0.004089807419006098, p=0.9268801440790677
stress: -0.0037593473866190693, p=0.9327737199164199
to: -0.0010959946007295213, p=0.9803797437363937
on: -0.0007581381355222203, p=0.9864272651719173
islets: 0.000649458414181059, p=0.9883727789902942
lif: -0.0003757105579371173, p=0.9932735150264984
enos: -0.0003130919763159815, p=0.9943945784077062
garlic: 0.00012449398286374882, p=0.9977711147812242
cdk1: 0.0, p=1.0
nac: 0.0, p=1.0

--------------------------------------------
-- SPEARMAN ngram
Data size: (506, 154)
santa__cruz: 0.20916261335727726, p=2.07524739039016e-06
described__previously: 0.1863007763575619, p=2.4719514560090685e-05
western__blotting: 0.17295211214752068, p=9.216402491073502e-05
pi3k__akt: 0.16492155297096014, p=0.00019439661573686997
b7__dc: 0.14905929660787123, p=0.0007695461489147767
map__kinase: 0.1434232034401683, p=0.0012164870943279773
rt__pcr: 0.13692094205076508, p=0.0020226021668134347
skeletal__muscle: 0.13096559883653297, p=0.0031630204200529775
heat__shock: -0.11870524350960579, p=0.007516244905022491
blood__vessels: 0.11597216728348012, p=0.009025328868004008
factor__xi: 0.10954213017626091, p=0.013685334594499117
nf__κb: 0.10801305772018707, p=0.015065528489691385
cag__pai: 0.09989865230251194, p=0.02462526591823826
oral__epithelial: 0.09989857349132858, p=0.024625379731578773
cell__lines: 0.08954183436369072, p=0.044087504064214
thymine__glycols: 0.08926357785567735, p=0.044752170056604944
ang__ii: 0.08926349000366174, p=0.04475238123040642
cell__proliferation: 0.08882663197587833, p=0.04581289022698267
ligand__binding: -0.08628901808962727, p=0.05239884904371163
fusion__protein: -0.07988403318537603, p=0.0725943171479774
pc__cells: 0.07722792385785784, p=0.08265308889988632
cell__death: 0.07324458280896122, p=0.09981885740633471
ng__ml: 0.07257726208436194, p=0.1029539415570357
cells__transfected: 0.06942852150943231, p=0.11881280075982767
il__15: 0.06796854233844525, p=0.1267860221984474
30__min: 0.06511366329157554, p=0.1435698319285639
cell__line: 0.06419683041515235, p=0.14930567823153448
cell__size: -0.06387104829780484, p=0.1513852752797019
dna__methylation: 0.06343271757419244, p=0.15421793343855134
ampk__α1: 0.0629939553290569, p=0.15709341613111694
chlamydophila__psittaci: 0.0629939553290569, p=0.15709341613111694
cll__cells: 0.0629939553290569, p=0.15709341613111694
encapsulated__islets: 0.0629939553290569, p=0.15709341613111694
ifn__αβ: -0.0629939553290569, p=0.15709341613111694
il__12p40: 0.0629939553290569, p=0.15709341613111694
inkt__cells: -0.0629939553290569, p=0.15709341613111694
mushroom__body: -0.0629939553290569, p=0.15709341613111694
pires2__egfp: -0.0629939553290569, p=0.15709341613111694
pm__cholesterol: 0.0629939553290569, p=0.15709341613111694
sle__patients: 0.0629939553290569, p=0.15709341613111694
snare__complex: -0.0629939553290569, p=0.15709341613111694
stat3__phosphorylation: -0.0629939553290569, p=0.15709341613111694
target__vessel: -0.0629939553290569, p=0.15709341613111694
vegf__r2: 0.0629939553290569, p=0.15709341613111694
vein__grafts: -0.0629939553290569, p=0.15709341613111694
cox__expression: 0.06261842632285287, p=0.15958651668421098
drg__neurons: 0.06025502891216102, p=0.17596585969168232
dna__repair: 0.05644481841586409, p=0.20495321163813174
β1__integrin: 0.056231304410804324, p=0.2066743969910217
endothelial__cells: 0.055890407042818765, p=0.2094440953611255
insulin__secretion: -0.050758547395582505, p=0.2544128813085115
et__al: -0.04845922123413339, p=0.27659219362361626
er__stress: -0.04489636009077453, p=0.3134884296565172
xp__cs: 0.04480819916075503, p=0.31444057013517496
17α__met: 0.04449941594899848, p=0.31779037028292534
actor__perspective: 0.04449941594899848, p=0.31779037028292534
anti__rbmpa: 0.04449941594899848, p=0.31779037028292534
apo2l__trail: 0.04449941594899848, p=0.31779037028292534
bas2714__12: 0.04449941594899848, p=0.31779037028292534
bm__mscs: 0.04449941594899848, p=0.31779037028292534
cd133__cells: -0.04449941594899848, p=0.31779037028292534
cd14__vegfr: 0.04449941594899848, p=0.31779037028292534
cd4__bffi: -0.04449941594899848, p=0.31779037028292534
cd4__x4: -0.04449941594899848, p=0.31779037028292534
central__obesity: -0.04449941594899848, p=0.31779037028292534
chorda__tympani: -0.04449941594899848, p=0.31779037028292534
coated__pits: -0.04449941594899848, p=0.31779037028292534
dupuyten__disease: 0.04449941594899848, p=0.31779037028292534
fetal__distress: -0.04449941594899848, p=0.31779037028292534
hbsag__seroreversion: 0.04449941594899848, p=0.31779037028292534
hsnf5__ini1: -0.04449941594899848, p=0.31779037028292534
htlv__iii: -0.04449941594899848, p=0.31779037028292534
intraductal__cooling: -0.04449941594899848, p=0.31779037028292534
jztx__iii: -0.04449941594899848, p=0.31779037028292534
lc__lf: -0.04449941594899848, p=0.31779037028292534
lif__lifr: -0.04449941594899848, p=0.31779037028292534
mda__neurons: 0.04449941594899848, p=0.31779037028292534
mip__1γ: -0.04449941594899848, p=0.31779037028292534
mmp__26: 0.04449941594899848, p=0.31779037028292534
month__olds: -0.04449941594899848, p=0.31779037028292534
muscle__dysmorphia: 0.04449941594899848, p=0.31779037028292534
need__structure: 0.04449941594899848, p=0.31779037028292534
nt__hesc: 0.04449941594899848, p=0.31779037028292534
osk__mrna: 0.04449941594899848, p=0.31779037028292534
patients__oh: 0.04449941594899848, p=0.31779037028292534
pigeon__fanciers: -0.04449941594899848, p=0.31779037028292534
pml__nbs: -0.04449941594899848, p=0.31779037028292534
pr__mice: -0.04449941594899848, p=0.31779037028292534
ras__gtp: -0.04449941594899848, p=0.31779037028292534
reactome__array: 0.04449941594899848, p=0.31779037028292534
root__filling: -0.04449941594899848, p=0.31779037028292534
saint__18: -0.04449941594899848, p=0.31779037028292534
sh__rats: 0.04449941594899848, p=0.31779037028292534
shoot__apex: 0.04449941594899848, p=0.31779037028292534
shp__mice: 0.04449941594899848, p=0.31779037028292534
socs__promoter: -0.04449941594899848, p=0.31779037028292534
sofa__hdv: -0.04449941594899848, p=0.31779037028292534
ss__dna: 0.04449941594899848, p=0.31779037028292534
t4v__cells: -0.04449941594899848, p=0.31779037028292534
tgrb1__tgrc1: -0.04449941594899848, p=0.31779037028292534
ts1__infected: -0.04449941594899848, p=0.31779037028292534
u1__cells: -0.04449941594899848, p=0.31779037028292534
xpb__ercc: -0.04449941594899848, p=0.31779037028292534
δf508__cftr: 0.04449941594899848, p=0.31779037028292534
granule__cells: 0.044367173578464134, p=0.3192320923408926
hiv__tat: 0.044367173578464134, p=0.3192320923408926
sodium__channels: 0.03651404339208696, p=0.4124412839632613
area__risk: 0.036442073296239344, p=0.41336373672357796
white__matter: 0.036441881250995886, p=0.41336619982791933
electron__transport: -0.036297556968813725, p=0.41521970104120065
il__12: 0.03616259738566032, p=0.4169573569505113
μg__ml: 0.03418141020220401, p=0.4429540400901256
p38__mapk: 0.03393746971552754, p=0.446217633339706
dna__content: 0.03311487587308331, p=0.4573228847938966
pc12__cells: -0.03243647354731656, p=0.4665967582381071
oral__cancer: 0.03199814282370418, p=0.4726437157046902
th1__cells: -0.02679555340830064, p=0.5475946740001734
oxidative__stress: -0.026758781877142996, p=0.5481445478688659
gtpase__activity: 0.025946140426553032, p=0.5603655796843292
hcv__rna: -0.025946140426553032, p=0.5603655796843292
magnetic__field: 0.025946140426553032, p=0.5603655796843292
pkc__activity: 0.025946140426553032, p=0.5603655796843292
granulosa__cells: -0.025844424703460548, p=0.5619044656920852
methylene__atp: -0.025742641285952612, p=0.563446411386457
cs__cells: 0.025539175592789756, p=0.5665348526638303
cpg__odn: 0.0255391421453522, p=0.5665353610331071
plasma__membrane: 0.022280490285892768, p=0.6170681853897603
spinal__cord: -0.022093358362259872, p=0.6200290199578705
cell__stage: 0.020216644260429295, p=0.650056404393718
il__17: -0.020137688880663928, p=0.6513326476538591
shear__stress: 0.01966382988090183, p=0.6590134631506693
kupffer__cells: 0.01950594902615317, p=0.6615806012636998
obese__patients: 0.019505902860648575, p=0.6615813524958118
wild__type: 0.01796662864053492, p=0.6868140952764392
al__2000: 0.01702799121055509, p=0.7023756316977647
il__1α: 0.016651985309854914, p=0.7086448883293814
gastric__cancer: 0.01418307988897443, p=0.7502820642512502
life__span: -0.013819475915198474, p=0.7564792697372399
gene__expression: -0.012397991359769028, p=0.7808535534132823
il__13: -0.011848180550131265, p=0.7903405479538139
gene__transfer: -0.01155205082769158, p=0.795463234156109
sigma__aldrich: 0.0056549262701559005, p=0.8990267985866414
amino__acids: 0.0054452558813821205, p=0.902751733898112
100__mm: -0.002059301816398413, p=0.963144200264868
bone__marrow: 0.0003006295297217107, p=0.9946176955558765
adhd__symptoms: 0.00012449398286374882, p=0.9977711147812242
igf__ir: 0.00012449398286374882, p=0.9977711147812242
mk__801: 0.00012449398286374882, p=0.9977711147812242
red__wine: 0.00012449398286374882, p=0.9977711147812242
vcam__expression: -0.00012449398286374882, p=0.9977711147812242
wky__rats: -0.00012449398286374882, p=0.9977711147812242
bile__duct: -7.216223616242003e-05, p=0.9987080381209772
high__glucose: -6.261879904233696e-05, p=0.9988788996255987
prostate__cancer: -4.761932086402987e-05, p=0.9991474437924154

--------------------------------------------
-- SPEARMAN treelet
Data size: (506, 136)
noun->compound->propn<-compound<-propn: 0.16004137044456948, p=0.0003009722023083217
noun->nmod->propn->conj->propn: 0.1439380374033891, p=0.0011674296641768244
noun->nmod->propn->punct->punct: 0.13691737519432967, p=0.002023154590019406
propn->compound->propn<-punct<-punct: 0.13297666266207667, p=0.00272508581089872
noun->amod->verb->punct->punct: 0.13091723371135428, p=0.0031742989394288883
pron->nmod:poss->noun<-amod<-adj: 0.12527872632952988, p=0.004769063166610399
noun->conj->noun<-punct<-punct: 0.12405547184944594, p=0.0051986588313420075
noun->compound->propn->compound->propn: 0.12131199157185835, p=0.0062914047405203295
punct->punct->noun<-compound<-noun: 0.1212095043588635, p=0.006335953761098596
punct->punct->noun<-punct<-punct: 0.11966271250494778, p=0.0070435550823308045
num->conj->num: -0.11472800334693324, p=0.009797552681039445
noun->conj->propn<-conj<-noun: 0.11116525668023494, p=0.012343260500479576
propn->nummod->num: 0.11107988427951779, p=0.012410841353986998
propn->conj->propn: 0.11107588786890421, p=0.012414012905613345
punct->punct->noun<-cc<-conj: 0.11067413737168144, p=0.012736517205123829
intj: 0.1106179015720185, p=0.012782245252896726
noun->nmod->propn: 0.11021036242782055, p=0.01311798583231621
propn->compound->propn<-compound<-propn: 0.10699982000488326, p=0.016046115603698795
punct->punct->propn<-punct<-punct: 0.10521822803268736, p=0.017906443988832878
propn: 0.10039151723151638, p=0.023922333885001243
verb->nmod:tmod->num: 0.09787343266287157, p=0.02770409792430353
part->neg->verb<-nmod<-noun: -0.09546456957296817, p=0.031791925642381084
punct->punct->adj<-punct<-punct: -0.09304490001766982, p=0.03640652485904393
verb->ccomp->verb->nmod->noun: 0.0928281054766047, p=0.03684644881612618
verb->mark->sconj: 0.09223054070295557, p=0.03808247344147785
verb->nsubjpass->noun->nmod->noun: -0.09007937226425697, p=0.042827011934109115
propn->conj->propn<-punct<-punct: 0.09003475601817675, p=0.04293046521251614
num->nummod->noun<-cc<-conj: 0.08771430485592589, p=0.04860881211096666
noun->conj->noun<-conj<-noun: 0.08503543247972822, p=0.055932970533158245
noun->punct->punct: 0.08389985688716219, p=0.05930313371450641
verb->nmod->noun->nummod->num: 0.0830920607092262, p=0.06180139805741233
num->nummod->noun<-compound<-noun: 0.08289802064932235, p=0.06241426808452922
propn->compound->noun: 0.0820466009208449, p=0.06516298178311908
noun->amod->verb: 0.08011904570188175, p=0.07175464008840966
punct->punct->verb<-conj<-noun: 0.07886592867107113, p=0.07632499765266076
num->nummod->noun<-nummod<-num: 0.07831394860547826, p=0.07841192452900994
adp->case->propn<-punct<-punct: 0.0772599926951515, p=0.08252524935599534
propn->conj->propn<-conj<-propn: 0.07657371754577096, p=0.08529613432138301
noun->compound->noun<-nmod<-noun: -0.07319361425330076, p=0.10005559911097608
noun->acl->verb->dobj->noun: 0.07261243013541055, p=0.10278679549022086
adj->amod->noun<-nmod<-noun: -0.07174299363194932, p=0.10698259281359451
noun->nummod->num: 0.07007207972746518, p=0.1154251077354425
num->nummod->noun<-punct<-punct: 0.06879184449643955, p=0.1222402530915755
adp->case->propn<-compound<-propn: 0.06599334462336641, p=0.13822629874793596
det->det->noun<-amod<-adj: -0.06283589012610835, p=0.1581391845113583
conj: 0.06233308421509648, p=0.16150073764738704
noun->compound->noun<-cc<-conj: 0.0618098746311705, p=0.16505552467238002
punct: 0.061506673893155665, p=0.16714222990760888
aux->aux->verb<-punct<-punct: -0.061456076706061964, p=0.1674923685712586
adj->amod->noun<-acl<-verb: -0.0611025738662275, p=0.16995399205616524
verb->advcl->verb->nmod->noun: -0.06089863504676008, p=0.17138636821991182
noun->compound->noun<-acl:relcl<-verb: 0.05813357029640304, p=0.19170477808682856
adj->amod->noun<-punct<-punct: 0.05721169557982387, p=0.19885694899972958
verb->dobj->noun: 0.056367003689814975, p=0.2055792865844395
verb->nsubj->noun->nmod->noun: -0.05586432341618824, p=0.2096571162586252
verb: 0.05579708460854887, p=0.2102069662632218
punct->punct->verb<-nmod<-noun: 0.055767863778169016, p=0.21044624571003473
x->compound->num<-compound<-x: -0.05433144696655167, p=0.22245184854843025
verb->dobj->noun->amod->adj: -0.05238765267497052, p=0.23946521939237064
adj->amod->noun<-compound<-noun: -0.052381304677012554, p=0.2395222401810419
num: 0.05102120140717356, p=0.251960141385404
propn->name->propn<-name<-propn: 0.04993011458284343, p=0.262257321805882
noun->compound->propn: 0.04914506999733869, p=0.26984317220873927
pron->nsubj->verb<-advmod<-adv: 0.04890371510626774, p=0.2722052387833439
noun->nmod->noun<-punct<-punct: 0.048311131677426136, p=0.2780643840526819
adp->case->propn<-amod<-adj: -0.04655480960954593, p=0.29592991269338653
noun->compound->noun<-punct<-punct: 0.04530199988646882, p=0.3091319109818744
aux->aux->verb<-dobj<-noun: 0.04449518445792981, p=0.31783643650966736
noun->appos->noun->nmod->noun: -0.04373765296751053, p=0.32615361786719665
det->det->noun<-cc<-conj: 0.042839834774608856, p=0.3361920207065797
det->det->noun<-acl:relcl<-verb: -0.04281144350272459, p=0.3365126600599645
noun->conj->propn<-conj<-propn: 0.04270522163671722, p=0.3377140250478907
verb->nsubjpass->noun->amod->adj: -0.042572906722770615, p=0.3392143389516472
noun->nsubj->verb<-dobj<-noun: 0.04215031565060935, p=0.3440345823001929
noun->nmod->noun->nummod->num: 0.042142935059514476, p=0.3441191537861866
punct->punct->num<-cc<-conj: 0.04106253747802555, p=0.35664159722323985
adp->case->noun<-amod<-adj: -0.040076496884027625, p=0.3683169702465514
noun->appos->noun<-punct<-punct: 0.03954506495115759, p=0.3747067150392601
noun: 0.038884625924693626, p=0.38274215902083863
propn->name->propn<-punct<-punct: 0.037418487232424115, p=0.400952939324131
verb->advcl->verb->mark->part: 0.03597204749277508, p=0.4194180251155676
noun->compound->noun->punct->punct: -0.03548816225791733, p=0.4257048113488199
verb->conj->verb<-punct<-punct: 0.03491574026665721, p=0.4332122394161576
noun->nmod->noun<-nmod<-noun: -0.03467558458508939, p=0.4363845271018211
adp->case->noun<-punct<-punct: 0.03459898892676085, p=0.43739910217770017
adp: 0.03439283490010509, p=0.4401365030899813
num->case->adp: -0.034325098716327614, p=0.44103806704947146
noun->compound->noun<-compound<-noun: 0.03241387538525183, p=0.4669074592640464
noun->nmod->noun->amod->adj: -0.032069180029154896, p=0.47166081589112996
verb->nmod->noun->amod->adj: -0.03197674587041778, p=0.47293999289274513
det->det->noun<-nmod<-noun: -0.030213490703772904, p=0.49770218244636977
noun->nsubjpass->verb<-auxpass<-aux: 0.03010631528515062, p=0.49922916530215755
verb->nsubjpass->noun: 0.029754143165117767, p=0.5042641617726384
verb->dobj->noun->det->det: 0.029350751866043388, p=0.5100640850812721
punct->punct->num<-punct<-punct: 0.02815117770032929, p=0.5275148381924277
verb->punct->punct: 0.02728998298241596, p=0.5402275996679984
sym: 0.023521859430688734, p=0.5975856794262782
noun->nmod->noun->det->det: -0.023368312455620027, p=0.5999803508810213
adj: -0.023312045456681318, p=0.600858956292113
adp->case->noun<-nmod<-noun: -0.023286238846118815, p=0.6012621185353086
noun->amod->adj: -0.021877933117707506, p=0.6234451346002696
adj->amod->noun<-amod<-adj: 0.02168153144217316, p=0.6265666387749733
det: 0.02163432734237071, p=0.6273178736101505
aux->auxpass->verb<-advcl<-verb: -0.02021707211153636, p=0.6500494913453445
noun->compound->noun: 0.020105466512665874, p=0.6518537865877471
verb->mark->part: 0.019934588603531363, p=0.6546202588555382
noun->dobj->verb<-nmod<-noun: 0.01978959394916552, p=0.6569714034852456
verb->nmod->noun->case->adp: 0.019713481737969954, p=0.658206950806832
punct->punct->verb<-punct<-punct: -0.01948378260675939, p=0.6619413452818346
x->advmod->num<-punct<-punct: 0.018825272741395303, p=0.6726935388724347
verb->nsubjpass->noun->punct->punct: -0.016960430755384677, p=0.7035006149446691
num->conj->noun<-punct<-punct: -0.014922957821699374, p=0.7377215834791935
adj->nmod->noun->amod->adj: -0.014754396366996297, p=0.7405771563705406
sconj->mark->verb<-punct<-punct: -0.014653206036462953, p=0.7422931220023719
verb->nmod->noun->det->det: -0.013977896255970245, p=0.7537772334862531
x->goeswith->noun<-goeswith<-x: 0.013900180496658211, p=0.7551023894796407
adp->case->noun<-amod<-verb: 0.013468518866925188, p=0.7624757747752644
noun->det->det: 0.012217519056527371, p=0.7839640972938711
det->det->noun<-compound<-noun: -0.011595793051486352, p=0.794705987190581
part: 0.01144758577708624, p=0.7972724652285605
verb->nmod->noun->compound->noun: -0.009513333245318138, p=0.8309582653537055
x: -0.008460841333029896, p=0.8494230538740154
det->det->noun<-punct<-punct: -0.008241179159189278, p=0.8532875453303028
adp->case->noun<-conj<-noun: -0.007794663900692364, p=0.8611537715725237
noun->amod->verb->advmod->adv: 0.007265527942144285, p=0.8704932695184991
adv: 0.006345654237968838, p=0.8867716676509821
adp->case->noun<-compound<-noun: -0.006183337045265644, p=0.8896492397505662
adp->case->noun<-compound<-propn: 0.00607699809833251, p=0.8915352136580945
noun->nmod->verb<-punct<-punct: 0.0044650082837173356, p=0.9201935028983322
noun->case->adp: 0.004153665777930106, p=0.9257417157274656
noun->nmod->noun->case->adp: -0.0034095723367576205, p=0.9390157671094088
det->det->noun<-nummod<-num: -0.0011915183153997772, p=0.9786700889600309
noun->nmod->noun: -0.0011365234016426095, p=0.9796543599931143
aux->auxpass->verb<-punct<-punct: -0.0008389021616591123, p=0.9849815314863102
pron: 0.0007442160994595293, p=0.986676484171902
noun->dobj->verb<-punct<-punct: -0.0007036782031953224, p=0.9874021621887173
