One way to learn how to do things is to watch others do them. A  first  step in learning by  watching  is  to  infer  the  goals  of  the  actions  being performed. Even small children can infer goals and use those  goals  as  the basis for  imitating  others'  behavior  eg, Meltzoff,  1995.  Inferring goals becomes more complex  for  real-world  tasks  that  consist  of  long, interrelated sequences of actions, such as making a  cake  or  assembling  a piece of furniture. To  learn  such  tasks,  observers  need  to  infer  how actions  are  organized  into  goal–subgoal  hierarchies  Hard,  Lozano,  & Tversky, in press; Whiten, 2002; Zacks, Tversky, & Iyer, 2001. Here, we explore whether the ability to infer goal–subgoal  organization  in action  is  influenced  by  perspective  taking.  We  take  our  notion   of perspective taking from Galinsky, Ku, and Wang 2005,  who  defined  it  as “the process  of  imagining  the  world  from  another's  vantage  point  or imagining oneself in another's shoes”  p.  110.  Put  differently,  taking another person's perspective implies establishing overlap between one's  own mental representations and the mental representations of  the  other  person eg, Davis,  Conklin,  Smith,   &   Luce,   1996;Galinsky   &   Moskowitz, 2000; Vorauer & Cameron, 2002. 1 We report a series of  studies  that  test whether  perspective   taking   promotes   understanding   of   goal–subgoal organization  in  observed   behavior,   <\connective form=thereby text=thereby id=F1209_FUL6_12.txt.raw_49 relation=Contingency\>   promoting   observational learning. But first, we assemble  the  pieces  of  evidence  underlying  our reasoning. 

People plan actions hierarchically according to an overarching goal that  is decomposed into subgoals that are, in turn,  decomposed  into  even  smaller subgoals   Newell  &  Simon,  1972.  These  plans  are  instantiated  into hierarchically organized behaviors, like making a  bed  or  even  playing  a violin eg, Lashley, 1951. Imitative  behavior  <\connective form=also text=also id=F1209_FUL6_12.txt.raw_377 relation=Temporal\>  shows  evidence  of hierarchical organization: <\connective form=when text=When id=F1209_FUL6_12.txt.raw_146 relation=Temporal\>  people  and  even  other  primates  imitate others' behavior, they do so in a way that suggests they have  encoded  that behavior as a  hierarchy  of  goals  and  subgoals  eg, Byrne  &  Russon, 1998; Travis, 1997; Whiten, 2002. In fact, people encode hierarchical organization when observing behavior  in real time, even  <\connective form=when text=when id=F1209_FUL6_12.txt.raw_148 relation=Temporal\>  they  are  not  intending  to  learn  that  behavior. Evidence  for  spontaneous  hierarchical  organization  comes  from  several sources, notably using a segmentation task, in which people observe a  video of goal-oriented behavior,  pressing  a  key  to  indicate  when,  in  their judgment, one action is completed and the next begins  Newtson, 1973.  The action boundaries that people identify are referred to  as breakpoints.  For a wide range of goal-directed behaviors, people reliably  segment  units  of action corresponding to the completion of goals and subgoals  by  the  actor  Baldwin,  Baird,  Saylor,  &  Clark,   2001; Hard,   Zacks,   &   Tversky, 2006; Newtson, 1973; Zacks, Tversky,  &  Iyer,  2001. Zacks,  Tversky,  and Iyer 2001found that <\connective form=when text=when id=F1209_FUL6_12.txt.raw_150 relation=Temporal\> asked to segment  action  sequences  into  coarse and fine units  on  separate  viewings,  observers  select  units  that  are hierarchically nested: the boundaries of  coarse  units  coincide  with  the boundaries of fine units well above chance.  <\connective form=when text=When id=F1209_FUL6_12.txt.raw_151 relation=Temporal\>  observers  are  asked  to report what happens in each coarse or fine unit as  they  segment,  in  many cases they even  give  descriptions  of  how  sets  of  fine  units  can  be summarized into a coarse unit  Hard, Lozano, & Tversky, in press. The  nature  of  these  descriptions,  combined  with  the  consistency   of hierarchical organization within and across observers,  has  been  taken  to reflect observers' attempts to understand observed behavior by encoding  its hierarchical organization. Other paradigms eg, Hard, Tversky, & Lang,  in press; Martin, 2006; Zacks, Tversky, & Iyer,  2001,  including  studies  of brain activation during passive  viewing  Zacks,  Braver,  et  al,  2001, corroborate these claims. One possible benefit of hierarchical  encoding  in terms of goals and subgoals is an action representation with  the  structure of an action plan, which in  turn  facilitates  performance  of  the  action sequence  by  observers.  Supporting  this  possibility,   the   degree   of hierarchical   organization   in   segmentation   predicts    accuracy    of observational learning  Hard, Lozano, & Tversky, in press 2. 

<\connective form=although text=Although id=F1209_FUL6_12.txt.raw_45 relation=Comparison\> people naturally and frequently describe the world from  their  own point of view eg, Hart & Moore, 1973; Levelt,  1989; Piaget  &  Inhelder, 1956; Shelton & McNamara, 1997, there are notable exceptions. One of  these exceptions is in describing observed actions Lozano, Hard,  &  Tversky,  in press. For example, in a recent study, observers gave play-by-play  reports of an action sequence performed by an actor who faced them   Hard,  Lozano, & Tversky, in press. Close examination of these reports revealed that  <\connective form=when text=when id=F1209_FUL6_12.txt.raw_152 relation=Temporal\> participants included specific spatial information, such  as  the  locations of objects or which of the actor's hands performed an action, it  was  using the actor's spatial reference frame rather  than  their  own.  For  example, participants were more likely to say “She puts the block on her  left”  than “She puts the  block  on  my  right.”  This  suggests  that  <\connective form=when text=when id=F1209_FUL6_12.txt.raw_153 relation=Temporal\>  observers describe actions, they seem to put themselves in the  actor's  shoes.  There is evidence that observers of action put themselves in  the  actor's  shoes, not only in their descriptions of actions but  also  at  the  neural  level: Observing action activates many of the same  brain  mechanisms  involved  in planning and executing action eg, Grafton, Arbib, Fadiga,  &  Rizzolatti, 1996; Iacoboni,  2005; Iacoboni  et  al,  1999.  As  some  have  put   it, observing others' actions produces motor simulation, in which an  individual internally copies  those  actions   Fadiga,  Craighero,  &  Olivier,  2005; cf. Rizzolatti, Fadiga, Fogassi, & Gallese, 1999. These findings have  been taken to mean that a component of understanding others' actions  is  mapping them to actions of the self. Outside the domain of action  understanding,  increased  self–other  overlap during perspective taking 3 can have useful  social  consequences,  such  as increasing feelings of liking, rapport, empathy, and sympathy toward  others eg, Batson, 1991; Chartrand &  Bargh,  1999; C.  M.  Cheng  &  Chartrand, 2003. The self–other overlap that takes place <\connective form=when text=when id=F1209_FUL6_12.txt.raw_154 relation=Temporal\> people  observe  actions has been proposed to promote action understanding, perhaps  by  facilitating inferences  about  the  goals  and  intentions  of  others  eg, Arbib   & Rizzolatti, 1996; Rizzolatti & Arbib, 1998  or  by  generating  predictions that guide the perception of ongoing behavior  Wilson  &  Knoblich,  2005. As  yet,  there  is  little  direct  evidence  supporting  these  proposals, <\connective form=however text=however id=F1209_FUL6_12.txt.raw_166 relation=Comparison\>. There is some recent evidence that perspective taking is related  to  action understanding,  specifically  to  hierarchical  encoding   of   goal–subgoal structure. In a study described  earlier,  in  which  participants  provided play-by-play descriptions as they segmented a video of  an  object  assembly task, participants who spontaneously  described  actions  from  the  actor's perspective  both   showed   more   hierarchical   organization   in   their segmentation and assembled the object better  Hard, Lozano, &  Tversky,  in press. These  findings  were  unexpected  and  only  showed  a  correlation between perspective taking and hierarchical encoding. <\connective form=thus text=Thus id=F1209_FUL6_12.txt.raw_317 relation=Contingency\>,  it  remains  an open question as to  whether  perspective  taking  leads  to  better  action understanding or whether the relationship works in the opposite direction. 

Taking  the  actor's  perspective  might  allow  better  encoding   of   the hierarchical organization of the actor's intentions  ie,  the  goals  and subgoals of the  task.  By  promoting  hierarchical  encoding,  perspective taking  should  <\connective form=also text=also id=F1209_FUL6_12.txt.raw_379 relation=Contingency\>  promote  observational   learning.   Together,   these predictions form the hypothesis investigated here. In a series  of  studies, observers segmented a video of an object assembly task at  coarse  and  fine levels, describing what happened in each segment as they segmented.  In  the first study, half of the observers were instructed to  describe  the  action from their own perspective, using their own body as a reference  frame,  and half from the actor's perspective, using the actor's  body  as  a  reference frame.  As  predicted,  those  who  described  actions  from   the   actor's perspective encoded actions more  hierarchically  and  learned  them  better than those who described actions from their  own  perspective.  A  follow-up study confirmed that observers naturally describe  action  from  an  actor's perspective, leading them to hierarchically encode and learn actions  better than  observers  instructed  to  describe  from  a  self  perspective.   But surprisingly,  instructions  to  describe  from  the   actor's   perspective enhanced hierarchical encoding and learning above  and  beyond  what  people would do naturally. The third study rejected  the  possibility  that  taking any perspective other than one's own  can  facilitate  action  understanding and performance. 


The  first  study  tested  whether  describing  actions  from   an   actor's perspective  improves  hierarchical  encoding  and  learning.   Participants watched a video of a person assembling an object, a TV cart, pressing a  key to indicate <\connective form=when text=when id=F1209_FUL6_12.txt.raw_155 relation=Temporal\> they thought one action segment ended  and  another  began. They did this twice, once for the largest units that  made  sense  and  once for the smallest units that made sense. As they  segmented,  they  described what happened, either from their own perspective eg, “She puts the  board on my right” or from the perspective of the  actor  eg,  “She  puts  the board on her left”.  After  describing  and  segmenting  the  video  twice, participants were asked to assemble the TV cart. Half  of  the  participants had been told of the assembly task but half had  not,  so  that  effects  of task awareness on performance could <\connective form=also text=also id=F1209_FUL6_12.txt.raw_380 relation=Expansion\> be evaluated. 




Forty  Stanford  University  undergraduates  participated  in  exchange  for course credit.  A  2  ×  2  ×  2  ×  2  mixed  factorial  design  was  used. Segmentation  level  fine,  coarse  was  varied  within  participant,  and assigned  perspective  actor,  self,  segmentation   order   coarse–fine, fine–coarse, and awareness of the  later  assembly  task  aware,  unaware were varied between participants. 

All participants viewed two videos, one for practice and one for  test.  The practice video, used for practicing the segmentation procedure, was  created by Zacks,  Tversky,  and  Iyer  2001 and  showed  a  woman  assembling   a saxophone. The test video involved a woman assembling  a  TV  cart  made  by Talon Systems Ontario, Canada. The TV cart measured 17 in. × 25 in.  ×  21 in. 43.2 cm × 63.5 cm × 53.3 cm in size and consisted of  two  sideboards, a lower shelf, an upper shelf, a  support  board,  pegs  for  attaching  the support board, screws, screwdriver, and wheels see top  of Figure  1.  The actor faced the camera during  filming  and  performed  approximately  equal numbers of actions with her  left  and  right  hand,  following  the  script described in Appendix A.  All videos  were  presented  on  a  21-in.  53.3-cm  flat-screen  computer monitor. Response  times  were  recorded  with  a  keyboard  attached  to  a Macintosh G4 computer, using a program written in  PsyScope  1.2.5   Cohen, MacWhinney, Flatt, & Provost, 1993. Verbal descriptions were recorded  with a handheld tape recorder, and TV cart assembly  performances  were  recorded with a digital video camera. 

At the beginning of the study, participants received  a  brief  introduction to segmentation. They were told that to make  sense  of  their  experiences, people break them down into  events  of  varying  sizes,  some  small,  some large. Participants were never explicitly  informed  that  large  and  small events could be hierarchically related, <\connective form=so that text=so that id=F1209_FUL6_12.txt.raw_50 relation=Contingency\> we  could  observe  how  and when hierarchical encoding occurred spontaneously and as a function  of  the experimental manipulations. Participants did receive  everyday  examples  of both large and small events, <\connective form=but text=but id=F1209_FUL6_12.txt.raw_130 relation=Comparison\> these events were  in  no  way  related  to each  other.  The  exact  instructions  that   participants   received   are in Appendix B. Following this introduction, participants were told that they would see  two videos of a person assembling an object.  Their  job  was  to  divide  these videos into separate event units by pressing the  spacebar  every  time  one meaningful action ended and  another  began.  Each  time  they  pressed  the spacebar,  participants  were  instructed  to  briefly  describe,  from  the perspective they had been randomly assigned actor or self,  what  happened in the segment they had just observed. To demonstrate how  to  do  this,  we showed participants a still frame from the practice video  that  depicted  a woman placing a saxophone on a table. Participants were  given  examples  of how this picture could be described either  from  an  actor  perspective  or self perspective and were <\connective form=then text=then id=F1209_FUL6_12.txt.raw_89 relation=Temporal\> reminded of which  of  the  two  perspectives they should describe. To  practice  segmenting  and  describing  actions,  participants  viewed  a practice video of saxophone assembly and were instructed  to  mark  whatever units felt natural and meaningful to  them.  Participants  <\connective form=then text=then id=F1209_FUL6_12.txt.raw_90 relation=Temporal\>  viewed  and segmented the test video, which was 6 min 35 s  long  and  showed  an  actor assembling the TV cart in  the  same  room  where  participants  were  being tested. Half of the participants were instructed to  indicate  the  smallest units that seemed natural and meaningful to them  fine–coarse;  the  other half were instructed to indicate the largest units that seemed  natural  and meaningful coarse–fine. Participants  <\connective form=then text=then id=F1209_FUL6_12.txt.raw_91 relation=Temporal\>  segmented  the  test  video  a second time according to the opposite unit-size  instructions.  Viewing  the videos twice was necessary to create  a  measure  of  hierarchical  encoding  Hard,  Lozano,  &  Tversky,  in   press; Hard,   Tversky,   &   Lang,   in press; Zacks, Tversky, & Iyer, 2001. For both viewings,  participants  were reminded to describe all action units  they  indicated  in  terms  of  their assigned perspective. Participants in  the aware condition  were  <\connective form=also text=also id=F1209_FUL6_12.txt.raw_381 relation=Expansion\>  told that after segmenting and describing the test video twice, they  would  have to assemble a TV cart themselves. The experimenter was  not  present  during the segmentation task. After performing the segmentation task,  participants  were  presented  with all assembly materials needed to build the TV cart. The  assembly  materials were placed in a central, neutral position on the same  table  used  by  the actor in the test  video.  Participants  were  instructed  that  they  could perform the task <\connective form=however text=however id=F1209_FUL6_12.txt.raw_167 relation=Comparison\> they wanted; their task was simply to assemble  the TV cart as quickly and as accurately as possible. Participants  received  no further instructions, and any suggestion of which perspective to use  during assembly was explicitly avoided. Their performance was videotaped  from  the same visual angle as the test video, and the experimenter  was  not  present during assembly. 




For all results in the present and subsequent  studies,  dependent  measures were submitted to  a  factorial  analysis  of  variance  ANOVA,  with  all independent variables eg, assigned perspective, awareness  of  the  later assembly task, segmentation order as factors, unless  otherwise  indicated. For all analyzes, an alpha level of less than .05 was used as the  criterion for significance. Nonsignificant effects are noted with a marking of ns.  As estimates of effect size, a partial eta squared  value  η p2  is  reported for  significant  ANOVA   effects,   and   a   Cohen's d is   reported   for significant t test effects. 

Hierarchical  encoding  was  evaluated  in  two  ways.  The  first  measure, enclosure,  assessed  the   hierarchical   organization   of   participants' segmentation pattern, using  a  technique  developed  by Hard,  Lozano,  and Tversky  in  press. Enclosure is  defined  as  the  proportion  of  coarse breakpoints that fall after their closest  fine  breakpoint  in  time.  <\connective form=when text=When id=F1209_FUL6_12.txt.raw_157 relation=Temporal\> this proportion is high, <\connective form=then text=then id=F1209_FUL6_12.txt.raw_92 relation=Temporal\> most of the coarse  breakpoints  take  account of or enclose all of  the  relevant  fine  units.  <\connective form=if text=If id=F1209_FUL6_12.txt.raw_306 relation=Contingency\>  a  coarse  breakpoint precedes the breakpoint of  the  final  fine  segment,  it  violates  strict hierarchical encoding. In the present study, most but not all of the  coarse breakpoints  in  fact  fell  after  the  closest   fine   breakpoint    M = 5.33, SEM =  0.97,  instead  of  <\connective form=before text=before id=F1209_FUL6_12.txt.raw_101 relation=Temporal\>   it    M =   3.07, SEM =   0.76, paired t39  =  4.07, d =  0.66,  replicating  previous  findings  by Hard, Lozano, and Tversky in press. Further rationale  behind  enclosure  scores is provided in Appendix C along with a  more  detailed  explanation  of  how they are calculated. The  second  measure  of  hierarchical   encoding   assessed   participants' descriptions for hierarchical structure.  This  second  measure  provided  a more transparent assessment of hierarchical encoding, <\connective form=and text=and id=F1209_FUL6_12.txt.raw_236 relation=Expansion\> it was  <\connective form=also text=also id=F1209_FUL6_12.txt.raw_382 relation=Expansion\>  used to validate  the  enclosure  measure.  During  fine  segmentation,  <\connective form=although text=although id=F1209_FUL6_12.txt.raw_46 relation=Comparison\> observers were instructed to  identify  fine-level  actions,  some  of  them offered summaries that grouped  the  preceding  set  of  fine-level  actions eg, “She inserted the first screw,”  “She  inserted  the  second  screw,” etc. into a coarse-level action eg, “She attached the top  shelf”.  The number of verbal summaries each participant gave  during  fine  segmentation was used as a verbal measure of hierarchical encoding. Replicating  findings of Hard, Lozano, and Tversky in press,  the  number  of  verbal  summaries correlated  positively  with  enclosure  scores, r38  =  .41,   validating enclosure scores as a measure of hierarchical encoding. By  both  measures  of  hierarchical  encoding,  describing  from  an  actor perspective was superior to describing from a self perspective. As  the  top of Figure 2 shows, participants who described from an actor perspective  had higher enclosure  scores  than  self  perspective  participants,F1,  32  = 11.53, MSE = 0.28, η p2 = .40, <\connective form=and text=and id=F1209_FUL6_12.txt.raw_238 relation=Expansion\> they used more verbal  summaries   Ms  = 2.45–1.00, SEMs = 0.38–0.31, F1, 32 = 10.92, MSE = 0.28, η p2 = .33.  Awareness of the later assembly task had no effect on hierarchical  encoding and no interactions with other  variables.  Segmentation  order  did  affect hierarchical encoding, <\connective form=however text=however id=F1209_FUL6_12.txt.raw_168 relation=Comparison\>. Replicating findings from Hard, Lozano,  and Tversky in press, participants who  segmented  in  coarse–fine  order  had higher enclosure scores  M = 0.71, SEM = 0.05 than  did  participants  who segmented  in  fine–coarse  order   M =  0.59, SEM =  0.03, F1,   32   = 4.77, MSE = 0.28, η p2 = .15. The influence of segmentation order on  verbal summaries was less  clear.  There  was  a  significant  interaction  between segmentation order and perspective instructions, F1, 32  =  10.92,  η p2 = .25. Participants using an actor perspective summarized more often  <\connective form=if text=if id=F1209_FUL6_12.txt.raw_307 relation=Contingency\>  they segmented in coarse–fine order  M = 3.30, SEM = 0.30 than  in  fine–coarse order  M = 1.60, SEM = 0.31, <\connective form=but text=but id=F1209_FUL6_12.txt.raw_132 relation=Comparison\> participants  using  a  self  perspective summarized  more  often  <\connective form=if text=if id=F1209_FUL6_12.txt.raw_308 relation=Contingency\>  they  segmented  in  fine–coarse   order   M = 1.60, SEM = 0.20 rather than in coarse–fine order  M = 0.40, SEM = 0.10. 

Videotapes of assembly performance were coded for errors and assembly  time. Errors were counted even <\connective form=if then text=if id=F1209_FUL6_12.txt.raw_397 relation=Expansion\> the participant  later  corrected  them.  Errors could take three forms: attaching pieces in the wrong order eg,  building the entire TV cart <\connective form=before text=before id=F1209_FUL6_12.txt.raw_102 relation=Temporal\>  trying  to  insert  the  middle  support  board, attaching  pieces  that  should  not  be  connected  to  each  other  eg, attaching wheels to the top shelf,  or  attaching  a  piece  in  the  wrong orientation eg,  attaching  the  top  shelf  upside  down.  On  average, participants made 2.20 errors   SEM =  0.22  and  completed  the  TV  cart assembly in 10 min  SEM = 35.33 s. Assembly errors  positively  correlated with assembly time, r38  =  .58,  suggesting  that  participants  did  not sacrifice accuracy for speed. <\connective form=if then text=If id=F1209_FUL6_12.txt.raw_398 relation=Expansion\>  hierarchical   encoding   facilitates   learning,   <\connective forme=if then text=then id=F1209_FUL6_12.txt.raw_398 relation=Expansion\>   measures   of hierarchical  encoding  enclosure  scores  and  verbal  summaries   should predict learning. Confirming this prediction, enclosure  scores  and  verbal summaries  predicted  fewer  assembly  errors, rs38  =  –.50   and   –.72, respectively. <\connective form=if then text=If id=F1209_FUL6_12.txt.raw_399 relation=Expansion\> hierarchical encoding facilitates  learning,  <\connective forme=if then text=then id=F1209_FUL6_12.txt.raw_399 relation=Expansion\>  factors that improve hierarchical encoding should <\connective form=also text=also id=F1209_FUL6_12.txt.raw_383 relation=Expansion\> improve learning.  Confirming this prediction, participants who  described  the  assembly  video  from  an actor perspective not only had better hierarchical encoding  but  <\connective form=also text=also id=F1209_FUL6_12.txt.raw_384 relation=Expansion\>  made half as many assembly errors, as the bottom of Figure  2 shows, F1,  32  = 16.65, MSE = 0.34, η p2 = .43. Similarly, segmenting in coarse–fine order  M = 1.95, SEM = 0.38  improved hierarchical encoding and led to fewer assembly errors  than  segmenting  in fine–coarse order  M = 2.50, SEM =  0.38, F1,  32  =  4.00, MSE =  0.34, η p2 = .19. <\connective form=however text=However id=F1209_FUL6_12.txt.raw_169 relation=Comparison\>, segmentation order  interacted  with  perspective, F1, 32 = 7.15,  η p2 =  .22.  <\connective form=when text=When id=F1209_FUL6_12.txt.raw_158 relation=Temporal\>  participants  used  an  actor  perspective, assembly performance did  not  depend  on  segmentation  order,  coarse–fine  M =  1.70, SEM =  0.30  or  fine–coarse   M =  1.30, SEM =  0.21.  When participants used a self perspective, assembly performance  was  better  for those who segmented in  coarse–fine   M =  2.20, SEM =  0.35  rather  than fine–coarse  M = 3.70, SEM = 0.44 order. 

Assigned perspective affected measures of  hierarchical  encoding  and  <\connective form=also text=also id=F1209_FUL6_12.txt.raw_385 relation=Expansion\> later assembly performance.  Did  perspective  affect  these  two  variables independently  or  did  hierarchical  encoding   mediate   the   effect   of perspective on learning? To address this question, we performed a  mediation analysis using the mediation techniques of Baron  and  Kenny  1986,  shown in Figure 3.  According to Baron and Kenny 1986 and Kenny and Judd 1986, several preconditions must be met to establish mediation. First, the initial variable assigned perspective must predict both the potential mediator hierarchical encoding, as measured by enclosure scores and the outcome variable assembly errors. As described in the top of Figure 4, a linear regression analysis confirmed that assigned perspective 4 predicted hierarchical encoding, t1 = 15.17, and assembly errors, t1 = –5.39. Second, the potential mediator enclosure must predict the outcome variable assembly errors, even <\connective form=when text=when id=F1209_FUL6_12.txt.raw_160 relation=Temporal\> controlling for the initial variable assigned perspective. Indeed, hierarchical encoding predicted assembly errors when controlling for perspective, t1 = –2.52. On the basis of these correlations, a Sobel test  Sobel, 1982 showed that mediation was significant  z = –2.48. Finally, to determine whether hierarchical encoding completely mediated the effect of perspective on assembly errors, we must show that the initial variable assigned perspective no longer predicted the outcome variable assembly errors when controlling for the mediator enclosure. <\connective form=when text=When id=F1209_FUL6_12.txt.raw_163 relation=Temporal\> we controlled for hierarchical encoding, the effect of assigned perspective on assembly errors was no longer significant, t1 = –0.24, ns. <\connective form=thus text=Thus id=F1209_FUL6_12.txt.raw_318 relation=Contingency\>, hierarchical encoding fully mediated the effects of assigned perspective on assembly errors.  

All participants performed the assembly task in the same  room  and  at  the same table  where  the  actor  was  filmed.  <\connective form=thus text=Thus id=F1209_FUL6_12.txt.raw_319 relation=Contingency\>,  videotapes  of  assembly performances  could  be  coded  for  the  spatial  perspective  participants adopted during assembly see Figure 5 for  an  example.  Most  participants adopted the same perspective during assembly that they had described  during segmentation:  95  of  participants  who  had  described  from   an   actor perspective assembled  the  TV  cart  by  taking  the  actor's  perspective, meaning that they built the TV cart in the same  orientation  and  stood  on the same side of the table  as  the  actor.  Of  the  participants  who  had described the video from a self perspective, 75 assembled the TV cart  from a self perspective, meaning that they oriented the TV  cart  pieces  in  the opposite direction as the actor and stood on the  opposite  observer  side of the table, χ 21, N = 20 = 23.41. This result confirms  a  link  between assembly perspective and the way that  participants  perceived  and  encoded observed actions. Neither segmentation order  nor  awareness  of  the  later assembly  task  had  reliable  effects  on  participants'   later   assembly perspective.  A fourth of self perspective participants performed the assembly  task  from an actor perspective. This raises  the  possibility  that  self  perspective participants performed the assembly  performance  poorly  not  <\connective form=because text=because id=F1209_FUL6_12.txt.raw_301 relation=Contingency\>  they encoded a self perspective per se  but  <\connective form=because text=because id=F1209_FUL6_12.txt.raw_302 relation=Contingency\>  some  of  them  lacked  the insight to  perform  the  assembly  task  from  the  same  perspective  they encoded. As a  first  way  of  addressing  this  concern,  we  compared  the assembly  performances  of  self  perspective  participants  who  chose   to assemble from an actor perspective with those who chose to assemble  from  a self perspective. <\connective form=if then text=If id=F1209_FUL6_12.txt.raw_400 relation=Expansion\>  incompatibility  between  action  encoding  and  later action execution accounted for the poor assembly  performance  in  the  self perspective  condition,  <\connective forme=if then text=then id=F1209_FUL6_12.txt.raw_400 relation=Expansion\>  those  who  assembled  from  an  incompatible perspective  should  have   made   more   assembly   errors.   Surprisingly, participants who described from a self perspective  but  performed  assembly from an actor perspective  M = 1.67, SEM =  1.20  outperformed  those  who maintained a self perspective  M = 2.95, SEM = 0.33, making  slightly  but not reliably fewer assembly errors, t19 = 1.60, ns. As a second way of addressing  this  concern,  we  reanalyzed  the  assembly error data and excluded participants in the self perspective  condition  who chose an actor perspective for assembly as well as the 1  actor  perspective participant who performed assembly from a self perspective. Even with  these participants excluded, participants who described from an actor  perspective made fewer assembly errors  M= 1.44, SEM = 0.20 than those  who  described from a self perspective  M = 3.33, SEM =  0.46, F1,  25  =  24.50, MSE = 27.52, η p2= .50. Combined, these  analyzes  indicate  that  differences  in assembly performance were not due to participants in  the  self  perspective condition choosing an incompatible perspective at assembly. 

The  above  analyzes  show  that  describing  actions   from   the   actor's perspective  instead  of  one's  own  improves  hierarchical  encoding   and imitative learning. How might encoding actions from the actor's  perspective serve action  understanding?  Are  there  other  differences  between  actor perspective <\connective form=and text=and id=F1209_FUL6_12.txt.raw_263 relation=Expansion\> self perspective describers  that  provide  clues?  In  this section, we explore some possibilities. 

Perhaps adopting the actor's perspective facilitates  hierarchical  encoding and learning <\connective form=because text=because id=F1209_FUL6_12.txt.raw_303 relation=Contingency\> it simply focuses attention on action  more  generally. To address this  possibility,  we  compared  verbal  descriptions  of  actor perspective <\connective form=and text=and id=F1209_FUL6_12.txt.raw_265 relation=Expansion\> self perspective describers for differences in  the  overall type of information encoded. This analysis showed that descriptions  in  the two conditions were remarkably similar. Each participant's descriptions were broken down into separate clauses,  and each clause was classified into three mutually exclusive categories:  action statements, depiction statements, or comments. Action  statements  contained action verbs and described movements of the actor  or  objects  eg,  “She moved to the  left  side  of  the  table”  or  “She  inserted  the  screw”. Depiction statements contained verbs of possession or  state-of-being  verbs and conveyed physical or structural characteristics of objects  eg,  “The cart has four wheels”  or  “The  screws  are  silver”.  Comments  were  any statements that were unrelated to the video itself eg,  “Oops,  I  forgot to  hit  the  spacebar  for  that  last  action  I  described”.  For   each participant, the percentage of statements of each type was  calculated,  and participants in the two perspective conditions were  compared.  On  average, 84 of participants' descriptions were action statements, 9 were  depiction statements, and 7 were comments. Actor  perspective  <\connective form=and text=and id=F1209_FUL6_12.txt.raw_271 relation=Expansion\>  self  perspective participants did not differ in the mean percentages  of  action,  depiction, or  comment  statements  that  they  made  from   all   three   categories, highest t38 = 1.10, ns. <\connective form=thus text=Thus id=F1209_FUL6_12.txt.raw_320 relation=Contingency\>, the content of descriptions did not  differ as a function of perspective. 

To determine whether perspective instructions  influenced  how  coarsely  or finely participants segmented the action sequence, we examined  the  numbers of  fine  and  coarse  units  that  they  identified.  During  segmentation, participants identified approximately three times as many fine  units   M = 29.90, SEM = 2.84 as coarse units  M = 8.90, SEM = 1.88,  paired t39  = 10.54, d = 1.76. This ratio of coarse  to  fine  units  is  consistent  with previous findings using everyday activities  Zacks, Tversky, & Iyer,  2001 as well as abstract action sequences Hard, Tversky, & Lang, in press. Perspective did not affect how many coarse  units  participants  identified, <\connective form=but text=but id=F1209_FUL6_12.txt.raw_137 relation=Comparison\> it did influence the number of fine units.  Participants  who  described from an actor perspective identified  more  fine  units   M =  35.10, SEM = 2.67  than  participants  who  described  from  a  self  perspective   M = 24.70, SEM = 2.67, F1, 32 = 4.30, MSE = 0.17,  η p2 =  .12.  Participants who  segmented  in  fine–coarse  order  identified  more  fine  units   M = 36.30, SEM = 3.55 than participants  who  segmented  in  coarse–fine  order  M = 23.50, SEM = 3.55, F1, 32 = 6.52, η p2 = .17. No other  effects  or interactions on the number of action units segmented were significant. Can these  differences  in  number  of  segmented  fine  units  explain  why describing from an actor perspective led  to  better  hierarchical  encoding and learning? Perhaps  describing  from  an  actor  perspective  is  a  more stimulating task than describing from a self perspective,  leading  to  more attention and <\connective form=thus text=thus id=F1209_FUL6_12.txt.raw_321 relation=Contingency\> to encoding a finer level of detail? The results  do  not support this hypothesis, <\connective form=because text=because id=F1209_FUL6_12.txt.raw_304 relation=Contingency\> numbers of segmented  fine  units  did  not predict enclosure scores or assembly errors.  Numbers  of  segmented  coarse units and the ratio of coarse to fine units were equally nonpredictive. 

Did  perspective  instructions  affect  how  often  participants   described spatial information or the kind of spatial relations they  attended  to?  To answer  this  question,  we  broke  down  participants'  descriptions   into separate clauses. Each clause was  categorized  as  containing  perspective- relevant information from one of  four  mutually  exclusive  categories:  no perspective eg, “She inserted the  screw”,  neutral  perspective  eg, “She inserted the screw from  the  side”,  actor  perspective  eg,  “She inserted the screw on her left”, or self perspective eg,  “She  inserted the screw on my right”. The total number of descriptions in  each  category was determined for each participant. 5These  analyzes  yielded  several  key insights. First, participants followed  instructions:  Self  perspective  descriptions were  more  common  in   the   self   perspective   condition    M =   9.85 descriptions, SEM = 1.35 than in  the  actor  perspective  condition   M = 0.20, SEM = 0.20, t38 = 7.07, d = 2.26. In  contrast,  actor  perspective descriptions were more common  in  the  actor  perspective  condition   M = 14.45, SEM = 1.82 than in the self perspective condition  M =  1.70, SEM = 0.45, t38  =  6.79, d =  2.15.  The  top  of Figure  6 illustrates  these differences in  proportions  of  descriptions.  Second,  regardless  of  the perspective participants  were  assigned  to  describe,  they  were  equally likely to describe spatial information. This  was  determined  by  comparing the two groups on the mean  number  of  statements  describing  any  spatial perspective,  be  it  neutral,  actor,  or  self   for   self   perspective describers, M = 17.65, SEM = 1.94;  for  actor  perspective  describers, M = 23.00, SEM =  2.86, t38  =  –1.55,ns.  This  result  suggests  that   any differences in the two groups were due  to  the  specific  perspective  that participants encoded, not to how much attention participants were paying  to spatial information in general  Third, as Figure 6 shows, participants in  the  self  perspective  condition were more likely to describe from the wrong ie,  unassigned  perspective than participants in  the  actor  perspective  condition.  <\connective form=although text=Although id=F1209_FUL6_12.txt.raw_47 relation=Comparison\>  it  was common for self perspective participants  to  incorrectly  use  the  actor's perspective  at  least  once   M =  1.44, SEM =  0.41,  actor  perspective participants  almost  never  used  a  self  perspective   M =   0.20, SEM = 0.13, t38 = 2.26, d = 3.67. Self perspective describers  were  <\connective form=also text=also id=F1209_FUL6_12.txt.raw_386 relation=Expansion\>  more likely to qualify  their  perspective   M =  2.11, SEM=  0.72  than  actor perspective describers  M =  0.10, SEM =  0.10, t38  =  2.89, d =  5.00. That is, they were more likely to state  the  perspective  they  were  using eg, “She inserted the screw on the right, but  that's  only  <\connective form=if text=if id=F1209_FUL6_12.txt.raw_313 relation=Contingency\>  it's  my right that we're talking  about”.  Combined,  these  results  suggest  that describing action from a self perspective might actually be  more  difficult than describing action from the actor's perspective. Could the difficulty of describing action from a  self  perspective  explain why self perspective describers had difficulty hierarchically  encoding  and learning actions? Perhaps describing from a  self  perspective  was  such  a demanding task that it  interfered  with  action  processing?  Additionally, self perspective describers gave less  consistent  descriptions  from  their assigned perspective. Perhaps this led to “mixed-up” representation  of  the spatial relations in the task.  The  data  suggest  against  both  of  these possibilities. Mistakes in description perspective  were  uncorrelated  with hierarchical encoding and with later assembly performance,  highest r38  = .10, ns. Self perspective and actor perspective participants  <\connective form=also text=also id=F1209_FUL6_12.txt.raw_387 relation=Expansion\>  differed  in  the kind of spatial information they were likely to describe. Participants  were far more likely to describe which of the actor's hands, left or  right,  was used  to  perform  a  given  action  <\connective form=if text=if id=F1209_FUL6_12.txt.raw_314 relation=Contingency\>  they  described  from  the  actor's perspective  M = 1.35, SEM = 0.21 instead of their own   M =  0.25, SEM = 0.20, t38 = –3.77, d = 1.21. Actor perspective  M =  13.30, SEM =  1.92 <\connective form=and text=and id=F1209_FUL6_12.txt.raw_279 relation=Expansion\> self perspective  M = 11.30, SEM = 1.54 describers did not  differ  in their likelihood of describing locations in  space,  as  in  left  or  right sides of the table, t38 = –0.81, ns. It is important to note that the number of descriptions concerning which  of the  actor's  hands  performed  an  action  predicted  better   hierarchical encoding,  as  measured  by  enclosure, r38   =   .35,   and   by   verbal summaries, r38 = .42. References  to  the  actor's  hands  <\connective form=also text=also id=F1209_FUL6_12.txt.raw_388 relation=Expansion\>  predicted fewer later assembly  errors, r38  =  –.47.  The  number  of  descriptions concerning locations on the table predicted neither measure of  hierarchical encoding, for enclosure, r38 = .01, ns, and for verbal summaries, r38  = –.02, ns,  <\connective form=nor text=nor id=F1209_FUL6_12.txt.raw_87 relation=Expansion\>  assembly  errors, r38  =  –.15, ns.   Given   that   actor perspective and self perspective describers differed both in their  tendency to describe hands and in hierarchical  encoding  <\connective form=and text=and id=F1209_FUL6_12.txt.raw_284 relation=Expansion\>  that  descriptions  of hands  correlated  with  hierarchical  encoding,  did  differences  in   the tendency to describe hands mediate effects of  perspective  on  hierarchical encoding?  In  fact,  references  to  hands  fully   mediated   effects   of perspective on enclosure scores see the top ofFigure 7.  First,  a  linear regression analysis  confirmed  that  assigned  perspective  predicted  both enclosure scores, t1 = 4.64, and hand  references, t1  =  3.77.  Second, hand  references  predicted  hierarchical  encoding  when  controlling   for assigned perspective, t1 = 5.51. According to a Sobel test, mediation  was significant  z = 3.12.  Finally,  controlling  for  hand  references,  the effect of assigned  perspective  on  hierarchical  encoding  was  no  longer significant, t1 = 0.81, ns.  In sum, these results indicate two potentially revealing differences between actor perspective <\connective form=and text=and id=F1209_FUL6_12.txt.raw_286 relation=Expansion\> self perspective describers. First, describing actions from an actor perspective appears to be easier than describing actions from a self perspective. Second, describing from an actor perspective focuses observers' attention on the actor's body. This increased attention on the actor's body appears to be beneficial, as it accounts for the fact that actor perspective describers had higher hierarchical encoding than self perspective describers. 



The results from the present study support the hypothesis that adopting  the actor's  perspective  facilitates  both  action  understanding  and   action learning. In the present study, participants who described actions from  the actor's perspective, rather than from their  own  perspective,  encoded  the action sequence more hierarchically and <\connective form=later text=later id=F1209_FUL6_12.txt.raw_124 relation=Temporal\> performed the action  sequence faster and with fewer errors. This effect  held  whether  participants  were learning the actions intentionally or  incidentally.  Furthermore,  adopting the actor's perspective was beneficial to action learning precisely  <\connective form=because text=because id=F1209_FUL6_12.txt.raw_305 relation=Contingency\> it encouraged  observers  to  encode  actions  hierarchically:  Hierarchical encoding mediated effects of description perspective on action learning. Notably,  describing  from  the  actor's   perspective   elicited   detailed descriptions of the actor's body, and, in  particular,  of  which  hand  the actor was using to perform the actions. The number of  descriptions  of  the actor's hands predicted hierarchical encoding and, according to a  mediation analysis,  accounted  for  why  actor  perspective  <\connective form=and text=and id=F1209_FUL6_12.txt.raw_292 relation=Expansion\>   self   perspective describers differed in hierarchical encoding.  This  finding  suggests  that focusing on the hands that accomplish the task  is  associated  with  better encoding of the task's goal–subgoal structure. In sum,  actively  describing action from the actor's perspective provides an effective link  from  action perception to action execution, far  more  effective  than  describing  from one's own perspective. Remarkably, adopting  the  actor's  perspective  appeared  to  be  the  more natural way to  describe  action.  Self  perspective  describers  were  more likely than actor perspective describers to describe the  wrong  perspective by mistake and to qualify the perspective  they  were  describing.  <\connective form=although text=Although id=F1209_FUL6_12.txt.raw_48 relation=Comparison\> these  description  mistakes  and  qualifications  were  uncorrelated   with hierarchical  encoding  and  action  learning,  it  remains  possible   that describing from a self perspective is  unnatural  and  therefore  interferes with  action  understanding.  Alternatively,  describing   from   an   actor perspective  might  enhance  it.  These  possibilities  are   not   mutually exclusive—both might be true. Study  1B  addressed  these  possibilities  by comparing participants in the present study with participants who  were  not instructed to adopt a perspective. <\connective form=if then text=If id=F1209_FUL6_12.txt.raw_403 relation=Temporal\> describing  from  a  self  perspective interferes with action understanding,  <\connective forme=if then text=then id=F1209_FUL6_12.txt.raw_403 relation=Temporal\>  explicitly  describing  from  a self perspective should lead to worse  hierarchical  encoding  and  learning than describing freely. <\connective form=if then text=If id=F1209_FUL6_12.txt.raw_404 relation=Temporal\> describing from  an  actor  perspective  enhances action understanding, <\connective forme=if then text=then id=F1209_FUL6_12.txt.raw_404 relation=Temporal\> describing from an actor perspective should  lead to better hierarchical encoding and learning than describing freely.