The earliest demonstrations of tolerance induction in neonatal 1 and adult 2 mouse transplant models ignited hope for application in human organ transplantation. Decades later, as mechanisms of immunoregulation are better understood, the prospect for human transplant tolerance induction is gaining momentum. The transition from experimental to clinical application of tolerance induction requires preclinical demonstration of high efficacy and functional stability in the nonhuman primate model, preferably to enable broad application with strategies that are applicable to cadaveric donor transplants. To achieve this goal, a clearer understanding is needed about the immunoregulatory mechanisms that govern efficiency and stability of tolerance in nonhuman primates. 


Functional allograft tolerance without maintenance immunosuppressive drug therapy has been achieved in outbred nonhuman primate species. Initially, primate tolerance was demonstrated after a 2- to 3-week pretransplant treatment course of fractionated total lymphoid irradiation TLI * in baboons 3. Introduction of peritransplant induction of tolerance with antithymocyte globulin ATG and subsequent infusion of donor bone marrow DBM obviated the logistical constraints of pretransplant TLI conditioning 4 <\connective form=but text=but id=F1259_FUL6_12.txt.raw_207 relation=Comparison\> many long survivors >1 year developed chronic rejection 5. Combination strategies to establish mixed chimerism with DBM, ATG, or monoclonal antibodies, and irradiation, either total body irradiation 6 or posttransplant TLI 7 have led to more durable tolerance. Other agents capable of blocking costimulation, such as CTLA4-Ig and anti-CD40 ligand, have shown potential for tolerance induction to kidneys without T cell depletion, preconditioning, or irradiation 8. <\connective form=however text=However id=F1259_FUL6_12.txt.raw_255 relation=Comparison\>, definitive long-term follow-up of these animals has not been reported. Thus far, reports documenting multiple examples of long-term, stable >1 year tolerance of rhesus MHC class II and I mismatched kidney allografts without any pretransplant conditioning or maintenance immunosuppression have emerged only <\connective form=after text=after id=F1259_FUL6_12.txt.raw_216 relation=Temporal\> induction with ATG and BM or with anti-CD3 immunotoxin IT 9. In the IT studies, this drug was initiated either 1 week before transplantation 10 or alternatively initiated on day 0 and combined with donor BM infusion 11 or with a short course of 15-deoxyspergualin DSG 12. The preliminary results with peritransplant IT plus methylprednisolone MP and DSG treatment were promising for tolerance induction in the cadaveric model. <\connective form=thus text=Thus id=F1259_FUL6_12.txt.raw_489 relation=Contingency\>, we extended studies in this model to confirm the original findings and to examine the associated immunological mechanisms. 


<\connective form=although text=Although id=F1259_FUL6_12.txt.raw_65 relation=Comparison\> IT begun on day 0 consistently depleted both blood and lymphoid T cells by >98 11, IT alone yielded only modest graft prolongation and no evidence for tolerance. These results contrasted with the experience obtained <\connective form=when text=when id=F1259_FUL6_12.txt.raw_243 relation=Temporal\> IT was initiated one week before transplantation and suggested that effects of IT related to T cell activation and apoptosis 13 might exacerbate natural proinflammatory responses to the graft. Further analysis revealed that the peritransplant IT induced extensive proinflammatory cytokine release of plasma interleukin- IL 12p70, interferon gamma IFN-gamma, tumor necrosis factor alpha TNF-alpha, leading in many cases to vascular leak syndrome 12. Reasoning that an early posttransplant milieu containing systemic proinflammatory cytokines was "immunologically dangerous" 14 and counterproductive to development of tolerance, we administered a short course of the NF-kappaB inhibitor DSG to block proinflammatory cytokine release. The long survival in several recipients prompted us to propose that successful tolerance induction after peritransplant IT induced T cell depletion might be a matter of proinflammatory cytokine control. Our study, <\connective form=however text=however id=F1259_FUL6_12.txt.raw_256 relation=Comparison\>, has revealed additional dimension to the tolerance induction mechanism in IT plus DSG-treated recipients. 


The findings describe previously unreported effects of peritransplant DSG treatment after IT induction, ie, the maturation arrest of dendritic cells DC and polarization toward a Th2-like cytokine profile. Our findings confirm that DSG treatment inhibits nuclear translocation of the NF-kappaB family member, Rel-B, and <\connective form=also text=also id=F1259_FUL6_12.txt.raw_548 relation=Expansion\> reveal a reduced expression of membrane DR, costimulatory molecule CD86, and the mature DC marker CD83 in lymph node LN DC. Coincident with this maturation inhibitory effect on DCs was the production of systemic IL-4 and TGF-beta1. <\connective form=thus text=Thus id=F1259_FUL6_12.txt.raw_490 relation=Contingency\>, newly emerging T cells that repopulate peripheral LNs encounter donor alloantigen in a cytokine milieu that favors development of specific unresponsiveness. As such, the peritransplant IT plus DSG strategy appears to establish in the early transplant period a window of tolerance opportunity that recalls some aspects of the milieu described for neonatal tolerance 15 and yields durable, specific primate kidney allograft acceptance without evidence of chronic rejection. Normal, 3 kg male Rhesus macaques Macacca mulatta were quarantined for 60 days and maintained in a restricted access facility. All were free of known pathogens and were selected to have low titer <1/100 antibodies to diphtheria toxin by ELISA as previously described 16. Surgical procedures were performed in accordance with the NIH Guide for the Care and Use of Primates under supervision of the UAB Institutional Animal Care and Use Committee. For routine handling, animals were tranquilized with 10 mg/kg i.m. ketamine. 


Donors and recipients were screened before transplantation to assure that that recipient-donor pairs were mismatched at two or more alleles at both DRB1 and DRB non-B1 genes. DNA typing for rhesus Mamu MHC class II DR genes was performed by medium-high resolution PCR as published 17. For this we used an expanded panel of Mamu DR sequence specific primers SSP detecting all reported allele clusters. 


Recipient/donor pairs were <\connective form=also text=also id=F1259_FUL6_12.txt.raw_549 relation=Expansion\> evaluated by one-way mixed lymphocyte response typing. Recipients were required to demonstrate a high stimulation index >8 and relative response >0.7 in mixed lymphocyte response as described 5. Limiting dilution analysis of antidonor cytotoxic lymphocyte precursor CTLp frequencies confirmed functional incompatibility with MHC. The overall antidonor CTLp frequency was 1/23,000 with no statistically significant differences among the groups 11. 


Methods for the transplantation of heterotopic kidney allografts and care of the recipients has been previously described 11. Six experimental groups were used in this study. All immunosuppressive therapy was initiated on the day of transplantation, and none received any immunosuppressive therapy after day 14. Unless specified, as in group 5, all groups received a short course of MP Upjohn, Kalamazoo, MI which was given at therapeutic doses of 7 mg/kg on day 0 and 3.5 mg/kg on day +1, and a final taper dose of 0.35 mg/kg on day +2. 


Group 1 received only IT or FAb2IT which was produced as described for FN18-CRM9 16 but with substitution of the pepsin derived fragment for the intact IgG1 antibody. The IT was administered in two doses as an i.v. bolus given 2 hr before transplant at 100 µg/kg and again on day +1 50 µg/kg. Group 3 received the same dosage of IT and MP with the addition of DSG a kind gift from Dr Steve Nadler, Bristol Myers Squibb, Seattle, WA and from Dr Hiroshi Suda, Nippon Kayuka, Japan given i.v. at 2.5 mg/kg daily for 5 consecutive days beginning 4 hr pretransplant. Group 4 received the same immunosuppression as group 3 <\connective form=except text=except id=F1259_FUL6_12.txt.raw_254 relation=Expansion\> that DSG administration was extended for 15 days. We omitted one recipient without rejection from this group as nonevaluable due to an anesthesia-related death at 1 month posttransplant. Group 2 received the same dose of intact IT and MP with the addition of high dose CsA for 4 days and a single 20 mg/kg dose of Simulect humanized anti-IL2 receptor mAb, a gift from Novartis, Basel, Switzerland. Group 2 received i.v. CsA 4 hr pretransplant at 20 mg/kg and Neoral at 125 mg/kg/day on days +1 to +4. Group 5 received FAb2 IT at 100 µg/kg on day 0 and +1. Group 5 was the only group given no MP to assess whether mAb Fc-mediated cross-linking of CD3 was the source of signaling the generation of inflammatory cytokines that we reported early after IT treatment in monkeys 12 and <\connective form=as text=as id=F1259_FUL6_12.txt.raw_514 relation=Temporal\> others have reported after OKT3 treatment in humans OKT3. Group 6 received the same dose and schedule of FAb2 IT as in group 5, but <\connective form=additionally text=additionally id=F1259_FUL6_12.txt.raw_179 relation=Expansion\> received daily DSG at 2.5 mg/kg for 15 days and the 3-day tapering treatment with MP. None of the animals in this study underwent splenectomy <\connective form=and text=and id=F1259_FUL6_12.txt.raw_308 relation=Expansion\> they did not receive any irradiation or maintenance immunosuppressive therapy. 


Flow cytometric analyzes were performed on a Coulter Epics Flow Cytometer Beckman Coulter Corporation, Miami, FL. Antibodies used in this study were anti-human DR Becton Dickinson, Bedford, MA, anti-human CD86 Pharmingen, San Diego, CA anti-human CD83 Beckman Coulter Immunotech, and anti-rhesus CD3 Biosource International, Camarillo, CA. 


DC were isolated from normal rhesus heparinized blood according to a procedure based on that of O'Doherty et al 18 with minor modifications. After isolation of the mononuclear cell fraction on Ficollpaque 1.077 s.g., Pharmacia, Piscataway, NJ, we depleted the T, and NK cells using a mixture of anti-CD2 Becton Dickinson and goat antimouse IgG magnetic beads Dynal The resulting suspension, enriched for DC precursors and monocytes was incubated in Costar plates for 7 days in RPMI containing 1 autologous heparinized plasma, 50 µM 2-mercaptoethanol, 10 mM HEPES, penicillin 100 IU/µl, and streptomycin 100 µg/ml, granulocyte-monocyte colony-stimulating factor GM-CSF, GIBCO; 1000 U/ml, and IL-4 GIBCO; 1000 U/ml. After feeding the cultures every other day with fresh medium and cytokines, on day 7 the cultures were supplemented with 100 U/ml TNF-alpha GIBCO and 50 v/v of rhesus monocyte conditioned medium prepared as described 18. DSG was diluted in RPMI and added at final concentrations of 0.6, 2.5, or 10 µg/ml. 


Cytokine levels in plasma were assayed at weekly intervals during the first month posttransplant by ELISA, using commercial IFN-gamma and IL-4 ELISA kits kit KPC4022 and KHC0043, Biosource International, Camatillo, CA in accordance with the manufacturer's recommendations. ELISA assays for total TGF-beta1 were performed with TGFbeta 1EMAX immunoassay procedure Promega, Madison, WI using acidified plasma. Plates were read in an ELISA microplate reader Bio Rad Laboratories, Richmond, CA. 


Frozen sections 5 µm thick or cytospin-prepared cultured cells Shandon Instruments, Pittsburgh, PA were fixed with acetone at room temperature for 10 min, stained with antibody and developed with enzyme using DAKO streptavidin-biotin kit Dako Corporation, Carpenteria, CA and were subsequently counterstained with hematoxylin. Antibodies used were RelB Santa Cruz Biotechnology, Santa Cruz, CA, CD83 and HLA DR Beckman Coulter Immunotech and CD86 Pharmingen. For nuclear RelB staining, repeated fixation steps were carried out in 70 and 100 acetone. For each antibody stain, 8 high power fields HPF were examined, and the mean number of DC per HPF was recorded. Three recipients were analyzed per group. 


The Mamu-DR PCR-SSP DNA typing method was adapted to measure microchimerism and modified by slightly lowering the stringency to increase the sensitivity of detecting the donor allele 17. In all combinations, we tested simultaneously for at least two DRB mismatched donor-specific alleles <\connective form=because text=because id=F1259_FUL6_12.txt.raw_471 relation=Contingency\> the sensitivity of detecting individual donor alleles in the recipient's DNA is variable 11. <\connective form=additionally text=Additionally id=F1259_FUL6_12.txt.raw_180 relation=Expansion\>, recipient-specific allele and the gamma globin gene were amplified as positive controls. A semi-quantitative, limiting dilution method was used and exhibited a sensitivity of 0.05 to 0.005 <\connective form=as text=as id=F1259_FUL6_12.txt.raw_518 relation=Temporal\> we have previously described 19. <\connective form=after text=After id=F1259_FUL6_12.txt.raw_224 relation=Temporal\> PCR amplification, the samples were loaded on 3 NuSieve agarose FMC Bio-Products, Rockland, ME gel and stained for 30 min at room temperature with SYBRGreen dye Molecular Probes, Eugene OR. Gels were examined under UV light and scanned for semi-quantitative analysis. Samples for chimerism analysis were from blood, bone marrow, skin and LNs at regular intervals. Deceased recipients underwent expanded analysis for chimerism in most tissues. 

Statistical analysis using Student's t test and Mann-Whitney was facilitated by Statgraphics software. In each of the three groups of recipients given <\connective form=either or text=either id=F1259_FUL6_12.txt.raw_567 relation=Expansion\> IT <\connective forme=either or text=or id=F1259_FUL6_12.txt.raw_567 relation=Expansion\> FAb2IT in combination with peritransplant DSG groups 3, 4, and 6, there was reproducible, stable, rejection-free long survival in the absence of any maintenance immunosuppressive therapy Fig 1. Consistent with previous observations 12, long-term survivors induced with IT plus DSG survived in good health with normal renal function from the shortest >104 days to the longest follow-up >1000 days. In contrast, modest graft prolongation without stable tolerance occurred in all three of the non-DSG-treated groups given <\connective form=either or text=either id=F1259_FUL6_12.txt.raw_568 relation=Expansion\> IT with MP, IT with CsA and MP, <\connective forme=either or text=or id=F1259_FUL6_12.txt.raw_568 relation=Expansion\> FAb2 IT, respectively. We previously reported that DSG without IT was unable to induce tolerance 12. <\connective form=thus text=Thus id=F1259_FUL6_12.txt.raw_491 relation=Contingency\>, it is clear that <\connective form=neither nor text=neither id=F1259_FUL6_12.txt.raw_572 relation=Expansion\> IT alone given on day 0 <\connective form=nor text=nor id=F1259_FUL6_12.txt.raw_170 relation=Expansion\> DSG without IT promotes tolerance. Rigorous MHC mismatching ruled out chance histocompatibility as a factor in the survival of these grafts. <\connective form=therefore text=Therefore id=F1259_FUL6_12.txt.raw_543 relation=Contingency\>, it was the unique combination of IT and DSG, particularly the 15-day course of DSG groups 4 and 6 that exhibited a remarkable synergy for day-of-transplant induction of durable, primate kidney allograft tolerance without maintenance therapy. 

From the perspective of rejection-free graft survival, 50 of grafts in group 3 and 80 of grafts in group 4 remain free of acute or chronic rejection. With FAb2IT plus DSG treatment group 6, 100 3/3; 2 are too early to evaluate are rejection free. <\connective form=although text=Although id=F1259_FUL6_12.txt.raw_66 relation=Comparison\> the mean follow up in group 6 is only 241 days, we have not observed acute or chronic rejection in any DSG-treated animal later than 3 months, and <\connective form=thus text=thus id=F1259_FUL6_12.txt.raw_492 relation=Contingency\> would not expect rejection to occur later in this group. Considered together, groups 4 and 6, which received a 15-day course of DSG, exhibit an 87.5 incidence of rejection-free, stable graft survival In addition to maintaining normal serum creatinine <1.1 mg/dl and blood urea nitrogen <25 mg/dl, the recipients designated rejection-free <\connective form=also text=also id=F1259_FUL6_12.txt.raw_550 relation=Expansion\> exhibited an absence of acute and chronic rejection histologically in biopsy specimens obtained from all long survivors at 1-2 years posttransplant Eckhoff DE, et al, manuscript in preparation. Failures in graft survival that were not associated with rejection were from miscellaneous causes, none of which were related to malignancy, infection, hematological or wasting diseases, or dysfunction. 


The impetus for including the IT plus CsA and two FAb2IT groups in this study was derived from our previous finding in which the synergy of DSG and IT was first observed and attributed to an inhibitory effect on proinflammatory cytokines 12. Those studies showed that despite unusually high systemic levels of IL-12p70, IFN-gamma production was suppressed in IT plus DSG-treated recipients. As originally shown in murine and human models and subsequently confirmed in monkeys 12, IL-12-induced IFN-gamma activation in T cells has been shown to involve in part an NF-kappaB-dependent pathway component. We asked, <\connective form=therefore text=therefore id=F1259_FUL6_12.txt.raw_544 relation=Contingency\>, <\connective form=if text=if id=F1259_FUL6_12.txt.raw_479 relation=Contingency\> peritransplant IT-induced INF-gamma production might <\connective form=also text=also id=F1259_FUL6_12.txt.raw_551 relation=Expansion\> be prevented by high dose of CsA, which can block NF-kappaB activation 20. In addition, we wanted to know if elimination of the Fc fragment of IT to disable cell-cell cross-linking of the CD3small element of receptor/Fc receptor might bypass or attenuate induction of proinflammatory cytokine release in FAb2IT-treated recipients 21. 


The results in Figure 2 show that systemic INF-gamma production was indeed suppressed in both groups 2 and 5. <\connective form=however text=However id=F1259_FUL6_12.txt.raw_257 relation=Comparison\>, the mean levels of systemic INF-gamma per SE during the first month posttransplant had no apparent relationship to rejection-free graft acceptance. Rather, the data indicate an association between a biased plasma ratio of IL-4 to INF-gamma, DSG treatment, and functional graft tolerance. The animals in groups 4 and 6, in which tolerance induction was most consistent, demonstrated a sustained shift in the ratio of IL-4 to IFN-gamma. <\connective form=however text=However id=F1259_FUL6_12.txt.raw_258 relation=Comparison\>, the absolute level of these plasma cytokines per SE was considerably different. <\connective form=thus text=Thus id=F1259_FUL6_12.txt.raw_493 relation=Contingency\>, despite differences in the magnitude of absolute cytokine levels, DSG treatment in IT-and FAb2IT-treated recipients groups 3, 4, and 6 uniquely induced a cytokine polarization favoring IL-4. This IL-4 polarization IL-4/INF-gamma ratio was highly significant chi2=11.09, P=0.009 for the combined DSG groups vs. non-DSG groups over all three time points. 

The ratio of plasma IL-4 to IFN-gamma was sustained in the DSG ×15 treated recipients groups 4 and 6 for <\connective form=as long as text=as long as id=F1259_FUL6_12.txt.raw_187 relation=Contingency\> they were monitored, a period up to 6 months posttransplant. Notably, <\connective form=although text=although id=F1259_FUL6_12.txt.raw_67 relation=Comparison\> the 5-day treatment with DSG group 3 <\connective form=also text=also id=F1259_FUL6_12.txt.raw_552 relation=Expansion\> resulted in a shift toward systemic IL-4 production, a clear bias was no longer evident at 4 weeks, suggesting that the 5-day DSG treatment was suboptimal for sustaining this effect. <\connective form=thus text=Thus id=F1259_FUL6_12.txt.raw_494 relation=Contingency\>, the plasma cytokine profile of the recipients given peritransplant IT plus DSG, particularly with DSG ×15, reflected a prolonged, systemic bias of the immune system toward Th2 type responses. The presence of elevated plasma IL-4 <\connective form=also text=also id=F1259_FUL6_12.txt.raw_553 relation=Expansion\> associated with an increased frequency of IL-4 producing cells in MLR assays Eckhoff DE, et al, manuscript in preparation. 


We <\connective form=also text=also id=F1259_FUL6_12.txt.raw_554 relation=Expansion\> examined recipient plasma for the presence of the immunoregulatory cytokine, TGF-beta1. To normalize individual variability among monkeys, these results are expressed as mean percentage of the pretransplant TGF-beta1 levels in acidified plasma. The pretransplant plasma levels of TGB-beta1 were high but relatively consistent among the groups: mean 1,111.8 pg/ml±485.4 SD The TGB-beta1 levels became significantly elevated above the pretransplant baseline throughout the first month posttransplant in recipients given IT or FAb2IT plus DSG ×15 Fig 3, mean increase P=0.01 versus all other groups throughout the first month posttransplant. In groups 4 and 6, the TGF-beta1 levels were not significantly different from each other and remained elevated during additional follow up over 3-6 months follow up late data not shown. The IT plus DSG ×5 group was not included due to limited plasma samples for analysis. <\connective form=thus text=Thus id=F1259_FUL6_12.txt.raw_495 relation=Contingency\>, the overall cytokine profile in the groups given IT or FAb2IT plus DSG ×15 indicated a sustained systemic production of IL-4 and TGF-beta1 during the first month posttransplant, two potent immunoregulatory cytokines poised to facilitate development of immunological unresponsiveness. 


The studies of Austyn and Larsen 22 showed donor DC migrate from the allograft to lymphoid tissue within days after transplantation. Within the T cell areas of the LN environment, the migratory immature DC are activated, and undergo maturation to upregulate expression of membrane class II and costimulatory molecules, enabling them to act as mature APC and in turn activate naïve T cells and B cells 23. <\connective form=because text=Because id=F1259_FUL6_12.txt.raw_472 relation=Contingency\> maturation of DC has been shown to depend on NF-kappaB expression 24, <\connective form=and text=and id=F1259_FUL6_12.txt.raw_361 relation=Expansion\> <\connective form=because text=because id=F1259_FUL6_12.txt.raw_473 relation=Contingency\> DSG inhibits NF-kappaB translocation 25, 26, we sought to determine if the interstitial DC population in inguinal LNs might exhibit differences in monkey kidney transplant recipients given IT with and without DSG treatment. 


Immunohistochemical methods were used to detect nuclear translocated versus cytoplasmic RelB and membrane expression of DR, the mature DC marker CD83 and costimulatory molecule CD86. The photomicrographs in Figures 4-6 show that DSG treatment resulted in the inhibition of all of these markers in day +4 posttransplant LN biopsies compared to recipients not given DSG treatment. Figure 4 upper left is a low power field and upper right a high power insert showing nuclear translocation of RelB in a representative recipient given IT without DSG. In contrast, typical of the LN of DSG-treated recipients, Figures 4 lower left and right show only cytoplasmic RelB in the interstitial DC. These results are consistent with the postulated action of DSG to block the translocation of NF-kB family members from cytoplasm to the nucleus 25. 


Evidence for arrest of DC maturation in day 4 LN after DSG treatment was observed with three other markers. Expression of CD83, a DC maturation marker in monkeys 18 was inhibited in the day 4 LN of DSG treated recipients Fig 5 lower left and right compared to the non-DSG controls Fig 5 upper left and right. Furthermore, acquisition of mature DC activation maker expression of membrane costimulatory molecule CD86 Fig 6 and DR not shown was <\connective form=also text=also id=F1259_FUL6_12.txt.raw_555 relation=Expansion\> blocked by DSG. In contrast, cytoplasmic DR expression was weakly positive, a characteristic of immature DC 27. The apparent loss of expression of DC maturation markers appeared to be specific in that CD20 expression on B cells appeared to be unperturbed. B cells represented >95 of the lymph node cell population at the T cell nadir day +4. 


A semiquantitative assessment of the LN DC changes after DSG is seen in Figure 7. The mean number of DC in 8 high power fields per LN for each of the four DC markers was examined in biopsies taken at days 4, 15-18, and 30 post-transplant in IT treated allograft recipients given DSG, CsA, or neither drug. At day +4, the decrease in DC was >=1 log-fold after DSG P<0.01 for all markers versus pretreatment. By day 18, CD83+ and CD86+ cells were in partial recovery but still significantly decreased P<0.05, <\connective form=although text=although id=F1259_FUL6_12.txt.raw_68 relation=Comparison\> percentages of DR+ and Rel-B+ levels were fully recovered. No such decreases were seen in the non-DSG-treated recipients or those given CsA. In contrast, the percentages of phenotypically mature DC in these recipients as in the day-30 DSG- treated recipients were significantly elevated over the normal baseline P<0.01. Whether the changes in LN DC represented cells of recipient or donor origin or both has not yet been determined. 


<\connective form=when text=When id=F1259_FUL6_12.txt.raw_244 relation=Temporal\> LN analyzes suggested DSG had inhibited the maturation of DC in IT-treated rhesus transplant recipients, we set up an in vitro assay to examine whether DSG could block maturation of normal monkey DC. To do this we enriched the DC population from peripheral blood CD2-depleted mononuclear cells. After culturing the cells for 7 days in GM-CSF and IL-4, we added TNF-alpha and monocyte conditioned medium for 3 days to force maturation of the DC. DSG was added to the cultures 2 days before addition of the proinflammatory cytokines. Analysis of DSG treated cultures by immunohistochemistry confirmed the suppressive effect on proinflammatory cytokine-induced CD83 expression Fig 8, a-d, consistent with the hypothesis of DC maturation arrest. To quantify this in vitro effect of DSG, we performed flow cytometric analysis on gated DR+ cells that coexpressed CD83. The percentage of DR+ CD83+ cells was reduced from 63 in the no DSG control cultures to 28 and 19 <\connective form=after text=after id=F1259_FUL6_12.txt.raw_230 relation=Temporal\> adding DSG at 2.5 or 10 µg/ml, respectively data not shown. 


To assign a status of tolerance to long-term allograft acceptance without maintenance immunosuppressive therapy, there should be evidence of specificity in the unresponsive state. To test for specificity, we transplanted 1-year survivors with full thickness skin grafts from the living kidney graft donor and from an unrelated third party. As indicated in Figure 9, skin grafts from third party donors were briskly rejected at mean 9.8±3.1 days <\connective form=while text=while id=F1259_FUL6_12.txt.raw_470 relation=Temporal\> skin grafts from the kidney graft donor were specifically prolonged for more than a month <P<0.01, <\connective form=although text=although id=F1259_FUL6_12.txt.raw_69 relation=Comparison\> never permanently accepted. <\connective form=nevertheless text=Nevertheless id=F1259_FUL6_12.txt.raw_242 relation=Comparison\>, there was clear evidence of specific hyporesponsiveness. Notably, the delayed rejection of challenge donor skin grafts did not affect function of the tolerant kidney. This suggested that the slow rejection of donor skin might reflect a response to undefined minor skin specific alloantigens. Alternatively, there might be immunological ignorance to the primary kidney graft, <\connective form=if text=if id=F1259_FUL6_12.txt.raw_482 relation=Contingency\> it was indeed depleted of professional donor APC as others have described 28. In the former scenario, we hypothesized that a second kidney graft that contains functional donor APC should be accepted, whereas in the latter, it should be rejected. To address this issue, we transplanted two of the long survivors with normal graft function at 2 years posttransplant and shortly after the rejection of donor skin. In both cases, the second kidney was accepted <\connective form=although text=although id=F1259_FUL6_12.txt.raw_70 relation=Comparison\> the first kidney retained normal function. The function of the second kidney was assessed by serial nuclear scans and by biopsy data not shown. These findings indicate that the tolerance was specific, durable, and not disrupted by exposure to fresh donor antigen presenting cells in challenge skin or kidney grafts. 


Donor cells are often detectable in the BM, blood, and lymphoid tissues of tolerant recipients 29. Chimerism has been associated with tolerance in rodents and <\connective form=also text=also id=F1259_FUL6_12.txt.raw_556 relation=Expansion\> in nonhuman primates 30-32 and humans 33, 34. <\connective form=however text=However id=F1259_FUL6_12.txt.raw_259 relation=Comparison\>, there is controversy as to whether chimerism has a cause-effect relationship with tolerance induction or maintenance or may be a consequence of tolerance 35, 36. <\connective form=because text=Because id=F1259_FUL6_12.txt.raw_474 relation=Contingency\> we had reported microchimerism in monkeys given IT with and without DBM 11, we questioned whether the tolerant recipients given IT plus DSG might <\connective form=also text=also id=F1259_FUL6_12.txt.raw_557 relation=Expansion\> be chimeric. 


A PCR-SSP assay system, which <\connective form=previously text=previously id=F1259_FUL6_12.txt.raw_461 relation=Temporal\> was successful in detecting microchimerism, was used to detect at least two mismatched DRB donor alleles in sequential samples of blood, BM, and skin. In every microchimerism assay, a recipient-specific DRB1 allele was <\connective form=also text=also id=F1259_FUL6_12.txt.raw_558 relation=Expansion\> amplified as positive control in the pretransplant DNA sample. In addition, pure donor DNA was used to validate the donor allele specific primers used to examine microchimerism We could find no evidence for chimerism in 6/6 recipients tested in >85 test samples taken between 1 week to 1 year posttransplant. 


The typical and reproducibly negative pattern of chimerism over 9 months is reflected in Figure 10. In this assay, the sensitivity of the PCR-SSP detection of both donor DRB1 mismatched alleles DRB1*0303 and DRB1*1005/7 was 0.05. Figure 10, B and C show the sensitivity for detection of the donor specific DRB1*0303 allele when diluted into recipient DNA. In Figure 10A, lane 3 of the upper gel and lane 2 of the lower gel show a positive band for the recipient specific alleles, DRB1* 0309 242 bp and DRB5*0303 191 bp, respectively. Lane 4 in the upper panel indicated by an asterisk shows the PCR result with recipient pretransplant DNA using the donor allele specific primers, indicating no amplification. Amplification using primers specific for the mismatched donor alleles DRB1*0303 upper gel and DRB1*1005/7 in the lower gel in Figure 10A showed a band only with pure donor DNA. This result was reproduced in all the long-term recipients and indicates that few, if any, chimeric cells were present in the blood, BM, or skin samples obtained at the various times indicated. In the IT plus DSG-treated recipients that were lost to rejection or unrelated causes eg, aspiration, a broader analysis of chimerism in liver, spleen, thymus, intestine, LNs, etc. <\connective form=also text=also id=F1259_FUL6_12.txt.raw_559 relation=Expansion\> failed to turn up evidence for chimerism. <\connective form=thus text=Thus id=F1259_FUL6_12.txt.raw_496 relation=Contingency\>, peritransplant DSG treatment appeared to preclude the engraftment of passenger hematopoietic cells transplanted with the donor kidney. 

Anti-donor CTLp frequencies in long survivors induced with IT plus DSG. As changes in CTLp frequencies occur in tolerant monkeys induced by other strategies 12, 37, we examined the PBL of the long survivors in the IT plus DSG group in MLR driven CTLp limiting dilution assays. The results Fig 11 showed a progressive and donor specific reduction to 26 of the mean pretransplant antidonor CTLp frequencies by 4-6 months posttransplant. The reduction in anti-donor CTLp frequencies was significant at all time points providing additional evidence for acquired specific hyporesponsiveness and suggesting functional clonal depletion. Whether this represents IL-2-resistant anergy or physical deletion is yet uncertain. Induction of durable allograft tolerance without chronic immunosuppressive drugs is the next paradigm of transplantation. We have extended studies on a primate tolerance induction strategy that reproducibly fosters development of robust and specific kidney allograft tolerance. This tolerance resists breakage by challenge donor skin or second kidney grafts <\connective form=although text=although id=F1259_FUL6_12.txt.raw_71 relation=Comparison\> retaining the ability to reject third party grafts. In contrast to our earlier iterations of tolerance induction in the rhesus monkey cadaveric donor transplantation model 4, 5, 11, 38 the novel combination of day of transplant IT or FAb2IT induction followed by only 2 weeks of DSG treatment yielded an overall 87.5 incidence of acute and chronic rejection-free survival All the long-term recipients are in good health with the longest >1000 days. In contrast to recipients of donor hematopoietic cells 12, none of these animals have developed wasting. The enduring acceptance of unrelated, MHC mismatched grafts without pretransplant conditioning, without irradiation, and without infusion of donor blood or DBM makes these results unique in the primate preclinical model. Another unique feature was the apparent absence of late, chronic rejection, which differs from previous studies using ATG-based induction 7 day of transplant IT alone 39, in combination with DBM 11, or with other peritransplant immunosuppressive drugs 37. As such, the IT plus DSG treatment approach described is attractive for translation to the human cadaveric donor transplant setting, particularly <\connective form=if text=if id=F1259_FUL6_12.txt.raw_484 relation=Contingency\> the mechanisms that mediate durable acceptance of these kidney allografts can be elucidated to facilitate optimal translation of the induction protocol. 


The combination of DSG and day-of-transplant IT or FAb2IT was the key to promoting durable allograft acceptance. Earlier studies showed <\connective form=neither nor text=neither id=F1259_FUL6_12.txt.raw_574 relation=Expansion\> IT alone <\connective form=nor text=nor id=F1259_FUL6_12.txt.raw_171 relation=Expansion\> DSG without the IT could promote stable tolerance in MHC mismatched rhesus monkeys 11, 12. DSG, an analog of the antibiotic spergualin 40, was first reported to promote acceptance of renal allografts in cynomologus monkeys when combined with CsA 41. Our group previously demonstrated a synergy between DSG and ATG in several rodent allograft and xenograft models 40. DSG is known to inhibit antibody responses 26, <\connective form=but text=but id=F1259_FUL6_12.txt.raw_212 relation=Comparison\> the exact molecular mechanism of immunosuppressive action is uncertain. Available evidence indicates DSG efficacy depends on its being given at the time of antigen exposure. That DSG hinders antigen presentation in mice was shown by Tepper et al 42. At the subcellular level, DSG blocks translocation of NF-kB 25, 26, an essential transcription factor for Ig synthesis. Consistent with this finding, we previously reported electrophoretic gel mobility shift assays showing that DSG blocked IL-12-induced NF-kB translocation in activated rhesus monkey LN cells 12. 


IT or FAb2IT plus DSG treatment of kidney allograft recipients induced a constellation of immunological consequences, each of which has been independently associated with allotransplant tolerance in other models. These include transient, extensive reduction in both circulating and notably sessile T cells as described elsewhere 11, arrest of DC maturation, and systemic production of IL-4 and TGF-beta1. A causal relationship for each of these processes in induction and maintenance of tolerance in primates remains to be proven, <\connective form=but text=but id=F1259_FUL6_12.txt.raw_213 relation=Comparison\> their potential interrelationship provides an engaging hypothesis for the robustness of observed tolerance. 


A guiding principle in contemporary immunology is that naïve T cells, especially Th1 cells, recognizing antigen in the absence of costimulation do not become fully activated and usually die or become unresponsive. <\connective form=thus text=Thus id=F1259_FUL6_12.txt.raw_497 relation=Contingency\>, the sine qua non for naïve T cell activation is the presentation of antigen by a mature DC. Memory T cells are not spared in the wholesale T cell depletion by IT Hubbard et al, manuscript submitted for publication and <\connective form=thus text=thus id=F1259_FUL6_12.txt.raw_498 relation=Contingency\>, the newly emerging T cells encountering donor alloantigen are likely to be functionally naïve and dependent on costimulatory signal rescue by mature DC. 


Migratory DC are dormant in tissues <\connective form=until text=until id=F1259_FUL6_12.txt.raw_64 relation=Temporal\> they are activated by pathogens or inflammatory cytokines 43. In an organ allograft, <\connective form=therefore text=therefore id=F1259_FUL6_12.txt.raw_545 relation=Contingency\>, immature donor DC DCp are transplanted as passenger cells 44. When DCp are activated, usually by processing apoptotic vesicles 45, they migrate to T cell rich areas of lymphoid tissues 46. There they become activated to upregulate membrane costimulatory molecules and MHC class II, <\connective form=thereafter text=thereafter id=F1259_FUL6_12.txt.raw_80 relation=Temporal\> maturing into functional APC. Relevant to this study, immature DC, which lack these properties, process antigen but do not effectively present antigen to inexperienced T cells 27. Assuming that DC maturation arrest applies to both donor DC precursor cells and to recipient DC precursors processing antigen from apoptotic grafted cells, we speculate that antigen presentation by either the direct or indirect pathway is likely to be constrained during the 2-week DSG treatment. <\connective form=if text=If id=F1259_FUL6_12.txt.raw_485 relation=Contingency\> so, this model may provide an important opportunity to examine the role of antigen presentation by the indirect antigen pathway in nonhuman primate allograft tolerance. 


The observed maturation arrest of DC associated with DSG treatment has not been previously reported. Earlier studies of Tepper et al 42 suggested DSG blocked murine antigen presentation at the level of APCs, now understood to be immature DC. Myeloid DC are the major immunostimulatory DC subset, and their maturation involves the NF-kappaB family of transcription factors. Mature myeloid DC and antigen presentation are deficient in RelB null mutant mice 24. Whether DC deficiency in RelB null is due to a stem cell defect of the RelB mutation or a defect in NF-kappaB-dependent production of GM-CSF remains uncertain 46. In any case, the inhibition of NF-kappaB translocation, particularly RelB, is consistent with arrest of DC maturation. It is conceivable that DCp exposed to DSG undergo apoptosis either as direct consequence of drug action or indirectly because of an interruption of their maturation pathway. 


In addition to inhibition of RelB nuclear translocation in the LN of IT or FAb2IT plus DSG-treated transplant recipients, there was reduced expression of the mature DC marker CD83, costimulatory molecule CD86, and membrane expression of DR, all characteristics of mature rhesus DC 18. The suppression of CD83 and CD86 was significant over 2 weeks posttransplant and recovered <\connective form=thereafter text=thereafter id=F1259_FUL6_12.txt.raw_81 relation=Temporal\>. It is unknown whether DC maturation arrest occurred <\connective form=after text=after id=F1259_FUL6_12.txt.raw_232 relation=Temporal\> LN migration or was a result of reduced trafficking of DCp to LNs. Conceivably, DSG treatment could lead to reduction in expression of endothelial cell adhesion receptors involved in DC trafficking, eg, selectins and ICAM-1 as these receptors are regulated by NF-KB driven inflammatory stimuli 47. 


A significant increase in percentage of LN DC was observed after cessation of DSG and in recipients not given DSG. This might be a calculation artifact, related to IT induced reduction in the LN T cell population, causing an artificially increased estimate of LN DC. At 1 month posttransplant, LN T cells were approximately 40 of pretransplant levels data not shown. Alternatively, as DC migration is governed by chemokine receptors 48, it is possible that during T cell recovery after IT treatment, alterations in the LN chemokine milieu might have attracted DC. 


The nature of antigen presentation is thought to direct the immune response to specific antigen. Whereas mature, professional APC prime, immature APC or tissue cells tolerize 23. In line with this concept, the conspicuous reduction in mature LN DC during DSG treatment suggests the task of donor antigen presentation may have been adopted by immature or nonprofessional APC of host or donor origin. As migratory DC are relatively short lived, the number of DCs reaching the LN, their life span, and state of maturation may tilt the balance early between immunity and tolerance. After IT or FAb2 IT treatment, there is a paucity of LN T cells 11 of naïve and memory phenotype Hubbard et al, submitted for publication, <\connective form=so that text=so that id=F1259_FUL6_12.txt.raw_79 relation=Contingency\> the influence of DC maturation arrest in swaying the balance of alloimmunity may be accentuated in this model. 


The critical importance of APC in allograft rejection has been emphasized by prolonged to permanent graft acceptance without immunosuppression <\connective form=when text=when id=F1259_FUL6_12.txt.raw_248 relation=Temporal\> grafts are depleted of APC. Lafferty et al 49 first demonstrated that T cell activation required recognition of antigen and another APC-derived costimulatory signal The observation that long surviving rat kidney allografts were not rejected <\connective form=when text=when id=F1259_FUL6_12.txt.raw_249 relation=Temporal\> transplanted to normal secondary hosts lent credence to this concept 50. Reduced immunogenicity with long graft survival has been induced in allogeneic tissue transplants by in vitro culture 49 or ultraviolet light treatment to remove APCs 51. The importance of donor APC maturity in directing the host alloimmune response, <\connective form=moreover text=moreover id=F1259_FUL6_12.txt.raw_502 relation=Expansion\>, was shown by facilitated tolerance induction to neonatal donor skin grafts in antilymphocyte serum plus DBM-treated murine recipients 52 and in cardiac allografts after infusion of immature allogeneic DC 53. 


A hallmark of donor APC-depleted allograft tolerance is that infusion of fresh donor APCs in the peritransplant period elicits rejection 54. Similarly, in the neonatal model, infusion of splenocytes containing activated donor DC prevents tolerance induction 15. <\connective form=however text=However id=F1259_FUL6_12.txt.raw_260 relation=Comparison\>, late infusion of fresh APC is ineffective in breaking tolerance to APC-depleted grafts, suggesting an evolution from initial immunological ignorance to a state of tolerance or anergy 28. Within this context, <\connective form=if text=if id=F1259_FUL6_12.txt.raw_486 relation=Contingency\> transient DC maturation arrest in the monkeys given IT plus DSG led to donor APC depletion is an essential early mechanism, tolerance induction should be preventable by early infusion of activate, mature DC. Such experiments are needed to directly test whether DSG induced maturation arrest of DC leads to APC depletion and <\connective form=consequently text=consequently id=F1259_FUL6_12.txt.raw_188 relation=Contingency\> favors development of tolerance in this model. In contrast, the lack of rejection of second donor kidney grafts in long survivors suggests late resistance to breaking tolerance by donor APC. The long-term acceptance of second donor kidneys, not previously reported in macaques, satisfies Murray's criterion as the ultimate test of specific tolerance 55. 


Due to its durability, the neonatal tolerance paradigm has been a gold standard, directing the search for drug-free tolerance in adult transplant models for more than a half century. It is now clear that neonatal T cell function is intact 15. The temporal "window" of tolerance opportunity reflects a transient period of immunological quiescence in which the mass of T cells is small, naïve, and dependent on costimulation by DC. In the absence of inflammatory cytokines and activated T cells, <\connective form=however text=however id=F1259_FUL6_12.txt.raw_261 relation=Comparison\>, neonatal DC are immature and ineffective. In Matzinger's view, it is this "nondangerous" milieu that promotes stable tolerance to exogenous antigens 14. We speculate that the effectiveness of IT or FAb2IT plus DSG treatment in the monkey transplant recipients is <\connective form=also text=also id=F1259_FUL6_12.txt.raw_560 relation=Expansion\> related to a reduced, naïve T cell mass in the presence of immature DC, circumstances that recapitulate in mature primate recipients a "nondangerous" milieu. 


A notable consequence of IT plus DSG treatment was development of a systemic, polarized IL-4 response. The positive association between elevated ratios of plasma IL-4/INF-gamma in the first month and long-term allograft acceptance suggests this marker might be useful in predicting tolerance outcomes, at least after T cell depletion. Cytokine knockout models to study Th1 and Th2 cells in immune regulation have challenged the essential role of counter-regulatory cytokines in tolerance induction 56, 57. <\connective form=however text=However id=F1259_FUL6_12.txt.raw_262 relation=Comparison\>, there is consensus that the development of a Th2 response along one pathway tends to increasingly polarize it in that direction. Th2 cells making IL-4 and/or IL-10, for example, develop in the presence of IL-4 and are amplified by autocrine or paracrine IL-4 effects that outweigh the influence of inflammatory cytokines 58. Antidonor IL-4 responses <\connective form=also text=also id=F1259_FUL6_12.txt.raw_561 relation=Expansion\> dominate in neonatal tolerant mice 59, which develop donor-specific memory CD4 Th2 cells 60. The role of IL-4 in neonatal tolerance and in adult tolerance models using TLI 61, 62 or anti-CD4 63 is supported by evidence that anti-IL-4 administration at the time of antigen exposure prevents tolerance induction 62. Of relevance to our observations regarding arrest of DC maturation in the tolerant group of monkeys given IT or FAb2IT plus DSG are the findings showing that blocking costimulation after antigen infusion in normal rodents promoted tolerance and polarized Th2-like host cytokine responses without chronic rejection 64. Conceivably, the DC maturation arrest by DSG may have enhanced monkey Th2 responses. <\connective form=however text=However id=F1259_FUL6_12.txt.raw_263 relation=Comparison\>, on a cautionary note, the presence between Th2 cytokines and graft acceptance remains empirical and has yet proven to be causally related to tolerance. 


The source of early IL-4 in T cell-depleted, DSG-treated monkeys is unknown. Zhu et al 65 showed DSG treatment in allograft recipients enhanced IL-4 production, particularly in the bone marrow. <\connective form=because text=Because id=F1259_FUL6_12.txt.raw_476 relation=Contingency\> in the IT plus DSG treatment groups, systemic production of IL-4 coassociated with lower levels of IFN-gamma, one likely source might be bone marrow NK T cells, which produce both cytokines and possibly <\connective form=also text=also id=F1259_FUL6_12.txt.raw_562 relation=Expansion\> TGF-beta1 66. Recent evidence suggests that NK T cells are negatively regulated by mature T cells 67 which might account for their prevalence after TLI 61 and in neonates 60 and possibly after IT treatment. Systemic IL-4 production is abnormal and likely reflects a response to an aberrant situation. <\connective form=if text=If id=F1259_FUL6_12.txt.raw_487 relation=Contingency\> NK T cells are counter-regulated by peripheral T cells, the combination of DSG treatment and IT-induced T cell depletion may have initiated a compensatory activation of these immunoregulatory cells <\connective form=because text=because id=F1259_FUL6_12.txt.raw_477 relation=Contingency\> similar responses were not observed in recipients without DSG. 


Increased plasma levels of TGF-beta1 were another new finding in this study. TGF-beta1, a prototype immunosuppressive cytokine, has broad inhibitory effects on many levels of the specific and innate immune system. TGF-beta1 is <\connective form=also text=also id=F1259_FUL6_12.txt.raw_563 relation=Expansion\> an inhibitor of IL-12-induced IFN-gamma 68. This property of TGF-beta1 might explain both the IL-12 resistance previously reported in this model 12 and the persistent polarization to the Th2-type cytokine profile, <\connective form=because text=because id=F1259_FUL6_12.txt.raw_478 relation=Contingency\> Th2 cells are IL-12 resistant 69. TGF-beta1 and IL-4 exert collaborative roles in tolerance. For example, both IL-4 and TGF-beta1 are implicated in resistance to autoimmune disease in rats 70, and murine T cells activated in an IL-4-rich milieu secrete TGF-beta1 71. 


An observation that distinguishes IT or FAb2IT plus DSG-induced tolerance is an absence of detectable microchimerism. <\connective form=although text=Although id=F1259_FUL6_12.txt.raw_72 relation=Comparison\> the phenomenon of microchimerism as a requisite for tolerance has its supporters and critics 33;72, it <\connective form=nonetheless text=nonetheless id=F1259_FUL6_12.txt.raw_547 relation=Comparison\> is a common feature of allografts, and relates to introduction of hematopoietic stem cells of donor origin either intentionally or as "passenger cells." The PCR-SSP assay system we used for microchimerism detection has a sensitivity range of 0.05-0.005 and has been successfully used in several other settings, including those using combinations of immunotoxin, ATG, irradiation, and bone marrow/stem cell infusion in monkeys 5, 12, 73. <\connective form=therefore text=Therefore id=F1259_FUL6_12.txt.raw_546 relation=Contingency\>, the interpretation of an absence of demonstrable microchimerism is based on prior experience with this technique in the monkey model and <\connective form=thus text=thus id=F1259_FUL6_12.txt.raw_499 relation=Contingency\> would appear to be biologically significant. 


DSG may have prevented establishment of microchimerism by inhibitory effects on hematopoiesis. Treatment with higher doses of DSG has produced anemia and leukopenia in other studies, conditions reversed after DSG withdrawal, suggesting a cytostatic effect on stem cells 74. Production of stem cell growth factor, for example is NF-kappaB-dependent and inhibited by DSG 65. In addition, NF-kappaB- dependent expression of chemokines, adhesion, or homing molecules may have enabled DSG action to reduce cell homing to BM. <\connective form=thus text=Thus id=F1259_FUL6_12.txt.raw_500 relation=Contingency\>, by these downstream effects of NF-kappaB inhibition by DSG could have adversely affected engraftment of donor hematopoietic cells. 


In summary, these studies show the synergy of day of transplant induction with IT or FAb2IT and DSG in promoting durable allograft tolerance in a preclinical monkey model, where neither IT nor DSG is effective alone 12. Changes in several elements of the immune system were associated with tolerance. The profound depletion of sessile LN T cells by IT or FAb2IT is probably of central importance as antigen presentation occurs in the LN compartment. DSG was shown to block LN DC maturation. Immunological changes associated with tolerance induction were early systemic increases in IL-4 and TGF-beta1 and reduced antidonor CTLp. Overall, the results suggest stable tolerance can be induced without measurable chimerism by a strategy that has potential application to human transplantation.