Chronic prostatitis is a common diagnosis but very little is understood about the aetiology and the pathogenesis of the disease 1, 2. Men with chronic prostatitis present an episodic and relapsing condition characterized by pelvic pain, irritative voiding symptoms and effects on sexual function 3. The symptoms of the disease are suggestive of an infection in the prostate gland and bacterial infections occur in 5–10 of patients. <\connective form=however text=However id=F1399_FUL6_12.txt.raw_63 relation=Comparison\>, a large body of evidence accumulated over many years has failed to provide convincing proof that some fastidious organisms are responsible for symptoms in a significant proportion of men who present symptoms of chronic prostatitis. Recently, several groups reported that autoimmune response against prostate antigens and the inflammatory process involved may play an important role in the pathogenesis of chronic prostatitis 4, 5, 6. Chronic prostatitis associated, mainly of infectious origin, autoimmunity and inflammatory process, with abnormalities in semen quality and function,7 then male fertility would be impaired by prostate secretion meeting sperm cells during ejaculation, or including a direct effect of inflammation on the testis and epididymis, <\connective form=however text=however id=F1399_FUL6_12.txt.raw_64 relation=Comparison\>, the molecular mechanism of it is not fully understood. Omi/HtrA2 is a nuclear-encoded mitochondrial serine protease, which can released from mitochondria into the cytosol after apoptosis stimuli, such as tumor necrosis factor TNF, growth-factor depletion, inflammation factors, DNA damaging agents, irradiation and so on, inducing apoptosis in caspase-dependent and independent manners 8. In this study, we analyzed a group of patients with chronic prostatitis in order to investigate whether reduced semen quality, mainly of inflammatory factors, induced release of Omi/HtrA2 would have any effect on male fertility. 





We included 41 patients mean pics.d. age: 38.62 pic 7.65 years, range 18–49 and 15 control volunteers age: 30.45 pic 4.83 years, range 24–45 from Department of Urology, Shanghai Jiaotong University Affiliated Sixth People's Hospital in our study. Normal individuals answered a questionnaire and had no history of any genitourinary symptoms, instrumentation or surgery. They underwent the same assessment as patients. Patients and controls agreed to donate blood samples and semen; they had not been taking antibiotics, non-steroidal anti-inflammatory drugs or steroids for 4 weeks before, or during the study. Volunteers who had undergone vasectomy were specifically excluded. A diagnosis of chronic symptomatic prostatitis was given in cases of a history of pic3 months of pelvic or genital pain, or both, associated with voiding and/or sexual dysfunction and painful digital rectal examination of the prostate. All patients underwent a standard evaluation, including digital rectal examination, microscopic examination and culture of urine and semen. To discriminate between patients with infectious and non-infectious chronic prostatitis, conventional and non- conventional bacterial cultures were performed in their urine and semen. We could detect infection of known prostatic pathogens eg:Escherichia coli; Staphylococcus aureus; Klebsiella sp; Chlamydia trachomatis; Candida albicans;Trichomonas sp in infectious chronic prostatitis patients in 41 patients, <\connective form=and text=and id=F1399_FUL6_12.txt.raw_89 relation=Expansion\> we <\connective form=therefore text=therefore id=F1399_FUL6_12.txt.raw_171 relation=Contingency\> named this group as group A patients with type II NIH prostatitis. Group B age-matched volunteers with no history of genitourinary disease, who were used as control group, did not show any presence of an infectious agent either in semen or in urine group B, n=12. 


Semen samples were collected directly into a sterile container by masturbation after 2–7 days of sexual abstinence. Semen samples and blood were obtained at the same visit. Standard clinical semen analysis was performed according to World Health Organization 1999 criteria. Semen analysis consisted of determination of sample volume, sperm density concentration, progressive motility, vitality eosin exclusion, morphology World Health Organization 1992 classification and Kruger classification, pH, and concentrations of citrate and fructose. Citrate and fructose were measured as tests of function of the prostate and seminal vesicles, respectively. Identification of leucocytes and other cells was carried out by a peroxidase cytochemical technique. Results were expressed as 1 pic 106 leucocytes/ml. To assess the functional integrity of sperm membrane, hypo-osmotic swelling HOS test was used as described previously World Health Organization, 1999. 


TNF-pic and interleukin IL-1pic were assayed in seminal plasma by the use of a commercially available chemiluminescence immunometric assay kit Immulite; DPC, Los Angeles, CA, USA. The assay was performed according to the manufacturer's instructions in an automatic analyzer Immulite. The cytokine contents were expressed in pg/ml, according to standard curves ranging from 1.7 to 1000 pg/ml for TNF-pic, and from 1.5 to up to 1000 pg/ml for IL-1pic. 


Sperm samples were obtained from A and B groups men. Semen was collected by masturbation after 3 days of sexual abstinence and allowed to liquefy for 30–60 min at room temperature. A semen analysis was performed according to WHO World Health Organization, 1999 guidelines. Eosin–nigrosin staining was used for assessing viability of selected sperm and the samples with more than 5 of dead spermatozoa were excluded from this study. Diff-Quik staining was used to evaluate the sperm morphology. Normozoospermic sperm concentration pic20 pic 106/ml, total of motility grades A and B pic50, normal sperm morphology pic30, n=12 and prostatitis semen sperm concentration pic20 pic 106/ml, total of motility grades A and B pic30, normal sperm morphology pic30, n=41 were selected for the study. Spermatozoa were purified by the Percoll-gradient technique four layers: 47.5, 57, 76 and 95 to separate seminal plasma and <\connective form=also text=also id=F1399_FUL6_12.txt.raw_173 relation=Expansion\> remove other round cells. After centrifugation 20 min at 400 g, 25°C, the spermatozoa were collected from the interface 57–76 and the under layer of 95, and <\connective form=then text=then id=F1399_FUL6_12.txt.raw_40 relation=Temporal\> washed twice with phosphate-buffered saline buffer. The washed spermatozoa were stored at -80°C for RNA analysis. In order to detect the purification of selected sperm, the samples were examined under microscope. No remaining round cells were observed. This study was approved by the ethical committee of the hospital and all participants signed the consent form permitting to use their sperm samples in the study. 


Total RNA from purified spermatozoa was extracted with TRIzol Reagent Invitrogen, Carlsbad, CA, USA. Two micrograms of total RNA was reversed transcribed with Reverse Transcription System Promega, Madison, WI, USA. Polymerase chain reaction PCR was performed on reverse transcription RT products 5 picl, 2.5 IU of Taq DNA polymerase, 10pic PCR buffer 5 picl, 25 mm MgCl2 4 picl, 10 mm dNTP 1 picl and 50 pmol of the forward and reverse primers in a final volume of 50 picl. Primer for Omi/HtrA2 sense-5'-TCCTTTGCCATCCCTTCT-3', antisense-5'-TCTGTCTCGGTGCCCTCA- 3' and glyceraldehyde-3-phosphate dehydrogenase GAPDH, sense-5'- TGGGTGTCGCTGTTGAAGTC-3', antisense-5'-GCTGGCGCTGAGTACGTCGT-3' was synthesized by Shanghai Shenggong Company Shanghai, China. The PCR conditions were as follows: initial denaturation at 94°C for 5 min, then 30 cycles of 95°C for 30 s, 55°C for 45 s, 72°C for 90 s and 72°C for 10 min. The PCR products were analyzed using a Rapid Agarose Gel Electrophoresis System Wealtec CORP, Sparks, NV, USA in 2.0 agarose gels in 0.5 pic TBE Tris.base, Boric acid, EDTA buffer 1 h at 70 V. The PCR products for Omi/HtrA2 and GAPDH were 450 and 604 bp. The intensities of the bands were quantitated by Dolphin software Wealtec CORP, USA. The relative values were calculated by dividing the densitometric signals for Omi/HtrA2 by the signal obtained with the internal standard GAPDH. 


For Western blotting, Percoll purified spermatozoa were homogenized in radioimmunoprecipitation assay buffer 10 mmol/l Tris-HCl, pH 8.0, 10 mmol/l EDTA, 0.15 mol/l NaCl, 1 NP-40, 0.5 sodium dodecyl sulphate SDS, 1 picg/ml Aprotinin, 1 mmol/l phenyl methyl sulphonyl fluoride. The homogenate was clarified by centrifugation at 15 000 g for 15 min and the concentration of protein in homogenates was determined by the Bio-Rad protein assay Bio-Rad Laboratories, Hercules, CA, USA. Aliquots 30 picg of homogenate protein were separated by discontinuous 8 SDS- polyacrylamide gel electrophoresis. The separated proteins were electroblotted onto polyvinylidene fluoride membrane using a tank-blotting system at 200 mA for 2 h. <\connective form=after text=After id=F1399_FUL6_12.txt.raw_52 relation=Temporal\> blocking the nonspecific binding sites with non-fat dry milk in TBST buffer 5 mmol/l Tris-HCl, pH 7.4, 136 mmol/l NaCl, 0.1 Tween 20 for 1 h at room temperature, the blots were incubated overnight at 4°C with a 1:100 dilution of goat anti-Omi/HtrA2 antibody Santa Cruz Biotechnology Inc, Santa Cruz, CA, USA. The blots were <\connective form=then text=then id=F1399_FUL6_12.txt.raw_42 relation=Temporal\> washed three times with TBST buffer, incubated for 2 h at room temperature with horseradish peroxidase-linked goat anti-rabbit immunoglobulin G Santa Cruz Biotechnology Inc, USA at a dilution of 1:5000, and after further washing, the immunoreactive proteins were visualized by chemiluminescence. Pierce Biotechnology, Rockford, IL, USA and quantified by densitometry using Dolphin software Wealtec CORP, USA. 


The data were expressed as meanpics.e.m. Statistical analysis was performed using Fisher's least significant difference test or the Kruskall–Wallis test, as appropriate. P<0.05 was considered statistically significant. 


To examine whether there might be a correlation between an inflammatory state owing to an autoimmune response against the prostate gland and the different seminal parameters, we performed semen analyzes in the groups of patients under study. The results are presented in Table 1. No significant differences were found in the pH and volume of the ejaculates of the two groups under study Table 1. When prostate and seminal vesicle markers citric acid and fructose, respectively, were evaluated, citric acid levels appeared to be significantly reduced in group A with clinical symptoms of prostatitis. <\connective form=when text=When id=F1399_FUL6_12.txt.raw_57 relation=Temporal\> we analyzed the levels of TNF-pic and IL- 1pic in seminal plasma of these patients, samples from group A showed a significant enhancement of these cytokines in seminal plasma Table 1. Sperm motility appeared to be diminished, <\connective form=although text=although id=F1399_FUL6_12.txt.raw_24 relation=Comparison\> not significantly, in samples from groups A and B patients. 

With RT-PCR, the expression of Omi/HtrA2 mRNA was detected in human ejaculated spermatozoa Figure 1a. GAPDH mRNA was used as an internal control Figure 1a. Expression of Omi/HtrA2 mRNA was significantly lower in prostatitis men than in control men Figure 1b, P<0.01. 

The protein expression of Omi/HtrA2 in ejaculated spermatozoa was <\connective form=also text=also id=F1399_FUL6_12.txt.raw_174 relation=Expansion\> confirmed by Western blot Figure 2a. Again, the expression of Omi/HtrA2 was significantly lower in control men than in prostatitis men P<0.01, Figure 2b, which was consistent to the results from RT-PCR. 


Chronic prostatitis is a very common disease in the male genitourinary system. <\connective form=however text=However id=F1399_FUL6_12.txt.raw_65 relation=Comparison\>, the relationship between chronic prostatitis and fertility has been controversial for many years 7, 9, 10, 11. Some reports have associated chronic prostatitis with abnormalities in semen quality and sperm morphological and motility alterations, mainly of infectious origin or autoimmune lymphoproliferative response to prostate antigens 4, 7, 12. In contrast, some groups did not find differences in sperm concentration, percentage of motility or morphology among patients with chronic prostatitis, prostatodynia and a control group 13, 14. One possible explanation for the contradictory findings could be that chronic non- bacterial prostatitis comprises a heterogeneous group of patients. <\connective form=however text=However id=F1399_FUL6_12.txt.raw_66 relation=Comparison\>, the overall explanation is not fully understood. Recently, Motrich et al4 have demonstrated that chronic prostatitis patients with cellular autoimmune response to prostate antigens present important alterations in their semen quality parameters, they speculate that an autoimmune response against prostate antigens and the inflammatory process involved may affect male fertility. It has been reported that negative effects on sperm motion, viability, HOS test and lateral-head displacement are evident after incubation of sperm cells with TNF-pic and Iinterferon-pic, <\connective form=moreover text=moreover id=F1399_FUL6_12.txt.raw_153 relation=Expansion\>, the negative effects on sperm motion are evident as soon as 30 min <\connective form=after text=after id=F1399_FUL6_12.txt.raw_55 relation=Temporal\> incubation of sperm cells with TNF-pic 15. TNF and IL-1 are known to cause activation of nuclear factor-picB and result in increased expression of catabolic factors with destruction of cell. Our experiment <\connective form=also text=also id=F1399_FUL6_12.txt.raw_175 relation=Expansion\> demonstrated that chronic prostatitis patients presented significantly elevated levels of TNF-pic and IL-1 in seminal plasma and reduced semen quality in chronic prostatitis patients, which would associate with infertility. On the other hand, the expression of proapoptosis factor Omi/HtrA2, which can be released by TNF-pic and IL-1 was upregulated <\connective form=accordingly text=accordingly id=F1399_FUL6_12.txt.raw_44 relation=Contingency\>. It appears to that Omi/HtrA2 might play a pivotal role in the development of chronic prostatitis. 

Omi/HtrA2 is a nuclear-encoded mitochondrial serine protease serving as a sensor of unfolding stresses in the mitochondria. In the mutant mnd2 mice, loss of the Omi/HtrA2 protease activity leads to mitochondrial disintegration, neuronal degeneration and death 16. It has been shown that, once in the cytoplasm, Omi/HtrA2 promotes caspase activation and cell apoptosis by binding to the baculovirus inhibitor of apoptosis IAP repeat domain of the mammalian caspase inhibitor IAP 17. Omi/HtrA2 binding displaces IAP from caspases, inhibiting the suppressive effect on caspase activity 18. There is <\connective form=also text=also id=F1399_FUL6_12.txt.raw_176 relation=Expansion\> evidence that interaction with IAPs is not the only mechanism involved in Omi/HtrA2-induced cell death, as the serine protease activity of Omi/HtrA2, when localized in the cytosol, is sufficient to cause caspase-independent cell death 19. Omi/HtrA2 expression and release from mitchrondial mainly associated with extracellular apoptosis signals. As IL-1pic and TNF-pic are members of a family of cytokines involved in a variety of acute and chronic diseases, we hypothesized that Omi/HtrA2 would potentiate the IL-1pic and TNF- picresponse in sperm; <\connective form=as a result text=as a result id=F1399_FUL6_12.txt.raw_46 relation=Contingency\>, the sperm survival rate would descend. The prostate secretes components that are involved in the total antioxidant capacity TAC of the seminal plasma, and the balance between reactive oxygen species ROS present in seminal plasma and TAC is important for the survival of sperm 20. Pasqualotto et al13reported that TAC was significantly lower in patients with chronic non-infectious prostatitis with or without leucocytospermia when compared to control individuals. On the other hand, the deleterious effect of ROS on semen quality has been documented21 and a diminished prostate secretory function could be associated with enhancement of sperm apoptosis. ROS <\connective form=also text=also id=F1399_FUL6_12.txt.raw_177 relation=Expansion\> has potential capability on inducing Omi/HtrA2 release. 

In conclusion, we identify the possible molecular mechanism between inflammatory cytokines TNF-pic, IL-1pic and Omi/HtrA2 in chronic prostatitis. The upregulation of proapoptosis Omi/HtrA2, inducing by inflammatory process, might seriously compromise the quality of sperm, and therefore affect fertility. <\connective form=thus text=Thus id=F1399_FUL6_12.txt.raw_152 relation=Contingency\>, Omi/HtrA2 constitutes a pivotal signaling molecule in the apoptosis pathways initiated by the proinflammatory cytokines IL-1 and TNF in chronic prostatitis, and may represent an important therapeutic target.