Patients with oral cancer have a poor prognosis 

<\connective form=because text=because id=F1483_FUL6_12.txt.raw_174 relation=Contingency\> many have metastatic disease <\connective form=when text=when id=F1483_FUL6_12.txt.raw_67 relation=Temporal\> a 

diagnosis is reached, 

<\connective form=and text=and id=F1483_FUL6_12.txt.raw_80 relation=Expansion\> they are prone to second primary tumors of the upper aero-digestive 

tract. 


In developing countries, with limited 

resources in public health systems, head and neck 

cancer may account for as much as 50 of all cancers. 


Treating patients having oral precancers 

with cancer preventive agents is a possible lowcost approach towards an important global health 

problem that in western countries has proven difficult to control by cost- intensive surgery, radiotherapy, and chemotherapy. 


Efficient chemopreventive intervention requires 

the identification of high-risk individuals and a 

plausible chemopreventive agent. 

Individuals 

with aberrant DNA content in precancerous oral 

white patches represent a subgroup of patients at a 

considerably increased risk of cancer. 


Recently, much attention has been paid to the role 

of cyxlooxygenase-2 COX-2 in carcinogenesis. 


A large number of published epidemiologic studies 

provide data on the hypothesis that NSAIDs prevent 

colorectal cancer. 


COX-2 influences several processes important to cancer development, such as 

apoptosis, angiogenesis and invasiveness, <\connective form=although text=although id=F1483_FUL6_12.txt.raw_28 relation=Comparison\> 

the relative importance of each of these effects in 

tumorigenesis is uncertain. The inducibility of COX-2 

is explained, at least in part, by the presence of 

numerous cis-acting elements in the 5 


-flanking 

region of the COX-gene, such as at the NF- B, NfiL6, and CRE sites. 



Increased stability of COX-2 

mRNA <\connective form=also text=also id=F1483_FUL6_12.txt.raw_217 relation=Expansion\> contributes to the induction of COX-2. 



<\connective form=when text=When id=F1483_FUL6_12.txt.raw_68 relation=Temporal\> COX-2 is overexpressed in precancerous 

lesions, the levels of etheno-adducts are <\connective form=also text=also id=F1483_FUL6_12.txt.raw_218 relation=Expansion\> 

increased, possibly as a result of increased oxidative stress. 


Etheno-adduct may bind to DNA 

and give rise to permanent mutations in tissues <\connective form=if text=if id=F1483_FUL6_12.txt.raw_175 relation=Contingency\> 

DNA repair mechanisms do not make complete DNA 

repairs during cell cycles. 


Permanent mutations by this mechanism is known to occur in head and neck cancers. 



DNA damage restricted to certain human genes may lead to aneuploidy, 



which 

has been found to be a driving force in several 

human malignancies. 



Previously published data 

indicate that upregulation of COX-2 occurs in oral 

carcinogenesis. 



<\connective form=however text=However id=F1483_FUL6_12.txt.raw_74 relation=Comparison\>, COX-2 expression has 

previously not been correlated to other molecular 

prognostic markers in normal, dysplastic and cancerous oral mucosa. With the main purpose to see 

<\connective form=if text=if id=F1483_FUL6_12.txt.raw_176 relation=Contingency\> individuals harboring lesions at high risk of 

developing into oral cancer are candidates for 

chemopreventive treatment with coxibs, we investigated COX-2 expression in normal, dysplastic and 

cancerous oral mucosa, and <\connective form=then text=then id=F1483_FUL6_12.txt.raw_44 relation=Temporal\> correlated these 

findings to DNA content as a risk molecular marker 

of oral cancer 



Tissue specimens from healthy oral mucosa were 

obtained by surgical resection from 25 healthy 

patients undergoing dental implant surgery. All 

patients gave informed consent to use the tissue 

specimens for research purposes. Archival material 

was obtained from 27 patients with who originally 

had received a diagnosis of epithelial dysplasias 

from white patches of the oral cavity, and from 29 

patients with early stage oral squamous cell carcinomas. None of the patients with carcinoma had 

nodal or distal metastases clinical staging 

T1 2N0M0. All histologic sections were evaluated 

by four separate pathologists according to guidelines given by WHO. 



Only cases in which complete 

agreement upon the diagnosis normal, dysplastic, 

cancerous was achieved among all four pathologist 

were included in the study. Clinical characteristics 

and follow-up data of the patients were obtained 

by chart review. All specimens from healthy oral 

mucosa were obtained from edentulous alveolar 

ridge, without any sign of mucosal inflammatory 

conditions, which would have precluded the insertion of a dental implant. This was done to avoid 

confounding staining from inflammatory conditions such as periodontitis. All specimens of dysplasias were obtained from leukoplakias from the 

floor of the mouth away from the alveolar ridge. 

Hence, COX-2 positivity is not likely to stem from 

inflammatory conditions such as periodontitis. For 

the same reason, all investigated carcinomas 

were taken from the lateral border of the tongue, which is the most prominent location of oral 

carcinomas. 2.2. Quantitation of cyclooxygenase-2 

expression 

Paraffin sections 5 mm were dried for 30 min at 


C and incubated overnight at C. The sections were dewaxed in xylene and hydrated 

through graded alcohol to distilled water before 

quenching in 0.3 H2O2 in methanol for 30 min. For 

antigen unmasking, sections were immersed in 

DAKO1 

Target Retrieval Solution DAKO A/S, 

Glostrup, Denmark and micro-waved MW at 

approximately 650 W for 4 5 min with 3 min rest in 

between each MW-treatment. The specimens were 

cooled at room temperature for 20 min before 

equilibrating in phosphate-buffered saline PBS, 

followed by application of 5 normal horse serum 

in PBS for 20 min. Immunostaining was performed 

with mouse monoclonal anti human COX-2 in a 

concentration of 1 mg/ml 160112; Cayman Chemical Company, Ann Arbor, MI, USA in PBS containing 

1 bovine serum albumin and 0.1 sodium azide at 

C overnight. The following day, sections were 

covered with biotinylated secondary antibody, 

1:200 horse anti mouse IgG Vector Laboratories 

Inc, Burlingame, CA, USA, and the antibody— 

antigen reaction was finally developed by avidin— 

biotin peroxidase complex ABComplex; Vectastain; Vector Laboratories Inc, Burlingame, CA, 

USA and 3,3 diaminobenzidine Sigma-Aldrich 

Corp., Stylus, MS, USA. 

The specificity of the antibody was determined 

by pre-adsorption of the primary antibody with 

human COX-2-control-peptide 1—10mg/ml, Cayman Chemical Company, Ann Arbor, MI, USA for 1 

h at room temperature prior to the staining procedure. a-Smooth muscle cell actin peptide 50 mg/ 

ml; DAKO A/S, Glostrup, Denmark was used as a 

non-COX-2-peptide. 

Negative controls were <\connective form=either or text=either id=F1483_FUL6_12.txt.raw_220 relation=Temporal\> PBS <\connective forme=either or text=or id=F1483_FUL6_12.txt.raw_220 relation=Temporal\> an irrelevant antibody with the same isotype as the primary 

antibody. For evaluation of the sections we used a 

Nikon Eclipse 800 microscope Nikon Corporation, 

Tokyo, Japan with a magnification of 200 . 

Sections with staining in more than 1 of the 

cells were regarded as COX-2 positive, all other 

sections were regarded as negative. Only intracytoplasmatic staining within epithelial cells 

was regarded as COX-2 positivity. Care was 

taken to exclude the possibility of inflammatory 

cells mistakenly being identified as COX-2 positive epithelial cells. The sections were blindly 

scored by four independent observers two of the 

authors; T.S. and M.Br., in addition to B.D. and 

B.R., see Acknowledgements, and the final score 

was reached as a consensus among these four 

observers. 


Western blotting procedures were performed on 

frozen biopsy tissues from the same patients as the 

paraffin embedded tissue samples had been 

obtained from. From each biopsy, a small part was 

removed and instantly frozen. The presence of the 

COX-2 gene product was verified by immunoblotting according to a western blot procedure. Briefly, 

Cells were lysed in ice-cold NP-40 lysis buffer 1 

NP40, 10 glycerol, 20 mM Tris—HCl pH 7.5, 137 

mM NaCl, 100 mM sodium vanadate, 1 mM phenylmethy sulphonyl fluoride PMSF and 0.02 mg/ml 

each of aprotinin, leupeptin and pepstatin. 

Lysates were sonicated and clarified by centrifugation. Protein quantitation was done by Bradford 

analysis and 30 mg protein/lane was resolved by 

SDS—polyacrylamide gel electrophoresis SDS— 

PAGE, and transferred to acetate film according to 

standard procedures. The presence of COX-2 protein was verified by immunostaining with a human 

monoclonal antibody towards COX-2 protein 

160112, Cayman Chemicals Co, Ann Arbor, MI. 

Carcinomas with verified massive upregulation of 

COX-2 were used as positive controls. 

The methods for measuring DNA content have 

been presented elsewhere. 


Briefly, paraffinembedded tissue samples fixed in 4 buffered 

formaldehyde were sectioned and dysplastic areas 

were identified and retrieved with a microdissective technique. Two 50-mm sections were cut 

and enzymatically digested type XXIV protease, 

Sigma Chemical, St Louis to yield isolated nuclei 

and subsequently a monolayer. 


Adjacent sections 

stained with hematoxylin and eosin were analyzed 

in order to verify the dysplastic content of each 

tissue sample. The DNA content of nuclei stained 

with Feulgen’s stain and periodic acid—Schiff stain 

was measured and analyzed with use of a specifically designed system for image analysis Fairfield 

Imaging, Kent, United Kingdom, coupled to a Zeiss 

Axioplan II microscope Zeiss, Oberkochen, Germany with 40  lens, and 0.65 objective, and a 

final magnification of 1600 . The number of 

homologous chromosomes was determined as a 

function of light absorption in the stained nuclear 

DNA, according to an established protocol. 


Comparison of cyclooxygenase-2 expression in 

healthy, dysplastic and cancerous tissues and its association with the DNA content was done by 

fisher’s exact test, Student’s t-test, or the Wilcoxon—Mann—Whitney test, as appropriate. Disease-free and overall survival rates were computed 

by the Kaplan—Meier method, and the results 

compared with the use of the log-rank test. The 

logistic-regression analyzes reflected the variables 

age, sex, DNA content, cyclooxygenase-2 expression levels, use of tobacco and alcohol, and use of 

non-steroidal anti-inflammatory drugs NSAIDs and 

coxibs. In a subanalysis, this model was applied to 

the patients with premalignant lesions. All P values 

were two-sided, and the threshold for significance 

was set at 0.05. All statistical analyzes were performed with SPSS statistical software package 

SPSS, Chicago. 





Table 1 summarizes the main characteristics of 

the study subjects. None of the persons included in 

the study were under current treatment with a 

selective cyclooxygenase-2 inhibitor at the time of 

biopsy, or had been so within the previous 2 

months Table 1. None of the subjects had used a 

non-selective inhibitor of cyclooxygenase continuously for more than 3 weeks during the 3 years 

previous to the time when biopsies were obtained. 

There were no significant differences between the 

five groups of patients with or without cyclooxygenase-2 expressing lesions, and with aneuploid, 

tetraploid or diploid lesions with respect to clinical characteristics Table 1. The age distribution 

among the persons with healthy oral mucosa 

64.9 7.8 years was not significantly different 

from the age distribution among patients with dysplasias or carcinomas 66.8 6.9 and 67.0 6.3 

years, respectively; P=0.47. The median observation time of the patients with premalignant and 

malignant lesions was 43 months. 

After the histological re-evaluation, 5 of the 11 

cases initially classified as mild dysplasia were 

typed as healthy or at least non-dysplastic. Hence, 

30 cases were grouped as having healthy oral 

mucosa. 



healthy, premalignant and cancerous oral 

mucosa 

Weak staining was observed in one case of healthy oral mucosa 3, as compared with strong 

staining in 9 of 22 dysplastic lesions 41 and in 26 

of 29 carcinomas 88; P=0.04 Table 2. There 

was no correlation between cyclooxygenase-2 

expression levels and the histological grading of 

epithelial dysplasia P=0.34 Table 2. There was 

consensus between observers in all nine aneuploid 

cases with respect to quantification of cyclooxygenase-2 staining. <\connective form=thus text=Thus id=F1483_FUL6_12.txt.raw_179 relation=Contingency\>, the difference in negative 

versus moderate to strong cyclooxygenase-2 staining was unequivocal 



relation to DNA-content as a risk marker of 

cancer 

There was a significant difference in the distribution DNA content between the the cyclooxygenase- 

2 expressing and non-expressing lesions Table 3. 

Of 30 cases with biopsies from healthy mucosa, all 

had a normal diploid DNA content, and in one 

specimen cyclooxygenase-2 expression was found. 

This case was, <\connective form=however text=however id=F1483_FUL6_12.txt.raw_75 relation=Comparison\>, diagnosed as hyperplastic 

Table 4. In 22 cases with dysplasia, nine patients 

had an aberrant aneuploid, 12 had a normal 

diploid and one case was classified with an intermediate tetraploid DNA content Table 4. Cyclooxygenase-2 expression was observed in lesions 

from 9 of the 22 patients with premalignant 

lesions, and exclusively in a subgroup of lesions 

with an aberrant aneuploid DNA content 

Table 4. By contrast, none the 13 cases with 

diploid or tetraploid dysplasias showed cyclooxygenase-2 expression P=0.02; Table 4. Of the 26 

cyclooxygenase-2 positive carcinomas, 24 92 

were classified as aneuploid and 2 8 were DNA 

tetraploid Table 4. 



dysplasias and its relation to grading of the 

lesions 

We found no significant correlation between the 

histological grading of the dysplasias and COX-2 

expression, when the dysplasias were graded as 

mild, moderate and severe, according to guidelines 

given by WHO. The interobserver variation as calculated by kappa statistics was 0.53 range 0.39— 

0.63 





Of nine patients with cyclooxygenase-2 expressing precancers, seven patients had a follow-up 

time for more than 60 months. Six of these seven 

patients 85 developed a carcinoma after a 

median observation time of 67 months range 61— 70 months P=0.02. The remaining two patients 

have been observed for 17 and 23 months without 

developing a carcinoma. The 13 patients with 

diploid or tetraploid lesion that did not express 

cyclooxygenase-2 have not developed a carcinoma 

during a median follow-up time of 63 months 

range 49—72 months. The specificity and sensitivity of DNA content as a prognostic marker in oral 

premalignancies was 85 and 97, respectively. 

None of the patients diagnosed with oral premalignancies have developed a carcinoma in other 

sites of the upper aero-digestive tract during follow-up. 



A minimum of 5-years of follow-up was available for all the 29 patients with stage I—II carcinomas median observation time 88 months, 

range 108—217 months. Most of the patients 

were treated with radical surgery and postoperative radiotherapy up to 50 Gy, with fractions of 2 Gy. Of the 26 patients that had 

cyclooxygenase-2 positive aneuploid carcinomas, 

13 had a relapse during the observation time. 

The patient with the cyclooxygenase-2 negative 

and aneuploid carcinoma died from progression of 

disease after an observation time of 96 months. 

The other two cases have not had a relapse after 

initial therapy, and the patients with diploid and 

tetraploid lesions have been observed for 128 and 

203 months, respectively. 



In univariate analysis, current use of tobacco, 

DNA content and cyclooxygenase-2 expression 

levels were significant prognostic factors 

P=0.05, P=0.01, and P=0.03, respectively. 

<\connective form=however text=However id=F1483_FUL6_12.txt.raw_76 relation=Comparison\>, when these three factors were fitted 

in a multiple-regression model applied to the 

complete set of data, only DNA content 

remained a significant prognostic factor 

P=0.01, <\connective form=while text=while id=F1483_FUL6_12.txt.raw_173 relation=Comparison\> cyclooxygenase-2 expression and 

the use of tobacco and were not P=0.10 and 

P=0.07, respectively. In a corresponding univariate analysis, which only included the 

patients with premalignant lesions, current use 

of tobacco, DNA content an cyclooxygenase-2 

expression levels were found to be significant 

prognostic factors P=0.05, P=0.005, and P=0.01, 

respectively. In the following multivariate analysis, DNA content and cyclooxygenase-2 expression 

levels remained significant prognostic factors 

P=0.01 and P=0.03, respectively. 



The novel finding of the present work is the link 

between overexpression of COX-2 and DNA aneuploidy in dysplastic oral lesion. We found that 

cyclooxygenase-2 was frequently expressed in oral 

premalignant and malignant lesions, but not in 

healthy mucosa. In premalignant lesions, cyclooxygenase-2 was exclusively expressed in lesions identified to be at considerably increased risk of 

carcinoma by their aberrant DNA content. It is known 

that COX-2 is upregulated in oral cancers, but there 

is a lack of publications including data on the upregulation in oral precancers that have been prospectively followed over a longer period of time. 

Cyclooxygenase-2 is generally not found in healthy epithelial surfaces, but increases in response to 

mitogens, proinflammatory cytokines, and growth 

factors and has been linked to carcinogenesis. 


The cancer-promoting effect of cyclooxygenase-2 

may involve the formation of endogenous mutagens, immortalization of cells, promotion of local 

invasion and metastasis, or enhanced microcirculation. 



<\connective form=if text=If id=F1483_FUL6_12.txt.raw_177 relation=Contingency\> the cancer preventive effect of coxibs 

were independent of epithelial cyclooxygenase-2 

activity, elevated levels of cyclooxygenase-2 would 

not call for the use of coxibs. <\connective form=however text=However id=F1483_FUL6_12.txt.raw_77 relation=Comparison\>, we found 

that cyclooxygenase-2 was only upregulated in 

premalignant lesions with a particular high risk of 

malignant transformation, as given by their aberrant DNA content. This indicates that upregulation 

of cyclooxygenase-2 is related to the early development of oral carcinomas. Accordingly, inhibition 

of cyclooxygenase-2 activity may revert the process leading to these cancers. Even <\connective form=if text=if id=F1483_FUL6_12.txt.raw_178 relation=Contingency\> the primary 

upregulation of cyclooxygenase-2 occurs in stromal cells, systemic treatment with a coxib would 

target these cell clones. 

The value of DNA content as a prognostic marker 

may lie in the fact that it is a harbinger of a multitude of early and significant events in cancer 

development, 



and its specificity and sensitivity as 

a prognostic marker of oral cancer found in this 

study 85 and 97, respectively confirms previous 

findings by us in a different group of patients. 



The 

fact that cyclooxygenase-2 expression was a significant prognostic marker only in patients with 

premalignant lesions, could reflect a cancer promoting effect of cyclooxygenase-2 in early stage of 

malignant transformation. Subsequent clonal expansions, which may be reflected in gross genomic aberrations, could render pathways other than 

cyclooxygenase-2 activity equally important for the 

propagation of disease. 


The finding that histological grading did not correlate to DNA ploidy status or COX-2 expression 

confirms previous studies by our group and others, 

where it is demonstrated that histological grading of 

oral dysplasias may have limited prognostic 

value. 

<\connective form=nevertheless text=Nevertheless id=F1483_FUL6_12.txt.raw_65 relation=Comparison\>, quantitative methods for 

histological evaluation of tissue architecture might 

reveal some correlation between the degree of dysplasia, COX-2 expression and DNA ploidy status. 


It is not known whether coxibs are most effective 

as cancer preventive drugs when used alone or in 

combination with other agents. Phase 3 trials have 

documented that retinoids can reverse malignant 

development in the oral mucosa, 



but these 

agents have adverse effects that limit their longterm use for cancer prevention in asymptomatic 

individuals. 


One effect of retinoids is to inhibit 

cyclooxygenase-2. <\connective form=thus text=Thus id=F1483_FUL6_12.txt.raw_180 relation=Contingency\>, a recent study 


demonstrated epidermal growth factor EGF-mediated 

induction of cyclooxygenase-2 in oral squamous 

cell carcinoma cells, and the suppression of this upregulation by retinoids. A synergistic effect of 

retinoids and cyclooxygenase-2 inhibitors <\connective form=therefore text=therefore id=F1483_FUL6_12.txt.raw_215 relation=Contingency\> 

seems reasonable. 


Whether a combination of 

coxibs, retinoids or other inhibitors of the EGF 

pathway could be used as cancer preventive drugs 

in doses that would not give significant side effects 

must be settled from a dose-ranging study. 

The follow-up time for the patients with precancerous lesions was limited to a median of less than 

4 years, and only for 15 out of 22 cases did we have a 

follow-up time of more than 5 years. <\connective form=however text=However id=F1483_FUL6_12.txt.raw_78 relation=Comparison\>, available data indicate that a majority of carcinomas arise 

between 2 and 3 years after initial diagnosis of premalignancy. 


All patients with premalignant 

lesions included in this study were observed for more 

than 2 years. <\connective form=therefore text=Therefore id=F1483_FUL6_12.txt.raw_216 relation=Contingency\>, the data presented may 

be an accurate estimate of the rate of malignant 

transformation in patients with such lesions. 

Since cyclooxygenase-2 is not a specific marker of 

malignancy, treating all patients having cyclooxygenase-2-containing lesions with a coxib could lead to 

overtreatment. By contrast, our data indicate that 

including only patients with concomitant aneuploid 

and cyclooxygenase-2 expressing lesions would not 

lead to undertreatment. It may be that patients 

with aneuploid lesions without cyclooxygenase-2 

activity are not candidates for treatment with a 

coxib. Nevertheless, our findings emphasize the 

need to determine whether treating patients at 

high risk of oral carcinomas with coxibs can reduce 

the risk of cancer.