Mineralization is crucial in the normal growth and development of hard tissues like bone and teeth. Researchers are beginning to focus their attention on stem cells as one of the essential elements in hard-tissue engineering. Recent studies showed that dental pulp stem cells DPSCs, a type of mesenchymal stem cell 1, exhibit multilineage potential 2 and can give rise to dentin-pulp complex-like structures or a woven bone like structure in vivo 3. All these studies confirm that DPSCs might be a candidate cell type for dental tissue engineering and the potential feasibility for dental tissue repair or replacement by regenerating dental substitutes. <\connective form=however text=However id=F149_FULL.6_12(2).txt.raw_101 relation=Comparison\>, previous studies showed that obvious hard-tissue formation in subcutaneous scaffolds loaded with DPSCs did not occur 4. This observation implies the necessity to enhance the efficacy of stem cell application. <\connective form=although text=Although id=F149_FULL.6_12(2).txt.raw_44 relation=Comparison\> the mechanisms have not been completely clarified, some growth factors and extracellular matrix proteins, such as bone morphogenic proteins BMPs normally expressed during primary dentinogenesis, are assumed to play an important role in the induction of odontoblastic differentiation of pulp cells during the dental pulp repair 5, 6. Furthermore, BMP-7, also known as osteogenic protein-1, is a member of the transforming growth factor superfamily and can induce the reparative dentinogenesis and pulp mineralization in several animal models 7–9. The efficacy of BMPs was subject to various factors such as protein dose, enzymatic activity, temperature, <\connective form=and text=and id=F149_FULL.6_12(2).txt.raw_114 relation=Expansion\> some other factors 10. The intelligent delivery systems would provide BMPs in response to physiological requirements, having the capacity to sense changes of the defect’s microenvironment and accordingly alter protein release. Gene and stem cell–based therapy will probably represent the next major advance 11. Hence, the use of BMP-7 may be a strategy to improve the clinical efficacy of DPSCs for hard-tissue engineering. Gene therapy is a method used in tissue engineering to deliver genes encoding for growth factors. The applied genes can stimulate or induce a natural biological process by expressing bioactive molecules that are involved in the regenerative response of the tissue 12. Gene therapy can be a valuable tool to avoid the limitations of local delivery of growth factors, including short half- life, large dose requirement, high cost, a need of repeated applications, and poor distribution 13, 14. Adenoviruses are well known for the efficient delivery of therapeutic genes and have already been applied for gene therapy 15. A recent in vitro study showed that adenoviral-mediated BMP-7 expression can promote the differentiation of human dental pulp cells into odontoblast-like cells and mineralization in vitro 16. <\connective form=consequently text=Consequently id=F149_FULL.6_12(2).txt.raw_72 relation=Contingency\>, the combination of DPSCs with BMP-7 gene modification may be an attractive and effective approach to dental pulp cell–based tissue engineering. In this study, the differentiation characteristics of human DPSCs infected with adenoviral-mediated BMP-7 gene AdBMP-7 were evaluated in vitro and in vivo. We hypothesized that BMP-7–transfected human DPSCs showed obvious mineralized tissue formation despite the absence of additional hard-tissue–promoting supplements eg, dexamethasone. 



Normal human dental pulp tissues were obtained from the molars of patients 18- 25 years of age who needed orthodontic treatment. Informed consent was obtained from all patients under a protocol approved by the Ethics Committee, School of Stomatology, Wuhan University. Human DPSCs were obtained as previously described 17. DPSCs were cultured in minimal essential medium-a  a -MEM; GIBCOBRL, Grand Island, NY supplemented with 10 fetal bovine serum GIBCO-BRL and gentamycin 50 m g/mL; Sigma, St Louis, MO. DPSCs at passage 4 were used for the following experiments. 

A replication-deficient adenoviral vector carrying the human Bmp 7 gene, AdBMP-7, was used in the current study 18 . An optimum multiplicity of infection MOI was evaluated to determine effective gene transfer. DPSCs were seeded in a 24-well plate with a density of 2_ 104 cells/well. AdBMP-7 was added to the cells with different MOI 0, 10, 20, 50, 75, and 100 n = 4. Forty-eight hours after infection, the presence of BMP-7 in the culture supernatants was tested using a commercial BMP7 enzyme-linked immunosorbent assay kit R&D Systems Inc, Minneapolis, MN according to the manufacturer’s instructions. 

The cells were plated in 24-well plates with a density of 2 _  104 cells/well. Twenty-four hours after seeding, cells were infected with AdBMP-7 at the optimum MOI; 1, 4, 8, 12, and 16 days after gene transfer, the proliferation rates of the cells, as measured by the total DNA content n = 6 for each time point, were assessed with a PicoGreen dsDNA quantification kit Molecular Probes, Eugene, OR as described previously 19 . One milliliter of Milli-Q water Millipore, Billerica, MA was added to each well to lyse the cells; 100 m L of PicoGreen working solution was added to 100-m L supernatants of samples. After incubation, the fluorescence of each sample was measured with a fluorescence microplate reader Bio-Tek Instruments Inc, Winooski, VT, with excitation filter 365 nm and emission filter 450 nm, and the DNA amounts were calculated from a standard curve. The same supernatants as used for the PicoGreen assay were <\connective form=also text=also id=F149_FULL.6_12(2).txt.raw_219 relation=Expansion\> used to measure cellular alkaline phosphatase ALP activity Sigma; 20 m L 0.5 mol/L 2-amino-2- methyl-1-propanol AMP buffer was added to 80 m L of the samples or standards. Next, 100 m L of substrate solution p-nitrophenyl phosphate was added, and the mixtures were incubated at 37_ C for 1 hour. ALP activity was measured at 405 nm. 

Four, 8, 12, and 16 days after gene transfer, the rate of calcified extracellular matrix deposition was assessed by measuring the calcium content of the samples n = 6 using a orthocresolphthalein complexone OCPC, Sigma method. One milliliter of 1 mol/L acetic acid was added to each well overnight. The working solution was prepared as follows: 5 mL OCPC solution was added to 5 mL 14.8 mol/L ethanolamine-boric acid buffer pH = 11, 2 mL 8-hydroxyquinoline, and 88 mL Milli-Q water. Ten microliters of sample or standard was added to 300 m L working solution. Serial dilutions of CaCl2  were used to generate a standard curve. The plate was incubated at room temperature for 10 minutes and <\connective form=then text=then id=F149_FULL.6_12(2).txt.raw_60 relation=Temporal\> read at 575 nm Bio-Tek Instruments Inc 

At day 1, 4, 8, and 16 <\connective form=after text=after id=F149_FULL.6_12(2).txt.raw_84 relation=Temporal\> gene transfer, the total RNA of every sample was isolated with the RNEasy kit Qiagen, Valencia, CA. Then, 1 m g of total RNA was used to perform the reverse transcriptase RT reaction. The obtained complementary DNA was used as a template in polymerase chain reaction PCR. The odontogenic differentiation of cells was monitored by analyzing the specific markers osteocalcin OC, bone sialoprotein BSP, dentin sialophosphoprotein DSPP, and dentin matrix protein 1 DMP-1. glyceraldehyde-3-phosphate dehydrogenase GAPDH was used as the housekeeping gene to normalize RNA expression. Human specific primers for the genes were designed according to published complementary DNA sequences of GenBank OC: forward, 5’-CATGAGAGCCCTCACA- 3’; reverse, 5’-AGAGCGACACCCTAGAC -3’; BSP: forward, 5’-CTATGGAGAGGACGCCACGCCTGG-3’, reverse, 5’-CAT AGCCATCGTAGCCCTTGTCCT- 3’; DSPP: forward, 5’-CAGCCGCTGAT TAAT ATTCCTAAA-3’; reverse, 5’-TAACATGGGACGTGCAGAAGAACT-3’; DMP-1: forward, 5’-GCTAGCTGGTGGCTTCTCCA-3’, reverse, 5’-CAGCAATTGGCTGC CACCTG-3’; GAPDH: forward, 5’-CCTGTTCGACAGTCAGCCG- 3’; reverse, 5’- CGACCAAATCCGTTGACTCC-3’. Real-time PCR was performed using the SYBR Green PCR kit Qiagen and controlled in a spectrofluorimetric thermal iCycler Bio-Rad, Hercules, CA. The messenger RNA in each sample was calculated by the comparative DD Ct D Ct gene – D Ct control value method 20. Each measurement was assessed in triplicate. 

Sintered hydroxylapatite/tricalcium phosphate HA/TCP ceramic discs Camceram of a 6-mm diameter and 3-mm thickness with a HA/TCP ratio of 60/40 were kindly provided by CAM Implants Leiden, The Netherlands. The volumetric porosity of the discs was 90. The discs were sterilized by autoclaving at 121_ C for 15 minutes. Forty-eight hours after transfection, cells were seeded onto the scaffolds by submerging the scaffolds in a suspension of 5.0 _  106  cells/mL <\connective form=while text=while id=F149_FULL.6_12(2).txt.raw_188 relation=Comparison\> rotating at 6 rpm for 3 hours. For every 6 scaffolds, 1 mL cell suspension was used. Subsequently, the scaffolds were put in 24-well plates for culturing with a -MEM supplemented with 10 fetal bovine serum and gentamycin. Nontransfected cells were used as the control. At days 1 and 4 <\connective form=after text=after id=F149_FULL.6_12(2).txt.raw_86 relation=Temporal\> seeding, cell/scaffold complexes were fixed in 2 glutaraldehyde, dehydrated in graded series of ethanol, and dried in tetramethylsilane Merck, Germany. Gold was sputtered on the samples just <\connective form=before text=before id=F149_FULL.6_12(2).txt.raw_67 relation=Temporal\> scanning electron microscopic analysis. The specimens were examined with a JEOL Tokyo, Japan 6310 scanning electron microscope n = 2. For energy-dispersive spectroscopy measurement, samples like those for SEM but without sputtering gold were analyzed. 

For the in vivo analysis, cells were seeded as described previously. After subsequent in vitro culture of 4 days, 4 samples in total of each group and implantation time were used. Twelve 10-week-old BALB/c immunocompromised nude mice were used after approval from the Wuhan University Animal Ethics Committee. National guidelines for the care and use of laboratory animals were obeyed. Surgery was performed under general anesthesia isoflurane 1.5–3. The backs of the mice were washed and disinfected with povidone iodine. On each flank, parallel to the spinal column, 2 small incisions of about 10 mm were made through the skin. Using blunt dissection, subcutaneous pockets were created. To avoid possible crossover effects, each mouse always received 2 implants of the same group transfected or nontransfected. After implant placement, the wounds were closed using staples. Two, 4, and 8 weeks after implantation, the samples were retrieved. The samples for each group were fixed in formalin, dehydrated, and embedded in methylmethacrylate. At least 3 thin transversal sections 10 mm of each tissue block were made using a modified sawing microtome technique 21. The sections were stained with methylene blue/basic fuchsin and analyzed using light microscopy. The ectopic formed hard tissues would be stained deep red by the basic fuchsin. Three sections of each sample were evaluated by light microscopy on a Leica Qwin Pro image analysis system Leica, Wetzlar, Germany. 

Statistical significance was evaluated using the t test, and P < .05 was considered significant. Error bars represent the mean _ standard deviation. 




The test for MOI showed that human DPSCs could be transfected with BMP-7 mediated by adenovirus. After 48 hours, the transfected cells secreted 3.3, 11.5, 20.7, 52.3, 108.2, and 116.5 ng/mL hBMP-7 at MOI 0, 10, 20, 50, 75, and 100, respectively. <\connective form=therefore text=Therefore id=F149_FULL.6_12(2).txt.raw_216 relation=Contingency\>, in the main study, cells were infected with AdBMP-7 at a MOI of 75. <\connective form=after text=After id=F149_FULL.6_12(2).txt.raw_92 relation=Temporal\> gene transfer, both populations showed exponential growth for 16 days. Cells grew more rapidly in the nontransfected group than in the transfected group P < .05 Fig 1A. 

The BMP-7 transfected cells showed increasing ALP activity during 16 days, which was significantly higher <\connective form=when text=when id=F149_FULL.6_12(2).txt.raw_99 relation=Temporal\> compared with nontransfected cells P < .01 Fig 1B. Furthermore, significantly higher levels of calcium content were observed from day 8 in the transfected cells P < .01 Fig 1C. 

Expression levels of messenger RNA for OC, BSP, DSPP, and DMP- 1 were compared on day 1, 4, 8, and 16 <\connective form=after text=after id=F149_FULL.6_12(2).txt.raw_93 relation=Temporal\> gene transfer Fig 2. Messenger RNA expression levels of nontransfected cells on day 1 were set as the baseline control relative expression value, 100. The expression of the 4 measured genes always showed similar profiles to each other in transfected group, with expression increasing significantly from day 4 to 16 compared with nontransfected group. Conversely, nontransfected group just showed the minimal increase during these days. 

One day <\connective form=after text=after id=F149_FULL.6_12(2).txt.raw_94 relation=Temporal\> seeding, scanning electron microscopic examination showed that cells had adhered well and spread fully on the surfaces of the HA/TCP ceramic scaffolds Fig 3A and B. There were no obvious morphological differences between transfected and nontransfected groups. With increasing culture time, a noticeable amount of mineralized globular accretions were observed on cell/scaffold complexes in transfected group on day 4 Fig 3C . <\connective form=however text=However id=F149_FULL.6_12(2).txt.raw_102 relation=Comparison\>, nontransfected group only showed cells growing on the scaffolds and formed a confluent layer without any obvious sign of mineralization Fig 3D . Energy-dispersive spectroscopy analysis revealed the presence of calcium and phosphorus in deposits at a Ca:P ratio of 1.6 to 1.8. 

All mice appeared to be in good health throughout the test period. There were no symptoms of severe inflammation at the implantation sites. After sacrifice, all implants were retrieved with the surrounding soft-tissue intact. Histological observation indicated that all ceramic implants were encapsulated with a very thin fibrous tissue capsule of 4–6 cell layers, closely following the outer perimeter of the scaffold. Inflammatory cells were only sporadically present. Tissue ingrowth was found in all the implants and macropores of scaffolds were filled with fibrous tissue. For the 2-week implants, no evident hard-tissue formation occurred in both the transfected and nontransfected groups Fig 4A and B . <\connective form=however text=However id=F149_FULL.6_12(2).txt.raw_103 relation=Comparison\>, the transfected group showed large amounts of granular-like mineral deposited around the osteoblast-like cells on the surface of the macropores of the scaffolds. For the 4-week implants, transfected group showed obvious hard-tissue formation Fig 4C . The newly formed hard tissue was stained deep red by the basic fuchsin and resided mainly along the surface of the porous ceramic material The distinct concentric lamellae of mineralized matter were observed with entrapped osteocyte-like cells and osteoblast-like cells lying orderly arranged at the surface. Bone marrow–like hematopoietic tissue was <\connective form=also text=also id=F149_FULL.6_12(2).txt.raw_220 relation=Expansion\> seen together with the newly formed hard tissue. In the samples loaded with nontransfected DPSCs, still no specific newly hard-tissue formation was found. Only an orderly arranged thick fibril-like extracellular matrix with multiple layers of cells was seen, organized parallel to the pore surface Fig 4D . For the 8-week implants, the transfected group upon visual inspection showed enhanced hard-tissue formation compared with the 4-week group Fig 4E . The nontransfected group still showed no or only small amounts of hard-tissue formation Fig 4F . Image analysis indicated the percentages of hard-tissue formation in the various scaffold groups. On average, 11 _ 2.7 of the open porosity within the implants had been filled with bone-like hard tissue at 4 weeks in the transfected group. At week 8, more bone-like hard tissue formation had occurred to 24 _ 3.2 P  < .01. 



The purpose of this study was to evaluate the potential of in vivo mineralized tissue regeneration of these BMP-7 genetically modified cells. In general, BMP-7 transfection proved to be a very effective strategy to induce odontoblastic differentiation in vitro  and promote mineralized tissue formation in vivo . <\connective form=however text=However id=F149_FULL.6_12(2).txt.raw_104 relation=Comparison\>, the tissue formed did not appear to be dentin, but on morphological appearance it more resembled bone. Our current study showed that human DPSCs could be transfected with AdBMP-7 <\connective form=and text=and id=F149_FULL.6_12(2).txt.raw_160 relation=Expansion\> that the transfected cells secreted human BMP-7 in high levels z 108 ng/mL after 48 hours. Evidently, BMP-7 accumulated in this study to a functional concentration to induce cell differentiation in vitro 22 . Previous studies indicated that an adenovirus dose of 107  particle units or an MOI of over 50 can provoke a cytotoxic response to the infected cells 23, 24 . In our study, <\connective form=although text=although id=F149_FULL.6_12(2).txt.raw_45 relation=Comparison\> the AdBMP-7–transfected cells showed an exponential growth during 16 days, there was a delay for cell proliferation compared with nontransfected cells. This delay can be caused by a hampering effect of the transfection or because of the inverse relationship between proliferation and differentiation. <\connective form=when text=When id=F149_FULL.6_12(2).txt.raw_100 relation=Temporal\> cells are more proliferative, <\connective form=then text=then id=F149_FULL.6_12(2).txt.raw_62 relation=Temporal\> the differentiation of the cells is declined and vice versa 25 . In our study, significantly increased levels of ALP activities were observed in AdBMP-7–transfected DPSCs compared with nontransfected cells. ALP is a prerequisite for the differentiation of dental pulp in vivo  and has been suggested as a suitable marker for odontoblast-like cell differentiation 26 . Furthermore, OC, BSP, DSPP, and DMP-1 were chosen as markers for the odontogenic phenotype in real-time PCR. OC and BSP are usually regarded late markers for osteoblast/ odontogenic differentiation and play an important role in hard tissue regeneration 27 . DSPP is the major dentinal noncollagenous protein and plays a crucial role during dentin mineralization 28 . DMP-1 is another specific protein for dentin and is mostly known as the candidate gene for the disorder dentinogenesis imperfecta 29 . These dentin-related morphogens are important for the differentiation of DPSC into odontoblasts and for the engineering of dental pulp-like tissues 30 . DPSCs can differentiate into odontoblasts forming a highly cellular, vascular, and mineralized matrix in the presence of DMP-1 31 . In our current study, AdBMP-7–transfected DPSCs showed high expressions of these odontogenesis-related genes, which offered strong evidence that DPSCs differentiate into odontoblasts based on the adenoviral-mediated BMP-7 transfer. A porous calcium phosphate ceramic carrier was selected as the scaffold material because of its bone-compatible character and the ability to support the differentiation of bone and dentin-forming cells. Results of the in vitro  part of our current study indicated that the BMP-7–transfected DPSCs were capable of producing a mineralized extracellular matrix on the HA/TCP materials. These results were analogous to these of cells under the influence of a standard odontogenic medium 4 . In our current in vivo  study, the ceramic scaffolds exhibited abundant ingrowth of tissue and vasculature. Methylene blue/basic fuchsin staining was performed for histological analysis in order to specifically study hard-tissue formation. Human DPSCs genetically modified with AdBMP-7 vector showed the potential of hard tissue regeneration in vivo , which is consistent with our in vitro  results, <\connective form=although text=although id=F149_FULL.6_12(2).txt.raw_46 relation=Comparison\> the cells have not been precultured with specific odontogenic medium. Apparently, after gene transfection, BMP-7 producing DPSCs can induce self and/or neighbor cells differentiation and result in newly hardtissue formation. Previous literature has shown that DPSCs mixed with HA/TCP powder can regenerate a dentin-pulp-like structure in ectopic implantation sites, which are characterized by a well-defined layer of aligned odontoblast-like cells, with their processes oriented in the same direction and extending into tubular structures within newly generated dentin 2 . Our in vitro  study <\connective form=also text=also id=F149_FULL.6_12(2).txt.raw_221 relation=Expansion\> confirmed the upregulated expressions of DSPP and DMP-1, which suggest distinct developmental functionality in vivo 32 . <\connective form=however text=However id=F149_FULL.6_12(2).txt.raw_105 relation=Comparison\>, the results of current study only observed bone-like hard-tissue formation, with distinct concentric lamellae, osteocyte-like cells, and bone marrow–like hematopoeti tissue the possibilities in the divergent in vivo  results can lie in the micromorphology and/or chemical characteristics of HA/TCP ceramic 4 . Still, to actually progress to potential therapeutic applications toward dentin regeneration, improved scaffold designs in composition as well as morphology can facilitate the formation of more natural tissue constructs. In sum, human DPSCs can be genetically modified with the adenoviral vector containing hBMP-7 gene to increase the odontogenic response in vitro  and formed abundant hard tissue after subcutaneous implantation on a ceramic carrier. As for the future possibility of gene therapy in patients, the combination of DPSCs with BMP-7 gene therapy exhibited great potential for therapeutic application. The patient-specific DPSCs genetically decorated through BMP-7 gene can be used for pulpcapping therapy to promote mineralization. Furthermore, gene vectors recombined with BMP-7 gene can be loaded to biomaterials for dental tissue repair. Despite some advantages, the main hurdles to clinical applications of gene therapy remain with regard to safety and efficacy in human. As for adenoviral-mediated gene therapy, even <\connective form=though text=though id=F149_FULL.6_12(2).txt.raw_77 relation=Comparison\> the promising safety profile shown in clinical trials, the immune response to the capcid protein remains difficult to achieve high transduction efficiency 33 . The approach of in vitro  gene therapy raises concerns about the cell collection from patients and the time required for the process and excludes this approach from the treatment of acute conditions 34 . <\connective form=therefore text=Therefore id=F149_FULL.6_12(2).txt.raw_217 relation=Contingency\>, further evaluation for effectiveness and safety about BMP-7 gene therapy strategy is needed before clinical applications.