The most frequently performed laparoscopic operation in bariatric surgery is Roux-en-Y gastric bypass RYGB 1,2. Such surgical treatment for morbid obesity is an effective option for weight loss, and surgical treatment has become increasingly popular, concurrent with the “obesity epidemic” in the United States and Europe. RYGB combines a restriction of intake with moderate malabsorption. This procedure has been associated with low perioperative and longterm morbidity and mortality rates and has resulted in an average weight loss of 91 at 2 years and 73 at 10 years after the procedure, as well as an improvement in co-morbidities 3– 6. <\connective form=although text=Although id=F20_FULL.6_12.txt.raw_26 relation=Comparison\> weight loss is generally expected after laparoscopic RYGB, studies of the effects of RYGB on body composition have reported inconsistent results 7–9. The total body mass is composed of 3 compartments: lean body mass, including the body cell mass BCM, extracellular mass ECM, and body fat. Rapid and profound weight loss, such as that produced by RYGB, is aimed at decreasing the total body mass and fat mass. The restrictive element of RYGB decreases the volume of nutrients consumed, including the protein essential for building and maintaining the lean body mass and, in particular, the BCM. In addition, the malabsorption element can decrease the ratio of the total protein consumed to the total protein absorbed. <\connective form=although text=Although id=F20_FULL.6_12.txt.raw_27 relation=Comparison\> a previous study has demonstrated that the average patient’s total protein and albumin levels remain within the normal range of 6.0 – 8.3 g/dL and 3.5–5.0 g/dL, respectively 10, it is important to maintain or increase the percentage of postoperative BCM. Bariatric surgery has shown a positive effect on weight reduction, body composition, and the resolution of co-morbidities such as type 2 diabetes mellitus, insulin resistance, hyperinsulinemia, hyperglycemia, dyslipidemia, and hypertension 11,12. This cluster of abnormalities has been referred to as the “metabolic syndrome” 13. The elements of the metabolic syndrome are strong risk factors for cardiovascular disease 14,15, and regular physical exercise in nondiabetic subjects has had beneficial effects on virtually all aspects of this syndrome 16 –18. The aim of the present study was to assess the efficacy of aerobic physical exercise APE on weight loss, body composition, and co-morbidities in patients after RYGB. A total of 60 morbidly obese patients underwent laparoscopic RYGB as a primary procedure for the treatment of morbid obesity from October 2005 to December 2007 by a single surgeon. The body mass index BMI was 40 kg/m2 in all patients. Complete information concerning the risks and benefits of this surgical approach was given, and the patients provided informed consent. Preoperatively, the patients underwent esophagogastroduodenoscopy with Helicobacter pylori testing, a nutrition consultation, and a psychiatric evaluation. The following prospective data were collected: age, gender, length of hospital stay, operative details, co-morbidities, postoperative complications, initial body weight and height, postoperative weight, and body composition. The body composition was assessed every 8 weeks during the 24-month follow-up period. 

All participants in the exercise groups were provided with a 24-month membership at an exercise facility; the membership fees were covered by study funding to remove any economic barriers to participation. Individual exercise supervision was provided weekly for the first 4 weeks after randomization and biweekly thereafter. Attendance was verified through direct observation, exercise logs, and electronic scanning of the membership cards. The low-exercise LE group exercised 1 time weekly for 1 hour aerobic endurance exercise, and the multiple exercise ME group exercised 2 times weekly for 1 hour aerobic endurance exercise. The training gradually progressed in duration and intensity. The patients exercised on treadmills or bicycles with ergometers. Heart rate monitors Polar Electro Oy, Kempele, Finland were used to adjust the workload to achieve the target heart rate. The participants progressed from 15 to 20 minutes per session at 60 of the maximal heart rate to 45 minutes per session at 75 of the maximal heart rate, as recommended by the Bruce treadmill protocol 19, which was used as the maximal treadmill exercise test Table 1. The frequency of direct supervision by the trainers was the same for all exercise groups. The daily steps taken were measured using a pedometer TFA Dostmann GmbH, Wertheim, Germany. 

All patients were required to rest for 30 minutes, after which bioelectrical impedance analysis BIA was performed by applying 4 silver electrodes, with 2 detecting electrodes placed at the ulnar aspect of the right wrist and the right medial malleolus. After connecting the electrodes to the multiple frequency BIA instrument BIA 2000, Data Input, Frankfurt, Germany, the measurements were recorded in real-time using a computer. The calculations for BCM, ECM, ECM/BCM, fat, and total body weight were performed using Nutri 2000 software Data Input. 

Laparoscopic RYGB was performed as previously described by Wittgrove et al 20. 

Routine postoperative upper gastrointestinal radiologic studies were not performed <\connective form=unless text=unless id=F20_FULL.6_12.txt.raw_54 relation=Expansion\> concern was present about the integrity of the proximal anastamosis or technical problems had occurred during the procedure, such as a leak. In addition, an upper gastrointestinal study was ordered <\connective form=if then text=if id=F20_FULL.6_12.txt.raw_207 relation=Expansion\> the patient was febrile or experienced tachycardia postoperatively. Otherwise, the patient was allowed to ingest a low-sugar, clear-liquid diet on the first postoperative day and <\connective form=then text=then id=F20_FULL.6_12.txt.raw_51 relation=Temporal\> advanced to a fluid hyperprotein diet for the next 14 days. No particular restriction of standard physical activity was imposed. The first follow-up visit was scheduled for 3 weeks after surgery to address any acute issues. 

The BMI was calculated as the body weight in kilograms divided by the height in meters squared. The recorded comorbid medical problems included type 2 diabetes mellitus, dyslipidemia, hypertension, and sleep apnea. All data are reported as the mean ± standard deviation, unless otherwise specified. Statistical comparisons were performed using the chi-square test and analysis of variance. P <.05 was considered statistically significant. A total of 60 patients were included in the analysis; including 30 patients in the ME group and 30 in the LE group. Of the 60 patients, 49 were women and 11 were men, with a mean age of 35 ± 9.5 years. The mean preoperative BMI was 51.9 ± 2.9 kg/m2. <\connective form=when text=When id=F20_FULL.6_12.txt.raw_76 relation=Temporal\> both groups were compared, no difference was found in age, gender, preoperative weight and BMI, body composition, or number of co-morbid medical problems Table 2. No significant difference was found in the mean time to exhaustion 13.4 ± 5.5 minutes in the ME group and 14.0 ± 6.4 minutes in the LE group or the maximal heart rate 178 ± 19 beats/min in the ME group and 171 ± 18 beats/min in the LE group using the Bruce treadmill test. In the ME and LE group, 8 and 6 patients were diagnosed with and treated for H. pylori gastritis, respectively. 

All procedures were completed laparoscopically. No intraoperative complications occurred, and none of the patients required blood products. In the ME and LE group, the mean operative time was 157.8 ± 24.4 minutes and 160.0 ± 32.1 minutes, respectively. This difference was not statistically significant. Two patients from each group underwent cholecystectomy. The hospital stay was the same for the ME group 5.1 ± 0.8 days and LE group 5.2 ± 1.1 days. The mortality rate was 0. <\connective form=however text=However id=F20_FULL.6_12.txt.raw_78 relation=Comparison\>, 9 complications occurred, for an overall frequency of 15 Table 3. The complications were classified as early <\connective form=if text=if id=F20_FULL.6_12.txt.raw_174 relation=Contingency\> they occurred within 30 days of surgery and late <\connective form=if text=if id=F20_FULL.6_12.txt.raw_175 relation=Contingency\> they occurred after 30 days. Of the early complications, only 1 was considered a major complication, for a frequency of 5 intra-abdominal adhesions. One patient with late-presenting 8 months postoperatively intra-abdominal adhesions and consecutive bowel obstruction underwent laparoscopic adhesiolysis. No other early major complications, such as bleeding or leakage, or late major complications, such as stricture of the gastroenterostomy, were observed. 

From baseline to 26 weeks, the median exercise training attendance rate was 91 interquartile range 74 –97 for the ME group and 93 interquartile range 76 –96 in the LE group. Other than the exercise sessions, the background physical activity was recorded with pedometers and increased twofold during the study period for both groups Fig 1. 

A significant and earlier decrease in weight Fig 2, BMI Fig 3, and body fat Fig 4 occurred in the ME group compared with the LE group. In addition, the recovery and normalization of the BCM was significantly more rapid in the ME group Fig 5. 

Both groups showed resolution or improvement of their co-morbidities after 24 months Table 4. <\connective form=however text=However id=F20_FULL.6_12.txt.raw_79 relation=Comparison\>, the resolution and improvement of the co-morbidities was significantly earlier in the ME group. As expected, patients lost weight after surgery at a different rate, depending on the frequency of their APE. The observed excess weight loss after RYGB in both groups <90 was much greater than previously described in the published medical studies 4. This excellent result might have been resulted from the intensive follow-up program. Analogous to these findings were the changes in body composition. The 3-compartment model included body fat, BCM, and ECM. The lean body mass is composed of BCM and ECM. The BCM is the sum of all aerobic oxidizing, metabolically active cells, including the muscles, internal organs, and central nervous system. The interstitial and transcellular spaces are part of the ECM as are the skeleton and connective tissue. Large displacements between the BCM and ECM can arise without changes in the bodyweight or lean body mass. In both of the study groups, an excellent decrease occurred in the fat mass, with a corresponding increase in the body cell mass, consistent with the findings of Metcalf 21 using the BIA after laparoscopic duodenal switch. The ME group had minimal BCM loss and rapid recovery. The results of the changes in body composition were significantly better in the ME group. The primary objective of a weight loss trial is the reduction of body fat, leading to a decrease in the risk factors for the metabolic syndrome. <\connective form=however text=However id=F20_FULL.6_12.txt.raw_80 relation=Comparison\>, a concomitant decline in lean tissue is <\connective form=also text=also id=F20_FULL.6_12.txt.raw_204 relation=Contingency\> frequently observed. Given that the BCM represents a key determinant of the magnitude of the resting metabolic rate RMR, it follows that a decrease in the lean tissue could hinder weight loss. <\connective form=therefore text=Therefore id=F20_FULL.6_12.txt.raw_202 relation=Temporal\>, with respect to the longterm efficacy of weight loss programs, the loss of the fat mass <\connective form=while text=while id=F20_FULL.6_12.txt.raw_170 relation=Comparison\> maintaining the BCM and RMR would be desirable. Despite the well-known association between the BCM and RMR, an offset in the decline of the BCM, after weight loss, does not appear to necessarily parallel a reduction in the RMR or vice versa. A possible explanation for this is that the length and intensity of an exercise program might not be sufficient to cause a continued disruption of metabolism or expansion of lean tissue. Metabolically active compounds include the BCM and internal organs. Small changes in the BCM might not be sufficient to affect the RMR. In contrast, exercise training might influence the RMR, independent of changes in body composition 22–24. An increase in protein turnover associated with resistance training regimens might contribute to an elevation of the metabolic rate 25. <\connective form=however text=However id=F20_FULL.6_12.txt.raw_81 relation=Comparison\>, the negative energy balance induced by dietary limitations or the post-RYGB condition might offset this effect. Dietary restriction results in the loss of lean tissue. The findings of several studies have demonstrated that a reduction in the RMR can be blunted by physical activity 26 –28. The excellent reduction in body weight and fat mass and the simultaneous improvement in the BCM and, <\connective form=consequently text=consequently id=F20_FULL.6_12.txt.raw_53 relation=Contingency\> the maintenance of the RMR, require additional study to explain the effects of long-term stringent exercise programs on patient outcomes after RYGB. These results would be in contrast to the combined conservative treatment protocols exercise and diet that do not maintain patients in the program for long periods 29. The focus of the results of bariatric surgery is not only on the changes in body composition, but also on the metabolic changes, including the improvement of co-morbidities. The improvement of type 2 diabetes mellitus by APE has been evaluated in previous studies, with inconsistent outcomes reported 16 –18,30 –32. Similar to the findings from previous studies 3– 6, our findings have demonstrated the resolution or improvement of type 2 diabetes mellitus, insulin resistance, hyperglycemia, dyslipidemia, and hypertension. All these factors can be optimized by intensified APE. It is well known that the excess weight in obese patients is mainly a result of the fat mass 9. Several studies have demonstrated a close correlation between the content of body fat and several cardiovascular and metabolic disorders. In particular, upper body fat and visceral fat have been strongly associated with insulin resistance and the metabolic syndrome 33. Previous studies have reported that morbid obesity is associated with impaired insulin activity and an accumulation of intramuscular lipids 34,35. An APE program can improve insulin resistance by decreasing the intramuscular lipid levels with conservative obesity treatment. Surgical or conservative weight loss programs have effectively increased insulin sensitivity in morbidly obese skeletal muscle and reduced the skeletal muscle lipid content triglycerides and lipid intermediates, which can contribute to improved insulin action. The reduction in muscle lipid content occurs in the absence of alteration of skeletal muscle fatty acid oxidation. Exercise, in contrast, improves skeletal muscle insulin action and increases fatty acid oxidation, which might serve as a protective mechanism against the accumulation of harmful lipid compounds. The weight loss induced by RYGB <\connective form=also text=also id=F20_FULL.6_12.txt.raw_206 relation=Expansion\> reduces skeletal muscle lipid content. Bariatric surgery and APE <\connective form=therefore text=therefore id=F20_FULL.6_12.txt.raw_203 relation=Contingency\> have a synergistic effect on insulin resistance, as reflected in the significantly more rapid reduction of insulin resistance in the ME group. The improvement in the metabolic parameters after bariatric surgery in our trial, using an intensified APE program, might explain the rapid resolution of comorbidities, such as type 2 diabetes mellitus. The limitations of the present study included the following. The BIA is an excellent tool for body composition measurement in the clinical setting, <\connective form=because text=because id=F20_FULL.6_12.txt.raw_171 relation=Contingency\> it is a noninvasive method and easy to perform. <\connective form=however text=However id=F20_FULL.6_12.txt.raw_82 relation=Comparison\>, with regard to obesity, outliers could be present that were not captured by a single measurement. With cumulative measurements over time, a more reliable database could be collected on body measurements in a bariatric follow up program. In addition, patient compliance can be a problem in bariatric follow-up programs. We had an excellent median exercise attendance rate of 91 and 85 in the ME and LE groups, respectively. <\connective form=however text=However id=F20_FULL.6_12.txt.raw_83 relation=Comparison\>, this attendance rate was a part of a clinical trial With regard to the level of activity, as represented by the mean number of daily steps, improvement was noted in both groups. The determination of the activity levels of patients after bariatric surgery has been difficult to assess accurately, <\connective form=because text=because id=F20_FULL.6_12.txt.raw_172 relation=Contingency\> activity can be defined by many factors, in addition to the daily steps. Compensatory behavior, such as a reduction in nonexercise physical activity and an increase in food intake cannot be completely ruled out for subjects living under conditions not completely controlled. The compliance with other program components that might affect weight loss, as well as the nutritional and medical recommendations, remains a significant problem. A long-lasting change in lifestyle, including mobility and eating behaviors, is the key to long-term successful weight loss in postbariatric patients.