<\connective form=although text=ALTHOUGH id=F2166_FUL6_12.txt.raw_32 relation=Comparison\> mitral-valve prolapse and idiopathic congestive cardiomyopathy may occur together in any given family, 1 no common biochemical or genetic link has been established between these disorders. Numerous associations have been reported 2 3 4 5 6 7 however, mitral-valve prolapse usually occurs as an isolated phenomenon 8 and in most cases is idiopathic.9 Likewise, congestive cardiomyopathy may result from several causes, but is <\connective form=also text=also id=F2166_FUL6_12.txt.raw_201 relation=Expansion\> usually idiopathic 10. There is evidence that mitral-valve prolapse, or at least one type of it, is transmitted through autosomal-dominant inheritance.11 Idiopathic congestive cardiomyopathy may <\connective form=also text=also id=F2166_FUL6_12.txt.raw_202 relation=Expansion\> be familial, <\connective form=but text=but id=F2166_FUL6_12.txt.raw_68 relation=Comparison\> the pattern of inheritance is less clear 12. We have studied a large, inbred kindred of four generations, in whom both disorders were common and were associated with hypertaurinuria and depressed levels of myocardial taurine. 

The kindred consisted of 46 members, 43 of whom, ranging in age from two to 87 years, were living <\connective form=when text=when id=F2166_FUL6_12.txt.raw_85 relation=Temporal\> the study began. Twenty-five were male, and 21 were female. A pedigree was constructed; one brother-sister union, with five children and several grandchildren, and one union between first cousins, with seven children and some grandchildren, were verified by human-leukocyte-antigen typing. 

All living members had clinical examinations on several occasions over 3 1/2 years for the presence of a midsystolic click, systolic and diastolic murmurs, gallop sounds, and the characteristics of the apex impulse. Forty of these subjects <\connective form=also text=also id=F2166_FUL6_12.txt.raw_203 relation=Expansion\> had a chest roentgenogram yearly for three years. Electrocardiograms were obtained in all subjects twice yearly. 

Standard M-mode echocardiography was performed once a year in all 43 members and more frequently in several members after a change in the results of clinical examination. Signs of mitral-valve prolapse either the midsystolic "buckling" type or the holosystolic "hammocking" type and of congestive cardiomyopathy were identified on the echocardiograms according to published criteria 13,14. 


Samples of venous blood were obtained from all 43 members on two consecutive days after an overnight fast twice a year and on additional occasions in some of the subjects. The blood was centrifuged and deproteinized; it was <\connective form=then text=then id=F2166_FUL6_12.txt.raw_58 relation=Temporal\> analyzed for amino acid content, including taurine, with a Beckman 120C Amino Acid Analyzer Beckman Instruments and with 1 μmol of norleucine added as an internal standard. The results were compared with values obtained in three groups of controls: 20 normal persons, 18 unrelated patients with mitral-valve prolapse, and 12 unrelated patients with idiopathic congestive cardiomyopathy. 

Twenty-four-hour urine samples were collected from all family members in bottles containing toluene twice yearly or more frequently. The total volume was recorded and urinary creatinine measured. A standard volume was centrifuged after removal of ammonia and analyzed for amino acid content including taurine with the Beckman Analyzer. The results were compared with the same normal control group and the control groups who had prolapse and cardiomyopathy. 

After three days of a diet containing less than 50 mg of taurine per 24 hours, the 43 subjects were placed on a diet containing 3.0 g of taurine per 24 hours for three days. Serum samples and timed urine specimens were collected for four consecutive days. Values for renal taurine clearance in milliliters per minute per 1.73 m2 of body-surface area were calculated with the standard formula for all subjects, before taurine loading and after 72 hours of loading. The absolute change in taurine clearance during loading the value at 72 hours minus the value before loading was <\connective form=also text=also id=F2166_FUL6_12.txt.raw_204 relation=Expansion\> calculated. The values were compared with those of the control populations described above. 

Myocardial tissue was obtained at autopsy within four hours of the death of three subjects — one with mitral-valve prolapse and refractory ventricular tachycardia and fibrillation, and two who initially had mitral-valve prolapse but in whom congestive cardiomyopathy developed during a two-year period and died within the same year. In two other subjects with congestive cardiomyopathy, tissue was taken from the anterior aspect of the left ventricle at the time of insertion of an epicardial pacemaker. After staining with hematoxylin and eosin and Masson trichrome, the samples were examined microscopically. Routine examination of the gross and microscopic specimens was <\connective form=also text=also id=F2166_FUL6_12.txt.raw_205 relation=Expansion\> performed. 

The myocardial tissue from these five subjects was homogenized in cold 1 per cent picric acid; the suspension was centrifuged at 2000×g at 4°C for 20 minutes, the supernatant removed, and the pellet washed twice with 5 ml of 1 per cent picric acid. The combined supernatants were passed through a resin bed to remove the picric acid, adjusted to a pH of 7.4, and quantitatively analyzed for amino acid contents including taurine with a Beckman 120C Amino Acid Analyzer equipped with an integrator. Internal standards were used in each sample; they consisted of norleucine for neutral and acidic amino acids and α-amino guanido propionic acid for basic amino acids. Portions of the same tissue were analyzed for protein content according to the method of Lowry et al, 15 and for collagen content through measurement of hydroxyproline levels, from which a value for total collagen was calculated 16,17. Chromophores measured with the Lowry protein determination are virtually absent from collagen; the value for protein obtained with this method therefore reflects predominantly myosin protein. 

Myocardial tissue samples were <\connective form=also text=also id=F2166_FUL6_12.txt.raw_206 relation=Expansion\> obtained at autopsy in the following control groups and processed in a similar fashion: 10 patients who had died with trauma but without heart disease the "normal" controls, who were matched for the age and sex of the five kindred subjects; and 12 unrelated patients who had died with idiopathic congestive cardiomyopathy. 

The initial survey of the family revealed two frequent diagnoses: congestive cardiomyopathy and mitral-valve prolapse Fig 1. Eight members five men and three women ranging in age from 17 to 71 years had an abnormally large apex impulse that was displaced to the left 2 to 4 cm from the midclavicular line and associated with a loud, palpable ventricular gallop. Their chest roentgenograms showed a markedly enlarged cardiac silhouette with increased pulmonary venous markings; electrocardiograms of six of the eight revealed atrial fibrillation; and all eight echocardiograms demonstrated typical features of congestive cardiomyopathy Fig 2. 

Ten other family members six male and four female ranging in age from five to 56 years had a nonejection click and <\connective form=either or text=either id=F2166_FUL6_12.txt.raw_213 relation=Expansion\> a late-systolic murmur <\connective forme=either or text=or id=F2166_FUL6_12.txt.raw_213 relation=Expansion\> a holosystolic murmur at the apex on auscultation. Six of these 10 had a palpable midsystolic apical retraction. Electrocardiograms of eight showed prolonged Q-T intervals for the respective heart rates. Chest roentgenograms revealed no abnormalities, but echocardiograms demonstrated <\connective form=either or text=either id=F2166_FUL6_12.txt.raw_214 relation=Expansion\> late-systolic <\connective forme=either or text=or id=F2166_FUL6_12.txt.raw_214 relation=Expansion\> the holosystolic hammocking type of mitral-valve prolapse Fig 3. 

The remaining 25 family members had normal results at cardiovascular examination, chest roentgenography and echocardiography, <\connective form=although text=although id=F2166_FUL6_12.txt.raw_33 relation=Comparison\> 10 of them had sinus arrhythmia on electrocardiography Fig 1. None of the preadolescent members had any evidence of congestive cardiomyopathy, <\connective form=although text=although id=F2166_FUL6_12.txt.raw_34 relation=Comparison\> five had mitral-valve prolapse. The youngest member with congestive cardiomyopathy was 17 when the study began. In two subjects who were initially identified as having mitral-valve prolapse an 18-year-old brother and his 16-year-old sister Fig 1, fourth generation but no clinical or echocardiographic evidence of cardiac-muscle dysfunction, typical features of congestive cardiomyopathy developed over a two-year period marked cardiac enlargement, loud ventricular gallop, interstitial pulmonary edema, and characteristic echocardiographic findings. Both died suddenly within a year of each other. The results of their amino acid studies and myocardial-tissue examinations are described below. 

Values for serum taurine and all other amino acids measured were not significantly different in any of the family members from values obtained in the three control groups selected for this amino acid examination see Methods. 

All urinary amino acid levels, except those of taurine, were within the normal range of our laboratory standards. <\connective form=however text=However id=F2166_FUL6_12.txt.raw_93 relation=Comparison\>, in the 10 family members initially discovered to have mitral-valve prolapse, urinary taurine levels were significantly elevated 220±31 mg per gram of creatinine in comparison with the normal controls 89±32 mg, P<0.001 by analysis of variance, as were the levels measured in the eight family members with congestive cardiomyopathy 426±45 mg, P<0.001. The remaining subjects with normal results at cardiovascular examination had urinary taurine levels within the normal range. In the two subjects whose condition changed from mitral-valve prolapse to congestive cardiomyopathy, urinary taurine levels increased from 220 to 451 and from 230 to 473 mg per gram of creatinine over the two-year period. 

After the taurine load, serum taurine levels increased by similar amounts during the first 24 hours in family members with mitral-valve prolapse or congestive cardiomyopathy and in the normal controls Fig 4. Despite continued high taurine intake, serum levels fell to base-line values in both family members and controls tested 72 hours after loading, whereas urinary taurine levels increased by similar increments. 

In the normal controls, the fraction of the taurine load of 3.0 g per 24 hours that was excreted in the urine was 2.8±0.2 per cent mean ±1 S.D. on the first day, 1.3 ±0.1 per cent on the second day, and less than 1.0 per cent on the third and fourth days. In family members with mitral-valve prolapse, values on the same four days of the taurine loading test were 3.5±0.4 per cent P<0.05 as compared with values in the normal controls on the first day, 1.0±0.1 per cent, and less than 1.0 per cent. In family members with congestive cardiomyopathy, the values were 2.3±0.3 per cent, 2.1 ±0.2 per cent P<0.05 as compared with values in normal controls on the second day, and less than 1.0 per cent, respectively. Only the values for the first day in the members with mitral-valve prolapse and for the second day in the members with congestive cardiomyopathy were significantly different P<0.05 from those in the normal controls. In both family members and controls the percentage of the taurine load excreted decreased with each consecutive 24-hour period; serum levels decreased after the first 24-hour period. <\connective form=therefore text=Therefore id=F2166_FUL6_12.txt.raw_199 relation=Contingency\>, <\connective form=either or text=either id=F2166_FUL6_12.txt.raw_215 relation=Expansion\> the taurine load was not absorbed to the same extent on each day, <\connective forme=either or text=or id=F2166_FUL6_12.txt.raw_215 relation=Expansion\> more of the load was taken up by the heart or skeletal muscle or by both. 

Before taurine loading, family members with mitral-valve prolapse and congestive cardiomyopathy had values for renal taurine clearance that were significantly greater P<0.01 than values in the three control groups. Additional information regarding the renal handling of taurine was obtained <\connective form=when text=when id=F2166_FUL6_12.txt.raw_87 relation=Temporal\> the absolute change in "taurine clearance" after 72 hours of loading was calculated Table 1. These values were substantially lower than those for creatinine, suggesting that a considerable portion of filtered taurine is reabsorbed by the renal tubules, as shown by other investigators 18 19 20. The observation that renal excretion increased in response to a taurine load in affected family members despite a normal serum concentration suggests that tubular reabsorption was reduced in these subjects. 


Autopsy of the subject with mitral-valve prolapse, tachycardia, and fibrillation revealed moderate myocardial fibrosis in both left ventricular papillary muscles and patchy fibrosis in a small region of subjacent myocardium within the endocardial half of the left ventricular wall; the rest of the myocardial tissue was normal Both the extramural and intramural coronary arteries were normal The mitral-valve leaflets were not scalloped, nor were the chordae tendineae elongated. Special stains of the mitral leaflets showed no evidence of mucinous transformation, which is found in many cases of mitral-valve prolapse 21. 

Study of autopsy tissue from the two subjects who initially had mitral-valve prolapse <\connective form=but text=but id=F2166_FUL6_12.txt.raw_73 relation=Comparison\> who eventually had congestive cardiomyopathy demonstrated myocardial fibrosis in the papillary muscles and in both left and right ventricular myocardium. Moderate myofiber hypertrophy 22 to 30 μm in diameter was <\connective form=also text=also id=F2166_FUL6_12.txt.raw_207 relation=Expansion\> observed in left ventricular tissue from both hearts. The mitral-valve leaflets, chordae tendineae, and coronary arteries were normal 

<\connective form=although text=Although id=F2166_FUL6_12.txt.raw_35 relation=Comparison\> the amount of tissue obtained from the other two subjects with congestive cardiomyopathy and pacemaker implantation was small, considerable myocardial fibrosis was present. 

Analysis of myocardial amino acid showed no differences between values in the five family members examined histologically and those in the normal controls, except for the values for taurine. In Table 2Myocardial Taurine, Hydroxyproline, and Collagen Concentrations in Family Members and Controls., values for cardiac taurine concentration in these family members are compared with values in the two control groups selected for this amino acid analysis see Methods. The taurine concentrations in controls with cardiomyopathy were approximately twice as high as those in the normal controls 57.3±6.3 vs. 29.4±3.1 μmol per gram of tissue, dry weight. <\connective form=however text=However id=F2166_FUL6_12.txt.raw_94 relation=Comparison\>, levels at wet and dry weight of the papillary-muscle tissue samples obtained from the family member dying with mitral-valve prolapse were less than half the levels in the normal controls; wet-weight and dry-weight levels in samples of the left ventricular myocardium in family members with congestive cardiomyopathy were less than one fourth the levels in this control group. 

Because of differences in the amounts of fibrotic tissue in all the hearts in the control and subject groups, the values were <\connective form=also text=also id=F2166_FUL6_12.txt.raw_208 relation=Expansion\> expressed as micromoles of taurine per gram of myocardial protein Table 2. Controls with cardiomyopathy had protein taurine values that were more than twice those in normal controls. In contrast, family members with congestive cardiomyopathy, in whom the amount of collagen in the heart 94.7±8.2 mg per gram of tissue, dry weight was similar to the amount in controls with cardiomyopathy 100.7±13.4, had taurine values that were less than one third the values in normal controls 9.2±2.2 vs. 33.2±3.6 μmol per gram of protein and an amount even smaller than that in controls with cardiomyopathy 77.9±7.5 μmol. <\connective form=thus text=Thus id=F2166_FUL6_12.txt.raw_184 relation=Contingency\>, cardiac taurine levels in affected family members were much lower than those in either "control group," even <\connective form=when text=when id=F2166_FUL6_12.txt.raw_88 relation=Temporal\> normalized for myocardial protein and myocardial collagen, and were not simply a result of dilution because of larger amounts of fibrous tissue. Our study suggests that hypertaurinuria is associated with low levels of taurine in the myocardium, one type of the mitral-valve-prolapse syndrome, and a form of congestive cardiomyopathy. Hypertaurinuria may <\connective form=also text=also id=F2166_FUL6_12.txt.raw_209 relation=Expansion\> account for the relatively rapid development of congestive cardiomyopathy in the two subjects with initially uncomplicated mitral-valve prolapse. Whether this combination of disorders is more prevalent in the general population than it is in this one kindred is unknown; <\connective form=however text=however id=F2166_FUL6_12.txt.raw_95 relation=Comparison\>, it is probably a genetic consequence of the inbreeding in this family. It is <\connective form=also text=also id=F2166_FUL6_12.txt.raw_210 relation=Expansion\> not clear whether the depressed myocardial taurine levels are etiologically related to the two heart diseases, whether all three disorders are coincidental genetic accidents, or whether the depressed myocardial taurine concentration is the cause of congestive cardiomyopathy alone and is unrelated to mitral-valve prolapse. The available evidence favors the hypothesis that all three problems are related. Regardless of the extent of the possible interrelation, one additional point is evident: the syndrome of mitral-valve prolapse, with all its clinical and echocardiographic features, was not caused by mucinous transformation, scalloping of the mitral leaflets, or elongation of the chordae tendineae. Rather, a pathologic process in the papillary muscles seems to be the underlying cause — an interpretation that supports the view that mitral-valve prolapse is a syndrome with diverse causes 34 5 6 7. Taurine 2-aminoethanesulfonic acid is the most abundant free amino acid in the heart, accounting for more than half the total free amino acid pool 22. Circulating taurine derived from either dietary sources or from biosynthetically active tissues is taken up at various sites, particularly in cardiac and skeletal muscle 23,24. The rate of turnover of taurine in normal myocardium is extremely slow, with a half-life of approximately 15 days 22. Cardiac taurine levels are unchanged by a pyridoxine-deficient diet, fasting, or taurine loading; <\connective form=however text=however id=F2166_FUL6_12.txt.raw_96 relation=Comparison\>, taurine concentrations rise in failing25 or hypertrophied26 myocardial tissue. Loss of cardiac-muscle taurine has been demonstrated in left-ventricular tissue of anesthetized dogs in which ischemia was induced by occlusion of the coronary artery; in the absence of fibrosis, loss occurred as early as four hours after occlusion in one study 27 and at 16 hours in another 28. In the family members in our study who were patients, <\connective form=however text=however id=F2166_FUL6_12.txt.raw_97 relation=Comparison\>, there was no evidence of extramural or intramural narrowing of the coronary artery in the cardiac tissue in which myocardial taurine levels were depressed. Furthermore, there was no clinical evidence of ischemic heart disease in these patients. On the other hand, studies in animals 25,26 and one study of human myocardium at autopsy25have both shown moderate to marked elevation of taurine levels in failing or hypertrophied hearts; this elevation was <\connective form=also text=also id=F2166_FUL6_12.txt.raw_211 relation=Expansion\> present in the controls with cardiomyopathy in our study. <\connective form=however text=However id=F2166_FUL6_12.txt.raw_98 relation=Comparison\>, family members with congestive cardiomyopathy had abnormally low levels of myocardial taurine in failing hearts. It <\connective form=therefore text=therefore id=F2166_FUL6_12.txt.raw_200 relation=Contingency\> appears that at least some of these family members have an unusual combination of features: an absence of myocardial infarction in the presence of myocardial taurine levels that were abnormally low, particularly in comparison with levels found in other studies suggesting that myocardial taurine is elevated in congestive heart failure, perhaps as a compensatory positive inotropic mechanism 22. <\connective form=although text=Although id=F2166_FUL6_12.txt.raw_36 relation=Comparison\> a direct causal relation cannot yet be firmly established, it seems likely that in subjects described in this study, clinical and echocardiographic features of mitral-valve prolapse were produced by an early, localized cardiomyopathy in the papillary muscles that was associated with a depressed myocardial taurine concentration and eventual myocardial fibrosis. The congestive cardiomyopathy probably represents an extension of the local process to more or all of the remaining myocardium.