HYPERTROPHIC cardiomyopathy also known as idiopathic hypertrophic subaortic stenosis and asymmetric septal hypertrophy is a common disorder of cardiac muscle characterized by asymmetric septal hypertrophy, systolic anterior motion of the mitral valve in most cases and myofiber disarray in the interventricular septum. Variable features include dynamic obstruction of the left ventricular outflow tract, malposition of the mitral leaflets and mitral regurgitation. <\connective form=although text=Although id=F2165_FUL6_12.txt.raw_26 relation=Comparison\> studies using echocardiography have demonstrated an autosomal dominant pattern of inheritance,1considerable controversy exists concerning the occurrence of sporadic cases 2 3 4 and whether systemic hypertension may be associated with either the familial or sporadic form 5 6 7 8. To characterize the genetic features of this heritable disease further, to determine the associated role of systemic hypertension and to help differentiate hypertrophic cardiomyopathy from disorders that have similar hemodynamic and echocardiographic features, we performed human leukocyte antigen HLA typing on a large number of patients with typical clinical and echocardiographic hypertrophic cardiomyopathy probands and on family members from nine separate kindreds. 

Seventy symptomatic patients who had dyspnea, syncope, angina or palpitation with hypertrophic cardiomyopathy were examined clinically, and their medical records were reviewed in detail by at least one of the investigators. Patients with known coronary atherosclerotic heart disease, pulmonary disease, valvular heart disease and severe anemia were excluded from the study. The probands ranged in age from 28 to 77 years mean 48 years and included 49 males and 21 females who lived in one of two counties surrounding Grady Memorial Hospital in Atlanta, Georgia. Forty-eight were black; the remaining 22 were white. Standard M-mode echocardiography Unirad, Smith-Kline Instruments was performed on all probands, and the findings were reviewed by two other observers to confirm the diagnoses. Echocardiographic criteria for inclusion as a case of primary hypertrophic cardiomyopathy were a ratio of septal to left ventricular posterior wall greater than 1.3:1 and decreased motion of the interventricular septum. The presence or absence of mitral systolic anterior motion was noted. Cardiac catheterization was performed to rule out the presence of obstructive coronary-artery disease in 24 of the 70 probands. 

We determined the HLA-A and HLA-B locus antigens in all 70 probands by the lymphocyte microcytotoxicity method9 using 72 standardized antiserums to assess 37 specificities. An equal number of persons matched for age, race and sex from the same geographic area as that of the probands served as normal control subjects. All control subjects had normal cardiovascular examinations and normal echocardiograms. HLA antigens were determined by the same laboratory technician, who did not know whether the blood was from an affected patient or a control subject. We confirmed the reproducibility of the method in this laboratory by submitting second samples of blood from 10 patients and 10 control subjects, using only identification numbers and demonstrating the same group of antigens for each in duplicate samples. 

Nine of the probands had at least three family members willing or able to come to Atlanta for study. The family members of two of the probands comprised 50 of the 86 total individuals available for study by echocardiographic examination and HLA testing. Of the total 86 individuals, 46 were males, 40 were females, 64 were white, 22 were black, and their ages ranged from one to 66 years mean 34 years. The echocardiographic evaluation showed a ratio of septal to left ventricular posterior wall ranging from 1.5:1 to 2.8:1 in the probands. In 68 of the 70 probands, mitral systolic anterior motion was <\connective form=also text=also id=F2165_FUL6_12.txt.raw_166 relation=Expansion\> present; a characteristic systolic murmur was present in 69 of the probands. <\connective form=although text=Although id=F2165_FUL6_12.txt.raw_27 relation=Comparison\> response of the murmur to several provocative maneuvers was variable, intensity of the murmur increased in all patients <\connective form=when text=when id=F2165_FUL6_12.txt.raw_70 relation=Temporal\> they stood up from a squatting position. 

The results of HLA typing in symptomatic probands are summarized in Table 1. Analysis of the clinical data collected on each proband revealed a striking difference in the prevalence of systemic hypertension between probands with either a B-12 whites or B-5-complex blacks antigen and those who lacked these antigens. Only four of the 43 probands with a B-12 or B-5-complex antigen had mild systemic hypertension pretreatment diastolic blood pressure greater than 90 mm Hg but less than 100 mm Hg for less than five years, whereas 24 of the 27 probands without a B-12 or B-5-complex antigen had severe, long standing hypertension diastolic blood pressure greater than 105 mm Hg both before and during treatment on multiple clinic visits for at least five years. <\connective form=when text=When id=F2165_FUL6_12.txt.raw_71 relation=Temporal\> we compared only nonhypertensive probands using chi-square analysis with normal control subjects none were hypertensive, 90 per cent of the white probands nine of 10 were found to have the B-12 antigen as compared to 23 per cent of the control subjects P<0.001, and 94 per cent of the black probands 30 of 32 were shown to have a B-5-complex antigen as compared to 33 per cent of the control subjects P<0.001. To ascertain whether systemic hypertension was the factor that determined the differences in specific antigen frequencies, we <\connective form=also text=also id=F2165_FUL6_12.txt.raw_167 relation=Expansion\> tissue-typed 70 patients with systemic hypertension of severity comparable to that of our patients but without hypertrophic cardiomyopathy. The frequency of B-12 antigen in 22 white hypertensive control subjects was 27 per cent, and the frequency of the B-5-complex antigens in 48 black hypertensive control subjects was 35 per cent; neither value was statistically different from that of our nonhypertensive control subjects. 

The results of echocardiography studies and HLA typing in family members are summarized in Table 2. Family members of both B-12- and B-5-complex-positive probands and family members of probands without these antigens were studied. Echocardiograms revealed asymmetric septal hypertrophy in 26 of the 86 family members studied, but only in members from families in which the proband had a B-12 whites or B-5-complex blacks antigen. All of the 26 family members who had asymmetric septal hypertrophy <\connective form=also text=also id=F2165_FUL6_12.txt.raw_168 relation=Expansion\> shared the proband's haplotype, which contained <\connective form=either or text=either id=F2165_FUL6_12.txt.raw_173 relation=Expansion\> the B-12 <\connective forme=either or text=or id=F2165_FUL6_12.txt.raw_173 relation=Expansion\> a B-5-complex antigen. One five-year-old boy had the proband's haplotype, containing the B-12 antigen; at this age, <\connective form=however text=however id=F2165_FUL6_12.txt.raw_72 relation=Comparison\>, echocardiography did not demonstrate asymmetric septal hypertrophy. Asymmetric septal hypertrophy was not found in any family member of a B-12-negative or B-5-complex-negative proband, even in family members who shared an identical haplotype with the proband. 

Only a few of these subjects were available for study, <\connective form=however text=however id=F2165_FUL6_12.txt.raw_73 relation=Comparison\>, <\connective form=so that text=so that id=F2165_FUL6_12.txt.raw_31 relation=Contingency\> this pattern may not hold true for larger samples. Representative pedigrees are shown in Figures 1, 2 and 4. Figure 1 shows an HLA-linked family of a nonhypertensive white proband, Figure 2 the family pedigree of a white proband with long standing, severe hypertension, and Figure 3 the family pedigree of a black, nonhypertensive proband. 

We calculated linkage estimations by determining the relative probabilities that the sequence of genotypes for asymmetric septal hypertrophy and HLA among siblings resulted from linked loci with a certain percentage of meiotic crossing-over as compared to the probability that the sequence would occur by chance from unlinked loci. The calculation was performed for several recombination frequencies θ = 0.0, 0.05, 0.1, 0.2, 0.3 and 0.4 from statistical tables10 or from a computer program LIPED11 and was expressed as a lod score the logarithm of the odds that two genes are linked. An allelic frequency of 0.005 was used for the allele that produces asymmetric septal hypertrophy. A positive lod score of 3 or greater 103, or 1000:1 was accepted as proof of linkage. Lod scores were calculated for three white families and three black families in which complete information was available on both the presence or absence of asymmetric septal hypertrophy and the HLA genotype of both parents. The lod scores for these six families are shown in Table 3. Calculations were made with the assumption that the penetrances of homozygote and heterozygote for asymmetric septal hypertrophy are 0.95 <\connective form=and text=and id=F2165_FUL6_12.txt.raw_114 relation=Expansion\> that the five-year-old boy in family 1 could not be diagnosed at this age because of technical problems related to echocardiographic measurements of ventricular wall thickness in children. 

The results of our investigation suggest the following three conclusions: hypertrophic cardiomyopathy represents at least two diseases, which include a heritable, nonhypertensive form and a sporadic form associated, perhaps causally, with severe systemic hypertension; certain human leukocyte antigens may be helpful in distinguishing between the familial and nonfamilial forms of hypertrophic cardiomyopathy and different antigens will be useful in different ethnic groups; and specific HLA testing may prove to be a simple screening method for detecting affected members of kindred with the heritable form of hypertrophic cardiomyopathy. These results may help resolve three controversies concerning hypertrophic cardiomyopathy and reflect the diversity of this condition. These controversies relate to the following problems: determination of the appropriate diagnostic criteria for this disorder, <\connective form=since text=since id=F2165_FUL6_12.txt.raw_67 relation=Contingency\> several mimics of the echocardiographic, hemodynamic and pathologic features of hypertrophic cardiomyopathy have been described; of why both familial and sporadic forms of hypertrophic cardiomyopathy exist; and of the role that systemic hypertension has in this disorder, as an etiologic factor or an associated phenomenon. 

It is now clear that no single isolated feature of primary hypertrophic cardiomyopathy is pathognomonic for this disease. Echocardiography remains the best screening method and is considerably more sensitive than are other clinical technics for diagnosing cases falling into the disease spectrum 12. However, diagnosis based on the detection of asymmetric septal hypertrophy by echocardiography alone has certain pitfalls, <\connective form=because text=because id=F2165_FUL6_12.txt.raw_150 relation=Contingency\> asymmetric septal hypertrophy has been described in certain forms of congenital heart disease, 13 14 15 16 in weight lifters,17 in patients with coronary-artery disease18 and, occasionally, in other cardiac disorders. The medical literature is replete with reports of cardiac disorders that have similar echocardiographic, 13, 15 16 17 18 19 20 21 hemodynamic 22 23 24 or pathologic 14,16,25 features. It appears that pathological examination of the heart may be the most reliable diagnostic method. Maron et al have recently reported that hearts of patients with primary hypertrophic cardiomyopathy demonstrated septal myofiber disarray involving approximately 50 per cent of the total area of septal sections studied microscopically, as compared to only 1 per cent in other forms of cardiac disease.26 Our data suggest that without the benefit of a direct histologic examination, the presence of a B-12 or B-5-complex histocompatibility antigen, in addition to asymmetric septal hypertrophy and mitral systolic anterior motion on echocardiography, may aid in the diagnosis of the heritable, or primary, form of hypertrophic cardiomyopathy in the living patient. 

Familial, 1,2,27 congenital 28,29 and randomly occurring 2,4 varieties of hypertrophic cardiomyopathy have been described. Documentation of the sporadic occurrence of this disease may be questioned in earlier reports since accurate, noninvasive methods of diagnosing hypertrophic cardiomyopathy in asymptomatic kindreds were not available. In 1973, Clark et al described the pattern of inheritance for asymmetric septal hypertrophy, an integral feature of hypertrophic cardiomyopathy, as an autosomal dominant trait with almost complete penetrance.1 This genetic pattern has been corroborated by several investigators. The fact that both autosomal dominant and recessive inheritance patterns have previously been described 30,31 may be attributable to the lack of selective screening methods eg, echocardiography or to the presence of multiple forms of the disease. Our results suggest that two common forms of hypertrophic cardiomyopathy exist, both of which satisfy the current clinical, hemodynamic and echocardiographic criteria. One variety appears to be familial, linked to the HLA region of chromosome 6, associated with specific HLA antigens and unrelated to systemic hypertension, <\connective form=whereas text=whereas id=F2165_FUL6_12.txt.raw_147 relation=Comparison\> the other variety is sporadic, shows no linkage or association with HLA and is frequently found in patients with severe hypertension. 

In major reviews by Braunwald 2 and by Goodwin, 3 systemic hypertension was rare or nonexistent in patients with hypertrophic cardiomyopathy. Goodwin stated that "hypertrophic obstructive cardiomyopathy and systemic hypertension do not appear to be causally related 3. However, in earlier reports by Brock 5 and by East and Bain,6 severe systemic hypertension was a prominent clinical feature in several patients. More recently, Wigle 7 and Burchell 8 described patients with essential hypertension in whom clinical and hemodynamic features of hypertrophic cardiomyopathy later developed. There appears to be no clear explanation for the lack of systemic hypertension in some large series of patients with hypertrophic cardiomyopathy <\connective form=unless text=unless id=F2165_FUL6_12.txt.raw_61 relation=Expansion\> more than one form of the disease exists. <\connective form=although text=Although id=F2165_FUL6_12.txt.raw_28 relation=Comparison\> a chronically increased resistance to left ventricular ejection is said to evoke concentric hypertrophy of the left ventricular chamber, it now appears that the exact ratio of septal to left ventricular free wall hypertrophy in some patients with systemic hypertension is variable, that this ratio may satisfy the echocardiographic criteria for asymmetric septal hypertrophy, <\connective form=and text=and id=F2165_FUL6_12.txt.raw_137 relation=Expansion\> that this ratio may <\connective form=also text=also id=F2165_FUL6_12.txt.raw_169 relation=Expansion\> be associated with other clinical and echocardiographic features of hypertrophic cardiomyopathy. Asymmetric septal hypertrophy has <\connective form=also text=also id=F2165_FUL6_12.txt.raw_170 relation=Expansion\> been demonstrated in two hypertensive patients studied by Maron et al32 However, the high prevalence of systemic hypertension in the southeastern United States approximately 13 to 18 per cent of adults may explain the frequency of this relation in our study. 

<\connective form=although text=Although id=F2165_FUL6_12.txt.raw_29 relation=Comparison\> it is uncertain why specific HLA antigens should have any relation to hypertrophic cardiomyopathy, two reasonable hypotheses can be proposed: there may be a linkage disequilibrium between the genes that determine asymmetric septal hypertrophy and the histocompatibility loci on the sixth chromosome; or the HLA antigens, which are cell-surface proteins, may influence the embryonic development of certain cardiac structures, such as the interventricular septum. 

The combined lod score of 7.7 in our six families with hypertrophic cardiomyopathy can be accepted as proof of linkage between the HLA region on chromosome 6 and the gene or genes that determines asymmetric septal hypertrophy, an integral feature of hypertrophic cardiomyopathy and the only feature present in asymptomatic family members. There is no obvious reason why B-12 antigen was more common in white families and the B-5-complex antigens were more common in black families. The other possible relation between HLA loci and hypertrophic cardiomyopathy is based on the observations that HLA antigens are cell-surface proteins,33 that some cell-surface proteins are ontogenetic cell-aggregating factors 34,35 and that certain HLA antigens are actually "differentiation antigens" for particular organ systems 36,37. Since many HLA antigens are present in human fetal cells, 38 they may have a similar developmental function for the human heart. Regardless of the reason for the association, the HLA antigens may help to differentiate distinct sub-groups among heterogeneous diseases or syndromes and to reclassify diseases that are clinically similar. The value of the antigens is apparent for hypertrophie cardiomyopathy. Perhaps of even greater importance at present is the potential usefulness of HLA typing in the early diagnosis of hypertrophic cardiomyopathy in the kindred of patients with the heritable form of this disease.