Cancer is a class of diseases in which a group of cells display uncontrolled growth, invasion, and sometimes metastasis. These malignant properties of cancer differentiate them from benign tumors, which do not invade or metastasize.1 According to the American Cancer Society, approximately 1.3 million women worldwide will be diagnosed with breast cancer annually, and approximately 465 000 of these women will die from this disease 2. Chemotherapeutic agents, such as doxorubicin, paclitaxel, cyclophosphamide, carboplatin, and cisplatin are commonly used in the treatment of breast cancer. Cisplatin, a platinum-based chemotherapeutic drug, is widely used to treat various types of cancers, such as lung, bladder, colorectal, and breast cancers 3. This platinum complex reacts in vivo, causing cross-linking of DNA, which ultimately triggers apoptosis 4. Higher doses of cisplatin manifest toxicities, such as nephrotoxicity and neutropenia, <\connective form=thus text=thus id=F300_FULL6_12.txt.raw_211 relation=Contingency\>, limiting its clinical use 3,5,6. DNA damaging agents usually have less toxicity in non-proliferating cells, <\connective form=yet text=yet id=F300_FULL6_12.txt.raw_52 relation=Comparison\> the quiescent proximal tubule cells of kidney are selectively damaged by cisplatin 7. Recent reports have shown thatTNF-a plays a central role in cisplatin-induced renal injury by the activation of various chemokines and cytokines in the kidney 8. <\connective form=therefore text=Therefore id=F300_FULL6_12.txt.raw_266 relation=Contingency\>, the inhibition of TNF-a and DNA damage by some anti-inflammatory agents might prevent the activation of the cytokine network, <\connective form=thus text=thus id=F300_FULL6_12.txt.raw_212 relation=Contingency\> providing protection against cisplatin-induced nephrotoxicity. Coumarins are widely distributed in plants and have multiple pharmacological activities. Esculetin 6,7-dihydroxycoumarin, derived from the Chinese herb Artemisia scoparia, is used as a traditional medicine 9. It shows various pharmacological activities, namely the inhibition of platelet aggregation, 10 5-lipoxygenase activity,11 and xanthine oxidase activity 12. It inhibits oxidative damage induced by tert-butyl hydroperoxide in the rat liver 13. Furthermore, it has shown anticancer activity in N-methyl-N-nitrosourea-induced mammary carcinogenesis in rats, 14 as well as in the M.D. Anderson-metastatic breast cancer-231 MDA–MB-231 human breast cancer cell line 15. Epigenetic mechanisms play an important role in gene expression patterns in mammals and are one of the hallmarks of cancer 16. The mammalian genome contains highly-conserved basic proteins known as histones that regulate the gene-expression profile in various tissues 17. Alterations in histone modifications have been linked to the deregulation of many genes involved in cancer development and progression.18 Acetylation and methylation of histone H3 has been linked with epigenetic aberrations in cancer cells 19. Based on these facts, we examined the effect of esculetin on cisplatin-induced nephrotoxicity and its anticancer activity in rats bearing 7,12-dimethylbenzaanthracene DMBA-induced mammary tumors. 


Dimethylbenzaanthracene and esculetin were purchased from Sigma St Louis, MO, USA. Blood urea nitrogen BUN and albumin kits were purchased from Accurex Mumbai, India. Lilly Laboratories cell-porcine kidney LLC– PK1 renal epithelial cells were procured from American Type Culture Collection ATCC, Rockville, MD, USA. All other chemicals and materials were purchased from Sigma St Louis, MO, USA, unless otherwise specified. All the experiments were approved by the Institutional Animal Ethics Committee and complied with the Guide for the Care and Use of Laboratory Animals, published by the US National Institutes of Health NIH publication number 85-23, revised 1996 on the handling of experimental animals. Female Sprague–Dawley SD rats, weighing 160–180 g, were procured from the central animal facility of the institute and kept under controlled environmental conditions of temperature 22 ± 2_C, relative humidity 50 ± 5 and a 12-h light ⁄ dark cycle. Standard animal feed Pranaw Agro Industries, New Delhi, India and water was provided to the animals ad libitum. Considerable care was given to the rats during tumor development, and the animals were kept under the supervision of a fully-trained veterinarian. The general housing conditions bedding, accessibility to food and water, cage space etc. were hygienic and carefully maintained. The rats bearing mammary tumors were examined daily for signs of distress or pain. Special attention was given at 12 weeks, when the tumors were developed. The overall clinical condition, including appearance, posture, body temperature, presence of persistent anorexia and ⁄ or labored respiration, and behavioral and physiological responses of every tumor-bearing animal, were routinely monitored. The food and water intake, body weight, and tumor volume were frequently assessed. The animals were checked for ulceration or distension of tumors. The animals, which were expected to shortly become moribund, were anaesthetized and killed humanely by cervical dislocation. Female SD rats 160–180 g were gavaged with 100 mg DMBA⁄ kg body weight single dose, dissolved in olive oil, as described by Sukumar et al20 The animals were killed <\connective form=when text=when id=F300_FULL6_12.txt.raw_61 relation=Temporal\> the tumor diameter reached 2 cm, the animals became moribund, or after the completion of the experiment. Female SD rats were initially divided into two groups: normal control group 1, which received olive oil, and the DMBA-treated group group 2, which received DMBA 100 mg⁄ kg, single dose. Initially, 40 animals were administered DMBA, from which four died within 5 weeks of DMBA administration. After 12 weeks, the presence of mammary tumors was confirmed by breast palpation. The animals were palpated twice a week, starting 5 weeks after DMBA administration in order to record the appearance, location, and size of tumors.21 Breast tumors with a diameter of <2 cm were included in the study. The DMBA-treated rats were <\connective form=then text=then id=F300_FULL6_12.txt.raw_44 relation=Temporal\> grouped into four different groups on the basis of their tumor volume. Rats bearing DMBA-induced mammary tumors, which received normal saline 0.9 w⁄ v, served as the mammary tumor control group group 2, n = 9. Rats bearing DMBA-induced mammary tumors treated with esculetin 50 mg⁄ kg, per orally po for the first 5 days suspended in 0.5 carboxymethyl cellulose CMC served as group 3 n = 9. Rats bearing DMBA-induced mammary tumors treated with cisplatin 7.5 mg⁄ kg, intraperitoneally ip on the fifth day dissolved in normal saline served as group 4 n = 9. Rats bearing DMBAinduced mammary tumors pretreated with esculetin 50 mg⁄ kg, po, for first 5 days and <\connective form=then text=then id=F300_FULL6_12.txt.raw_45 relation=Temporal\> treated with a single dose of cisplatin 7.5 mg⁄ kg, ip on the fifth day served as group 5 n = 9. Tumor volume measurements were done on days 1, 5, 8, 11, and 14. Biochemical parameters were estimated on day 9. All the animals were euthanized on day 15. Total white blood cell WBC count, histopathology, and Western blotting were done after euthanizing the animals. All the animals were maintained on a standard diet and water during the entire period of study. Blood samples were collected from the rats’ tail veins in heparinized centrifuge tubes, and plasma was separated by centrifugation at 2300g. Plasma creatinine was measured by picric acid colorimetric method. Briefly, plasma 50 lL was added to saturated picric acid–NaOH solution 200 lL in a microtiter plate. Samples were incubated for 15 min, and absorbance was measured at 490 nm. Blood urea nitrogen and plasma albumin were determined colorimetrically using commercially-available, standard kits Accurex, Accurex Biomedical Pvt. Ltd, Mumbai, India, according to the manufacturer’s instructions. Measurements were made for visible tumors; the shortest and longest diameters of the tumors were measured. The volume of the tumor was calculated as P⁄6 a2b, where a is the shortest, and b is the longest diameter of the tumor 22. Blood samples were collected on the last day of the study from the rats’ tail veins in centrifuge tubes containing EDTA 200 mM. The blood samples were immediately analyzed with a hematoanalyzer Melet Schloesing Laboratories, Osny, France for the total WBC count, according to manufacturer’s instructions. Histopathology of kidney and mammary tumors was performed as described previously 22,23. Briefly, the rats were anaesthetized under light ether anesthesia; circulating blood was removed by cardiac perfusion with 0.1 M PBS pH 7.4, and <\connective form=then text=then id=F300_FULL6_12.txt.raw_46 relation=Temporal\> with 4 paraformaldehyde in 0.1 M phosphate buffer pH 7.4 to fix the tissues. Kidney and mammary tumors were removed from the animal, decapsulated, sliced transversely, fixed in 10 formalin, and <\connective form=then text=then id=F300_FULL6_12.txt.raw_47 relation=Temporal\> paraffin embedded for light microscopic evaluation. Histopathological changes were assessed in 25 randomly-selected tissue sections from each group. Sections were stained with Mayer’s hematoxylin and eosin, and observed under an Olympus microscope BX51; Olympus, Tokyo, Japan. Histological quantification of mammary tumors was done as described 24. Briefly, the histological grade was obtained by summing the scores of three parameters: tubular formation, nuclear pleomorphism, and mitotic counts, and <\connective form=then text=then id=F300_FULL6_12.txt.raw_48 relation=Temporal\> classified as follows: 3–5 points, grade I, well differentiated; 6–7 points, grade II, moderately differentiated, and 8–9 points, grade III, poorly differentiated. For histological quantification of the kidney, 100 renal tubules were randomly examined from each animal and scored as 0, 1, 2, and 3 no damage, mild, moderate, and extensive damage, depending on the extent of damage observed. The number of tubules under each score was multiplied with the respective scores, and the sum obtained for the final renal tubule damage score. Cell culture. Lilly Laboratories cell-porcine kidney LLC– PK1 renal epithelial cells, derived from the porcine kidney, were used to evaluate the effect of esculetin treatment on cisplatin- induced nephrotoxicity, as well as DNA damage. Cells were maintained as monolayer cultures in medium 199 supplemented with 10 FBS and antibiotics 100 IU ⁄mL penicillin G and 100 mg⁄mL streptomycin in 5 CO2 at 37_C. All compounds were dissolved in DMSO and diluted with culture medium to a final DMSO concentration of 0.01. Monolayers of LLC–PK1 cells were treated with 0.01 DMSO control, esculetin 50 and 100 lM, cisplatin 50 lM, and pretreatment with esculetin 50 and 100 lM for 1 h, and subsequently treated with cisplatin 50 lM for 24 h. Cell respiration an indicator of cell viability was determined by measuring the mitochondrial-dependent reduction of MTT to formazan.25 Briefly, cells were seeded in 24-well culture plates at a density of 1 á 104 cells ⁄ well. After treatment, MTT 150 lg ⁄mL was added and the cells were incubated for 4 h at 37_C. DMSO 400 lL was added to dissolve the formazan crystals formed. Absorbance was measured at 540 nm, and the results were expressed as the percentage of cell viability, assuming that the viability of the control cells was 100. The single-cell gel electrophoresis SCGE assay was performed as described, with some modifications 26,27. The fluorescent DNA was visualized magnification: 200á using an automated AXIO Imager M1 fluorescence microscope Carl Zeiss, Gottingen, Germany, and the images were captured with image analysis software Comet Imager version 2.0.0. Duplicate slides Sigma were prepared for each treatment and were independently scored. The parameters for the DNA damage analysis include: percentage of tail DNA TDNA, tail length TL, in lm, and tail moment TM. Nuclei, histone isolation, and Western blotting for breast tumors and kidneys were performed as described previously 22,23,28. For Western blotting, the proteins were transferred onto a nitrocellulose membrane. Immunoblot analysis was performed by using anti-monomethyl histone H3K4 rabbit, 1:2500; Millipore, Temecula, CA, USA, anti-monomethyl histone H3K9 rabbit, 1:2500; Millipore, antihistone H3 rabbit, 1:2500; Santa Cruz Biotechnology, Santa Cruz, CA, USA, anti-Akt rabbit, 1:500; Santa Cruz Biotechnology, antiphosphorylated Akt rabbit, 1:1000; Santa Cruz Biotechnology, anti-phosphatase and tensin homolog PTEN; rabbit, 1:500; Santa Cruz Biotechnology, anti-p53 rabbit, 1:500; Cell Signalling, Danvers, MA, USA, anti-GAPDH rabbit, 1:1000; Santa Cruz Biotechnology, anti-TNF-a goat, 1:500; Santa Cruz Biotechnology, anti-actin rabbit, 1:2500; Santa Cruz Biotechnology and HRP-conjugated secondary antibodies antirabbit and antigoat; Santa Cruz Biotechnology. Proteins were detected with the enhanced ECL system and ECL hyperfilm Amersham Pharmacia Biotech, Buckinghamshire, UK. The densitometry analysis was performed by using Image J software NIH, Bethesda, MA, USA. Statistical analysis. Experimental values are expressed as mean ± SEM. A comparison of mean values between various groups was performed by one-way ANOVA, followed by multiple comparisons by Tukey’s test. A P-value <0.05 was considered to be significant. 


Cisplatin- and esculetin- treated rats bearing mammary tumors showed a significant reduction in tumor volume, as compared to control rats bearing mammary tumors Fig 1. Further, esculetin treatment, along with cisplatin, showed a maximum reduction in tumor volume, as compared to cisplatin alone-treated rats Fig 1, which suggests that a combination of esculetin and cisplatin is therapeutically more effective than individual therapies. Control rats displayed normal tumor histology Fig 2a. The esculetin-treated group showed a low grade of differentiation characterized by giant multinucleated cells Fig 2b. Decreased cell density and a higher level of fibrosis were observed in the cisplatin-treated animals Fig 2c. Further, esculetin administration in the cisplatin-treated animals resulted in glandular structures, an indication of functional differentiation Fig 2d. This suggests that a combination of cisplatin and esculetin significantly prevents tumor progression. Figure 2e shows the quantitative analysis of histological examination in mammary tumors. Cisplatin treatment showed an increased expression of p53, and a decreased expression and dephosphorylation of Akt Fig 3a, lane c, as compared to the control rats bearing mammary tumors Fig 3a, lane a. Esculetin treatment alone showed no significant difference in the expression of p53 and the phosphorylation of Akt, but showed decreased expression of Akt Fig 3a, lane b, as compared to the mammary tumor control rats. Furthermore, esculetin treatment, along with cisplatin, showed a maximum increase in the expression of p53, and a decrease in the expression and dephosphorylation of Akt Fig 3a, lane d in mammary tumors Figs 3bi,ii,iv. Cisplatin Fig 3a, lane c and esculetin Fig 3a, lane b treatments alone did not show any significant change in PTEN expression, but esculetin treatment, along with cisplatin, resulted in a maximum increase in PTEN expression Fig 3a, lane d, as compared to the control rats bearing mammary tumors Fig 3biv. <\connective form=thus text=Thus id=F300_FULL6_12.txt.raw_213 relation=Contingency\>, from the above results, it is clearly evident that esculetin treatment, along with cisplatin, potentiates anticancer activity. These results can be well correlated with decreased tumor volume and well-differentiated cell morphology, as revealed by the histological examination of the mammary tumors. We found increased levels of H3 monomethylation at the K4 residue, and decreased levels of H3 monomethylation at the K9 residue in control rats bearing mammary tumors Fig 4, lane a. Esculetin Fig 4a, lane b and cisplatin Fig 4a, lane c treatment decreased histone H3K4 monomethylation and increased histone H3K9 monomethylation. Further, esculetin treatment, along with cisplatin, showed a maximum decrease in histone H3K4 monomethylation, and an increase in histone H3K9 monomethylation Fig 4a, lane d and 4bi,ii, indicating that there is decreased cell proliferation and increased differentiation, which can be well correlated with maximum tumor reduction in combination therapy. Esculetin ameliorates cisplatin-induced nephrotoxicity and acute neutropenia in rats bearing DMBA-induced mammary tumors. The treatment of cisplatin showed significant loss in body weight, as compared to the control rats bearing mammary tumors Table 1. <\connective form=however text=However id=F300_FULL6_12.txt.raw_65 relation=Comparison\>, there was no significant change in the body weight of the esculetin-treated rats. Five days of esculetin treatment for in the cisplatin-treated rats showed significant protection in body weight loss, as compared to the cisplatin-treated rats bearing mammary tumors. Plasma BUN and creatinine levels significantly increased, <\connective form=whereas text=whereas id=F300_FULL6_12.txt.raw_205 relation=Comparison\> the plasma albumin level significantly decreased by cisplatin treatment, as compared to the control rats bearing mammary tumors. Esculetin treatment, along with cisplatin, showed a significant decrease in BUN and creatinine levels and increased albumin levels Table 1. There was no significant change in BUN, creatinine, and albumin levels in the esculetin alone-treated rats. Control rats bearing mammary tumors revealed intact renal tubules and glomeruli with a single layer of epithelial lining in the renal cortex Fig 5a. Esculetin treatment alone Fig 5b had no effect on renal histology. The cisplatin-treated rats showed increased tubular space, vacuolization, and desquamation of epithelial cells in renal tubules Fig 5c. Further, esculetin treatment drastically improved the cellular architecture of the kidney Fig 5d. Figure 5e shows the quantitative analysis of the histopathological examination of the kidneys of the rats bearing mammary tumors. These observations support our data of biochemical protection observed in cisplatin-induced nephrotoxicity. Cisplatin-treated rats bearing mammary tumors showed a significant increase in the expression of TNF-a in the kidney Fig 6, lane d, as compared to the normal controls Fig 6, lane a, as well as the mammary tumor control animals Fig 6, lane b. Esculetin alone-treated rats bearing mammary tumors did not show any change in TNF-a expression Fig 6, lane c in the kidney, as compared to the normal control and mammary tumor control rats. Treatment with esculetin, along with cisplatin administration, showed a significant decrease in TNF-a expression Fig 6, lane e, as compared to the cisplatin-treated rats bearing mammary tumors. Esculetin treatment <\connective form=also text=also id=F300_FULL6_12.txt.raw_267 relation=Expansion\> ameliorated cisplatin-induced acute neutropenia in rats bearing DMBA-induced mammary tumors. Treatment with cisplatin showed a significant reduction in the total WBC count, as compared to mammary tumor control rats. There was no significant change in the total WBC count of the esculetin-treated rats. Five days of esculetin treatment in the cisplatin- treated rats resulted in a significant increase in the total WBC count, as compared to cisplatin-treated rats bearing mammary tumors Table 1, suggesting that esculetin treatment shows protection against cisplatin-induced acute neutropenia. Cisplatin treatment significantly decreased the cell viability of LLC–PK1 cells. Earlier studies had reported that esculetin pretreatment for 1 or 8 h, and further treatment for 24 h, reduced H2O2-induced cell damage 29,30. We report that esculetin pretreatment for 1 h and further treatment for 24 h, along with cisplatin, significantly increased the percentage of cell viability Fig 7a. The protective effect of esculetin was concentration dependent; the highest level of protection 78 was obtained at the concentration of 100 lM. Cisplatin induced significant DNA damage in LLC–PK1 cells, as evident from the SCGE assay parameters: TL, TM, olive tail moment OTM, and percentage of TDNA. Esculetin treatment 50 and 100 lM significantly reduced the cisplatin-induced TL, TM, OTM, and TDNA Fig 7b, indicating that esculetin ameliorates cisplatin-induced cytotoxicity and DNA damage. 


Cisplatin is one of the most common chemotherapeutic drugs used in the treatment of various cancers 31,32. Despite its therapeutic benefits, its clinical use is often limited, due to its dose-related toxicity. The nephrotoxic potential of cisplatin has been attributed to its accumulation in the renal tubular cells, generating reactive oxygen species, Bax activation, 33 increased secretion of TNF-a, 34 and the activation of certain inflammatory mediators, such as cytokines 35. To our knowledge, the present study provides the first evidence that treatment of esculetin, along with cisplatin, potentiates the anticancer activity of cisplatin and ameliorates its nephrotoxicity. p53, a tumor-suppressor gene, controls the transcription of genes involved in cell growth stimulation 36. It accumulates <\connective form=when text=when id=F300_FULL6_12.txt.raw_62 relation=Temporal\> DNA is damaged and arrests the cell cycle in the G1 phase to allow extra time for repair 37. <\connective form=however text=However id=F300_FULL6_12.txt.raw_66 relation=Comparison\>, <\connective form=if text=if id=F300_FULL6_12.txt.raw_210 relation=Contingency\> the repair process fails, it triggers apoptosis. The loss of p53 function is a key step in the neoplastic cascade 38,39. In the present study, we demonstrated that esculetin treatment, along with cisplatin, results in a maximum increase in p53 expression, indicating increased apoptosis in mammary tumors. Akt and p53 play opposing roles in signaling pathways that determine cell survival40 Under conditions where the apoptotic effect of p53 is dominant, the destruction of Akt plays a role in accelerating the apoptotic process 40,41. Our results show that esculetin treatment, along with cisplatin, led to a maximum decrease in the Akt expression. Akt phosphorylation at serine 473 is required for the activation of Akt 42. We observed maximum dephosphorylation of Akt serine 473 in cisplatin alone treatment and combination of esculetin and cisplatin groups. Phosphatase and tensin homolog, a lipid phosphatase, regulates the phosphorylation of Akt 43. It blocks the PI3K ⁄ Akt signaling pathway by the dephosphorylation of phosphatidylinositol 3,4,5-trisphosphate PIP-3, which is involved in cell growth, proliferation, apoptosis, and survival 44–46 Akt plays a critical role in tumor genesis, and is activated <\connective form=when text=when id=F300_FULL6_12.txt.raw_63 relation=Temporal\> tumor suppressors, such as PTEN, lose their function 47,48. Phosphatase and tensin homolog is considered a major tumor suppressor, and its mutations are reported in several human tumors 49. Esculetin treatment, along with cisplatin, produced maximum increase in the expression of PTEN in mammary tumors. A combination of esculetin and cisplatin produced a maximum reduction in tumor volume and revealed well-differentiated tumor morphology, further strengthening the above results. DNA methylation and histone modifications are two critical players involved in the epigenetic regulation of cancer 50. Alterations in the modifications of histones have been linked to the deregulated expression of several genes with important roles in cancer development and progression 51. Global hypomethylation has been recognized as a cause of oncogenesis 52. In general, methylation at histone H3 at lysine 9 is associated with transcriptional repression, whereas at lysine 4, it is associated with transcriptional activation 53. Global DNA hypomethylation, along with local hypermethylation, are the hallmarks of breast cancer 54. Kondo et al 55 had reported that histone H3 methylation at lysines 4 and 9 plays a critical role in the maintenance of promoter DNA methylation-associated gene silencing in colorectal cancer. Here, we demonstrate that esculetin treatment, along with cisplatin, produced a maximum decrease in the histone methylation at H3K4, and a maximum increase in histone methylation at H3K9 in rats bearing mammary tumors. To the best of our knowledge, this is the first report which shows that combination of esculetin and cisplatin alters post-translational modifications of histone H3 in DMBA-induced rats bearing mammary tumors. <\connective form=however text=However id=F300_FULL6_12.txt.raw_67 relation=Comparison\>, it will be interesting to investigate whether the alteration in histone H3 modifications are the cause or the consequence of other signaling events, leading to maximum tumor reduction. Plasma levels of BUN, creatinine, and albumin are the biomarkers for nephrotoxicity. Our results show that esculetin treatment, along with cisplatin, decreased the levels of BUN and creatinine, <\connective form=while text=while id=F300_FULL6_12.txt.raw_209 relation=Comparison\> the albumin level was increased significantly, indicating the protective effect of esculetin against cisplatininduced nephrotoxicity. A histopathological examination of the kidney revealed reduced glomerular thickening and desquamation of epithelial lining, supporting that esculetin treatment prevents cisplatin nephrotoxicity. Recent reports have shown that inflammation and expression of cytokines and chemokines, especially TNF-a, have important roles in the pathogenesis of cisplatin nephrotoxicity 34,56. We found increased expression of TNF-a by cisplatin treatment, which was ameliorated by esculetin treatment. In addition to this, acute neutropenia is one of the side-effects of cisplatin 57. We found that esculetin treatment resulted in a significant increase in the total WBC count in rats bearing mammary tumors. Lilly Laboratories cell-porcine kidney LLC–PK1 cells grown on a permeable support provide a cell culture model that exhibits several characteristics of in vivo epithelial membranes and can be used for the investigation of nephrotoxic mechanisms of cisplatin 7,58. It has been suggested that the pathogenesis of cisplatin nephrotoxicity has been associated with oxidative stress, DNA damage, and apoptosis 6,35. We demonstrated that esculetin treatment ameliorates cisplatin-induced cytotoxicity and DNA damage in LLC–PK1 cells in a dose-dependent manner. <\connective form=thus text=Thus id=F300_FULL6_12.txt.raw_214 relation=Contingency\>, these results clearly indicate that esculetin treatment, along with cisplatin, shows protection against nephrotoxicity by amelioration of TNF-a expression, as well as DNA damage induced by cisplatin, and <\connective form=also text=also id=F300_FULL6_12.txt.raw_268 relation=Expansion\> shows protection against cisplatin- induced acute neutropenia. In conclusion, our data show that esculetin treatment, along with cisplatin, potentiates the anticancer activity of cisplatin, as well as ameliorating its nephrotoxicity and acute neutropenia. <\connective form=thus text=Thus id=F300_FULL6_12.txt.raw_215 relation=Contingency\>, this combination can lead to the development of a novel therapeutic regimen with high anticancer activity and low nephrotoxicity. This will have profound clinical implications in a variety of cancers in which cisplatin is used as a chemotherapeutic agent.