In the olfactory system, sensory signals generated in  the  nasal  olfactory epithelium  OE  are  relayed  through  the  olfactory  bulb  OB  to  the olfactory cortex OC, which,  in  turn,  transmits  information  to  higher cortical areas and limbic structures 1–5. Odorant detection in  the  mouse OE is mediated by ≈1,000 different  odorant  receptors  ORs  6–13,  each expressed by a different subset of olfactory sensory neurons  14.  Neurons with the same OR are randomly scattered in one OE zone 15, 16,  <\connective form=but text=but id=F679_FULL6_12.txt.raw_96 relation=Comparison\>  their axons all converge in a few fixed glomeruli in the OB 17–20.  In  the  OE, different  odorants  are  detected,  and  <\connective form=thereby text=thereby id=F679_FULL6_12.txt.raw_40 relation=Contingency\>  encoded,   by   different combinations of ORs 14, 20, 21. Consequently,  the  representation  of  an odorant in the OE is a dispersed ensemble of neurons 22,  each  expressing one component OR of its receptor code 14, whereas, in the OB, the  odorant is  represented  by  a  fixed  combination  of   glomeruli   whose   spatial arrangement is similar among individuals 23–27. <\connective form=although text=Although id=F679_FULL6_12.txt.raw_36 relation=Comparison\> much has been learned about the encoding of odor identities in  the OE and OB, relatively little is known about  how  olfactory  information  is organized  in  the  cortex.  Using  a  genetic  transneuronal   tracer,   we previously found that input  from  one  OR  is  targeted  to  several  loose clusters of neurons at stereotyped  locations  in  the  OC  28.  In  sharp contrast to the OB, where signals derived from different ORs are  segregated in different glomeruli and projection neurons 29–31, it seems that  inputs from different ORs partially overlap in the  OC  <\connective form=and text=and id=F679_FULL6_12.txt.raw_125 relation=Expansion\>  that  single  cortical neurons receive combinatorial inputs from multiple different ORs 28. Given the complexity of OR inputs in the cortex and  the  combinatorial  use of ORs in odor detection, it was impossible to predict how OR  inputs  might encode odor identities in the OC. At one  extreme,  signals  from  different ORs that detect the same odorant might be  colocalized  at  a  few  specific cortical locations, producing a distinct spatial code for  the  odorant.  At the other extreme, signals from the different ORs might be targeted to  many different locations, resulting in a highly distributed odor  code.  Previous electrophysiological studies 32–38 have  described  odorant  responses  by individual OC neurons but have not examined the  spatial  patterning  of  OC odor responses. Here, we investigated how odors are  represented  in  the  OC  using  awake, freely behaving mice. We focused on the anterior piriform  cortex  APC,  a major olfactory cortical area that showed distinct patterns of OR inputs  in genetic tracing studies 28. To visualize odor responses  in  single  cells across the entire APC, we used the transcription factor c-Fos as a  neuronal activity marker 39–41. c-Fos is rapidly and transiently  induced  in  many types of neurons in response to  calcium  influx  caused  by  depolarization 42. Furthermore, patterns of  c-Fos  induction  recapitulate  patterns  of neuronal activity in many  brain  areas,  including  auditory,  visual,  and somatosensory cortices 43–46.  For  example,  deflection  of  one  whisker induces  c-Fos  in  a  single  barrel  representing  that  whisker  in   rat somatosensory cortex 45, 46. 

Using this  approach,  we  found  that  single  odorants  activate  distinct patterns of neurons in the APC. Each odorant activates  a  small  subset  of cortical neurons that are sparsely, but unevenly distributed across a  large area. Different odorants have  different,  but  partially  overlapping,  APC representations, and these  representations  are  remarkably  similar  among individuals. The  representations  are  concentration-dependent  and  expand both numerically and spatially  with  increases  in  odorant  concentration. Structurally  related  odorants  elicit  highly  similar  patterns  of   APC activation, hinting that there might be an underlying logic  to  the  manner in which olfactory information is mapped onto the cortex. 




Adult male and female C57BL/6J mice The Jackson Laboratory  were  exposed to  odorants  singly  within  a  modified  polycarbonate   vacuum-desiccator inside diameter  149  mm,  overall  height  206  mm;  Scienceware,  Bel-Art Products, Pequannock, NJ equipped with a grid-work platform. Forcedair  50 liters/min that was deodorized  purified  by  passage  through  a  column containing activated charcoal  Whatman  entered  and  exited  the  chamber through ports at its top and bottom, respectively. Each animal  was  exposed to purified air for 16 h and <\connective form=then text=then id=F679_FULL6_12.txt.raw_77 relation=Temporal\> to purified air  bubbled  through  odorant dissolved in either distilled water or  DMSO  dimethyl  sulfoxide  or,  as controls, to water or DMSO alone. Odorant exposure was twice for 2 min  with 5 min between the exposures. The animal was <\connective form=then text=then id=F679_FULL6_12.txt.raw_78 relation=Temporal\>  exposed  to  purified  air for an additional hour <\connective form=before text=before id=F679_FULL6_12.txt.raw_88 relation=Temporal\> killing to permit maximum accumulation  of  c- Fos protein 23, 40. 

Odorants were purchased from Sigma-Aldrich or were gifts from  International Flavors and Fragrances Union Beach,  NJ.  To  approximate  what  might  be encountered  in  the  natural  environment,  odorant   concentrations   used initially were the lowest that the experimenter could detect in air  exiting the exposure chamber: fructone, 0.29 M; orange flower ether,  0.06  M;  2,5- dimethylpyrazine, 0.926 M; vanillin, 0.658 M; w-pentadecalactone, 0.42 M; l- menthol, 1.84 M; and amyl cinnamic aldehyde, 0.247 M. A lower  concentration was used for other odorants: ethyl butyrate, 8.6 mM and 86  mM;  3-methyl-1- butanethiol, 95.9 μM; benzyl mercaptan, 8 mM; methylamine, 0.032 M and  0.32 M; coniferan, 4.7 mM; camphor, 13 mM; and androstenone, 0.367 mM. 

Mice were anaesthetized and perfused with 4  paraformaldehyde,  and  their brains were sectioned 14 μm as described  28.  Sections  were  incubated with  rabbit   anti-c-Fos   antibody   0.4   μg/ml,   sc-52,   Santa   Cruz Biotechnology for 2 h at 37°C, followed by  biotinylated  goat  anti-rabbit antibody 0.8 μg/ml, Vector Laboratories  for  1  h  at  room  temperature. Antibody binding was visualized using ABC  avidin-biotin  complexes  elite and DAB diaminobenzidine kits from  Vector  Laboratories.  The  kits  were used according to the manufacturer's instructions, with the nickel  chloride enhancement option used in the case of the DAB kit. Digital photographs of immunostained sections were  examined  by  computer. The location of each c-Fos+ neuron was confirmed by  microscopy  and  marked with a blue dot on the digital image. The piriform cortex in each image  was next divided into segments according to its curvature,  and  the  blue  dots were <\connective form=then text=then id=F679_FULL6_12.txt.raw_79 relation=Temporal\> aligned vertically between  black  dots  marking  the  dorsal  and ventral limits of the piriform cortex.  These  vertical  representations  of individual sections were <\connective form=then text=then id=F679_FULL6_12.txt.raw_80 relation=Temporal\> combined with  their  ventral  limits  aligned along the horizontal  axis  to  show  the  dorsal–ventral  locations  of  c- Fos+neurons from the rostral end left to the caudal  end  right  of  the APC. 

In initial experiments, we immunostained all of the  sections  and  compared diagrams made from one or two of every five sections to diagrams  made  from all of the sections. We found that, except for the density of the dots,  the spatial distribution patterns seemed to be  the  same.  <\connective form=therefore text=Therefore id=F679_FULL6_12.txt.raw_226 relation=Contingency\>,  we  used diagrams made from one of every five sections. 


To allow comparison, all  diagrams  were  simultaneously  scaled  along  the rostral–caudal  and  dorsal–ventral  axes  so  that  they   had   the   same rostral–caudal length. The diagrams were <\connective form=then text=then id=F679_FULL6_12.txt.raw_81 relation=Temporal\> corrected for  differences  in the angles of brain sectioning according to  the  locations  of  dorsal  and ventral landmarks in each brain: the beginning and the joining of  the  left and right lateral ventricles dorsal landmarks and the  start  and  end  of the olfactory tubercle ventral landmarks. 

In mice exposed to distilled water or DMSO, there were some c-Fos+ cells  in the APC Fig 6, which is published as supporting  information on  the  PNAS web site. Among three animals six cortices, the total number  of  labeled cells per cortex ranged from 5 to 220, averaging 159 ± 50 for DMSO  and  110 ± 74 for water versus 84 ±  78  for  air  alone.  In  marked  contrast  to neurons activated by odorants, the locations of these  cells  varied  widely among individuals. The  graphical  data  in  Figs 2, 3A ,   and 5A were   transformed   into quantitative data by superimposing a grid of 98  boxes  on  each  graph  and recording the  number  of  cells  in  each  box.  Statistical  analysis  was performed by using R-PACKAGE 47. The basis for the analysis was  a  matrix of odorants versus activity patterns. In this matrix,  the  odorant  stimuli were viewed as vector variables that were determined  by  activity  patterns represented by the number and  distribution  of  c-Fos+ cells.  Hierarchical clustering was performed with the average linkage method. 



To investigate odor responses in the mouse OC, individual mice were  placed in an isolated  chamber  suffused  with  charcoal-filtered  air  for  16  h, exposed briefly to an  odorant,  and  <\connective form=then text=then id=F679_FULL6_12.txt.raw_82 relation=Temporal\>  left  in  filtered  air  for  an additional hour to allow accumulation of c-Fos protein.  Low  concentrations of odorants were used to simulate what might be encountered in  the  natural environment.   Brain   sections   from   each   animal   were   subsequently immunostained with antibodies against c-Fos and analyzed. In initial experiments, we  examined  cortical  responses  to  a  number  of odorants with varied structures. Fig 1A shows two  APC  locations  in  mice exposed  to  four  different  odorants.  c-Fos+ neurons  are  localized   in cortical layers II and III. This result is consistent with previous  studies showing  that,  in  the  APC,  odorants  induce   c-Fos   predominantly   or exclusively  in  layer  II/III  pyramidal  neurons   that   receive   direct excitatory input from the OB 49. In Fig 1 A ,  each  APC  location  shows scattered c-Fos+ neurons in response to two of the four  odorants,  <\connective form=but text=but id=F679_FULL6_12.txt.raw_100 relation=Comparison\>  the stimulatory odorants differ for the two locations.  These  results  indicate that one cortical location  can  respond  to  multiple  odorants,  <\connective form=but text=but id=F679_FULL6_12.txt.raw_101 relation=Comparison\>  that different locations can respond to different combinations of odorants. To examine the patterning of odorant responses across the entire APC, we constructed the composite diagrams shown in Fig 2. Each diagram shows the positions of c-Fos+ neurons in every fifth section every 70 μm through the APC and <\connective form=thus text=thus id=F679_FULL6_12.txt.raw_204 relation=Contingency\> allows visualization of c-Fos labeling along the anterior- posterior and dorsal-ventral axes throughout the APC. Fig 2 shows composite  diagrams  of  c-Fos+ neurons  in  the  APC  of  mice exposed to twelve  different  odorants.  These  data  make  three  important points. First, each odorant stimulates  c-Fos  expression  in  a  subset  of neurons that are sparsely but unevenly distributed over a  large  area,  the size of which varies among odorants. Second,  different  odorants  stimulate different  response  patterns.  And,  finally,  the  response  patterns  for different odorants partially  overlap.  These  results  indicate  that  odor representations in the  APC  are  sparse,  distinct,  and  multiplexed.  The identities of different odorants are mapped  onto  the  APC  in  a  complex, partially overlapping manner. We next compared the odor response patterns of different animals. In  these experiments, we analyzed c-Fos  expression  in  response  to  each  of  four odorants in the left and right brains of three mice. With each odorant,  the patterns of labeled neurons were similar among individuals  as  well  as  in the two hemispheres Fig 3A . Examples of odor  response  similarities  in single tissue sections  from  different  cortices  are  shown  in Fig  1B . Control animals exposed to diluent  alone  water  or  DMSO  had  fewer  c- Fos+ cells,  and  the  locations  of  those  cells   varied   widely   among individuals Fig 6. To analyze the odorant response patterns further, we superimposed a  292-box grid on each odor response diagram, marked each box that  contained  two  or more  labeled  cells  in  unextrapolated  data  from  one  in  five  tissue sectionsFig 3B , and <\connective form=then text=then id=F679_FULL6_12.txt.raw_83 relation=Temporal\> constructed  a  summary  diagram  Fig  3C , which shows boxes marked in three or more of the  four  cortices  shown  for each odorant. The marked diagrams in Fig 3B emphasize the  similarities  in response patterns  in  different  cortices.  The  summary  diagrams  in Fig 3C further suggest that  there  are  “hot  spots”  of  activation  for  each odorant, regions of the APC that usually or always respond to that  odorant. These hot spots are clearly different for the different odorants.  Together, these studies indicate that odors are mapped onto the cortex  in  a  related manner in different individuals and in the left and right brain. <\connective form=although text=Although id=F679_FULL6_12.txt.raw_37 relation=Comparison\> similar, the patterns of c-Fos labeling in different cortices  were not identical Fig 3 A and B . This variability could be inherent  to  the cortex, or, <\connective form=alternatively text=alternatively id=F679_FULL6_12.txt.raw_202 relation=Expansion\>, it could result from  differing  input  from  the OB. To investigate the  latter  possibility,  we  used  c-Fos  induction  in periglomerular  cells  as  a  reporter  of  glomerular  activation  in   the corresponding OBs 23. The number of c-Fos+ neurons in the APC was  roughly correlated with the number of activated glomeruli in the input OB.  For  one odorant methylamine, cortices with 335, 495, 505, 620,  740,  and  830  c- Fos+ neurons received input from bulbs containing 8, 8, 9, 12, 15, and 22 c- Fos+ glomeruli, respectively. This finding suggests that at  least  some  of the variation in APC responses derives from  variability  in  sensory  input from the OB. Other potential sources of variability are intrinsic  variation in  odor  response  patterns  among  cortices  and  technical   difficulties inherent to the comparison of brains from different individuals. To further compare odor representations in different cortices, we  performed computational analyzes 47,48. Using data from gridded  diagrams  of  c-Fos labeling, we conducted a hierarchical cluster  analysis  to  assess  pattern similarities Fig 4. Almost invariably, activity patterns elicited  by  an odorant in different cortices were grouped, emphasizing their similarity. To investigate potential relationships between cortical representations and odorant structures, we compared the patterns of c-Fos expression stimulated by structurally related odorants. We tested two pairs of related odorants: two esters, fructone and ethyl butyrate, and two thiols, methyl butane thiol and benzyl mercaptan  These experiments showed that odorants  with  related  structures  can  have very similar cortical representations. This finding was true  not  only  for the two esters, which have highly related structures, but also for  the  two thiols, which have only a thiol group in common Fig 5A . The high  degree of relatedness in the representations of the  related  odorants  is  further emphasized by similarities in their activation hot spots Fig 5A  as  well as their high similarity according to hierarchical  cluster  analyzes  Fig 4. We next asked whether the concentration of an odorant affects its  cortical representation.   In   these   experiments,   odorants   were   tested    at concentrations differing by 10-fold. A 10-fold increase in concentration  had  three  discernible  effects  Fig 5B . First, it increased the number  of  c-Fos+ APC  neurons  ≈4-fold  for methylamine and 2-fold for ethyl butyrate. Second, it caused  an  expansion of the odorant's spatial representation across the cortical  sheet  and,  in some  cases,  the  appearance  of  new  regions  of  activation.  Third,  it increased the density of  c-Fos+ neurons  at  some  locations.  The  maximum density of labeled neurons per 190-μm2 cortical  segment  as  indicated  by the number of labeled cells  per  box  in  gridded  data  similar  to  those in Fig 3B  increased 2.3-fold  for  methylamine  and  1.5-fold  for  ethyl butyrate. Similar increases were seen for  methyl  butane  thiol  1.5-fold and camphor 2.5-fold, but not for androstenone data not shown. By using extremely high  concentrations  of  odorants,  the  density  of  c- Fos+ neurons in a hot spot area Fig 5Ca   approached  that  of  pyramidal neurons labeled by a transneuronal tracer expressed in all OE  neurons  50 Fig 5Cb . This result suggests that most or  all  APC  pyramidal  neurons can express c-Fos in response to sensory input. 




Here, we investigated how odors are represented in the OC. We first  exposed mice to diverse odorants and <\connective form=then text=then id=F679_FULL6_12.txt.raw_84 relation=Temporal\> used antibodies against c-Fos  to  analyze resulting patterns of neuronal activation in the anterior  piriform  cortex. The results of these experiments provide initial insight into how odors  are spatially represented in the cortex. They reveal that  odor  representations are dramatically transformed <\connective form=when text=when id=F679_FULL6_12.txt.raw_111 relation=Temporal\> sensory signals are transmitted  from  the olfactory bulb to the piriform cortex. 


These studies show that, in the APC, each odorant is represented by a  small subset of cortical neurons that are highly distributed across  the  cortical sheet. The area over  which  these  neurons  are  distributed  varies  among odorants. Neurons activated by some odorants are scattered over much of  the APC whereas neurons activated by other  odorants  are  confined  to  smaller regions. The neurons are unevenly distributed, with some regions  containing higher densities of activated neurons than others. 

Previous studies indicate that each odorant is detected by a combination  of different ORs 14, 20, 21 <\connective form=and text=and id=F679_FULL6_12.txt.raw_183 relation=Expansion\>  that  input  from  one  OR  is  targeted  to neurons distributed over ≈5  of  the  APC  surface  28.  In  the  present studies, the percentage of the APC  surface  area  containing  c-Fos-labeled neurons varied among  odorants,  but  ranged  from  ≈19  to  27  for  four odorants tested in multiple individuals based on the  percentage  of  boxes containing two or more c-Fos+ neurons in gridded  data  in Fig  3B .  This finding indicates that inputs  from  different  ORs  that  detect  the  same odorant are not all targeted to the same APC  locations.  <\connective form=however text=However id=F679_FULL6_12.txt.raw_114 relation=Comparison\>,  it  does not exclude the possibility that inputs from some of those  ORs  are  mapped onto the same, or partially overlapping, locations. A second  important  finding  of  these  studies  is  that  odorants  elicit conserved response  patterns  in  the  APC.  The  patterns  are  similar  in different individuals as well as in the two  hemispheres.  This  finding  is consistent with the stereotyped patterning of OR inputs previously  seen  in the APC in genetic tracing studies 28.  <\connective form=however text=However id=F679_FULL6_12.txt.raw_115 relation=Comparison\>,  unlike  patterns  of  OR inputs in the APC, which are  nearly  identical  among  individuals,  slight variations are seen in both the number and patterning of  odorant-responsive neurons in different cortices. Some of this variation seems  to  be  due  to variability in sensory input from the olfactory bulb, which could, in  turn, be due  to  alternating  respiration  through  the  two  nostrils  51, 52. Another  potential  source  of  variability  might  be  experience-dependent effects on odor response patterns. These studies demonstrate that  different  odorants  can  elicit  distinctly different patterns of activity in  the  APC.  The  only  previous  study  to examine odor-induced activation patterns in the APC found  similar  patterns of c-Fos activation for different odorants in the rat, but tested a  smaller number and diversity of odorants  49.  In  the  present  studies,  related patterns were elicited  by  some  odorants,  but  not  others.  Importantly, <\connective form=however text=however id=F679_FULL6_12.txt.raw_116 relation=Comparison\>,  the  patterns   stimulated   by   different   odorants   partially overlapped. These findings indicate that sensory information is mapped  onto the cortex in a complex, multiplexed fashion. There  are  no  discrete  odor maps. Rather, the  identities  of  different  odorants  are  represented  by subsets of neurons in extensively overlapping spatial arrays. The present studies further show that odor response patterns in  the  cortex are altered by changes in odorant concentration. With a 10-fold increase  in odorant concentration, the odorant's representation  in  the  APC  typically expanded to include a larger  number  of  neurons  that  were  increased  in density and extended over a larger proportion  of  the  APC.  These  changes presumably  reflect  effects  of  increased  odorant  concentration  on  the olfactory epithelium and bulb, including the recruitment of  additional  ORs 14, sensory neurons 22, and bulb glomeruli 24, 26, 27  into  the  odor response as well as increases in the firing  of  sensory  neurons  53  and bulb projection neurons 54. 

Is there any logic to the way that olfactory information is  represented  in the cortex? These  studies  show  that  structurally  related  odorants  can elicit highly related patterns in the  APC.  One  possible  explanation  for this result is that the related odorants are detected by many  of  the  same ORs. Another possibility is that  information  is  mapped  onto  the  cortex according to individual structural features of odorants. Future  studies  of cortical inputs from ORs that recognize  the  same  odorant  feature  should provide insight into whether there is such a logic in  the  organization  of information in the APC. 

Even <\connective form=though text=though id=F679_FULL6_12.txt.raw_109 relation=Comparison\> each odorant is detected by a combination  of  ORs,  the  number and density of c-Fos+neurons seen in the APC often ≈500–1,000  cells  per APC Figs 2, 3A , and 5A  after exposure to a  low  concentration  of  an odorant was lower than the number that receive input  from  one  OR  ≈5,000 cells per APC 28. One possible explanation for this difference is that c- Fos is not detected  in  neurons  that  are  only  weakly  activated  by  an odorant. <\connective form=however text=However id=F679_FULL6_12.txt.raw_117 relation=Comparison\>, electrophysiological recordings  similarly  indicate  that single odorants activate only a small percentage of neurons in the  piriform cortex  32, 33, 35, 36, 38,  arguing  against  this  possibility.  Another potential explanation for the observed  difference  between  OR  inputs  and neuronal  activation  is  that  intrinsic  inhibitory  circuits  shape  odor responses in the cortex and eliminate responses to a particular  odorant  by many neurons that receive input from a given OR. Yet another possibility  is that cortical  neurons  are  activated  predominantly  by  combinatorial  OR inputs. In this scenario, cortical neurons would  function  as  “coincidence detectors” that are  activated  only  by  correlated  signals  derived  from different ORs. In this model, two odorants detected  by  an  OR,  OR-X,  but recognized by  different  combinations  of  ORs,  might  activate  different subsets of neurons  <\connective form=because text=because id=F679_FULL6_12.txt.raw_203 relation=Contingency\>  those  subsets  receive  input  from  different combinations of ORs. In sensory systems, stimuli in the  external  world  are  deconstructed  and <\connective form=then text=then id=F679_FULL6_12.txt.raw_85 relation=Temporal\> reconstructed in the brain to create diverse perceptions  1.  In  the olfactory system, the  stimuli  are  a  multitude  of  structurally  diverse odorants 55. The serial transformations of olfactory input that  occur  as it travels  through  different  structures  in  the  olfactory  pathway  are reminiscent  of  other  sensory  systems.  In   the   visual   system,   the deconstructed features of visual stimuli are combined in single  neurons  in an increasingly complex fashion as information travels from  the  retina  to the thalamus to primary visual cortex and <\connective form=then text=then id=F679_FULL6_12.txt.raw_86 relation=Temporal\>  to  higher  visual  cortical areas 56. In the  olfactory  system,  1,000  different  ORs  are  used  in different  combinations  to  detect  different  odorants  and  encode  their identities 14, 20, 21. The odorant stimulus is <\connective form=thus text=thus id=F679_FULL6_12.txt.raw_205 relation=Contingency\> deconstructed  into  a combination of ORs, that, by  analogy  with  the  visual  system,  might  be thought of as encoding different features of the stimulus.  <\connective form=although text=Although id=F679_FULL6_12.txt.raw_38 relation=Comparison\>  inputs from different ORs are segregated in  different  neurons  in  the  olfactory epithelium and bulb 14–20, single cortical neurons are likely  to  receive signals derived from  combinations  of  ORs  28.  Based  on  the  findings presented here, we speculate that neurons in the  OC  require  combinatorial OR signals for activation. This design could represent a first step  in  the reconstruction  of  the  odorant  stimulus  by  the   integration   of   its deconstructed features in single neurons.