Epidemiological studies have identified specific phytochemicals in Brassica vegetables that may confer protection against certain degenerative diseases such as cancer 1, 2. Certain cruciferous vegetables mustard family of the genus Brassica including cauliflower, broccoli, cabbage, and Brussels sprouts have been studied extensively because of their high nutritional values as they are rich sources of antioxidants, vitamins, and fiber but contain little fat and energy. These properties make them suitable for chemoprevention. In addition, recent studies have indicated that broccoli sprouts can induce carcinogen-detoxifying enzymes 3. Among other chemicals, broccoli contains high concentrations of selenium and glucosinolates, particularly glucoraphanin and isothiocyanate sulforaphane 4, Sulforaphane can induce phase II enzymes through the activation of the Keap1/Nrf2 antioxidant response pathway 5. Most importantly, sulforaphane can <\connective form=also text=also id=F87_FULL.6_12.txt.raw_267 relation=Expansion\> induce redox-regulated protein thioredoxin through the antioxidant-responsive element 6. <\connective form=because text=Because id=F87_FULL.6_12.txt.raw_216 relation=Contingency\> thioredoxin has recently been implicated in cardioprotection, it seems likely that broccoli, in addition to serving as a chemoprotective vegetable, may <\connective form=also text=also id=F87_FULL.6_12.txt.raw_268 relation=Expansion\> function to protect the cardiovascular system. Indeed, a recent clinical study involving 12 healthy subjects has demonstrated that consumption of fresh broccoli sprouts 100 g/day for a week reduced low- density lipoprotein LDL and total cholesterol and increased high-denisty lipoprotein HDL cholesterol 7. Another related prospective study of 34492 postmenopausal women in Iowa showed that broccoli was strongly associated with reduced risk of coronary heart disease 8. It appears that very few studies have ever been undertaken to relate the consumption of broccoli with coronary heart disease, <\connective form=and text=and id=F87_FULL.6_12.txt.raw_91 relation=Expansion\> most importantly, the mechanisms of action remain largely unknown. To fill this gap, we fed a group of rats fresh broccoli for 1 month. The results of our study revealed significant cardioprotection with broccoli, which induced the expression of several genes and proteins of the thioredoxin Trx superfamily including Trx1, Trx2, thioredoxin reductase, Grx1, Grx2, and peroxiredoxin Prdx as well as caused the activation of the antioxidant response pathway and several anti-death proteins of the survival pathway. 



All animals used in this study received humane care in compliance with the Animal Welfare Act and other federal statutes and regulations relating to animals and experiments involving animals; the care adhered to principles stated in the Guide for the Care and Use of Laboratory Animals, NRC Publication, 1996 edition. Sprague–Dawley male rats weighing between 250 and 300 g were used for the experiment. The rats were randomly assigned to two groups: control and broccoli treated. The rats were fed ad libitum regular rat chow with free access to water. The broccoli-treated rats were fed 1 mL of broccoli extract 1.5 g/kg of body weight BW for 30 days, <\connective form=whereas text=whereas id=F87_FULL.6_12.txt.raw_210 relation=Comparison\> the control group of rats were gavaged 1 mL of water for the same period of time. 

For sulforaphane analysis, the homogenized broccoli, left at room temperature for about 39 min, was extracted with methylene chloride, dried at 30 °C under vacuum, dissolved in acetonitrile, and filtered through a 0.22 µm membrane filter prior to injection onto HPLC 9. Selenium was estimated by atomic absorption spectrometry as described previously 10. 

At the end of 30 days, the rats were anesthetized with sodium pentobarbital 80 mg/kg of BW, ip Abbott Laboratories, North Chicago, IL and anticoagulated with heparin sodium 500 IU/kg of BW, iv Elkins-Sinn Inc, Cherry Hill, NJ injection. After a sufficient depth of anesthesia had been attained, a thoracotomy was performed, and the heart was perfused in the retrograde Langendorff mode at 37 °C at a constant perfusion pressure of 100 cm of water 10 kPa for a 5 min washout period 11. The perfusion buffer used in this study consisted of a modified Krebs−Henseleit bicarbonate buffer KHB: sodium chloride, 118 mM; potassium chloride, 4.7 mM; calcium chloride, 1.7 mM; sodium bicarbonate, 25 mM; potassium biphosphate, 0.36 mM; magnesium sulfate, 1.2 mM; and glucose, 10 mM. The Langendorff preparation was switched to the working mode following the washout period. At the end of 10 min, after the attainment of steady state cardiac function, baseline functional parameters were recorded. The circuit was <\connective form=then text=then id=F87_FULL.6_12.txt.raw_48 relation=Temporal\> switched back to the retrograde mode, and the hearts were perfused for 15 min with KHB for stabilization 9. The hearts were <\connective form=then text=then id=F87_FULL.6_12.txt.raw_49 relation=Temporal\> subjected to 30 min of global ischemia followed by 2 h of reperfusion. The first 10 min of reperfusion was in the retrograde mode to allow for postischemic stabilization and, <\connective form=thereafter text=thereafter id=F87_FULL.6_12.txt.raw_37 relation=Temporal\>, in the antegrade working mode to allow for assessment of functional parameters, which were recorded at 10, 30, 60, 90, and 120 min of reperfusion. 

Aortic pressure was measured using a Gould P23XL pressure transducer Gould Instrument Systems Inc, Valley View, OH connected to a sidearm of the aortic cannula; the signal was amplified using a Gould 6600 series signal conditioner and monitored on a CORDAT II real-time data acquisition and analysis system Triton Technologies, San Diego, CA 11. Heart rate HR, left ventricular developed pressure LVDP defined as the difference of the maximum systolic and diastolic aortic pressures, and the first derivative of developed pressure dp/dt were all derived or calculated from the continuously obtained pressure signal Aortic flow AF was measured using a calibrated flow meter Gilmont Instrument Inc, Barrington, IL, and coronary flow CF was measured by timed collection of the coronary effluent dripping from the heart. 

At the end of reperfusion, a 10 w/v solution of triphenyl tetrazolium in phosphate buffer was infused into aortic cannula for 20 min at 37 °C 12. The hearts were excised, and the sections 0.8 mm of the heart were fixed in 2 paraformaldehyde, placed between two coverslips, and digitally imaged using a Microtek ScanMaker 600z. To quantify the areas of interest in pixels, a NIH image 5.1 a public domain software package was used. The infarct size was quantified and expressed in pixels. 

Immunohistochemical detection of apoptotic cells was carried out using the TUNEL method 12 Promega, Madison, WI. The heart tissues were immediately put in 10 formalin and fixed in an automatic tissue-fixing machine. The tissues were carefully embedded in the molten paraffin in metallic blocks, covered with flexible plastic molds, and kept under freezing plates to allow the paraffin to solidify. The metallic containers were removed, and tissues became embedded in paraffin on the plastic molds. Prior to analysis of tissues for apoptosis, tissue sections were deparaffinized with xylene and washed in succession with different concentrations of ethanol absolute, 95, 85, 70, 50. <\connective form=then text=Then id=F87_FULL.6_12.txt.raw_50 relation=Temporal\> the TUNEL staining was performed according to the manufacturer’s instructions. The fluorescence staining was viewed with a fluorescence microscope AXIOPLAN2 IMAGING Carl Zeiss Microimaging Inc, New York. The number of apoptotic cells was counted and expressed as a percent of total myocyte population. 

Tissues were homogenized in 1 mL of buffer A 25 mM Tris-HCl, pH 8, 25 mM NaCl, 1 mM sodium orthovanadate, 10 mM NaF, 10 mM sodium pyrophosphate, 10 nM okadaic acid, 0.5 mM EDTA, 1 mM PMSF, and 1× protease inhibitor cocktail in a Polytron homogenizer. Homogenates were centrifuged at 3000 rpm at 4 °C for 10 min, and the nuclear pellet was resuspended in 500 μL of buffer A with 0.1 Triton X-100. Supernatant from the above centrifugation was further centrifuged at 10000 rpm at 4 °C for 20 min, and the resultant supernatant was used as cytosolic extract. The mitochondrial pellet was resuspended in 200–300 μL of buffer A with 0.1 Triton X-100. The nuclei pellet and mitochondrial pellet were lysed by incubation for 1 h on ice with intermittent tapping. Homogenates were <\connective form=then text=then id=F87_FULL.6_12.txt.raw_51 relation=Temporal\> centrifuged at 14000 rpm at 4 °C for 10 min, and the supernatant was used as nuclear lysate and mitochondrial lysate, respectively. Cytosolic, nuclear, and mitochondrial extracts were aliquoted, snap frozen, and stored at −80 °C until use. Total protein concentrations in cytosolic, nuclear, and mitochondrial extracts were determined using a BCA Protein Assay Kit Pierce, Rockford, IL. 

Either cytosolic, nuclear, or mitochondrial proteins were separated in SDS- PAGE and transferred to nitrocellulose filters. Filters were blocked in 5 nonfat dry milk and probed with primary antibody overnight 13. Primary antibodies such as Nrf2, Bcl2, Trx total Trx, Trx1, Trx2, Grx2, TrxR, Akt, Phospho-Akt. Src, Phospho-Src, IkB, P-IkB, heme oxygenase, cytochrome c, caspase 3, Prdx, Nrf2, Akt, phospho-Akt Ser 473, and glyceraldehyde-6- phosphate dehydrogenase GAPDH were obtained from Santa Cruz Biotechnology, Santa Cruz, CA; whereas IkB, Phospho-IkB Ser 32, Src, phospho-Src Tyr527, cytochrome c, and caspase 3 were obtained from Cell Signaling Technology, Beverly, MA. All primary antibodies were used at the dilution of 1:1000. Protein bands were identified with horseradish peroxidase conjugated secondary antibody 1:2000 dilution and Western blotting luminol reagent Santa Cruz Biotechnology. GAPDH was used as loading control. The resulting blots were digitized, subjected to densitometric scanning using a standard NIH image program, and normalized against loading control. 

Total RNA was extracted from left ventricular tissues with TRIzol reagent Invitrogen, Carlsbad, CA according to the manufacturer’s instructions and dissolved in 50 µL of DEPC-treated water. Reverse transcription and Polymerase Chain Reaction RT-PCR were performed with RETROscript Ambion, Austin, TX, according to the manufacturer’s instructions. The following primers were used in our study. Thioredoxin-1: forward, 5′-GCCAAAATGGTGAAGCTGA-3′; reverse, 5′- CTGGCAGTCATCCACGTCT-3′. Thioredoxin-2: forward, 5′-GCATCCTGAGCACCTCCTAC-3′; reverse, 5′- GAGCCACATGTGTGTGTGTG-3′. Glutaredoxin-1: forward, 5′-ACGTGGTCTCCTGGAATTTG-3′; reverse, 5′- GCAGAGCTCCAATCTGCTTC-3′. Glutaredoxin-2: forward, 5′-TGGCCAAGAAGATTTTCCAT-3′; reverse, 5′- AGGCAGCAATTTCCCTTCTT-3′. TrxR1: forward, 5′-TCATGGCTGGACTATCCACA-3′; reverse, 5′- GCCAAAGTGACCATGGTTTT-3′. GAPDH: forward, 5′-AGACAGCCGCATCTTCTTGT-3′; reverse, 5′- CTTGCCGTGGGTAGAGTCAT-3′. The PCR products were visualized on a UV-transilluminator and digitalized after electrophoresis on 2 agarose gel containing ethidium bromide. Statistical Analysis The values for myocardial functional parameters, total and infarct volumes, infarct sizes, and cardiomyocyte apoptosis are all expressed as the mean ± standard error of the mean SEM. Analysis of variance test followed by Bonferroni’s correction was first carried out to test for any differences between the mean values of all groups. <\connective form=if text=If id=F87_FULL.6_12.txt.raw_225 relation=Contingency\> differences between groups were established, the values of the treated groups were compared with those of the control group by a modified t test. The results were considered to be significant <\connective form=if text=if id=F87_FULL.6_12.txt.raw_226 relation=Contingency\> p < 0.05. 



<\connective form=because text=Because id=F87_FULL.6_12.txt.raw_217 relation=Contingency\> we sought to examine redox regulation by broccoli, we determined sulforaphane and selenium contents of the broccoli used in our study. The results are shown in Table 1. Three different samples of broccoli were analyzed; each analysis was run in duplicate. Results are expressed as means ± SEM. 

We first determined <\connective form=if text=if id=F87_FULL.6_12.txt.raw_227 relation=Contingency\> the hearts of broccoli-treated animals displayed improved ventricular performance compared to those of control animals. As shown in Figure 1, aortic flow, LVDP, and LVmax dp/dt of broccoli-treated hearts consistently displayed improved performance compared to the control group during postischemic reperfusion. The heart rate did not vary significantly between the two groups. Coronary flow of the broccoli group was higher compared to the control group only at the end of 90 min and 2 h of reperfusion. 

Myocardial infarct size at the end of 30 min of ischemia and 2 h of reperfusion as determined by TTC staining method was about 39 ± 1.17 normalized to area of risk Figure 2. There was no infarction <\connective form=when text=when id=F87_FULL.6_12.txt.raw_79 relation=Temporal\> the hearts were perfused with the KHB buffer without subjection to ischemia and reperfusion control data not shown. Broccoli significantly reduced myocardial infarct size to about 15 ± 2.64. 

As shown in Figure 3, cardiomyocyte apoptosis determined by TUNEL method was about 40 ± 2 at the end of reperfusion. There were no apoptotic cells in the hearts perfused with the KHB buffer without subjection to ischemia and reperfusion control. Again, broccoli significantly reduced the number of apoptotic cardiomyocytes to 18 ± 1.5. 

To further confirm broccoli-mediated prevention of cardiomyocyte apoptosis, we determined the activity of cytochrome c. Figure 4 shows the results. Cytochrome c was significantly increased after ischemia/reperfusion, correlating with the results of Figure 3. Broccoli prevented the increase in cytochrome c. The activity of pro-caspase 3 was significantly reduced in the ischemic reperfused myocardium, and broccoli prevented the loss of pro- caspase 3. 

Having confirmed that broccoli reduced myocardial ischemic reperfusion injury, we determined <\connective form=if text=if id=F87_FULL.6_12.txt.raw_228 relation=Contingency\> broccoli provided cardioprotection by inducing the genes of the thioredoxin superfamily. The mRNA transcripts of Trx, Trx- reductase, and Grx were determined by RT-PCR. As shown in Figure 5, ischemia/reperfusion reduced the transcripts of mRNAs of all members of the Trx superfamily and not only did broccoli preserve these transcripts, it actually upregulated them over the control values. 

We <\connective form=then text=then id=F87_FULL.6_12.txt.raw_52 relation=Temporal\> determined <\connective form=if text=if id=F87_FULL.6_12.txt.raw_229 relation=Contingency\> broccoli <\connective form=also text=also id=F87_FULL.6_12.txt.raw_269 relation=Expansion\> induced the expression of Trx proteins. Similar to mRNA transcripts, ischemia reperfusion significantly reduced the expression of Trx, Grx, and Prdx proteins Figure 6. We failed to identify any Trx1 protein using the Trx1 antibody and were <\connective form=also text=also id=F87_FULL.6_12.txt.raw_270 relation=Expansion\> unable to detect Grx2 protein <\connective form=because text=because id=F87_FULL.6_12.txt.raw_218 relation=Contingency\> the proper antibody was not commercially available. In contrast to mRNA transcripts, Trx did not overexpress the proteins over the control values, but simply preserved them from ischemia/reperfusion- mediated loss. 

<\connective form=because text=Because id=F87_FULL.6_12.txt.raw_219 relation=Contingency\> the induction of Trx from sulforaphane present in broccoli is likely to occur via the induction of ARE and <\connective form=because text=because id=F87_FULL.6_12.txt.raw_220 relation=Contingency\> Keap1, a nuclear suppressor of Nrf2, is likely to be involved in this process, we examined the expression profiles of Nrf2 in response to ischemia/reperfusion and broccoli. Figure 7 shows the results. Nrf2 was significantly down-regulated after ischemia and reperfusion, but broccoli prevented the Nrf2 protein from undergoing downregulation. 

It has been known that during the induction of Trx from sulforaphane present in broccoli, HO-1 can be transactivated. To determine if this is true in our experimental setting, we studied the expression of the HO-1 protein. As shown in Figure 8, HO-1 was significantly reduced in the ischemic reperfused myocardium, and broccoli prevented the loss of HO-1. 

We examined the members of the survival proteins triggered by broccoli. Figure 9 shows the results. The phosphorylation of Akt was reduced after ischemia/reperfusion, but significantly upregulated with broccoli. The phosphorylation of cSrc followed a similar pattern. Bcl2 was down-regulated after ischemia/reperfusion, <\connective form=but text=but id=F87_FULL.6_12.txt.raw_65 relation=Comparison\> unlike Akt and cSrc, it was not activated over the control value. Broccoli prevented the loss of Bcl2 protein due to ischemia/reperfusion. The phosphorylation of IkB was almost abolished in the ischemic reperfused myocardium, <\connective form=but text=but id=F87_FULL.6_12.txt.raw_66 relation=Comparison\> it was restored with broccoli. 



There are several salient features of the study in which broccoli was fed for 1 month: i improved ventricular function compared to control; ii reduced myocardial infarct size and cardiomyocyte apoptosis; iii enhanced induction of the expression of both at mRNA and at protein levels of Trx1, Trx2, Grx1, Trx-reductase, Prdx, and Nrf2; and iv induction of anti-death proteins and transcription factors in the survival pathway including phospho-Akt, Bcl-2, and NFκB. A growing body of evidence supports the role of mitochondria in predicting the life and death of cardiomyocytes. For example, mitochondria are critically involved in apoptotic cell death triggered by ischemia and reperfusion 14. For the maintenance of mitochondrial integrity, membrane potential is likely to have influence on myocardial energy production and ultimate survival of the cells. Cellular injury is directly related to changes of mitochondrial architecture including an irreversible loss of the matrix contents and integral membrane protein constituents such as cytochrome c 14. Once released, cytochrome c triggers the formation of an apoptotic complex, which readily activates caspase cascade initiated by caspase 9 leading to the activation of pro-caspase 3, the main executioner of apoptosis. The results of the present study showed an increased amount of cytochrome c and a reduced amount of pro-caspase 3 in the ischemic reperfused myocardium, which were completely reversed by broccoli, indicating its ability to generate antiapoptotic signal Consistent with these findings, the number of apoptotic cardiomyocytes was significantly reduced by broccoli. As mentioned earlier, broccoli contains significant amounts of glucosinolates, which can be hydrolyzed to produce isothiocyanates. Among isothiocyanates, sulforaphane has been studied extensively and found to possess abilities to induce phase II detoxification enzymes 15. Sulforaphane can <\connective form=also text=also id=F87_FULL.6_12.txt.raw_271 relation=Expansion\> induce Trx through the antioxidant-responsive element 16. In ref 16 it was shown that ARE was involved in the mechanism of Trx induction by sulforaphane in RPE cells. The results of the present study confirmed this earlier study and further demonstrated that broccoli could prevent the loss of Nrf2 during ischemia/reperfusion. Several recent studies from our laboratory have implicated a cardioprotective role of thioredoxins 17-19. The cellular changes associated with ischemic heart diseases are redox-regulated. Ischemia and reperfusion render the heart in the oxidized environment maintained by the stabilizing disulfides present in the extracellular surface, <\connective form=whereas text=whereas id=F87_FULL.6_12.txt.raw_212 relation=Comparison\> the intracellular environment is maintained in the reduced state with the help of free sulfhydryl groups. The principal disulfide reductase responsible for maintaining the inside of the cell in the reduced state is thioredoxin 20. Thioredoxins and other members of the thioredoxin superfamily such as glutaredoxins and peroxiredoxins are ubiquitously present in mammalian cells including hearts 21 and play an important role in maintaining the redox environment of the cell. Trx1 appears to play an important role in a variety of degenerative diseases including cardiovascular diseases. For example, Trx1 can reduce myocardial ischemia/reperfusion injury and decrease the incidence of ventricular fibrillation 17-19, 22. Measurements of plasma thioredoxin in healthy volunteers and during open- heart surgery demonstrated elevated levels of Trx in arterial plasma during reperfusion of the postcardioplegic heart of the patients 23. Trx increased during surgical preparation for cardiopulmonary bypass, but decreased during the bypass due to the release of oxidized Trx into the plasma. In an isolated perfused rat heart model, Trx protected the hearts from reperfusion-induced arrhythmia 24. In the early reperfusion period, h-thioredoxin reduced the incidence of ventricular fibrillation from 75 untreated to 42 and 25 at 0.01 and 0.1 µM concentrations, respectively. Interestingly, SOD was unable to protect these hearts from reperfusion- induced arrhythmias in this model. A recent study has indicated a possible association between plasma Trx concentrations and the severity of heart failure 25. Trx immunoreactivity was none to trivial in control specimens. Positive Trx staining was found in the hearts of the patients with active myocarditis and dilated cardiomyopathy. The positive staining was located in infiltrating cells and damaged myocytes in the perinecrotic lesions, suggesting that myocardial Trx was upregulated in myocarditis and cardiomyopathy with active necrotic stage associated with DNA damage. In another related study, increased Trx expression was found in the skin biopsies obtained during cardiac catheterization of 29 of 35 patients with congestive heart failure, but in none of the 8 control subjects 25. Overexpression of Trx1 in the heart attenuated adriamycin-induced cardiotoxicity 26. Treatment with recombinant human Trx1 suppressed cardiomyocyte injury in adrenomycin-treated cardiomyocytes. In the present study, broccoli prevented ischemia/reperfusion mediated loss of total Trx protein as well as Trx2. In contrast, the mRNAs of both Trx1 and Trx2 were significantly increased as compared to those present in the non-treated hearts. Thioredoxin reductase catalyzes the NADPH-dependent reduction of thioredoxin and plays an important role in the redox cycling of Trx 27. Selenium Se increases most selenoproteins involved in redox reactions including glutathione peroxidase and thioredoxin reductase, which contain a selenocysteine residue in the conserved C-terminal sequence Cys-SeCys- 28. In fact, thioredoxin reductase can reduce selenite into selenide 29. Thioredoxin reductase along with Trx forms a redox system that regulates a number of several other redox-regulated systems, <\connective form=thereby text=thereby id=F87_FULL.6_12.txt.raw_32 relation=Contingency\> modulating the redox-sensitive transcription factor NFκB and oxidative stress 30. Cells with lower thioredoxin reductase activity are more susceptible to oxidative damage 31. Our results indicate significant loss of both mRNA and protein of thioredoxin reductase in the ischemic reperfused myocardium. Broccoli restored the thioredoxin reductase protein, <\connective form=but text=but id=F87_FULL.6_12.txt.raw_69 relation=Comparison\> its mRNA level was significantly upregulated as revealed by RT-PCR. Glutaredoxin Grx, also known as thiol transferase, is <\connective form=also text=also id=F87_FULL.6_12.txt.raw_273 relation=Expansion\> a ubiquitous protein found in most of the organs including the heart. Two Grx genes have been found in mammals. Grx1 is initially considered to be a cytosolic enzyme. <\connective form=however text=However id=F87_FULL.6_12.txt.raw_80 relation=Comparison\>, recent results of immunolabeling experiments have shown that it is <\connective form=also text=also id=F87_FULL.6_12.txt.raw_274 relation=Expansion\> present in the nucleus 32. The second Grx Grx2 gene, which was reported recently, encodes two proteins as a result of alteration of RNA splicing. One of the Grx2 isoforms is located in the mitochondria and the other in the nucleus 33. Similar to Trx, Grx <\connective form=also text=also id=F87_FULL.6_12.txt.raw_275 relation=Expansion\> functions in catalyzing thiol/disulfide exchange 34. The active site of Grx Cys-Pro- TyrPhe-Cys is oxidized during this process and is regenerated by using the reducing equivalents of GSH. The oxidized GSH is <\connective form=then text=then id=F87_FULL.6_12.txt.raw_53 relation=Temporal\> recycled back to the reduced form of GSH by glutathione reductase. <\connective form=because text=Because id=F87_FULL.6_12.txt.raw_221 relation=Contingency\> GSH is the major intracellular nonprotein thiol, it forms the majority of mixed disulfides inside the cells under oxidative stress. Grx1 is, <\connective form=therefore text=therefore id=F87_FULL.6_12.txt.raw_265 relation=Contingency\>, expected to play a predominant role in reversing this process. In addition to its function in thiol/disulfide exchange, Grx1 <\connective form=also text=also id=F87_FULL.6_12.txt.raw_276 relation=Expansion\> serves as an alternative electron donor to ribonucleotide reductase 35, participates in deiodination of thyroxin to triiodothyronine 36, and exhibits activity of dehydroascorbate reductase for regeneration of ascorbic acid 37. <\connective form=however text=However id=F87_FULL.6_12.txt.raw_81 relation=Comparison\>, despite the potential role of Grx in the antioxidant defense mechanism, studies on its antioxidant function have been exceptionally limited. Our recent studies demonstrated that transgenic mice overexpressing Grx1 reduced the number of apoptotic cardiomyocytes in the ischemic reperfused heart 38. The results of the present study indicated downregulation of both transcripts and proteins of Grx1 and Grx2 in the ischemic reperfused hearts. Broccoli increased the transcripts of both Grx1 and Grx2 compared to control, <\connective form=but text=but id=F87_FULL.6_12.txt.raw_70 relation=Comparison\> the protein levels were restored only by broccoli. Peroxiredoxins Prdx, thioredoxin peroxidases, are the antioxidant components of the thioredoxin superfamily 39. Six Prdxs Prdx1−Prdx6 have been identified, of which Prdx6 is found in the cytosolic fraction together with Prdx1, Prdx2, and Prdx4. Prdx4 is <\connective form=also text=also id=F87_FULL.6_12.txt.raw_277 relation=Expansion\> found in mitochondria and peroxisome, <\connective form=whereas text=whereas id=F87_FULL.6_12.txt.raw_213 relation=Comparison\> Prdx3 exists only in mitochondria. In the present study, we examined total Prdx activity and found that such activity was reduced in the ischemic reperfused myocardium <\connective form=and text=and id=F87_FULL.6_12.txt.raw_196 relation=Expansion\> that broccoli could restore the activity. <\connective form=because text=Because id=F87_FULL.6_12.txt.raw_222 relation=Contingency\> sulforaphane is known to induce Trx through the antioxidant response element ARE 16, we determined the effects of broccoli on Nrf2. Redox-sensitive thiol groups of proteins such as Keap1, a cytosolic repressor of Nrf2, are involved in the regulation of redox responses, and isothiocyanates can activate a Keap1−Nrf2 redox-sensitive pathway that induces the expression of genes containing antioxidant responsive element 40. Sulforaphane appears to modify Keap1 from thionoacyl adducts, <\connective form=thereby text=thereby id=F87_FULL.6_12.txt.raw_33 relation=Contingency\> releasing Nrf2 followed by its translocation into the nucleus and resulting in the activation of ARE-regulated genes 41, 42. The results of our study demonstrated downregulation of Nrf2 in the ischemic reperfused myocardium and its restoration by broccoli. Accumulating evidence supports the notion that Trx may facilitate the induction of HO-1 43. <\connective form=because text=Because id=F87_FULL.6_12.txt.raw_223 relation=Contingency\> HO-1 is a cardioprotective protein, we sought to determine if broccoli <\connective form=also text=also id=F87_FULL.6_12.txt.raw_278 relation=Expansion\> caused the transactivation of HO-1 through the induction of Trx. The results of our study showed downregulation of HO-1 after ischemia/reperfusion, which was prevented by broccoli. <\connective form=although text=Although id=F87_FULL.6_12.txt.raw_31 relation=Comparison\> the mechanism of HO-1 induction was not determined, <\connective form=and text=and id=F87_FULL.6_12.txt.raw_200 relation=Expansion\> whether Trx had a direct role in the induction of HO-1 was not confirmed, the prevention of ischemia/reperfusion-mediated loss of HO-1 protein by broccoli appears to play a role in cardioprotection. Ischemia/reperfusion causes cardiomyocyte death by activating the death signaling pathway and/or inhibiting the survival signaling pathway 44. We examined several components of the survival pathway, which are known to be significantly affected by ischemia/reperfusion. Broccoli appears to rescue the cardiomyocytes in the ischemic reperfused heart through the PI-3-kinase- Akt survival pathway. Akt is a critical regulator of PI-3-kinase-mediated cell survival, and constitutive activation of Akt is sufficient to block cell death by a variety of apoptotic stimuli 45. We have <\connective form=also text=also id=F87_FULL.6_12.txt.raw_279 relation=Expansion\> examined cSrc <\connective form=because text=because id=F87_FULL.6_12.txt.raw_224 relation=Contingency\> Src tyrosine kinase acts as a membrane-attached molecular switch that links a variety of cues to crucial intracellular signaling pathways. cSrc has been implicated in mechanisms of cell survival and death, which are regulated by complex signal transduction processes 46. Our previous studies showed that activation of cSrc might represent a crucial step for cellular protection associated with ischemia and reperfusion 47. The present study showed that broccoli potentiated an increased phosphorylation of Akt and cSrc. Once activated, Akt can phosphorylate and inactivate proapoptotic proteins such as Bad and pro- caspase 9 and activate the antiapoptotic redox sensitive transcription factor NFκB, a finding consistent with our results that indicated increase in Bcl2 and activation of NFκB as evidenced by increased phosphorylation of IkB by broccoli.