Lipoxins LXs are trihydroxytetraene-containing arachidonic acid mediators that down-modulate and promote the resolution of inflammatory processes 1–7. LXs play a key counterregulatory role in mouse models of infection with Mycobacterium tuberculosis and Toxoplasma gondii 1–3, 7. Similarly, deficient LX-mediated counterregulation has been linked to the pathogenesis of inflammatory diseases, such as severe asthma 8, cystic fibrosis lung disease 3, and periodontal disease 7. The beneficial effects of LX analogue administration in diverse rodent models of inflammatory pathology, along with the observation that administration of the widely used anti-inflammatory drug ASA leads to the generation of metabolically more stable LX carbon 15-epimers ASA-triggered LX ATL, has suggested therapeutic promise for specific harnessing of the biological activities of these potent lipid mediators. <\connective form=however text=However id=F929_FULL6_12.txt.raw_103 relation=Comparison\>, their molecular mechanisms of action remain underdefined. We recently showed that suppressor of cytokine signaling SOCS 2 is a crucial intracellular mediator of the anti-inflammatory actions of LX and ATL in vivo during T. gondii infection 9. SOCS proteins are known to inhibit receptor-mediated signal transduction via several pathways, including inhibition of tyrosine phosphorylation by allosteric blockage eg, of JAK proteins and induction of proteasomal degradation through promoting polyubiquitylation eg, of STAT proteins 10. Our studies were aimed at defining the molecular targets and mechanisms of action of LX- and ATL-induced SOCS2. The results presented in this study demonstrate that LX and ATL induce SOCS2-dependent ubiquitinylation and proteasomal degradation of TNF receptor–associated factor TRAF 2 and TRAF6, inhibiting DC production of proinflammatory cytokines. Further, these results indicate that the proteosome-dependent pathway of modulating innate immune signaling affected by LX and ATL is critical for restraining in vivo inflammatory responses during infection with T. gondii. Our findings elucidate a previously unappreciated mechanism of action of ASA, and suggest a new molecular target for drug development for diseases caused or exacerbated by dysregulated inflammatory responses. 

WT C57BL/6 mice were obtained from The Jackson Laboratory. C57BL/6, SOCS2-KO, and IL-10-KO were bred and maintained under pathogen-free conditions at the Cincinnati Children's Hospital Medical Center CCHMC animal facility. All experimental protocols were approved by the CCHMC Institutional Animal Care and Use Committee. Animals were infected by intraperitoneal injection with 20 cysts of T. gondii cysts ME49 strain recovered from brain homogenates from chronically infected mice. STAg was prepared from sonicated tachyzoites, as previously described 41. 

IL-12 p70 BD Biosciences, TNF-α, and IFN-γ secretion was quantified using commercial ELISA kits R&D Systems. For in vitro experiments, splenic DCs were partially purified, as previously described 29. Cytokine concentrations in supernatants were normalized to fold-changes, based on the ratio of values in experimental to baseline samples. It is important to note that baseline cytokine secretion by naive DCs did not differ significantly among the different genetic backgrounds WT vs. SOCS2 KO used in these studies. 

Mice or culture DCs were treated with ASA in vivo or in vitro, respectively, and the 15-epi-LXA4 was quantified in urine or supernatants, respectively, using commercial ELISA kit Neogen Corp.. 

Spleens and brains were removed from mice before or 30 d after infection, and frozen sections were processed and stained with a goat anti–mouse SOCS2, goat anti–mouse TNF, goat anti–mouse p50 or p65, rabbit anti–mouse TRAF2 or TRAF6, and rabbit anti–mouse iNOS all from Santa Cruz Biotechnologies, followed by a double incubation with Alexa Fluor 488–conjugated anti–mouse CD11c Caltag, or Alexa Fluor 488–conjugated anti–rabbit and Alexa Fluor 594–conjugated anti–goat antibodies Invitrogen, as previously described 23. The cells were counterstained for nuclei with DAPI Invitrogen. For in situ TRAF2, TRAF6, p50, and p65 analysis, we isolated DCs purity: ∼90 CD11c+cells, stimulated them as described for each experiment, and fixed them with ice-cold acetone for 1 min and processed and stained as described above. Images were acquired using a microscope Axiovert; Carl Zeiss, Inc with the AxioVision software Carl Zeiss, Inc 

Nuclear extracts were purified, and p50 and p65 binding activity was quantified using Transcription Factor Assay kits according to the manufacturer's instructions ActiveMotif. 

Whole-cell extracts were generated by lysing WT and SOCS2-deficient DCs in buffer containing 50 mM Hepes, pH 7.9, 0.25 M NaCl, 5 mM EDTA, 0.1 NP-40, 1 mM PMSF, and 1X HALT protease inhibitor cocktail Thermo Fisher Scientific. For detection of phosphorylated-proteins, Na3VO4 and NaF were added to lysis buffers. Immunoprecipitation was performed with SOCS2 antibody obtained from Santa Cruz Biotechnology, Inc. The detection of protein expression by Western blot was performed with primary antibodies against SOCS2, SOCS1, TRAF1-6, IRAK4, MyD88, ERK2, P38, JNK2, IκBα, pJNK, and pERK1/2, all obtained from Santa Cruz Biotechnology Inc. Anti-phospho-SAPK/JNK and anti-phospho-p38 antibodies were purchased from Cell Signaling Technology, and anti-JNK/SAPK1 was purchased from Millipore. 

107 RAW 264.7 or HL60 cells were transfected as previously described 42 with 10 μg of mTRAF6 Invivogen, flag-tagged mTRAF2, flag-tagged mTRAF3, or the respective control plasmids. To determine transfection efficiency, all cells were <\connective form=also text=also id=F929_FULL6_12.txt.raw_297 relation=Expansion\> transfected with pMaxGFP plasmid Amaxa. Cells were <\connective form=then text=then id=F929_FULL6_12.txt.raw_65 relation=Temporal\> plated in 24-well plates in RPMI supplemented with 10 FCS, l-glutamine, and gentamycin. 20 h after transfection, cells were exposed to LXA4 or vehicle control and incubated for a further 24 h before stimulation with LPS, CD40L, TNF, or STAg. Cells and supernatants were harvested 24 h after stimulation and analyzed for GFP expression FACS, IL-12 expression ELISA, and expression of the transfected proteins Western blot. 

The statistical significance of differences in mean values between experimental versus control or vehicle-treated samples was evaluated by means of Student's t test. Differences were considered to be significant at P < 0.05. 

Fig S1 shows that TRAF2 and TRAF6 are molecular targets for LX-mediated, SOCS2-dependent inhibition of TLR and TNFR family signaling. Fig S2 shows that late in vivo treatment with PR11 during LCMV infection does not affect the priming of LCMV-specific CD8+ T cells. Fig S3 shows the cytokine expression in the presence of proteasome inhibition during infection with T. gondii. Figs S4-9 shows the in situ immunofluorescence analysis of SOCS2 induction, TRAF2 and TRAF6 expression, and pro-inflammatory gene expression after proteasome inhibition during T. gondii infection of WT and SOCS2-deficient mice. Fig S10 shows that proteasome inhibition blocks ATL-induced SOCS2 anti-inflammatory actions in vivo. Fig S11 shows that ASA-induced SOCS2 targets TRAF2 and blocks p50 and p65 translocation to the nucleus after LPS stimulation. The online version of this article is available at http://www.jem.org/cgi/content/full/jem.20072416/DC1. 

Given that LX-induced SOCS2 is a physiological modulator of Toll-like receptor TLR–dependent innate immune recognition of T. gondii, we examined whether LX-induced SOCS2 interacted specifically with conserved signaling elements downstream of the TLRs. Purified splenic DCs ∼90 CD11c+ were incubated with LXA4 or IL-10, which activates SOCS1 and SOCS3, as a control, and coimmunoprecipitation techniques were used to define specific interactions of TLR signaling intermediates with SOCS1 and SOCS2. As shown in Fig 1 A, immunoprecipitation of SOCS2, but not SOCS1, from LXA4-treated DCs led to specific coprecipitation of TRAF6 and TRAF2, but not MyD88, IRAK4, or any of the other TRAFs. This specificity among TRAFs is notable. SOCS interacts with SH2 domains on other proteins 10, which are present on all members of the TRAF family. 


TRAFs serve as critical adaptor molecules in signaling cascades downstream of receptors in the TNF and IL-1 receptor families of receptors, as well as TLRs 11–13. TRAF2 and TRAF6 regulate the transcription of downstream target genes via activation of the c-Jun N-terminal kinase JNK and NF-κB signaling pathways 14–19. Notably, TRAF6-deficient mice fail to produce IL-12 in response to microbial stimuli 19. To examine the functional consequences of LXA4-stimulated SOCS2–TRAF interactions during DC activation, WT and SOCS2-deficient mouse splenic DCs were treated with LXA4and stimulated with IL-1β, TNF, CD40L, LPS, CpG-oligonucleotides, or soluble T. gondii tachyzoite antigen STAg. Exposure to LXA4 strongly blocked the expression of IL-6, TNF-α, IL-12, and IFN-α in WT but not SOCS2-deficient DCs, regardless of the stimulus Fig 1 B. <\connective form=thus text=Thus id=F929_FULL6_12.txt.raw_255 relation=Contingency\>, LX-induced SOCS2 inhibits biological responses known to be dependent on TRAF2/6, suggesting that these adaptors are functional targets of SOCS2-dependent modulation of proinflammatory responses. 

SOCS proteins mediate their actions by docking to the intracellular domains of pattern recognition, cytokine, or hormone receptors <\connective form=thereby text=thereby id=F929_FULL6_12.txt.raw_32 relation=Contingency\> preventing interactions with downstream signaling elements, or by ubiquitinylation and proteasome-dependent degradation of signaling intermediates 10, 20–22. To analyze the latter possibility, we quantified the stability of TRAF2/6 in LXA4-exposed or IL-10–exposed DCs. As shown in Fig 2 A and B, exposure to LXA4, but not IL-10, led to a SOCS2-dependent reduction in the amount of TRAF2 and TRAF6 protein expression as early as 5 h after exposure, <\connective form=whereas text=whereas id=F929_FULL6_12.txt.raw_243 relation=Comparison\> the expression levels of related signaling intermediates, including ERK2, JNK2, p38, and IκBα were not altered. Notably, LXA4 exposure led to SOCS2-dependent polyubiquitylation of TRAF2 and TRAF6 Fig 2 C. <\connective form=also text=Also id=F929_FULL6_12.txt.raw_298 relation=Expansion\>, it is important to note that the reciprocal immune precipitation of TRAF2/6, followed by Western blot for polyubiquitin chain, revealed a similar pattern of LX-induced SOCS2-dependent polyubiquitylation of TRAF2 and TRAF6 in DCs Fig 2 C. <\connective form=thus text=Thus id=F929_FULL6_12.txt.raw_256 relation=Contingency\>, as might be expected, biochemical inhibition of proteasome activity with lactacystin led to parallel ablation of both LX-induced, SOCS2-dependent TRAF2/6 degradation and LX-induced, SOCS2-dependent inhibition of TLR-driven cytokine production in DCs Fig 2, B and D. The fact that treatment of SOCS2-deficient DCs with lactacystin failed to alter TRAF levels and IL-12 production Fig 2, B and D suggests little toxicity for this inhibitor under these conditions. Collectively, these data suggest that these LX-mediated anti-inflammatory actions are dependent on SOCS2-induced TRAF2 and TRAF6 proteasomal degradation. 

To directly define the roles of TRAF2 and TRAF6 as downstream targets for LX-mediated anti-inflammatory activity, we analyzed the ability of LXA4 to inhibit IL-12 and TNF production in response to TLR or TNFR stimulation after overexpression of TRAF2, TRAF3, or TRAF6 in a mouse macrophage cell line RAW264.7. As shown in Fig 3 A, TRAF2 and TRAF6 overexpression overcame LX-dependent degradation. Only overexpression of TRAF6, but not TRAF2 or 3, reversed LX-induced inhibition of IL-12 and TNF production after TNFR/TLR stimulation Fig 3 B; Table I; Fig S1, A Table I and B Table II and III, available athttp://www.jem.org/cgi/content/full/jem.20072416/DC1. <\connective form=thus text=Thus id=F929_FULL6_12.txt.raw_257 relation=Contingency\>, To assess the in vivo relevance of LX-induced, SOCS2-dependent TRAF6 proteasomal degradation, we moved to an in vivo model of LX-dependent inhibition of DC IL-12 production, termed “DC paralysis” 23. In this system, injection of STAg causes endogenous generation of LXA4 that, in turn, inhibits IL-12 production by DCs during subsequent rechallenge Fig 4 A. As noted previously, DC paralysis is SOCS2-dependent; SOCS2-deficient mice produce equivalent amounts of IL-12 regardless of previous STAg challenges Fig 4 A 9. Importantly, mice treated with lactacystin or another proteasome inhibitor, PR-11 24, failed to exhibit DC paralysis, producing equivalent levels of IL-12 as single STAg-injected WT mice Fig 4 A. <\connective form=moreover text=Moreover id=F929_FULL6_12.txt.raw_264 relation=Expansion\>, neither lactacystin nor PR11 treatment affected IL-12 production in STAg-injected SOCS2-deficient mice, excluding the possibility of unrelated nonspecific effects after in vivo proteasome inhibition. IL-10–deficient mice suffer acute mortality caused by uncontrolled inflammation during T. gondii infection 25. The induction of DC paralysis rescues IL-10–deficient mice from such mortality 25. Notably, pretreatment with the proteasome inhibitor PR11 before DC paralysis ablated the protective effects of STAg-induced DC paralysis in IL-10–deficient mice Fig 4 B. <\connective form=thus text=Thus id=F929_FULL6_12.txt.raw_258 relation=Contingency\>, the protective actions of LX-stimulated DC paralysis during T. gondii infection are mediated in a proteasome-dependent manner that correlates with SOCS2-driven proteasome-mediated degradation of TRAF6. 

Endogenously generated LXs control proinflammatory responses through SOCS2 during T. gondii andM. tuberculosis infection 2, 26. In the absence of LXs or SOCS2, infection with T. gondii is lethal because of aberrant, uncontrolled inflammation 26. To analyze whether proteasomal degradation of TRAF2 and TRAF6 are downstream targets for LX-mediated control of proinflammatory responses during in vivo infection, we infected WT and SOCS2-deficient mice with T. gondii, in the presence or absence of treatment with PR11 starting at day 11, which was previously found to be the time at which increases in serum levels of LXA4 are detectable. At this time point, most T cell priming is thought to have occurred. <\connective form=moreover text=Moreover id=F929_FULL6_12.txt.raw_265 relation=Expansion\>, direct testing of the effect of proteasome inhibition on CD8+ T cell during LCMV infection showed that such treatment did not affect expansion of CD8+ T cells specific for LCMV-derived peptides Fig S2, available at http://www.jem.org/cgi/content/full/jem.20072416/DC1. As shown in Fig 5 A, proteasome inhibition during T. gondii infection mirrored the uncontrolled proinflammatory phenotype seen in both 5-LO– and SOCS2-deficient mouse strains 9, 26, including: a high levels of systemic Fig 5, A and B and tissue Figs S3–S5 proinflammatory cytokine production; b more efficient control of parasite burden Fig 5 E; and c mortality occurring ∼45–50 d after inoculation Fig 5 F. Interestingly, we found higher frequencies of IFN-γ–producing CD4+ and CD8+ T cells after in vitro recall stimulation Fig 5, C and D, supporting our findings that proteasome inhibition not only did not inhibit T cell priming during infection, but enhanced it. Immunofluorescence analysis revealed that SOCS2-dependent loss of TRAF2 and TRAF6 expression in spleen and brain during T. gondii infection was reversed by PR11 treatment Fig 5 G and Figs S6–S9. It is important to emphasize that proteasomal inhibition did not affect STAg-driven proinflammatory responses in SOCS2-deficient mice and DCs, suggesting that the phenotype seen in WT mice is not derived from unrelated actions by the drug. Collectively, these data clearly establish TRAF2 and TRAF6 as critical downstream targets for proteasomal degradation mediated by LX-stimulated SOCS2. <\connective form=thus text=Thus id=F929_FULL6_12.txt.raw_259 relation=Contingency\>, LX-mediated degradation of these key proinflammatory signaling adaptor proteins is essential for tight control of the innate immune response to infection with T. gondii. 

The beneficial biological effects of in vivo ASA administration occur, in part, through the generation of endogenous ATL. Our data at this juncture suggested that ATL-stimulated, SOCS2-mediated, proteasome-dependent degradation of TRAF proteins is mechanistically important for ASA-driven modulation of proinflammatory cytokine production. Indeed, similar to the effects of LXA4 exposure, in vivo exposure of DCs to ASA led to SOCS2-independent ATL generation Fig S10 A, available athttp://www.jem.org/cgi/content/full/jem.20072416/DC1, along with a SOCS2-dependent specific decrease in DC expression of TRAF6 and TRAF2 Fig 6 A. LPS treatment alone did not change baseline levels of signaling molecules either in WT or SOCS2-deficient DCs, except for the expected decrease in IκBα Fig 6 A 24. ASA treatment before LPS exposure delayed the appearance of phosphorylated ERK1/2 and p38 in WT, but not in SOCS2-deficient, DCs Fig 6 A. Consistent with findings in cells exposed to ASA alone, TRAF2 and TRAF6 expression was decreased in LPS-stimulated, ASA-treated WT, but not SOCS2-deficient, DCs. Finally, LPS-induced IκBα degradation was prevented by ASA treatment in a SOCS2-dependent manner Fig 6 A. <\connective form=although text=Although id=F929_FULL6_12.txt.raw_30 relation=Comparison\> the cause-effect relationship is likely to be indirect, the delay in the generation of 15-epi-LX in aspirin ASA-treated, COX1-deficient mice indicated that both SOCS2 induction and TRAF6 degradation are dependent on the endogenous generation of 15-epi-LX Fig 6 B. As indicated, <\connective form=although text=although id=F929_FULL6_12.txt.raw_31 relation=Comparison\> both WT and SOCS2-deficient DCs generated significant levels of 15-epi-LX after ASA treatment, COX1-deficient mice presented a significant delay with low levels of the eicosanoid Fig S10 B. This finding suggests that COX1-derived prostanoids are required to establish the enzymatic pathways needed to produce 15-epi-LXA4, rather than direct involvement of COX1 in the biosynthesis of 15-epi-LXA4 in this system for review see 7. ASA caused a SOCS2-dependent ablation of LPS-induced TNF and IL-12p70 production Fig 6 C, suggesting that ATL-induced SOCS2 regulates the LPS-driven signaling cascade in DCs by inhibiting IκBα degradation and abolishing NF-κB signaling. In agreement with these observations, in vivo treatment with ASA led to TRAF2/TRAF6 polyubiquitylation and degradation that could be prevented by pretreatment with PR11 Fig 6, D and E. Such treatment <\connective form=also text=also id=F929_FULL6_12.txt.raw_299 relation=Expansion\> abolished SOCS2-dependent inhibition of in vivo LPS-induced TNF production Fig 6 F and thioglycollate-stimulated neutrophil migration Fig S10, C and D. 

To further evaluate ATL-induced, SOCS2-mediated inhibition of NF-κB activation, we correlated NF-κB localization with DNA-binding activity. As shown in Fig 6 G–O, LPS treatment caused nuclear translocation of NF-κB p65, something prevented by ASA pretreatment in a SOCS2-dependent manner. NF-κB p65 DNA-binding activity paralleled its nuclear translocation Fig 6 O; similar findings were obtained for NF-κB p50 Fig S11, available athttp://www.jem.org/cgi/content/full/jem.20072416/DC1. <\connective form=thus text=Thus id=F929_FULL6_12.txt.raw_260 relation=Contingency\>, the anti-inflammatory effects of ASA on DCs is mediated by SOCS2-dependent proteasomal degradation of TRAF2/TRAF6. Immunologists have traditionally focused on the mechanisms that underlie and control the activation of inflammatory responses. The last decade has seen growing awareness and experimental attention paid to the fact that restraint and resolution of inflammatory responses is <\connective form=also text=also id=F929_FULL6_12.txt.raw_300 relation=Expansion\>, perforce, under tight, active regulation. In turn, this has led to growing interest in facilitation of resolution as opposed to inhibition of activation as a therapeutic strategy for the dysregulated inflammation seen as central to the pathogenesis and expression of an increasingly wide spectrum of diseases 27. Therapeutic harnessing of the multilevel, resolution-promoting bioactivities of the LXs, and novel resolution mediators such as the D- and E-series resolvins and protectins, is <\connective form=thus text=thus id=F929_FULL6_12.txt.raw_261 relation=Contingency\> quite attractive. The mechanisms of action of the LXs, at the level of cellular signaling, are of interest. Along these lines, LXA4 and ATL restrain innate and acquired immune responses via stimulating SOCS2 expression in an AhR-dependent manner 9. The current studies elucidate new molecular targets and mechanism of action of LX/ATL-induced SOCS2. Specifically, these results indicate that: a LX-induced SOCS2 targets TRAF2 and TRAF6 for proteasomal degradation; b degradation of TRAF6 renders cells exposed to LX unable to respond to stimulation through TLRs, TNF-R, IL-1R, and CD40, resulting in the inhibition of proinflammatory cytokine production by DCs; c proteasome-mediated degradation of TRAF6 plays a major role in the mechanism of action of ASA in restraining DC production of proinflammatory cytokines; and d this pathway of targeted proteasomal degradation of signaling intermediates is critical for successful modulation of inflammatory responses during infection with the ubiquitous protozoan pathogen, T. gondii. The biological role of LX- and ASA-driven TRAF2 degradation remains to be defined. A fundamental question in host–pathogen interactions is whether the immune system is properly activated to eradicate the pathogens, <\connective form=and text=and id=F929_FULL6_12.txt.raw_216 relation=Expansion\> whether this response is appropriately controlled to prevent damage to the host during control or elimination of infection. Microbial recognition is a critical first step. Central to both innate and adaptive immunity, DCs signal the presence of microbes via pattern recognition receptors such as the TLRs 28–31, responding by secreting cytokines important in immune activation and specification of the class of immune response. During infection with T. gondii and infection with diverse other intracellular pathogens, DC production of IL-12, IFN-γ, and TNF is essential in controlling pathogen growth 32–34. IL-12 and TNF are potentially toxic <\connective form=when text=when id=F929_FULL6_12.txt.raw_100 relation=Temporal\> produced in excess, and their production is known to be carefully regulated by a remarkably large number of different mechanisms 26, 29, 32. In toxoplasmosis, the proinflammatory process is counterbalanced by the simultaneous induction of critical, nonredundant counterregulatory mediators, including IL-10 and LXs 32, 33. Mice with a genetic deficiency in LX production succumb to lethal inflammatory responses during toxoplasmosis. In turn, the biological importance and nonredundant nature of the proteasome pathway to the mechanism of action of LXs is underscored by the finding that proteasome inhibition during toxoplasmosis prevents the regulatory actions of LX, restoring TLR and cytokine receptor signaling in vivo and causing uncontrolled proinflammatory cytokine production, aberrant leukocyte infiltration and elevated mortality. Since its first chemical synthesis and clinical trials in the late 19th century, the cellular and molecular mechanisms of action of ASA have been the focus of intense research 35. In the early 1970s, a series of reports by J.R. Vane established that ASA and ASA-like drugs inhibit prostaglandin synthesis 36. For the next 20 yr, this was the dominant view for the overall mechanism of action of ASA, despite the finding that at the cellular level, ASA inhibits neutrophil activation, even in the presence of cyclooxygenase products 37. Claria and Serhan 38 showed that, in the presence of ASA, cyclooxygenase-2 is acetylated, <\connective form=yet text=yet id=F929_FULL6_12.txt.raw_78 relation=Comparison\> remains active and converts arachidonic acid into intermediates that are converted into potent ATL, <\connective form=thus text=thus id=F929_FULL6_12.txt.raw_262 relation=Contingency\> opening the possibility that ATLs are indeed mediating the anti-inflammatory actions of ASA in vivo. <\connective form=indeed text=Indeed id=F929_FULL6_12.txt.raw_68 relation=Expansion\>, ATLs display powerful pro-resolution and anti-inflammatory actions in several cell types and disease settings 27. This new body of evidence sheds light on the possible intracellular pathways that are controlled by ASA and ATLs. ASA has been shown to inhibit neutrophil and macrophage activation, calcium flux, and integrin activation, as well as IL-12, TNF, and IL-8 production 27, suggesting that the downstream inhibition targets are critical elements of a general proinflammatory pathway. In agreement with this hypothesis, it was shown that ASA blocks NF-κB activation and nuclear translocation 39. Our earlier observation that ATL-induced SOCS2 mediated some of the anti-inflammatory actions of ASA 9 opened the possibility of exploring novel intracellular mechanisms of action of this drug. The results presented in this study clearly indicate that TRAF6 is a key molecular target of ASA <\connective form=and text=and id=F929_FULL6_12.txt.raw_240 relation=Expansion\> that proteasome-mediated degradation of TRAF6 plays an important role and is a major inflammation resolution pathway upregulated by ASA. In a similar vein, Paul-Clark et al recently demonstrated that 15-epi-LXA4 mediates ASA induction of nitric oxide, negatively regulating leukocyte-endothelium interactions 40. What role this pathway plays in modulating DC function is currently under active investigation. It has become clear in recent years that dysregulated inflammatory responses are central to the pathogenesis of a wide range of diseases, causing an enormous burden of morbidity and mortality in the world at large. The results presented in this study suggest that degradation of TRAF6 provides a promising biochemical target for drug development aimed at modulating inflammatory processes in these diseases.