Quantum systems evolve deterministically <\connective form=when text=when id=m1277_ful6_12.txt.raw_47 relation=Temporal\> no one is looking. Free from observation, knowledge of a quantum state at one point in time is in principle sufficient to predict its entire evolution. <\connective form=however text=However id=m1277_ful6_12.txt.raw_49 relation=Comparison\>, when a measurement is performed, quantum mechanics postulates that the observer will obtain a random postmeasurement outcome. Conveniently, measurement can produce states that are difficult to obtain by other means, such as Hamiltonian evolution, and <\connective form=thus text=thus id=m1277_ful6_12.txt.raw_90 relation=Contingency\> provides a powerful tool for quantum state preparation. But standard quantum mechanics does not predict the outcomes of individual experiments, only their likelihood. Measurement-based state preparation is hindered by nondeterminism, and desirable for example, entangled quantum states often correspond to highly unlikely measurement outcomes. Here we demonstrate that quantum indeterminism can be reduced by suitable intrameasurement feedback, engineered to steer the outcome of an otherwise random quantum process toward a deterministic outcome. 

The quantum system in our experiment was provided by a cloud of N atoms each with intrinsic angular momentum, Formula, because of a combination of nuclear spin, valence electron spin, and orbital angular momentum. The atoms were initially polarized such that their individual momenta were oriented along a common longitudinal direction, which we chose to be the x axis. The resulting atomic state displayed a net magnetization, F, along x with magnitude Formula, where F = Nf. The cartesian components of F are associated with noncommuting quantum operators, F̂x, F̂y and F̂z, that obey the Heisenberg uncertainty relation Formula1 This inequality has the interpretation that an ensemble of measurements for similarly prepared atomic samples performed on either F̂y or F̂z will yield a distribution of random shot-to-shot outcomes. For a large magnetization, the Fz for example measurement distribution is essentially Gaussian with mean 〈F̂z〉 and variance ΔF̂z2 ≡ 〈F̂z2〉 – 〈F̂z〉2. The fully polarized atomic state has 〈F̂x〉 = F and Formula, and is referred to as a coherent spin state Fig 1A 

It is possible to reduce the measurement variance in one of the transverse components below the coherent state value of F/2 at the expense of increased uncertainty in the orthogonal component, provided that Eq. 1 remains satisfied Fig 1A. Polarized states with this property are referred to as spin-squeezed states 1 and have received much attention for their potential to improve the sensitivity of spin-resonance measurements, including magnetometry 2, 3 and atomic clocks 4, 5. Spin-squeezing below the coherent state level is <\connective form=also text=also id=m1277_ful6_12.txt.raw_111 relation=Expansion\> of fundamental interest in quantum information science for achieving many-particle entanglement 6. 

<\connective form=although text=Although id=m1277_ful6_12.txt.raw_26 relation=Comparison\> several different mechanisms have been explored for the preparation of squeezed atomic states 7, 8, interest has focused on using quantum nondemolition QND measurements 9–11, in which the atomic system interacts coherently with an off-resonant optical probe. As a result, the z component of the atomic magnetization, Fz, becomes weakly entangled with the probe polarization, and photodetection gradually 9 provides the observer with information about the spin state 12–14. Continuous observation conditionally reduces ΔF z2 with respect to the QND measurement outcome in any individual measurement trajectory; <\connective form=however text=however id=m1277_ful6_12.txt.raw_50 relation=Comparison\>, the ensemble averaged uncertainty is not reduced, <\connective form=because text=because id=m1277_ful6_12.txt.raw_88 relation=Contingency\> the Fz measurement outcomes over many QND trajectories are distributed with a variance equal to ΔF z2 of the initial state. 

Our experiment used real-time continuous quantum feedback 15 to steer the value of Fz toward a fiducial value in each QND measurement trajectory 3, 12, <\connective form=and text=and id=m1277_ful6_12.txt.raw_64 relation=Expansion\> we were <\connective form=thus text=thus id=m1277_ful6_12.txt.raw_91 relation=Contingency\> able to demonstrate unconditional spin-squeezing. Figure 1B provides a schematic of our experimental apparatus 16, which consisted of a spin-polarized cold atom cloud prepared by laser cooling and a Faraday polarimeter. As in previous experiments on atomic spin-squeezing, we used optical pumping initially to prepare approximate coherent spin states. The polarimeter photocurrent, which was proportional to Fz via Faraday rotation, provided our continuous QND measurement of atomic spin. With feedback enabled, the QND photocurrent modulated a y-axis magnetic field via proportional feedback to actuate the orientation of F by y-axis Larmor precession. 

Figure 2A1 shows the DC-coupled polarimeter photocurrent for one open-loop feedback disabled QND measurement trajectory. Time t = 0 corresponds to the beginning of the measurement record after the atom sample preparation 16. The QND measurement was initiated at t = 10 μs by opening the probe laser shutter, and the value of Fz for each trajectory manifests itself as an offset in the photocurrent. We computed the QND value of Fz from the mean photocurrent, Formula, for the window 50 ≤ t < 60 μs. At t = 60 μs, the QND measurement was disabled for 10 μs by closing the probe shutter but was reenabled for the final 30 μs of the trajectory. This latter probe phase constitutes a second QND measurement, where Fz was determined from Formula, for 70 ≤ t < 80 μs. 

The measurement trajectory in Fig 2A1 illustrates conditional spin-squeezing, as the value of y2 is seen to be correlated with y1. The conditional uncertainty in Fz may be identified with the statistical uncertainty due to optical noise in determining the mean value y1. With sufficient filtering time averaging, this uncertainty is significantly reduced and spin-squeezing is obtained 2. <\connective form=however text=However id=m1277_ful6_12.txt.raw_51 relation=Comparison\>, on a shot-to-shot basis, y1 randomly assumes different Gaussian-distributed values with variance ΔF z2 ≈ F/2. Figure 3A shows a histogram of Py1, the probability of observing a given value of y1 generated from 500 trajectories. The measured variance of this distribution is given by ΔF z2 for the initial atomic state. 

The outcome of the second QND measurement, y2, can only be predicted with improved precision provided that the value of y1 is already known: The squeezing is conditioned on the value of y1. This can be seen from the probability distribution Py2 – y1 Fig 3B, which displays one-10th the variance of the initial spin projection. <\connective form=however text=However id=m1277_ful6_12.txt.raw_52 relation=Comparison\>, the average atomic state over many trajectories is not squeezed with respect to any fiducial value of Fz, such as zero, as indicated by Py2 dashed line in Fig 3B. In Fig 2A2, a precision-pulsed longitudinal magnetic field is applied during the 10-μs dark period to produce a 90° rotation around the x axis. The induced Larmor precession exchanges the transverse uncertainties ΔFy and ΔFz, making Fz the antisqueezed component. Consequently, y2 is distributed with greater variance than y1, as seen in the histogram in Fig 3C. 

In sharp contrast to the open-loop procedure, Fig 2B1 demonstrates our deterministic ability to steer the value of Fz toward y1 = 0, using intrameasurement feedback. Here the QND measurement reveals an initial offset in the photocurrent that corresponds to the random value of Fz for that trajectory. <\connective form=however text=However id=m1277_ful6_12.txt.raw_53 relation=Comparison\>, the photocurrent drives a y-axis feedback control field to rotate the atomic magnetization <\connective form=until text=until id=m1277_ful6_12.txt.raw_25 relation=Temporal\> Fz = 0. Feedback locks the orientation of the atomic magnetization onto the x axis despite the initial offset illustrated by the squeezing ellipse centered on the origin in Fig 2B1. 

The QND measurement of y2, after a 10-μs dark interval, demonstrates that the spin state is unconditionally squeezed: The feedback-stabilized value of y2 = 0 can be predicted more precisely than the initial spin projection variance as confirmed by the Py2 histogram in Fig 3D. The variance of this distribution is approximately an order of magnitude smaller than the initial-state variance and reflects significant unconditional squeezing. Application of a 90° x-axis Larmor pulse between the two QND measurements again reveals the antisqueezed component of the atomic magnetization Fig 2B2. 

Figure 3E displays the Py2 variances of atomic states for different x-axis dark-period rotation angles. <\connective form=although text=Although id=m1277_ful6_12.txt.raw_27 relation=Comparison\> the initial spin-projection noise red crosses is independent of angle, the atomic states subject to QND measurement display the expected sinusoidal form that is characteristic of an elliptical noise distribution 17. The open-loop unconditioned variance, Py2 green squares, saturates to that of the optically pumped state, <\connective form=whereas text=whereas id=m1277_ful6_12.txt.raw_85 relation=Comparison\> the conditioned blue triangles and feedback magenta circles data display significant squeezing. Dotted horizontal lines depict the average uncertainty products the square root of the minimum value times the maximum value of their corresponding sinusoids; these uncertainty products respect Eq. 1 in that they lie above the measured variance of our approximate coherent spin state. 

<\connective form=although text=Although id=m1277_ful6_12.txt.raw_28 relation=Comparison\> ΔF z2 can only be determined by statistical analysis of many measurement trajectories, the QND nature of our procedure is manifest in individual trajectories of the experimental data. This is a key feature of our unmodulated, broadband, and continuous-time approach; it makes the principles of feedback control evident from basic features of the trajectory data. Figure 2 portrays a direct relation among the quantum spin state, the real-time measurement record, and the effects of feedback. <\connective form=although text=Although id=m1277_ful6_12.txt.raw_29 relation=Comparison\> spin-projection noise of the optically pumped atomic state gives rise to a random offset in the photocurrent of each trial, the conditional variance of the evolving spin state has no further influence on the measurement record in terms of additional “spin noise”. The photocurrent noise is purely optical, and the decrease in statistical uncertainty accomplished by filtering rigorously corresponds to quantum-mechanical squeezing 2. 

Care was taken to characterize possible systematic errors that could exaggerate the observed spin-squeezing in our experimental data. Stray magnetic fields were nulled within a 100-μs line-locked window with external computer-controlled Helmholtz coils. Imperfect polarimeter detector balancing was characterized by measuring the shot-to-shot photocurrent variance with no atoms in the probe beam path. This optical noise floor was found to lie well below the detected squeezing minima Figs 3E and 4B. Atomic depolarization due to probe-induced decoherence and ambient magnetic noise was characterized by observing the magnetization free-induction decay Fig 4A. Spin relaxation was estimated to be less than 6 over our 100-μs trajectories, as is <\connective form=also text=also id=m1277_ful6_12.txt.raw_112 relation=Expansion\> evident from the absence of any apparent “droop” in the open-loop optical signals 16. 

The variance of the QND measurement, y1, was measured for varying probe intensity and atom number to verify correct quantum noise–limited scaling. Figure 4B demonstrates good linearity between the probe optical power and the open-loop measurement uncertainty, σ = stdPy1. In Fig 4C, σ is plotted on a logarithmic scale versus the maximum amplitude AL of the atomic free-induction generated by y-axis Larmor precession. <\connective form=because text=Because id=m1277_ful6_12.txt.raw_89 relation=Contingency\> AL is proportional to N, the slope-1/2 fit of σ versus AL red data points in Fig 4C indicates correct Formula scaling for ΔFz. As a further verification, the Larmor amplitude was compared to an independent determination of atom number via fluorescence imaging with excellent linear scaling green data points in Fig 4C. The solid line in Fig 4C indicates our predicted value for σ computed as Formula using the value of N determined from fluorescence imaging. We estimate our fluorescence data to be accurate to 10 to 20, verified for varied imaging powers and detunings and by comparison to absorption data Fig 4C, inset. Combined with the visibility of the squeezing data in Fig 3E, these calibrations strongly suggest quantum-limited performance. 

It may be noted that an alternative procedure for deterministic spin-squeezing would be to produce a conditionally squeezed state, with a random offset, by open-loop QND measurement, and <\connective form=then text=then id=m1277_ful6_12.txt.raw_35 relation=Temporal\> to apply a pulsed y-axis magnetic field to recover the desired value of Fz. This procedure resembles a discrete form of feedback, <\connective form=but text=but id=m1277_ful6_12.txt.raw_44 relation=Comparison\> <\connective form=unless text=unless id=m1277_ful6_12.txt.raw_37 relation=Expansion\> further verification measurements and correction steps were performed, the absence of true “loop closure” would render the procedure highly sensitive to technical uncertainties. The precise relation between the photocurrent and the orientation of the magnetization vector depend on a number of parameters, such as the exact number of atoms, that will not be known perfectly in practice. Hence, as noted previously 3, 12, a single-pulse correction scheme will be substantially even prohibitively nonrobust. 

Our results demonstrate the plausibility of emerging methodologies in quantum physics that use real-time feedback to influence the stochastic dynamics of quantum state reduction in the manner of directed diffusion. Through carefully engineered measurements and control laws, it may become possible to implement dynamics that are inherently unlikely or otherwise technically difficult to achieve. This approach offers great promise for optimizing applications, such as quantum noise–limited metrology, by incorporating techniques from mathematical filtering and control theories.