Angiogenesis is thought to depend on a precise balance of positive and negative regulation. The neovascularization of the retina occurs predominantly via angiogenesis, which is the formation of functional blood vessels from a pre-existing vasculature Ray and Thomas, 2005. <\connective form=although text=Although id=F112_FULL6_12.txt.raw_30 relation=Contrast\> this process was tightly regulated under physiological conditions, persistent unregulated angiogenesis is a hallmark of diabetic retinopathy, retinal vein occlusion, retinopathy of prematurity and age-related macular degeneration. Diabetic retinopathy is one of the significant microvascular complications in diabetes and is a leading cause of acquired blindness among people of occupational age Frank,1991. The vascular permeability and its regulatory control are central to homeostasis and increases in vascular permeability play a key role in the development of sepsis-associated hypotension, acute respiratory distress syndrome, nephrotic syndrome, diabetic retinopathy and diabetic neuropathy. Erythropoietin EPO is a 34-kDa renal glycoprotein hormone, responsible for the development of immature erythroid cells Koury and Bondurant, 1992; Sarah et al, 1997 and was first characterized as a hematopoietic factor. More recently, EPO and EPO receptor EPOR were found to be expressed by brain and retinal tissue Jelkmann and Metzen, 1996; Hugo et al, 2006; Juul et al, 1998; Bšcker-Meffert et al, 2002. <\connective form=besides text=Besides id=F112_FULL6_12.txt.raw_219 relation=Asynchronous\> an increase of intracellular calcium, the main signaling pathways of hematopoietic cells involved in the activation of phosphatidylinositol 3-kinase PI3K/Akt, MAPK, JAK and activation of transcription factor 5 STAT5 for survival, proliferation, and migration of stimulated cells Raul et al, 1995; Domenico et al, 1999; Dolores et al, 2002. Pigment epithelium-derived factor PEDF is a 50-kDa secreted glycoprotein that was first isolated from conditioned medium of cultured primary human fetal retinal pigment epithelial cells Tombran and Johnson,1989. PEDF is widely expressed throughout fetal and adult tissues, including the adult brain Bilak et al, 1999, spinal cord Kuncl et al, 2002, plasma Steen et al, 2003, liver Sawant et al, 2004, bone Gerald et al, 2005, eye, heart, and lung Joyce et al, 1996. It is one of the most potent endogenous inhibitor of angiogenesis in the eye Dawson et al, 1999; Veronica et al, 2001. Several studies have shown that a decreased level of PEDF in the eye is associated with a number of ocular neovascular and neurodegenerative diseases. Inhibition of vessel formation was mediated by upregulation of the Fas-ligand on the surface of endothelial cells, with subsequent induction of apoptosis in actively dividing cells Olga et al, 2002. PEDF selectively inhibits the formation of newvessels from endothelial cells but does not appear to harm the existing vascular structure. The inhibitory effect of PEDF on vessel formation appears to be reversible <\connective form=when text=when id=F112_FULL6_12.txt.raw_82 relation=Synchronous\> a transient and regulated angiogenesis occurs in situations including tissue repair after injury. A recent study has provided clinical evidence to show that expression of VEGF and PEDF is inversely correlated during the development of retinal neovascularization, further supporting an anti-angiogenic role for PEDF in-vivo Nahoko et al, 2002. <\connective form=furthermore text=Furthermore id=F112_FULL6_12.txt.raw_61 relation=Asynchronous\> the high expression of EPO and low expression of PEDF has been established in angiogenesis <\connective form=but text=but id=F112_FULL6_12.txt.raw_66 relation=Contrast\> the correlation effect of the EPO and PEDF remains unclear. In the present study, we have investigated the molecular mechanism of PEDF on EPO-induced angiogenesis, and permeability in goat retinal microvascular endothelial cells GRECs. We report that EPO increases the cell proliferation, migration, tube formation and permeability significantly in GRECs. Further, PEDF inhibits the EPO-induced via angiogenesis and permeability via PI3K/Akt-dependent pathway and this pathway might represent a potential target to inhibit the neovascularization process, which may lead to the development of novel anti-neovascular agents for therapeutic purposes. 



Goat retinal microvascular endothelial cells GRECs were isolated and cultured as described previously Sheikpranbabu et al, 2009a. Briefly, freshly isolated goat retinas were washed twice with sterile 1_ Phosphate Buffer Saline PBS, pH 7.2 and the retinal layer was separated in to retinal tissues and blood vessels. The blood vessels were minced and mixed with 1_ PBS, transferred to a 15 ml tube, centrifuged at 600 _ g for 5 min at room temperature and the supernatant discarded. The pellet containing the blood vessels was suspended in 3 ml of proteolytic enzyme cocktail containing 0.01 g collagenase type IV, 0.004 g Pronase and 0.004 g DNAse, mixed with 2 ml of 1_ PBS pH 7.2, and incubated at 37 _C for 20e25 min. Subsequently the digested blood vessels were centrifuged at 600 _ g for 5 min at room temperature and the supernatant discarded. The pellet containing the blood vessels was resuspended in 1.5 ml of fresh Iscove’s Modified Dulbecco’s Medium IMDM supplemented with 10 fetal bovine serum FBS Sera Laboratories International Ltd, UK, 100 U/ml Penicillin-G, 100 mg/ml Streptomycin and 250 mg/ml Amphotericin-B. The suspended blood vessels were seeded in 35-mm tissue culture dish pre-coated with 1 gelatin, incubated at 37 _C in 5 CO2 atmosphere. After 12 h the unattached blood vessels and debris were removed and washed once with serum free IMDM followed by the addition of fresh medium supplemented with 10 FBS and the cultures returned to 37 _C with 5 CO2. The medium was changed every 3 days and the cell growth was monitored under phase contrast microscope. The cells were used between passages 4 and 9. 

To assess the cell proliferation, a 3-4, 5-dimethylthiazol-2-yl-2, 5-diphenyl tetrazolium bromide MTT assay was used. Briefly, GRECs were seeded at a density of 2 _ 103 cells per well into 96- well culture plates. After attachment, the culture medium was changed to IMDM containing 10 FBS, and the cells were grown for 24 h. After reaching 80 confluence, the cells were starved with IMDM containing 1 FBS for 5 h and <\connective form=then text=then id=F112_FULL6_12.txt.raw_57 relation=Asynchronous\> treated with various concentrations of EPO Sigma St Louis, USA or PEDF Abcam, Cambridge, UK and/or combinations of both. After 24 h, cell proliferation was assessed using the MTT assay as per the manufacturer’s instructions MTT-cell proliferation kit, Roche, Germany GmbH. Absorbance was measured at 595 nm using an enzymelinked immunosorbent assay ELISA plate reader Biorad Model 680, Japan. To examine the cell migration effect of EPO and PEDF on GRECs, a wound-scratch assay was followed as described previously Mary et al, 2005. Cells were seeded in 35-mm plates and grown to confluence in IMDM growth medium. The monolayer was starved for 5 h in IMDM with 1 FBS. Cells were treated with 1 mM 5-Fluorouracil Sigma St Louis, MO for 15 min to rule out the contribution of differences in cell proliferation. Endothelial cells were aseptically scraped out from the middle of the plate using a sterile 200-ml micropipette tip rinsed with growth medium. After scraping, cells were rinsed twice with medium to remove wound-derived cells. <\connective form=then text=Then id=F112_FULL6_12.txt.raw_58 relation=Asynchronous\> the cells were scratched with a plastic pipette tip to yield cell-free areas of uniform width and treated with EPO and PEDF. Control plates contained pure assay medium 1 serum, without growth factors. After incubation at 37 _C for time intervals of 0 and 24 h, movement of cells into the denuded area was evaluated. To determine the extent of wound closure, digital photographs were taken two pictures from each plate at randomly chosen areas after 24 h and the wound closer areawas analyzed by axiovision software Zeiss, Germany. The isolated GRECs were seeded at 3 _104 cells in 35-mm tissue culture plates pre-coated with 4 gelatin. After 24 h, the growth medium was replaced with IMDM medium containing 0.5 FBS and PEDF in the presence or absence of EPO in GRECs and the plates were maintained at 37 _C with 5 CO2. The capillary tube formation was observed under phase contrast microscope Zeiss Axiovert, Germany and the tubular length was measured using axiovision software GRECs were seeded at 2 _ 103 cells per well in a 96-well plate pre-coated with 1 gelatin. After 24 h, the growth medium was replaced with IMDM containing 0.5 FBS. The cells were treated with PI3K specific pharmacological inhibitor, LY294002 10 mM for 15 min prior to EPO treatment. The cell proliferation rate was analyzed using MTT assay according to the manufacturer’s instructions and the cell proliferation was measured using a micro plate Reader Biorad Model 680, Japan. Constitutively active myristoylated Akt CA Akt and dominant negative K179M Akt DN Akt mutants were kindly provided by Dr Kyung-Jin Lee Department of Life Science, GIST, Korea. Transient transfection assay was carried out using the method described earlier Haribalaganesh et al, 2009. Briefly, GRECs were transiently transfected using a nucleofection technique Amaxa Biosystems, Koeln, Germany and grown to 80 confluence in IMDM and the cells were harvested by trypsinization and centrifuged at 3000 rpm for 10 min. The pellet was resuspended in the nucleofector solution Basic nucleofector kit, Amaxa Inc, Germany to a final concentration of 4e5 _ 105 cells/100 ml. At the time of transfection, 1e3 mg of plasmid DNA encoding green fluorescent protein pmaxGFP, CA Akt or DN Akt was added along with a nucleofector solution and subjected to electroporation using a nucleofector device-II Amaxa Biosystems, Koeln, Germany. After electroporation, transfected cells were resuspended in 35-mm plates containing 1 ml of prewarmed IMDM and incubated in 5 CO2 at 37 _C. The transfection efficiency determined after cotransfection with a pmaxGFP plasmid Amaxa Inc and cell viability determined by MTT assay were usually about 80e90. GRECs at passage five were seeded in IMDM coated with gelatin in porous membranes of permeable insert system Transwell, Corning, USA, pore size 0.4 mm, growth area 0.33 cm2 with a seeding density of 30,000 cells/cm2. The medium was changed the next day, and every other day <\connective form=thereafter text=thereafter id=F112_FULL6_12.txt.raw_36 relation=Asynchronous\>. 500-ml medium was <\connective form=also text=also id=F112_FULL6_12.txt.raw_248 relation=Conjunction\> added in the lower chamber of the insert systems. Endothelial cell permeability of a confluent cell monolayer was determined by a fluorescence-based assay as reported previously Sheikpranbabu et al, 2009b. Briefly confluent monolayer endothelial cells ECs were incubated with IMDM assay medium for 5 h containing only 1 FBS without any growth factors. Here, we used Rhodamine isothiocyanate RITC-dextran Sigma St Louis, MO with a molecular weight of 70-kDa, which corresponds to a diameter of approximately 6 nm. The ability of the dextran to pass from the upper chamber of the permeable insert system into the lower chamber was used to determine the leakage properties of the monolayer. More dextran in the lower chamber indicates higher permeability. This dextran flux was quantified by means of the fluorescence in the lower chamber.10 mMof RITC was applied to the apical chamber of the transwell inserts with a confluent ECs monolayer. Permeability assays started 4 days after seeding, when a confluent monolayer of ECs was present. EPO was added for the designated times. Where applicable, PEDF was added 15 min prior to EPO treatment. In some experiments, LY294002, a PI3-kinase inhibitor was added to ECs cultures 15 min prior to growth factor addition. The media volumes used equalized fluid heights in the apical and basolateral chambers, so that only diffusive forces were involved in solute permeability. At the indicated times after treatment, 100 ml samples were taken from the basolateral chamber and placed in a 96-well plate 96-well, polystyrene, flat bottom, Corning, USA. A sample was taken from the apical chamber at the last time point; the amount of fluorescence in this chamber did not change significantly over the course of the experiment. Aliquots were quantified using a fluorescence multi-detection micro plate reader Biotek FLx800, Vermont, USA at an excitation/emission of 540/590 nm. All results are expressed as the means _ standard deviation SD values. The statistical significance was evaluated by using the paired two-tailed student’s t test. A P < 0.05 was considered to indicate a statistically significant difference. 



Recent reports suggest that erythropoietin is a potent angiogenic molecule which induces cell survival and proliferation in retinal endothelial cells Rachel and Aly, 2007. To determine the effect of EPO on cell proliferation in GRECs, cells were exposed to various concentration of EPO for 24 h. The effect of EPO on endothelial cell proliferation was determined by MTT colorimetric assay. EPO-induced maximal cell proliferation at 1 IU compared to control Fig 1A. This mitogenic effect was gradually lost as the concentration of EPO was increased in the medium to a maximum of 10 IU. The data suggest that EPO-induced cell proliferation significantly in GRECs. 

PEDF is a well-known inhibitor of angiogenesis <\connective form=and text=and id=F112_FULL6_12.txt.raw_153 relation=Conjunction\> it is involved in EPO-induced barrier dysfunction of microvascular endothelial cells. To confirm the effect of PEDF on GRECs, cells were exposed to various concentrations of PEDF and incubated for 24 h. Among various concentrations of PEDF tested, 1 nM PEDF significantly inhibits the cell proliferation in GRECs Fig 1B. Further, to analyze the counteractive effect of PEDF on EPO-induced cell proliferation, 1 nM of PEDF was added 15 min prior to EPO treatment. The result shows that pre-treatment of PEDF significantly blocked the EPO-induced cell proliferation in GRECs Fig 1C. 

Angiogenesis involves a variety of parallel events, including matrix degradation, migration, proliferation and morphogenesis of endothelial cells. To know the effect of PEDF and EPO on cell migration, a wound-scratch assay was performed. The assay showed that EPO significantly increases migration of endothelial cells; PEDF was observed to inhibit the cell migration. Fig 2A shows enhanced migration of GRECs and wound closure being completed almost by 24 h in 1 IU EPO-treated plates, <\connective form=whereas text=whereas id=F112_FULL6_12.txt.raw_211 relation=Contrast\> a significant area of the wound remaining uncovered in 1 nM PEDF-treated plates. The same inhibitory effect was observed in plates incubated with combinations of EPO and PEDF, which shows that PEDF blocks the EPO-induced cell migration. Fig 2B shows the quantitative assessments of cell migration under various conditions. 

The ability of endothelial cells to form capillary-like structures on an extracellular matrix can distinguish endothelial cells from other common contaminating cell types. To further characterize the effect of EPO and PEDF on angiogenesis, the effect of EPO and PEDF on endothelial tube formation was analyzed using capillary morphogenesis assay. Fig 3A shows that GRECs treated with 1 IU EPO organize well on the 4 gelatin and form extensive capillary networks. In contrast, the addition of 1 nM PEDF resulted in a complete inhibition of capillary alignment and tube formation in cultured GRECs, and <\connective form=also text=also id=F112_FULL6_12.txt.raw_249 relation=Conjunction\> severely affected the formation of capillary- like tubes. Similar results were observed in assays carried out using a combination of EPO and PEDF. Fig 3B shows the quantitative measurement of tube length. The tube formation assay shows that PEDF inhibits the EPO-induced tube formation in GRECs. 

Phosphatidylinositol 3-kinase PI3K and its downstream regulator, Akt plays a critical role in the regulation of cellular processes, mainly proliferation and survival To determine the involvement of PI3K/Akt in EPO-induced cell proliferation, LY294002, a specific inhibitor of PI3K pathway is used. GRECs were pre-treated with LY294002 10 mM for 15 min, and <\connective form=then text=then id=F112_FULL6_12.txt.raw_59 relation=Asynchronous\> treated with EPO 1 IU for 24 h. The activity of PI3K/Akt in cell proliferation was determined by the MTT assay. It was found that pre-treatment with LY294002 inhibited endothelial cell survival induced by EPO and the inhibition was decreased by 3-fold as the proliferation seen with EPO alone Fig 4A. Further, to support the role of Akt in EPO-induced cell proliferation, GRECs were transfected with dominant negative Akt DN Akt and constitutively active Akt CA Akt mutant. Over expression of DN Akt blocked EPO-induced cell proliferation to the level of control, whereas over expression of CA Akt leads to increase in the endothelial cell proliferation. CA Akt rescues the inhibitory effect of PEDF in cell proliferation when compared the effects in wild type GRECs Fig 4B. These results show that EPO could possibly induce the cell survival via PI3K/Akt-dependent pathway, and PEDF might suppress the EPO-induced PI3K/Akt activity in GRECs. 

To study the ability of EPO to induce EC permeability, GRECs were grown to confluence on transwell membrane filters and <\connective form=then text=then id=F112_FULL6_12.txt.raw_60 relation=Asynchronous\> treated with EPO at various concentrations. EPO-induced dose-dependent increase in permeability of the endothelial cell monolayer which is shown by the relative transfer of RITC-labeled dextran in 12 h, where maximal permeability was induced by the treatment with 2 IU/ml of EPO Fig 5A. The effect of EPO on permeability persisted over 24 h duration of the experiment. 


PEDF is known to act on multiple cell types in addition to endothelial cells such as neurons, glial cells, microglia, and retinal pigment epithelium, <\connective form=but text=but id=F112_FULL6_12.txt.raw_67 relation=Contrast\> we were interested in examining whether PEDF has a direct effect on endothelial cells in the regulation of permeability. To determine the role of PEDF on endothelial cell permeability, we examined the diffusion of non-radioactively labeled dextran across a confluent endothelial cell monolayer. PEDF reduced the permeability to RITC-dextran compared with control significantly Fig 5B. The inhibitory effect was dose-dependent, reaching a maximum at 10 nM and a very less significant degree of inhibition occurred at lower doses. In addition, the effect of PEDF on permeability persisted over the 24 h duration of the experiment. 

We <\connective form=also text=also id=F112_FULL6_12.txt.raw_250 relation=Conjunction\> examined the inhibitory effect of PEDF on EPO-induced endothelial cell permeability. In this experiment, PEDF was added 15 min prior to EPO treatment. PEDF inhibition of EPO-induced permeability occurred in a dose-dependent manner; 10 nM PEDF was sufficient to inhibit EPO-induced permeability to the level of control Fig 6. This result suggests that PEDF completely abrogated the EPO-induced increase in permeability to RITC-dextran. 


We investigated the involvement of the PI3-kinase pathway in EPO-induced permeability in GRECs. Endothelial cells were grown to confluence, and solute flux was determined in the presence of EPO and LY294002. GRECs were pre-incubated with 10-mM LY294002 inhibitor for 15 min followed by the addition of 2 IU/ml of EPO and incubated for 24 h. It was found that pre-treatment with LY294002 inhibited endothelial cell permeability in the presence or absence of EPO treatment Fig 7A. This result suggests that EPO-induced cell permeability via PI3-kinase pathway in GRECs. 3 To verify further the role of PI3K/Akt activity in the regulation of vascular permeability, GRECs were transfected with plasmid encoding dominant negative K179M PI3K/Akt DN Akt and constitutive myristoylated Akt CA Akt, grown to confluence and the effect of EPO and PEDF on endothelial cell permeability was measured. Over expression of DN Akt blocked EPO-induced permeability to the level of control, whereas over expression of CA Akt increased the permeability in GRECs. Stimulation of these cells with EPO treatment had a significant effect on cell permeability, which indicates that PI3K/Akt activation is sufficient for the induction of endothelial cell permeability Fig 7B. Further, CA Akt rescues the inhibitory effect of PEDF-induced permeability when compared the effect of permeability in wild type GRECs. These data shows that EPO could induce the permeability via PI3K/Akt pathway, and PEDF inhibits the EPO-induced permeability via PI3K/Akt activity in GRECs. 


The present study demonstrates the anti-angiogenic and antipermeability effect of PEDF on EPO-induced proliferation and permeability in a retinal endothelial cell system from goat retina. In addition, we have demonstrated that PEDF inhibits EPO-induced proliferation and permeability by interrupting PI3K/Akt pathway. EPO is a pivotal mitogen that play a vital role in erythropoiesis <\connective form=and text=and id=F112_FULL6_12.txt.raw_184 relation=Conjunction\> it <\connective form=also text=also id=F112_FULL6_12.txt.raw_251 relation=Conjunction\> act as a potent ischemia-induced angiogenic factor Yoshiya et al, 2005; Daisuke et al, 2005. Recent reports <\connective form=also text=also id=F112_FULL6_12.txt.raw_252 relation=Conjunction\> suggest that EPO act as a survival factor for endothelial cells Banumathi et al, 2009 and as a protects for the neuronal cells in the central nervous system and the retina. The level of EPO is significantly higher in patients with PDR, both in blood and vitreous humor Daisuke et al, 2005 and treatment of EPO in diabetic mouse induces angiogenesis such as wound healing Galeano et al, 2004. <\connective form=moreover text=Moreover id=F112_FULL6_12.txt.raw_223 relation=Conjunction\>, it was reported that EPO induced the proliferation of ECs cultured in vitro Rachel and Aly, 2007. In corroboration with all the above results, we have shown that EPO-induced the proliferation, migration and tube formation in GRECs. <\connective form=moreover text=Moreover id=F112_FULL6_12.txt.raw_224 relation=Conjunction\>, vascular hyper-permeability occurs at the early stages of Diabetic Retinopathy, leading to neovascularization. Previously many angiogenic agents like VEGF, IL-1b have shown to induce permeability and cause neovascularization Sheikpranbabu et al, 2009b. Here, EPO induced both cell proliferation and permeability in cultured GRECs. <\connective form=moreover text=Moreover id=F112_FULL6_12.txt.raw_225 relation=Conjunction\>, consistent with the previous reports Daisuke et al, 2005; Galeano et al, 2004, our results <\connective form=also text=also id=F112_FULL6_12.txt.raw_253 relation=Conjunction\> show that EPO significantly induces the migration and tube formation. PEDF is a well-characterized anti-angiogenic molecule, which induces apoptosis in budding endothelial cells Leiling et al, 2006. During the condition of diabetic retinopathy, there is a decrease in the level of PEDF in vitreous humor Kayako et al, 2008 therefore further characterization of PEDF expression and its biological effects may offer new therapeutic approaches to prevent blindness. <\connective form=thus text=Thus id=F112_FULL6_12.txt.raw_220 relation=Cause\>, to confirm the role of PEDF as an anti-angiogenic molecule, we studied the effect of PEDF on EPO-induced proliferation and permeability in GRECs. PEDF significantly blocked the GRECs proliferation and permeability in the presence or absence of EPO. Further it <\connective form=also text=also id=F112_FULL6_12.txt.raw_254 relation=Conjunction\> blocked the other steps in angiogenesis like cell migration and tube formation GRECs. <\connective form=thus text=Thus id=F112_FULL6_12.txt.raw_221 relation=Cause\>, PEDF blocked EPO-induced angiogenesis and permeability. Further, we studied the signaling mechanism using LY294002, a well-known inhibitor of PI3 Kinase. PI3K and its downstream target molecule serineethreonine kinase Akt are important for the regulation of a number of cellular responses Rachel and Aly, 2007. LY294002 significantly inhibited the GRECs proliferation and permeability in the presence or absence of EPO as like as PEDF. In order to characterize the downstream targets of PI3-Kinase signaling, transfection assays were performed with DN Akt and CA Akt mutants which suggested that EPO-induced cell proliferation and permeability signals via PI3K/Akt activity in GRECs. Our data indicate that suppression of PI3-kinase expression would be the central mechanism for the anti-proliferative and anti-permeability effects of PEDF, <\connective form=thus text=thus id=F112_FULL6_12.txt.raw_222 relation=Cause\> providing a novel therapeutic potential of PEDF for the treatment of diabetic retinopathy. <\connective form=although text=Although id=F112_FULL6_12.txt.raw_31 relation=Contrast\> PEDF is still not approved as a therapeutic agent for angiogenic related disorders, various experiments have been performed on mice so as to confirm the action of PEDF. As mentioned previously, PEDF only act on budding endothelial cells in rat model. PEDF <\connective form=also text=also id=F112_FULL6_12.txt.raw_255 relation=Conjunction\> induces differentiation in retinal neuroblastoma cells and <\connective form=also text=also id=F112_FULL6_12.txt.raw_256 relation=Conjunction\> possesses neurotrophic function Semkova et al, 2002. Moreover various procedures have been checked to increase the transfer of PEDF at the target site like lipofection, ultra sound micro-bubble and increasing the expression of the gene mediated by adenovirus Xi-yuan et al, 2009. The adenovirus mediated transfer has reduced the angiogenesis in mouse model Mori et al, 2002. Currently, PEDF has been transferred to human eye through adenovirus in Phase-1 clinical trial, which showed that the adenovirus to be safe and well tolerated by the patients and only 25 of patients showed the signs of inflammation suggesting adenoviral mediated PEDF treatment to be safe for ocular therapy Campochiaro et al, 2006. In summary, this report demonstrates that PEDF inhibits EPOinduced proliferation, migration, tube formation and permeability in GRECs. Furthermore, PEDF significantly suppress EPO-induced PI3K/Akt signaling in endothelial cells. To our knowledge, this is the first study that demonstrates the anti-proliferative and antipermeability effects of PEDF on cultured endothelial cells. The effect of PEDF on other cell survival pathways induced by EPO in retinal endothelial cells need to be further investigated.