Discoidin domain receptor 1 DDR13 is a receptor tyrosine  kinase  that  is activated by binding to its  ligand-collagen,  including  collagen  type  IV 1, 2, a component of the extracellular matrix ECM  of  the  lungs.  DDR1 possesses a unique extracellular domain that is homologous  to  discoidin  1 of Dictyostelium discoideum 3. DDR1 is  constitutively  expressed  in  the normal tissues of organs, such as the lungs, kidneys, colon, and  brain,  as well as in the tumor cells of epithelial origin, such as those  of  mammary, ovarian, and lung carcinomas 3. We have previously reported that in  vitro DDR1  expression  could  be   induced   in   human   leukocytes,   including neutrophils,  monocytes,  lymphocytes,  and  macrophages  4.  The  tissue- infiltrating mononuclear cells in  vivo,  macrophages  in  particular,  were positive for DDR1 5. We have recently discovered that DDR1 activation  upregulates the production of  chemokines,  such  as  MCP-1,  in  macrophages. These chemokines play an important role in the  pathogenesis  of  idiopathic pulmonary fibrosis IPF in a P38 MAPK-dependent manner and  are  likely  to contribute to the  development  of  inflammatory  responses  in  the  tissue microenvironment 6. Furthermore, we found that increased  DDR1  expression in alveolar macrophages of  IPF  patients  and  its  activation  induce  the production of cytokines, including  MCP-1  and  matrix  metalloproteinase-9, which are key molecules in the pathogenesis of IPF 7. These  findings  led us  to  hypothesize  that  DDR1  suppression  might  affect   or   attenuate inflammation in the lungs. To suppress a specific gene, antisense  or  ribozyme-based  techniques  were used in the past decades. In addition, gene silencing using synthetic  small interfering RNA siRNA has emerged as a powerful tool  in  the  suppression of  target  gene  expression  8.  It  has  been  reported  recently   that transnasal  administration  of  siRNA  is  able  to  down-regulate   protein expression  9  as  well  as  the  respiratory   virus   replication   10 specifically in the lungs. In  this  study,  by  using  a  bleomycin-induced pulmonary fibrosis mouse model, we investigated whether DDR1 suppression  by siRNA is capable of attenuating bleomycin-induced lung inflammation. 




This study was conducted using female C57BL/6 mice weight, 17–20 g; age,  8 wk in specific pathogen-free conditions and was approved by  the  Kagoshima University Ethics Committee for Animal Experiments. 




The mice were anesthetized by i.p. administration  of  1.5  mg  of  ketamine hydrochloride Sankyo and 0.3 mg of  xylazine  hydrochloride  Bayer,  and the trachea was exposed via a cervical incision. Bleomycin  90  μg;  Nippon Kayaku was dissolved in 50 μl of saline and <\connective form=then text=then id=F1196_FUL6_12.txt.raw_53 relation=Asynchronous\> instilled  intratracheally with a 27-gauge needle. For additional  experiments,  the  mice  were  ether anesthetized and <\connective form=then text=then id=F1196_FUL6_12.txt.raw_54 relation=Asynchronous\> sacrificed by axillary  artery  exsanguination.  Table I lists the oligonucleotides used in this study. Each siRNA was diluted  in PBS and <\connective form=then text=then id=F1196_FUL6_12.txt.raw_55 relation=Asynchronous\> administered intranasally after anesthetizing the  animals,  as described above. 



BALF was obtained by cannulating the trachea  with  a  20-gauge  needle  and infusing the lungs four times with 1 ml of  saline.  The  recovery  of  BALF ranged between 2.0 and 3.5 ml, with no significant difference in the  volume recovered  from  each  mouse.  The   BALF   cells   were   collected   after centrifugation 1000  × g,  10  min,  4°C.  The  supernatants  were  stored immediately at −80°C until use for further analysis. 



BALF cells were obtained from  the  bleomycin-treated  mice  day  14.  The cells 2 × 106 were maintained under aerobic conditions in 5  CO2 at  37°C in 6-well culture dishes containing 6 ml of DMEM supplemented with 10  FBS, 100 U/ml penicillin,  0.1  mg/ml  streptomycin,  and  2  mM  glutamine  JRH Biosciences. To evaluate the suppressive effects of siRNA,  we  transfected each siRNA  construct  into  the  mice  BALF  cells  by  using  Transfectene Reagents Qiagen, according to the manufacturer’s protocol. 



The excised lungs were  immediately  fixed  with  10  formaldehyde  neutral buffer solution for 48 h and <\connective form=then text=then id=F1196_FUL6_12.txt.raw_56 relation=Asynchronous\> embedded in  paraffin.  Sagittal  sections were cut at  2-μm  thickness  and  stained  with  H&E  and  Masson-trichrome stains. The total lung area of the sections  was  used  for  fibrotic  scale microscope evaluation Olympus;  BX50F4.  The  criteria  for  grading  lung fibrosis were in accordance with the method  reported  by  Ashcroft  et  al 11: grade 0, normal lung; grade 1, minimal fibrous thickening of  alveolar or bronchiolar walls; grade 3, moderate thickening of walls without  obvious damage to the lung architecture; grade 5, increased fibrosis  with  definite damage to the lung architecture and formation  of  fibrous  bands  or  small fibrous masses;  grade  7,  severe  distortion  of  architecture  and  large fibrous area; and grade 8, total fibrous  obliteration  of  the  field.  The severity of fibrotic changes in each lung section was assessed as  the  mean score of severity from the observed microscopic fields. The  grade  of  lung fibrosis was scored on a scale from 0 to 8 by examining 10  randomly  chosen regions per sample at a magnification of ×200 by four pathologists who  were blinded to the treatment. After examining the entire section,  the  mean  of the scores from all the fields was considered as the fibrotic score. 



Lung tissues were examined by immunohistochemical staining for DDR1 using  a rabbit   anti-DDR1   Ab   Santa   Cruz   Biotechnology   by   using    the diaminobenzidine method, as described previously 12. In brief,  4-μm-thick sections were mounted on poly-L-lysine-coated slides,  dewaxed,  and  washed in TBS pH 7.4 for 10 min. For optimal  Ag  retrieval,  the  sections  were pressure cooked in 0.01 M citrate buffer  pH  6.0  for  90  s.  Endogenous peroxidase activity was blocked using a 3  hydrogen  peroxide  solution  in methanol for 10 min. The blocking reaction was performed  after  two  washes in PBS with 1 saponin. The sections were  incubated  with  the  primary  Ab solution for 2 h at room temperature by using a 1/50  dilution  of  the  Ab. Negative control slides  were  incubated  with  rabbit  IgG  R&D  Systems. Secondary biotinylated anti-Ig Ab R&D Systems was added, and  the  mixture was incubated for 30 min at room temperature. After  washing,  the  sections were incubated with streptavidin  conjugated  to  HRP  Amersham  and  <\connective form=then text=then id=F1196_FUL6_12.txt.raw_57 relation=Asynchronous\> rinsed with deionized water. Diaminobenzidine substrate solution was  added, and  the  mixture  was  incubated  for  10  min.  A  brown-colored  reaction represented a positive result. 



To detect DDR1 and actin, we lysed 1 mg of lung tissue from each mouse or  2 × 106 mice BALF cells in 1 ml of lysis buffer containing 50  mM  HEPES,  150 mM  NaCl,  1  Triton  X-100,  10  glycerol,  and  a  mixture  of  protease inhibitors Roche by using a  hypersonic  homogenizer  UD-200;  Tomy.  We used rabbit IgGs that recognize the DDR1 of  humans  and  mice  Santa  Cruz Biotechnology or anti-actin mouse IgG mAb Santa  Cruz  Biotechnology.  To detect P38 MAPK phosphorylation, we lysed 1 mg  of  lung  tissue  from  each mouse and used  rabbit  polyclonal  anti-phosphorylated  mouse  P38α  Ab  or rabbit polyclonal anti-mouse P38α Ab Cell Signaling Technology. To  detect β1 integrin, we lysed 1 mg of lung tissue from each  mouse  and  used  anti- mouse β1 integrin rat mAb R&D  Systems.  We  performed  the  Western  blot analysis, as described previously 4,6, 13.  In  brief,  the  lysates  were centrifuged, and 20 μl of the supernatant was  collected.  Subsequently,  20 μl of double-strength sample buffer 20 glycerol, 6  SDS,  and  10  2-ME was added to each of supernatants. The  samples  were  boiled  for  10  min. Proteins were analyzed on 8 or  12  polyacrylamide  gels  by  SDS-PAGE  and transferred electrophoretically to nitrocellulose membranes at 150 mA for  1 h by using a semidry system. The membranes were incubated with each  primary Ab, followed by sheep anti-rabbit or mouse IgG coupled  with  HRP  Amersham Biosciences.  Peroxidase  activity  was  visualized  using   the   Enhanced Chemiluminescence Detection System Amersham. The density of the bands  was measured using a freeware image analysis software NIH Image, version  1.62; National Institutes of Health 〈http://rsb.info.nih.gov/nih-image/〉. 



Total RNA was extracted from 1 mg of lung tissue or 2 ×  106 BALF  cells  by using TRIzol reagent, and Northern  blotting  was  performed,  as  described previously 14. The clones of mouse DDR1 cDNA of TGF-β, MCP-1,  MIP-2,  and MIP-1α were donated by T. Yoshimura National Cancer  Institute,  Frederick, MD. Each cDNA was labeled with α-32PdCTP using the  Rediprime  II  Random Prime Labeling System Amersham. 



The  concentrations  of  TGF-β,  MCP-1,  MIP-2,  and  MIP-1α  in  1  mg   of homogenized lung tissue were measured by  using  ELISA  kits  R&D  Systems according to the manufacturer’s protocols. 



The lungs were harvested on day  21  <\connective form=after text=after id=F1196_FUL6_12.txt.raw_67 relation=Asynchronous\>  bleomycin  administration.  Each lung homogenate 0.5 ml was digested in 1 ml of 6 N HCl for 8 h  at  120°C. Five microliters of citrate/acetate buffer 5  citric  acid,  7.24  sodium acetate, 3.4 sodium hydroxide, and  1.2  glacial  acetic  acid  pH  6.0 along with 100 μl of chloramines T solution 282 mg of chloramines T,  2  ml of n-propanol, 2 ml of H2O, and 16 ml of citrate/acetate  buffer  pH  6.0 were added to 5 μl of the sample and incubated for 20 min. Next, 100  μl  of Ehrlich’s solution 2.5 g of  4-dimethylaminobenzaldehyde,  9.3  ml  of n- propanol, and 3.9 ml of 70 perchloric acid was added to  each  sample  and incubated for 15 min at 65°C. The OD was determined at 550 nm on  a  DU  640 spectrophotometer    Beckman    Instruments.    Commercially     available hydroxyproline Sigma-Aldrich was used to construct a standard curve. 



The Mann-Whitney U test and  Bonferroni-Dunn  test  with  one-way  factorial ANOVA were used. Kaplan-Meier  analysis  was  used  for  survival  analysis. A p value below 0.05 was considered to  be  significant.  Values  have  been presented as the mean ± SD,  unless  otherwise  stated.  SD  was  calculated using Microsoft Excel software. 






We first transfected various concentrations of siRNA 0.1, 1, 2, 5,  and  10 nM into mice BALF cells and found that transfection with 2  nM  siRNA1  and siRNA2 significantly inhibited in vitro DDR1 mRNA and protein expression  in mouse BALF cells Fig 1, a and b. The DDR1 expression was  not  inhibited by siRNA-Luc.  Based  on  these  results,  we  used  siRNA1  for  additional experiments. 



To evaluate whether transnasal administration is an adequate method for  the suppression  of  in  vivo  DDR1  expression,  we  examined  pulmonary   DDR1 expression by Western blot analysis. We administered each type of  siRNA  on day 3 and collected the lungs  on  day  5.  As  shown  in  Fig  2,  siRNA1 significantly inhibited DDR1 expression in the lung tissue, <\connective form=while text=while id=F1196_FUL6_12.txt.raw_186 relation=Contrast\>  siRNA-Luc did not exert any inhibition. The minimum dose required to  obtain  adequate suppression of DDR1 expression was 5 nM. <\connective form=therefore text=Therefore id=F1196_FUL6_12.txt.raw_215 relation=Cause\>, we used 5 nM siRNA1  for additional experiments. The suppressive effect of  DDR1  expression  in  the lung continued until day 9, and the maximum effect was  observed  on  day  5 Fig 2, c and d. Based on these findings, we administered siRNA  every  3 days to obtain continuous DDR1 suppression  Fig  3, a and b.  The  DDR1- suppressive effect was specific to the lungs Fig 3c. 



We started the administration of each type of  siRNA  on  day  3;  following this, administration was performed every 3 days.  Histological  examinations revealed  that  DDR1  siRNA  apparently  attenuated  the  inflammation   and pulmonary fibrosis Fig 4a. <\connective form=although text=Although id=F1196_FUL6_12.txt.raw_33 relation=Contrast\> the histological changes  on  day  3 were  almost  similar  across  the  three  groups,  bleomycin-treated   mice without siRNA administration, DDR1  siRNA1-administered  bleomycin-treated mice, and siRNA-Luc-administered bleomycin-treated  mice,  the  infiltration of the inflammatory cells decreased after the administration of  siRNA1.  On day 21, the lung tissue showed slight infiltration of inflammatory cells  in the DDR1 siRNA1-administered bleomycin-treated mice.  In  contrast,  in  the bleomycin-treated  mice  and  the  siRNA-Luc-administered  bleomycin-treated mice, the bleomycin-induced inflammation progressed and resulted  in  severe pulmonary fibrosis on day  21  Fig  4a.  <\connective form=after text=After id=F1196_FUL6_12.txt.raw_69 relation=Asynchronous\>  day  14,  the  pulmonary fibrosis  score  of  DDR1  siRNA1-administered  bleomycin-treated  mice  was significantly lower than that  of  siRNA-Luc-administered  bleomycin-treated mice <\connective form=and text=and id=F1196_FUL6_12.txt.raw_136 relation=Conjunction\> that of bleomycin-treated mice p < 0.01; Fig 4b. When half  the dose of bleomycin 45 μg was administered on day 0, the pulmonary  fibrosis score of DDR1 siRNA1-administered half dose bleomycin-treated mice on day  7 was significantly lower than that of half dose  bleomycin-treated  mice.  On day 21, the amount of hydroxyproline was significantly  lower  in  the  DDR1 siRNA1-administered bleomycin-treated  mice  than  that  in  the  siRNA-Luc- administered bleomycin-treated mice and in the bleomycin-treated  mice  p < 0.01; Fig 4c. The administration of  siRNA1  alone  did  not  affect  the amount  of  hydroxyproline  present  in  the  lungs.  Starting  the   siRNA1 administration after day 7 did  not  attenuate  the  bleomycin-induced  lung inflammation data not shown. The body weight on day 3 was almost the  same across the three groups. After day 14,  the  body  weight  of  DDR1  siRNA1- administered bleomycin-treated mice was significantly higher than  those  of siRNA-Luc-administered  bleomycin-treated  mice  and  the  bleomycin-treated mice Fig 4d. No mice died in  the  DDR1  siRNA1-administered  bleomycin- treated mice group, <\connective form=while text=while id=F1196_FUL6_12.txt.raw_187 relation=Contrast\> seven  mice  died  in  the  siRNA-Luc-administered bleomycin-treated group and six mice died in  the  bleomycin-treated  group. One mouse died in the half dose bleomycin 45 μg-treated group, <\connective form=whereas text=whereas id=F1196_FUL6_12.txt.raw_181 relation=Contrast\>  no deaths were recorded in the siRNA1-administered half dose  bleomycin-treated group. 



Immunohistological  examinations  revealed  that  infiltrating  inflammatory cells, alveolar  macrophages,  and  bronchoepithelial  cells  of  bleomycin- treated mice expressed endogenous DDR1. DDR1  siRNA1  apparently  suppressed DDR1 expression of these cells on day 7 Fig 5a.  The  administration  of siRNA-Luc did not affect DDR1 expression,  and  the  suppressive  effect  of DDR1 siRNA1 remained for 21 days Fig 5b. 



The total BALF  cell  count  along  with  the  macrophage,  lymphocyte,  and neutrophil counts were significantly lower in the  DDR1  siRNA1-administered bleomycin-treated mice than those in the  siRNA-Luc-administered  bleomycin- treated mice and the bleomycin-treated mice Fig 6a.  MCP-1,  MIP-2,  and MIP-1α mRNA expression and protein production were  significantly  inhibited by the DDR1 siRNA1 administration Fig 6, band c. In  all  groups,  TGF-β mRNA expression and protein production  were  almost  the  same  on  day  7; <\connective form=however text=however id=F1196_FUL6_12.txt.raw_76 relation=Contrast\>, these were significantly lower on  days  14  and  21  in  the  DDR1 siRNA1-administered bleomycin-treated mice  than  those  in  the  siRNA-Luc- administered bleomycin-treated mice and  the  bleomycin-treated  mice  Fig 6, b and c. 



DDR1 activation induces  P38  MAPK  phosphorylation  via  a  unique  pathway 4, 13, and the activation of P38  MAPK  occurs  in  the  bleomycin-treated mouse model 15. <\connective form=therefore text=Therefore id=F1196_FUL6_12.txt.raw_216 relation=Cause\>, to evaluate whether  P38  MAPK  activation  was affected by DDR1 suppression, we examined P38 MAPK phosphorylation.  On  day 3, P38 MAPK was activated. On day 7, P38 MAPK phosphorylation in  the  lungs was significantly down-regulated in the DDR1 siRNA1-administered  bleomycin- treated mice than in the siRNA-Luc-administered mice  and  bleomycin-treated mice. This phenomenon continued for 21 days Fig 7a. DDR1 siRNA1 did  not have any effect on the amount  of  P38  MAPK  Fig  7a  and  β1 integrin, another collagen receptor 16 Fig 7c. During  the  observation  period, the amount of β1 integrin did not  show  any  difference  across  the  three groups data not shown. 



This  study  showed  that  DDR1  suppression   by   appropriately   designed transnasal  administration  of  siRNA  has   an   anti-inflammatory   effect specifically  in  the  lung.  There  are  several  reports  that  show   the involvement  of  DDR1  in  malignant  tumor  proliferation   and   migration 17, 18, 19. Regarding nonmalignant  diseases,  DDR1  is  involved  in  ECM remodeling in atherosclerosis and lymphangiomyomatosis 20, as well  as  in the  proliferative  stage  of  renal   disorders   21.   In   the   lungs, bronchoepithelial cells 22 as well as  alveolar  macrophages  7  express DDR1. Our recent study showed that infiltrating inflammatory  cells  in  IPF express endogenous DDR1, and its interaction with  collagen  contributes  to the secretion of chemokines, including MCP-1 7. In  the  bleomycin-induced pulmonary fibrosis model, the DDR1 ligand collagen shows an increase  from an early time point after the initial alveolar  wall  injury  and  <\connective form=then text=then id=F1196_FUL6_12.txt.raw_58 relation=Asynchronous\>  its level plateaus 23. In this process, the inflammatory cells infiltrate  the lesion through the ECM that is composed of collagen  and  reach  the  lesion 24. In addition, infiltrating fibroblasts produce  procollagen,  <\connective form=and text=and id=F1196_FUL6_12.txt.raw_158 relation=Conjunction\>  this leads to collagen deposition 25. <\connective form=thus text=Thus id=F1196_FUL6_12.txt.raw_191 relation=Cause\>, the bleomycin model simplifies  the activation  of  DDR1.  The  siRNA  against  DDR1  apparently  inhibited  the endogenous   DDR1   expression   in   bronchoepithelial   cells,    alveolar macrophages, and infiltrating inflammatory cells  on  day  7,  the  limiting point of DDR1 siRNA effectiveness. In addition, siRNA  did  not  affect  the expression of β1 integrin, which is another important collagen  receptor  in inflammatory responses 26. <\connective form=therefore text=Therefore id=F1196_FUL6_12.txt.raw_217 relation=Cause\>, we believe that DDR1 suppression  in infiltrating cells  and  bronchoepithelial  cells  is  responsible  for  the successful attenuation of bleomycin-induced lung inflammation. Once DDR1  is activated, it induces intense inflammatory cytokine production 6.  In  our study, starting siRNA administration after day 7, when  the  destruction  of lung structure begins 23, did not  attenuate  the  bleomycin-induced  lung inflammation. These results indicate  that  DDR1  contribution  might  occur during the early stages of bleomycin-induced lung injury. DDR1 suppression down-regulated the production of MCP-1, MIP-2, MIP-1α,  and TGF-β in the lungs. Activation of DDR1 in human  macrophages  induced  MCP-1 and MIP-2 production in a P38 MAPK-dependent manner 6. MCP-1  is  a  major chemoattractant for monocytes in inflammation  and  immune  responses  27. MCP-1 can be detected in  the  BALF  of  IPF  patients  28  and  has  been suggested to be associated with  the  pathogenesis  of  IPF  29.  Alveolar macrophages and epithelial cells are the  main  cellular  sources  of  MCP-1 production in  IPF  30.  Anti-MCP-1  gene  therapy  attenuates  bleomycin- induced pulmonary fibrosis in  mice  31.  MIP-2  is  a  murine  functional homologue  of  IL-8,  and  is  <\connective form=therefore text=therefore id=F1196_FUL6_12.txt.raw_218 relation=Cause\>  a   potent   chemoattractant   for neutrophils and plays a pivotal role in  acute  inflammation  by  recruiting and activating  neutrophils  32.  In  the  bleomycin  model,  infiltrating inflammatory cells are a cellular source of  MIP-2,  and  neutralization  of MIP-2  attenuates  bleomycin-induced   pulmonary   fibrosis   33.   MIP-1α regulates  the  trafficking  and   activation   of   select   subgroups   of inflammatory  cells,  modulates  the   adhesion   of   leukocytes   to   the endothelium, and contributes to leukocyte recruitment into the  lungs  34. Through these functions, MIP-1α contributes to the development of bleomycin- induced pulmonary fibrosis 35.  TGF-β  is  a  critical  mediator  in  lung injury  36.  Bleomycin  can  induce  significant   TGF-β   production   by bronchoepithelial cells, fibroblasts,  and  alveolar  macrophages  37, 38. The mechanism by which DDR1 suppression led to the downregulation of  TGF-β production is unclear; <\connective form=however text=however id=F1196_FUL6_12.txt.raw_77 relation=Contrast\>, we believe that  this  may  be  an  indirect effect of DDR1 suppression <\connective form=because text=because id=F1196_FUL6_12.txt.raw_188 relation=Cause\> TGF-β inhibition occurred on day 14,  and not on day  7.  DDR1  is  <\connective form=also text=also id=F1196_FUL6_12.txt.raw_220 relation=Conjunction\>  associated  with  leukocyte  migration  5. <\connective form=therefore text=Therefore id=F1196_FUL6_12.txt.raw_219 relation=Cause\>, we believe that decreased DDR1 activation and inhibition  of  the inflammatory cell infiltrate are  responsible  for  the  decreased  cytokine production, an important factor  in  the  development  of  bleomycin-induced lung inflammation. In our study, siRNA against DDR1 suppressed the phosphorylation of  the  P38 MAPK pathway. P38 MAPK is activated in the  lung  tissue  of  a  murine  IPF model 15. In addition, the inhibition of P38 MAPK  can  ameliorate  murine bleomycin-induced  pulmonary  fibrosis  39.  Monocyte-derived  macrophages secrete inflammatory chemokines  such  as  MCP-1  in  a  P38  MAPK-dependent manner 6. <\connective form=thus text=Thus id=F1196_FUL6_12.txt.raw_192 relation=Cause\>, the suppression  of  P38  MAPK  phosphorylation  that  was observed in our study  may  contribute  to  the  attenuation  of  bleomycin- induced lung inflammation. <\connective form=although text=Although id=F1196_FUL6_12.txt.raw_34 relation=Concession\> we cannot deny the possibility that  the blunting of cytokine responses may  secondarily  affect  this  response,  we believe that DDR1 might be one of the upstream signaling  molecules  of  P38 MAPK in bleomycin-induced fibrosis <\connective form=because text=because id=F1196_FUL6_12.txt.raw_189 relation=Cause\> DDR1 activation  can  induce  P38 MAPK phosphorylation via a unique signaling pathway 4, 6, 13. In conclusion, we have shown that DDR1 suppression could decrease  chemokine and cytokine production in bleomycin-induced pulmonary  fibrosis.  DDR1  has been reported to play an important role  in  regulating  the  attachment  to collagen,   chemotaxis,   proliferation,   and   matrix    metalloproteinase production by  smooth  muscle  cells;  DDR1  <\connective form=also text=also id=F1196_FUL6_12.txt.raw_221 relation=Conjunction\>  contributes  to  collagen deposition in an arterial wound repair model 40. It is possible that  DDR1 has other functions and contributes  to  collagen  deposition  in  pulmonary fibrosis. In our study, lung  epithelial  cells  expressed  DDR1.  The  lung epithelial cells closely attached to ECM, which  is  abundant  in  collagen, and play a role in regulating the immunity  in  the  lung  through  monocyte chemoattractant activity and by releasing several chemokines such  as  IL-8, MCP-1, and RANTES 41, 42, 43. <\connective form=although text=Although id=F1196_FUL6_12.txt.raw_35 relation=Concession\> we did not examine  the  biological function of DDR1 in lung epithelial cells in this  study,  we  believe  that there is a possibility that DDR1 in lung  epithelial  cells  contributes  to pulmonary  fibrosis.  <\connective form=because text=Because id=F1196_FUL6_12.txt.raw_190 relation=Cause\>  the  distribution  of  ECM  is  known  to  be associated with the activation of inflammatory cells,  this  interaction  is considered to be a key event that results  in  intraluminal  fibrosis  44. Further studies on the role of  DDR1  might  provide  an  insight  into  the clarification of the pathogenesis of pulmonary fibrosis.