Parasitoids of phytophagous insects are known to orient to plants on which their hosts are found. They often use plant- and host-derived chemicals that indicate or confirm the presence of the host Vinson,1976. Chemicals emanating from the host insect or the plant itself may arrest parasitoids in the vicinity of their hosts, <\connective form=thus text=thus id=F1441_FUL6_12.txt.raw_229 relation=Cause\> mediating successful host location and parasitization Gross et al, 1984. During host finding, two types of stimuli may operate: “attractant” stimuli that elicit orientation to areas with hosts and “arrestant” stimuli that elicit a reduction in the distance or area covered per unit time by parasitoids moving within this area sensu Dethier et al, 1960. The stimuli influencing searching, parasitization, or retention of the parasitoids originate from various sources, such as host food source, the host itself, or host body emissions Turlings et al, 1995; Rutledge, 1996; Dorn et al, 1999. In parasitoid–host relationships where kairomones are involved in host location, the duration of parasitoid patch visits is often mediated by, eg, a host kairomone, host contact cues that may affect the handling time, host density, and rate of oviposition Strand and Vinson, 1982. Waage 1978 and Weseloh 1980 found that an increasing concentration of kairomone is an indication of increased host density that prolongs the parasitoid’s patch arrestment. Among host-related materials, scales from adult hosts display kairomonal activity towards several parasitoid species. For example, Lewis and Jones 1971 demonstrated that parasitization by Trichogramma evanescens was higher for eggs placed in areas contaminated with moth odor. Scales left by the moths were suspected as the source eliciting parasitization Lewis et al, 1972. In addition to volatile semiochemicals, nonvolatile kairomones <\connective form=also text=also id=F1441_FUL6_12.txt.raw_270 relation=Conjunction\> mediate searching behavior of Trichogramma spp. Plants on which adult moths have been present may provide cues for host location. Furthermore, egg deposition by herbivorous insects can induce changes of the plant that attract or arrest parasitoids Hilker et al, 2000; Hilker and Meiners, 2006. Larvae of the yellow stem borer YSB Scripophaga incertulas are a major agricultural pest on rice in India and several other countries in Asia. A single female lays about 2–3 egg masses on the tip of the upper surface of tender leaf blades and covers them with hairs and scales from its anal tuft. The larvae enter the leaf sheaths, feed for 2–3 d, and bore into the stem near the nodal region Pathak and Khan, 1994. They infest plants during their entire larval development. Rice plants, from seedlings to maximum tillering stages that have been attacked at the base of the stem, have dead hearts on the dried up central shoots of tillers. The rice YSB is monophagous on rice, and larvae may feed within the stem without causing severe damage to growing plant parts at the base. <\connective form=however text=However id=F1441_FUL6_12.txt.raw_89 relation=Contrast\>, larval feeding can result in reduction of plant vigor van Vreden and Ahmadzabidi, 1986. Before pupation, a larva covers the exit hole with thin webbing. Often, larval frass is visible at this exit hole. The larvae and pupae that cause the most damage are concealed inside the stem. Hence, these pests are difficult to control. Traditionally, YSB has been controlled primarily by repeated application of pesticides. In recent years, as the awareness of the economic costs of pesticides and their ecological impact on the environment has increased, biological control by means of parasitoids and predators has been used with varying degrees of success in many different areas Perez and Cadapan,1986. Trichogramma japonicum is an important egg parasitoid of YSB in southern India. It parasitizes the egg masses of YSB that are laid on rice leaves. The mechanisms by which T. japonicum locates YSB on rice have not been investigated. In this paper, we demonstrate that chemicals originating from adult hosts mediate close range orientation and oviposition by T. japonicum females in host eggs, <\connective form=thereby text=thereby id=F1441_FUL6_12.txt.raw_35 relation=Cause\> enhancing the level of parasitization. An attempt was <\connective form=also text=also id=F1441_FUL6_12.txt.raw_271 relation=Conjunction\> made to isolate the active chemicals by fractionation and to identify them. Comparisons of the oviposition stimulatory activity, as well as the nature of the chemicals present in the host adult cuticular extracts and frass, were made with that of the larval body extracts. Extracts of the YSB larval body material were used only for comparison. As internal feeders, larvae might not emit any attractive volatiles. 



Plants infested with the YSB S. incertulas were collected from Rice Research Station, ANGR Agricultural University, Rajendranagar area of Hyderabad, India, and maintained in the laboratory glass house. Rice YSBs were reared on potted rice plants, Samba masoori variety. Rearing conditions were 30 ± 2°C under natural day light conditions. Pure cultures of T. japonicum were obtained from the Project Directorate of Biological Control, Bangalore, India, where they were reared on eggs of a factitious host, Corcyra cephalonica Stainton rice moth Lepidoptera: Pyralidae. Corcyra cephalonica was reared on sorghum grain. Female parasitoids used for the experiments were 1–2 d old, mated, naïve with respect to the host-related volatiles, and fed with 1:1 water-diluted honey. Adult YSB were collected from the rearing cages before each experiment and were killed or immobilized by placing them for a few minutes into the refrigerator. Stems of rice plants were cut open to collect frass and 5th instar larvae separately, followed by immobilization of the larvae in the refrigerator. YSB adults and larval body washings were obtained by placing immobilized moths and larvae of known weight in small conical flasks 50 ml containing analytical grade hexane 2 g per 10 ml that is 18 AE/ml and shaking them vigorously at a room temperature of 24 ± 12°C for 2 min. Adults were 2–4 d old. Larval extracts were taken from 5th instars. The washings were filtered through a Whatman number 1 filter paper. The extract was subsequently concentrated by vacuum evaporation and stored at −20°C. Extracts of frass of 5th instars were obtained in a similar manner. Concentrated crude extracts were separated using SiO2 as adsorbent in a 25- mm-diameter column. The extract 0.5 ml was loaded onto a column 1.5 × 50 cm containing 20.0 g silica gel 200 mesh and was eluted consecutively with 300 to 500 ml of solvent of increasing polarity. Elution was carried out gradually with hexane–ethyl acetate in the following combinations: 100, 98:2, 96:4, 94:6, 92:8, 90:10, 88:12, and 80:20. Analytical-grade solvents were used. Several fractions were collected, and their homogeneity was monitored by using thin layer chromatography. Resulting fractions were reduced to 1.0 ml by passing N2gas to avoid loss of volatile monoterpenes, which were significant components of these fractions as indicated by gas chromatography–mass spectrometry GC–MS analyzes. All fractions were subjected to bioassays with T. japonicum. Bioactive compounds were selected for further chemical studies. Semipurified fractions of each extract were separately bioassayed, and the active fraction was subjected to GC and GC–MS identification. Certain hydrocarbon compounds were found in the extracts of YSB-related materials by GC and GC–MS see below. To study their kairomonal activity to the parasitoids, hexadecane, eicosane, docosane, pentacosane, tetracosane, tricosane, pentadecane, nonadecane, heneicosane, and hexacosane 99 pure were purchased from Sigma Chemicals, St Louis, MO, USA, and tested. Each fraction 1 μl was injected into a GC Agilent 6890 series with a HP- 1 capillary column 30.0 m long × 320 μm i.d. × 0.25 μm film thick. The GC was temperature programmed from 100°C to 300°C at 10°C/min. Nitrogen was the carrier gas, and the flow was fixed at 2 ml/min. Injection temperature was 150°C. The concentrates of the hexane–ethyl acetate eluate of the extracts were injected into an Agilent 6890 GC equipped with a 5973N model mass selective detector MS. A HP 5 MS Hewlett Packard, Palo Alto, CA, USA capillary column 30 m long × 250 μm i.d. × 0.25 μm film thick was used. The column oven was programmed after an initial delay of 2 min from 50°C to 300°C at 10°C/min. Helium was used as carrier gas with a flow rate of 1.2 ml/min. The sample 1 μl was introduced in split ratio of 10:1 at an injection temperature of 150°C. The chemical structure of each compound was elucidated by comparison of the mass spectra with those of authentic chemical samples or by comparison with data in the mass spectral library of the Analytical Division, Indian Institute of Chemical Technology. Relative amounts were calculated from the chromatogram peak area. To study the effect of different samples on parasitization rates, the surfaces of host eggs were treated with either a test solution or solvent. Laboratory assays were conducted as tests following the methods used by Jones et al 1973 and Ananthakrishnan et al 1991. Responses of T. japonicum to the stimuli offered were measured in terms of the number of eggs parasitized. A circle of Whatman number 1 filter paper 150 mm diameter was divided into eight sections by lining with a pencil and <\connective form=then text=then id=F1441_FUL6_12.txt.raw_62 relation=Asynchronous\> fitted to the bottom of a plastic petri dish 150 mm diameter. About 50 eggs of C. cephalonica were glued to white card squares 1 × 1 cm. Such a card was placed in the center of each section and stuck to the filter paper lining with a tiny drop of light, odorless adhesive Camlin India, Mumbai, India. Eight groups cards of eggs were placed in a single dish. Dual choice tests were conducted. Parasitoids were exposed to host eggs treated with chemical and solvent-treated control simultaneously in a single petri dish. The test compound ie, 20 μl of the extract, chromatographic fraction, or synthetic hydrocarbon was applied to each of the four pieces of egg cards and placed in four opposite sections. Solvent- treated controls were placed in the remaining four sections, <\connective form=so that text=so that id=F1441_FUL6_12.txt.raw_37 relation=Cause\> each treated egg card was placed between two control cards. In a second series of multiple choice tests, eight egg cards, each containing 50 eggs, were placed diagonally opposite to one another, and the surfaces of two opposite egg cards were treated with a fraction. The preference of parasitoids was measured by giving them a choice of four test samples. For both dual and multiple choice tests, glass tubes 3.7 cm diameter × 20 cm long containing 1–2-d-old T. japonicum were placed in the refrigerator for a few minutes to make the parasitoids inactive. Inactive wasps were sexed under a stereomicroscope. Sexes of Trichogramma can be easily distinguished by their differences in antennal structure Knutson, 1998, and personal observation. They were allowed to recover fully <\connective form=before text=before id=F1441_FUL6_12.txt.raw_69 relation=Asynchronous\> being released into test arenas. Five mated adult females T. japonicum 1–2 d old were released into the petri dish <\connective form=before text=before id=F1441_FUL6_12.txt.raw_70 relation=Asynchronous\> covering with a lid. After 1 hr, the parasitoids were removed and the petri dishes were kept for observation. After 5–6 d, the treated eggs that appeared black in color an indication of parasitization on each egg card were recorded and counted by using a stereomicroscope. Control egg cards were <\connective form=also text=also id=F1441_FUL6_12.txt.raw_272 relation=Conjunction\> checked for parasitization. Hydrocarbon compounds occur in almost all YSB-related material extracts. They are the most abundant compounds. <\connective form=therefore text=Therefore id=F1441_FUL6_12.txt.raw_267 relation=Cause\>, experiments were conducted to test whether these compounds actually account for the activity of the extraction/fraction in which they were found. The effect of about 10 synthetic hydrocarbon compounds on the parasitization rate was studied by using the above-described method of dual and multiple choice tests. For each treatment, 12 observations were made per day, and all treatments were conducted simultaneously on the same day. Experiments were repeated on three different days to avoid day-to-day variation. The mean percentage parasitization was calculated from 36 replicates. Differences in the parasitization rate of treatments and control host eggs in multiple choice tests were statistically analyzed by one-way ANOVA Origin version 7.5 software followed by Scheffe’s tests. In dual choice tests, the differences between two treatments were analyzed by paired t- test Origin version 7.5. Trichogramma females oviposit readily in uncovered egg clusters of Chilo species. Eggs of Scripophagaspecies covered with hairs are obviously less accessible for a tiny parasitoid van Vreden and Ahmadzabidi, 1986. The parasitoids’ responses to treated YSB eggs and eggs of the artificial host, C. cephalonioca, were compared. As the results obtained with both host species were similar ±2 variation, eggs of C. cephalonica were used throughout the experiments <\connective form=because text=because id=F1441_FUL6_12.txt.raw_226 relation=Cause\> they were available abundantly at all times of the year in contrast to YSB eggs. Studies on the response of parasitoids to the chemicals present in crude extracts and <\connective form=also text=also id=F1441_FUL6_12.txt.raw_273 relation=Conjunction\> to the synthetic hydrocarbon compounds were conducted in the laboratory as follows: Behavioral observations were conducted in small flat-bottomed culture tubes 9 cm long; 2.5 cm diameter. Sample material 20 μl was applied with a micropipette to a localized spot on a piece of absorbent paper 4 × 0.7 cm. <\connective form=after text=After id=F1441_FUL6_12.txt.raw_83 relation=Asynchronous\> evaporation of solvent for about 2 min, paper strips were placed onto the inner side of the lid of the tube. For each treatment, controls were maintained in a separate tube with the same amount of hexane. One single adult-mated female was released into the glass tube <\connective form=before text=before id=F1441_FUL6_12.txt.raw_71 relation=Asynchronous\> closing the lid. Observations on landing behavior, time spent on each treated and control patch, probing, and antennation were recorded visually. Landing and antennation of the treated spot by the parasitoid was denoted a positive response and assigned a highest activity. The observations took 20 min. Behaviors were classified 0–4, with 0 as no reaction, no movement; 1 as moved upwards towards the paper strip; 2 as made circular movements around the paper strip; 3 as entered/landed on the paper strip; and 4 as antennated and probed on the chemical spot. Parasitoids almost always responded quickly, either positively or negatively, to a treatment. Twenty females were tested for each treatment, and controls were tested at the same time. All treatments were repeated on three different days, and the total number of insects replicates for each treatment was 60. Almost all parasitoids showed a response to a treatment, so hardly any nonresponders were observed. All experiments and observations were conducted in the laboratory at room temperature 28 ± 2°C and 65 ± 5 RH, under a light bank with fluorescent lighting. 



Cuticular extracts of adult YSB bodies applied onto host eggs significantly affected parasitization by T. japonicum. More treated eggs were parasitized than controls ∼91.5 ± 0.5 vs. 8.25 ± 0.33, N = 36 both in dual and multiple choice tests. Extracts of YSB larval frass <\connective form=also text=also id=F1441_FUL6_12.txt.raw_274 relation=Conjunction\> had positive effects on the parasitization rate in dual choice tests. More eggs treated with extracts of YSB larval frass were parasitized than controls. <\connective form=however text=However id=F1441_FUL6_12.txt.raw_90 relation=Contrast\>, the effect was not as pronounced as with the adult cuticular extract. Host eggs treated with cuticular extracts of YSB larval bodies had the lowest effect on parasitization rates in dual choice tests, <\connective form=whereas text=whereas id=F1441_FUL6_12.txt.raw_222 relation=Contrast\> no effect was detectable in multiple choice tests. The parasitoids response towards the adult cuticular extracts was significantly greater than to frass ∼72.08 ± 0.43 or the larval extract 31.44 ± 0.38 Fig 1. 

Among the chromatographic fractions, the eluate of the 12 ethyl acetate in hexane fraction of the adult extract was the most active one, followed by 8 ethyl acetate in hexane Table 1. All other fractions were inactive. In the case of larval extracts, only the fractions eluted with 4 and 6 ethyl acetate in hexane stimulated a low percentage of oviposition. The remaining fractions were ineffective in causing any parasitization, and in these cases parasitization was significantly greater in solvent treated control eggs, suggesting an oviposition deterring activity of these fractions. 

Treatment of the surface of host eggs with 20 μl of pentadecane, hexadecane, nonadecane, heneicosane, docosane, or pentacosane deterred oviposition. The percentage of eggs parasitized in these treatments was low compared to the other hydrocarbon compounds. Either these chemicals lack oviposition stimulatory activity <\connective form=or text=or id=F1441_FUL6_12.txt.raw_51 relation=Alternative\> they possess deterrent activity Fig 2. 

As was shown by the multiple choice tests, eicosane, docosane, tricosane, tetracosane, pentacosane, and hexacosane treatment of eggs enhanced the rate of parasitization Fig 2. <\connective form=although text=Although id=F1441_FUL6_12.txt.raw_30 relation=Contrast\> host egg parasitization in heneicosane-, docosane-, and pentacosane-treated host eggs was less than the control in dual choice tests, no enhancement was found for heneicosane in the multiple choice test, and an enhanced parasitization was recorded for docosane and pentacosane during multiple choice bioassays. <\connective form=similarly text=Similarly id=F1441_FUL6_12.txt.raw_232 relation=Conjunction\>, triacontane was effective in stimulating the oviposition at a considerably higher rate in dual choice tests, <\connective form=but text=but id=F1441_FUL6_12.txt.raw_78 relation=Contrast\> it was somewhat reduced in multiple- choice tests. The different results of dual- and multiple-choice tests might be due to the context chemical background in which a parasitoid insect experiences a chemical stimulus. <\connective form=because text=Because id=F1441_FUL6_12.txt.raw_227 relation=Cause\> this background was different in multiple- and dual-choice tests, the varying chemical context might explain these results Vet and Groenewold, 1990; Mumm and Hilker, 2005; Faucher et al, 2006. 

The bioassays on landing behavior in the small glass tube experiments revealed the wasps’ responses towards the crude extracts, the chromatographic fractions, and the hydrocarbon compounds Table 2. Parasitoids showed great preference for adult host cuticular extracts. In these treatments, wasps moved upwards and landed on the treated strip followed by ovipositor probing, which is an indication of the highest positive response. Extracts of larval frass <\connective form=also text=also id=F1441_FUL6_12.txt.raw_275 relation=Conjunction\> stimulated to a certain extent, <\connective form=although text=although id=F1441_FUL6_12.txt.raw_31 relation=Contrast\> the parasitoids could only land on the paper strip containing the treatment spot. Larval extracts <\connective form=also text=also id=F1441_FUL6_12.txt.raw_276 relation=Conjunction\> evoked slight positive movements in the parasitoids; they made upward movements in the glass tube but did not reach the treated area. <\connective form=however text=However id=F1441_FUL6_12.txt.raw_91 relation=Contrast\>, when testing control solvent strips, all wasps remained at the bottom of the glass tube without attempting to move upwards. These responses of Trichogramma were clear, always showing the same response to each chemical or extract. 

The parasitoids’ responses towards the various chromatographic fractions of adult extract eluted with different percents of ethyl acetate in hexane were as follows: 4, 6, 8, and 12 ethyl acetate fractions stimulated quick directional movements, and almost within 1 min <\connective form=after text=after id=F1441_FUL6_12.txt.raw_84 relation=Asynchronous\> introducing the insects, they moved towards the treated spot, landed, and started probing the patch type 4 response. They remained there <\connective form=until text=until id=F1441_FUL6_12.txt.raw_29 relation=Asynchronous\> the end of the experimental period. Only 2 and 10 ethyl acetate fractions elicited a type 2 response, ie, only landing on the paper strip. Similar responses were shown by the parasitoids to the 2 fraction of the larval cuticular extracts. Among the synthetic hydrocarbons tested for orientation behavior, hexadecane, docosane, tetracosane, pentacosane, and triacontane elicited maximum attraction reaching the target patch within or less than 1 min. This was followed by nonadecane, hexacosane, and tricosane. Interestingly, hexadecane and nonadecane, which failed to enhance parasitization, triggered an excellent orientation in this bioassay. Parasitoids were seen staying on these treatments even <\connective form=after text=after id=F1441_FUL6_12.txt.raw_85 relation=Asynchronous\> the observation period Table 2. Chemical analysis of the active fractions by GC indicated the presence of different groups of chemicals. Among those found in chromatographic fractions of different crude extracts, hydrocarbons are the most abundant and prominent. The adult cuticular extracts of YSB contained most components compared to those present in larval frass Tables 3 and 4 and Figs 3a–c. There were 52 hydrocarbons, 6 acids, 1 alcohol, 1 ester, and 1 terpene in the cuticular extracts of the adult moths, whereas larval frass had 28 hydrocarbons, 2 acids, and 1 ester. <\connective form=however text=However id=F1441_FUL6_12.txt.raw_92 relation=Contrast\>, a lower number of hydrocarbons were found in larval surface washings, ie, 27 hydrocarbons, 1 acid. The active fraction 12 ethyl acetate from the adult extract contained mainly saturated long chain alkanes and alkenes with carbon numbers ranging from C20 to C32. The GC analysis of the extracts from YSB larval body surface showed a different blend of chemicals, mostly those absent in the other two extracts larval frass and adult. Toluene and 1,3- dimethyl benzene were present in larger quantities in larval YSB cuticular extracts than in the extracts of frass or the adult. All the fatty acids found in adult cuticular or frass extracts, such as palmitic, myristic, and oleic acids, as well as certain hydrocarbons, namely, tricosane and tetracosane, were totally absent from the larval body extracts. Squalene 2,6,10,14,18,22 tetracosahexaen was present in all three extracts. 



The results demonstrate that cuticular extracts of adult host moths increase parasitization efficiency of T. japonicum. The active materials are hexane soluble. They indicate that the chemicals extracted from the surface of adult YSB cause arrestment of parasitoids in host vicinity and stimulate oviposition by T. japonicum. The parasitoid’s stronger response to adult host cuticular extracts in comparison to larval frass or larval body extracts indicates that this response is specific to the adult host and not a general response to insect cuticular chemicals. Our findings support those of several previous studies that have shown that moth body extracts affect parasitoid behavior Lewis et al, 1975a, b; Elzen et al, 1984; Gross et al, 1984; Nordlund et al, 1984; Boo and Yang, 2000. Extracts of adult host moths are mainly extracts of wing scales. Previous studies have shown that scales left by ovipositing host females aid in actual location of host eggs by parasitoids. Kairomones in moth scales probably act as sign stimuli, eliciting intensified searching behavior, rather than as a guiding cue attracting and directing the parasitoid to the host Boo and Yang, 2000. Scale shedding by ovipositing moths is either incidental or can have an adaptive value. Moth scales present at oviposition sites signal the presence of host eggs on a larger area than the eggs alone. The major compounds identified as attractant and oviposition stimulants for egg parasitoids are hydrocarbons, which generally serve many functions in insects. They comprise a significant portion of the cuticular lipids that prevent desiccation, and are important in chemical communication Nelson and Blomquist, 1995. Parasites have evolved the ability to utilize hydrocarbon cues produced by their hosts as primary cues in locating their hosts. Contact chemicals that are often secreted by a host and are present in the host frass or webbing have been found to be important for a number of parasitoids Dicke et al, 1990. These compounds seem to elicit a fixed behavioral pattern exhibited by antennal searching of a contaminated area, followed by ovipositor probing in some parasitoids. Tricosane, pentacosane, and hexacosane were the hydrocarbons present exclusively in the adult body washings. They may be important cues for host location and ovipositional stimulation in T. japonicum. Wäckers and Lewis 1994 suggest that egg parasitoids recognize host eggs in close range by sight, <\connective form=while text=while id=F1441_FUL6_12.txt.raw_225 relation=Contrast\> chemical signals play a secondary role in host searching. <\connective form=although text=Although id=F1441_FUL6_12.txt.raw_32 relation=Contrast\> several parasitoid species rely on visual cues in the close vicinity of host eggs, it is intriguing from our results that parasitoids, when confined with host eggs in small areas such as petri dishes in lab bioassays, could discriminate between host eggs treated with different chemicals. Certain chemicals, such as docosane, tricosane, tetracosane, and pentacosane were isolated and identified by Jones et al 1973 from scales of adult Heliothis zea and were shown to increase parasitism by the parasitoid Trichogramma when applied to host eggs. All these hydrocarbons were <\connective form=also text=also id=F1441_FUL6_12.txt.raw_277 relation=Conjunction\> found in YSB adult extracts. Additionally, GC and GC–MS analyzes indicated the presence of several organic acids in YSB adult cuticular extracts. Hexadecanoic acid palmitic acid and octadecanoic acid oleic acid are the two compounds commonly occurring in both active fractions, ie, 8 and 12 ethyl acetate in hexane. They are assumed to contribute to an increase of parasitism by T. japonicum. <\connective form=because text=Because id=F1441_FUL6_12.txt.raw_228 relation=Cause\> these two compounds have a high number of carbon atoms, they might act as contact stimulants, <\connective form=whereas text=whereas id=F1441_FUL6_12.txt.raw_224 relation=Contrast\> the chemicals with less than 10 carbon atoms are more volatile and might attract parasitoids to the near vicinity of the host eggs. The triterpene squalene and a diterpene kaur 16-en were present in all three extracts studied. Behavioral effects of squalene in interactions among other organisms and on third trophic levels have been reported by Dutton et al 2002, who observed the triggering of ovipositional probing behavior of the parasitic was Pholetesor bicolor. We assume a similar function of this chemical in T. japonicum. A small percentage of parasitoids preferred the eggs treated with the fractions of larval cuticular extracts eluted with 4 and 6 ethyl acetate in hexane, and perhaps the presence of squalene might be responsible for this. It has been argued that stem boring behavior of several herbivore species avoids the release of feeding damage cues and reduces their accessibility to natural enemies Strong et al, 1984. The extracts of body washings of the larva or the solvent were found to have little effect on parasitization by T. japonicum. Larvae of YSB live inside the feeding tunnels of the rice stem and are not exposed to the parasitoids. Hence, it is unlikely that parasitoids use chemical cues emanating from the larval body surface as cues in locating the egg masses of YSB. The intense antennation and the enhanced parasitization of host eggs treated with YSB larval frass are interesting as larval frass <\connective form=also text=also id=F1441_FUL6_12.txt.raw_278 relation=Conjunction\> occurs in the tunnels made by feeding host larvae. <\connective form=however text=However id=F1441_FUL6_12.txt.raw_93 relation=Contrast\>, the entrance hole of the tunnel was usually filled with frass pushed out of the tunnel by the feeding stem borer larvae. Hence, larval frass may serve as host locating cue to the wandering parasitoid. This study showed that adult YSB moths have contact kairomonal activity associated with their bodies. Hexane extracts of moth scales, wings, and abdominal tips were a source of kairomones eliciting positive responses in T. japonicum. Presence of chemicals on crop plants could enhance host finding chances and, <\connective form=thus text=thus id=F1441_FUL6_12.txt.raw_230 relation=Cause\>, the percent parasitism and reproduction by parasitoids. Compounds that attract or arrest parasitoids could be used in treating crops with kairomones to enhance the success of parasitism, <\connective form=thus text=thus id=F1441_FUL6_12.txt.raw_231 relation=Cause\> reducing the need for harmful pesticides. This would meet the increasing need to use biological control of pest insects that damage plants grown in monocultures.