THROMBOCYTOPENIA has emerged as a major hematologic abnormality associated with the acquired immunodeficiency syndrome AIDS and AIDS-related conditions. Recently, a group of homosexual men with isolated immune thrombocytopenic purpura ITP has been identified 1,2. <\connective form=although text=Although id=F2091_FUL6_12.txt.raw_29 relation=Contrast\> increased levels of circulating immune complexes have been found in the serum of these patients, 3 the pathogenesis of platelet destruction in this form of ITP remains unclear. Recent studies have identified target platelet antigens in idiopathic immune thrombocytopenia4 , 5and in drug-induced immune thrombocytopenia 6 by means of immunoprecipitation or immunoblotting. In this study, we have attempted to define the target platelet antigen in homosexual men with ITP. 

Serum samples were obtained from 30 consecutive homosexual men with ITP treated at the AIDS Clinic of San Francisco General Hospital and the Hematology Clinic of the University of California, San Francisco Serum samples were <\connective form=also text=also id=F2091_FUL6_12.txt.raw_220 relation=Conjunction\> obtained from the following groups of patients: 18 nonhomosexual adult patients with ITP, 12 patients with nonimmune thrombocytopenia, and 16 homosexual men with normal platelet counts and <\connective form=either or text=either id=F2091_FUL6_12.txt.raw_229 relation=Conjunction\> the lymphadenopathy syndrome <\connective forme=either or text=or id=F2091_FUL6_12.txt.raw_229 relation=Conjunction\> AIDS. AIDS was defined according to the surveillance criteria of the Centers for Disease Control — ie, a disease indicative of an underlying cellular immunodeficiency <\connective form=when text=when id=F2091_FUL6_12.txt.raw_106 relation=Synchronous\> no known cause of reduced resistance to the disease is present 7. All serum samples were frozen at -70°C before use. 

Platelet-associated immunoglobulin was detected by means of a fluorescence-activated flow cytometric assay. Platelets were isolated from acid—citrate—dextrose-anticoagulated whole blood by difterential centrifugation. They were <\connective form=then text=then id=F2091_FUL6_12.txt.raw_64 relation=Asynchronous\> washed once in phosphate-buffered saline containing glucose and resuspended in 1 per cent ammonium oxalate to lyse contaminating red cells. After three washes in calcium-free Tyrode's buffer, the platelets were fixed with 1 per cent paraformaldehyde and reacted with biotin-conjugated goat antihuman Fab2 directed against IgG, IgM, and IgA Tago, Burlingame, Calif. The cells were <\connective form=then text=then id=F2091_FUL6_12.txt.raw_65 relation=Asynchronous\> incubated with an avidin—fluorescein isothiocyanate label Tago, washed, and passed through a flow cytometer Becton Dickinson, and the mean fluorescence was determined. A normal range was defined, and each sample was compared with its own negative control by means of goat antirabbit Fab2 conjugated to biotin. Platelet-associated immunoglobulin was expressed as mean platelet fluorescence on a logarithmic scale. A sample was defined as positive <\connective form=if text=if id=F2091_FUL6_12.txt.raw_195 relation=Concession\> the mean fluorescence was 2 S.D. above the mean in the control population. 

Platelets were isolated from a single normal O-positive donor as described above. After the final wash in Tyrode's buffer, the platelets were solubilized in 2 per cent sodium dodecyl sulfate sample buffer containing 5 mM EDTA, 0.05 M imidazole, 1 per cent vol/vol aprotinin, 15 per cent glycerol, and 0.005 per cent bromphenol blue dye at a final concentration of 109 per milliliter 1 mg of protein per milliliter. Platelets from three homosexual patients with ITP and from patients with Glanzmann's thrombasthenia or Bernard—Soulier syndrome were prepared in a similar manner. In addition, 1-ml aliquots containing 1×109 control platelets were subjected to digestion with trypsin,8 1 mg per milliliter for 30 minutes at 37°C, or thrombin,9 5 U per milliliter for 90 minutes at room temperature, before solubilization in sodium dodecyl sulfate. Supernatants from the treated platelets were electrophoresed on sodium dodecyl sulfate–polyacrylamide gels to verify the adequacy of the trypsin or thrombin treatment. Erythrocytes were obtained from the same control donor. Red-cell ghosts were prepared by washing in 0.9 per cent saline, followed by solubilization in 2 per cent sodium dodecyl sulfate at a concentration of 107 per milliliter 1 mg of protein per milliliter. B cells were obtained by Ficoll–Hypaque separation from control blood, followed by removal of T cells by rosetting with sheep red cells.10 The residual B cells were solubilized at 1 mg per milliliter in 2 per cent sodium dodecyl sulfate. Granulocytes were prepared by sucrose gradient separation,10 and membrane fractions were solubilized in 2 per cent sodium dodecyl sulfate. Cultured green-monkey kidney Vero cells and human skin fibroblasts were obtained from the American Type Culture Collection Rockville, Md. The cells were washed extensively in phosphate-buffered saline before solubilization in sample buffer at a concentration of 1 mg per milliliter. Cytopathic testing for viral infection was negative before solubilization. Whole-virus preparations of herpes simplex virus Types I and II and Epstein–Barr virus were obtained from Cambridge Medical Diagnostics Billerica, Mass. The herpes simplex viruses were isolated from infected Vero cells, and the Epstein–Barr virus was derived from the human Burkitt's lymphoma line P3H3. Cytomegalovirus isolated from an infected human lung cell line, WI38, was obtained from the American Type Culture Collection. The viral antigens were solubilized in sample buffer at 1 mg per milliliter. Human AIDS-associated retrovirus,11 kindly provided by Dr Jay Levy, was prepared in sample buffer at the same concentration. All samples were stored at -70°C before use. 

Sodium dodecyl sulfate–polyacrylamide gel electrophoresis was performed according to the method of Laemmli.12 Fifty microliters of cell samples was subjected to electrophoresis in 5 to 15 per cent linear-gradient polyacrylamide gels under nonreducing conditions. Low-molecular-weight standards Bio-Rad, Richmond, Calif. were subjected to electrophoresis simultaneously with the samples. Electrophoresis was stopped <\connective form=when text=when id=F2091_FUL6_12.txt.raw_107 relation=Synchronous\> the dye front was 1 cm from the bottom of the gel. Immunoblotting was performed according to the method of Towbin et al 13 Samples separated on gradient gels were electrophoretically transferred to nitrocellulose paper pore size, 0.1 μm Sartorius, Hayward, Calif in a Bio-Rad Transblot apparatus. The transfer was performed at 30 V for 16 hours. It was crucial that the pore size of the nitrocellulose be smaller, <\connective form=since text=since id=F2091_FUL6_12.txt.raw_89 relation=Cause\> proteins of lower molecular weight were not recovered <\connective form=when text=when id=F2091_FUL6_12.txt.raw_108 relation=Synchronous\> the pore size was 0.45 μm. After transfer, the nitrocellulose was cut into strips, and the low-molecular-weight standards were stained with 0.05 per cent amido black. Thirty to 40 protein bands ranging in molecular weight from 10,000 to 300,000 daltons were routinely visible on the nitrocellulose. The rest of the nitrocellulose strips were incubated in 5 per cent wt/vol gelatin in TRIS-buffered saline for one hour at 37°C to block background binding. A lower gelatin concentration or substitution of 10 per cent fetal-calf serum gave unacceptable background staining. The strips were <\connective form=then text=then id=F2091_FUL6_12.txt.raw_66 relation=Asynchronous\> incubated with test serum, IgG, or Fab2 diluted 1:100 in TRIS-buffered saline with 1 per cent wt/vol gelatin for two hours at room temperature. After the washing in TRIS-buffered saline, the nitrocellulose was incubated with biotin-conjugated goat Fab2 antihuman IgG, IgM, and IgA Tago diluted 1:500 in TRIS-buffered saline—1 per cent gelatin for one hour. After washing, the strips were placed in an avidin—peroxidase solution Cappel, Malvern, Pa. diluted 1:500 in TRIS-buffered saline—1 per cent gelatin for one hour. Color development was performed, with 4-chloronaphthol used as substrate.14 In cases in which Fab2 binding was investigated, the biotin-conjugated second antibody was a mixture of goat Fab2 antihuman kappa and lambda light chains Tago. It was found that the goat antibody raised against human heavy chains did not recognize Fab2 digests of immunoglobulin; in contrast, the anti-kappa/lambda antibody bound to both whole immunoglobulin and Fab2fragments on the blots. In serum from five patients, blotting with monospecific biotin-conjugated goat antibody against human IgG, IgM, or IgA Tago was used to demonstrate antibody binding by specific immunoglobulin classes. 

Staphylococcal protein ASepharose CL6B Pharmacia, Piscataway, N.J. was used to purify IgG from serum 15. Protein concentration was measured by the Bio-Rad modification of the Lowry technique 16. The IgG was stored at -20°C until use. 

Fab2 fragments were prepared by a modification of the method of Madsen and Rodkey17: 10 mg of IgG in phosphate-buffered saline was dialyzed against 0.1 M sodium acetate, pH 4.5, for three hours at 4°C. Freshly prepared porcine pepsin Sigma, St Louis suspended in the same buffer at 4 mg per milliliter was added to give a final concentration of 2 per cent wt/wt pepsin per milligram of total globulin. The solution was then incubated overnight at 37°C and dialyzed against phosphate-buffered saline, pH 7.4, for eight hours. The digestion products were incubated with staphylococcal protein A bacterial adsorbent Miles Scientific, Naperville, Ill. for 30 minutes at 4°C. The beads were centrifuged, and the supernatant free of IgG and Fc fragments was again analyzed for protein concentration. The yield of Fab2 by this technique was 50 to 80 per cent. Samples of IgG and Fab2, <\connective form=also text=also id=F2091_FUL6_12.txt.raw_221 relation=Conjunction\> subjected to electrophoresis with sodium dodecyl sulfatepolyacrylamide gels, demonstrated that residual IgG was absent from the Fab2 preparations. The Fab2 was stored at -20°C until use. 

Ether elution of platelet-associated antibody was performed according to the method of von dem Borne et al18 Patient platelets were isolated as described above. After the final wash in Tyrode's buffer, 108 platelets were resuspended in 1 ml of phosphate-buffered saline, and 2 ml of diethyl ether was added. After being shaken for 2 minutes, the sample was incubated for 30 minutes at 37°C. The platelets were <\connective form=then text=then id=F2091_FUL6_12.txt.raw_68 relation=Asynchronous\> centrifuged at 3000 ×g for 10 minutes, and the ether and stromal layers were removed. The eluate was frozen at -70°C until use. In the fluorescence-activated cell-sorter assay, 100 μl of eluate was diluted in 900 μl of phosphate-buffered saline and incubated with control platelets for one hour, followed by second-antibody and fluorescence labeling as described above. When used for immunoblotting, the eluate was diluted 1:100 in TRIS-buffered saline—1 per cent gelatin and incubated for two hours with the nitrocellulose. The characteristics of the patients studied are shown in Table 1. Of the 30 homosexual men with ITP, all had elevated platelet-associated immunoglobulin as demonstrated with the cell-sorter technique. The platelet counts ranged from 7000 to 105,000 at the time of study, with a mean of 43,000. Sixteen patients were taking prednisone; none had undergone splenectomy at the time of initial evaluation. None of the patients had AIDS or evidence of sepsis, <\connective form=and text=and id=F2091_FUL6_12.txt.raw_150 relation=Conjunction\> no medication other than steroids was being taken. White-cell counts and hemoglobin levels were normal in all patients. The control group consisted of 18 nonhomosexual patients with ITP, as well as 12 patients with thrombocytopenia due to thrombotic thrombocytopenic purpura, disseminated intravascular coagulation, hypersplenism, Hodgkin's disease, or aplastic anemia. All patients with ITP had elevated platelet-associated immunoglobulin, <\connective form=whereas text=whereas id=F2091_FUL6_12.txt.raw_192 relation=Contrast\> those with nonimmune thrombocytopenia had normal platelet-associated antibody. Ten of the patients with ITP were taking steroids at the time that serum was obtained. A third group consisted of 16 homosexual men with either lymphadenopathy syndrome 5 patients or AIDS as manifested by Pneumocystis carinii pneumonia 6 patients or Kaposi's sarcoma 5 patients. The platelet counts of these patients were normal at the time of study. Platelet-associated immunoglobulin was measured in two men with lymphadenopathy syndrome and three with AIDS; it was elevated in all five patients despite normal platelet counts. None of the patients were taking steroids; their other medications are listed in Table 1. Figure 1 shows a typical immunoblot using control serum Lane A or serum from a homosexual man with ITP Lane B. All blots contained a band at 150,000 daltons. This band was <\connective form=also text=also id=F2091_FUL6_12.txt.raw_222 relation=Conjunction\> present <\connective form=when text=when id=F2091_FUL6_12.txt.raw_110 relation=Synchronous\> test serum was omitted, and represented IgG in the control platelet preparation. A second band was present at 45,000 daltons in all blots after incubation with test serum. This represents nonspecific binding of IgG to actin in the platelet preparation. In Lane B, an additional band is seen at 25,000 daltons. This band was detected with serum from 29 of 30 homosexual men with ITP, but not with serum from any of the 30 nonhomosexual patients with ITP or nonimmune thrombocytopenia. It was <\connective form=also text=also id=F2091_FUL6_12.txt.raw_223 relation=Conjunction\> seen in 15 of 16 homosexual men with lymphadenopathy syndrome or AIDS. Antibody binding was detected on control platelets and autologous platelets from the patients with ITP, as well as platelets from the patients with Glanzmann's thrombasthenia and Bernard—Soulier syndrome data not shown. The class of antibody was studied in five patients: three had only IgG binding to the 25,000-dalton antigen, one had IgG and IgM binding, and one had IgG and IgA. Neither trypsin hydrolysis nor thrombin stimulation of target platelets abolished antibody binding to the 25,000-dalton antigen, suggesting that the binding site is not secreted and is an integral part of the platelet membrane. Binding did not occur with red-cell ghosts Lane C, B lymphocytes, T lymphocytes, or polymorphonuclear leukocytes. In addition, the antigen was not found on human erythroleukemia cells19 or spleen cells data not shown. Megakaryocytes were not tested. In contrast, Figure 2 shows the results of blotting with various viral preparations. Binding to an identical 25,000-dalton band occurred in samples of both herpes simplex I Lane B and II, but not in preparations of Epstein–Barr virus Lane C or cytomegalovirus. Serum reactivity with the core protein of AIDS-associated retrovirus is clearly seen in Lane D, <\connective form=but text=but id=F2091_FUL6_12.txt.raw_86 relation=Contrast\> this band migrates at 27,000 daltons in our system and appears to be distinct from the target platelet antigen. Antibody <\connective form=also text=also id=F2091_FUL6_12.txt.raw_224 relation=Conjunction\> bound to a 25,000-dalton antigen on green-monkey kidney cells and human skin fibroblasts Lanes E and F. Since the kidney cells were shown to be negative for herpes simplex I and II, we believe that the antigen on the herpes simplex blots was derived from the cells in which the virus was grown, and not from the virus itself. Other bands recognized by the test serum included those of Epstein–Barr nuclear antigen 80,000 daltons and an uncharacterized 20,000-dalton protein in the Epstein–Barr virus preparation Lane C, proteins of 41,000 and 68,000 daltons in the AIDS virus preparation Lane D, and an as yet uncharacterized protein of 55,000 daltons in both the Vero cells and fibroblasts Lanes E and F. Figure 3 shows the results of blotting studies using serum Lane A, whole IgG Lane B, and Fab2 fragments Lanes C through E. In all four homosexual men with ITP who were tested, binding to the target 25,000-dalton antigen occurred with both IgG and Fab2 fragments. Fab2 binding could be demonstrated only with anti-light-chain antibody and not with antibody against intact IgG, effectively ruling out the possibility of residual IgG binding in the Fab2 preparation. <\connective form=thus text=Thus id=F2091_FUL6_12.txt.raw_196 relation=Cause\>, antibody activity was mediated by the Fab2 portion of the IgG. Ether eluates from each of two patients tested <\connective form=also text=also id=F2091_FUL6_12.txt.raw_225 relation=Conjunction\> bound to the 25,000-dalton antigen Lanes F and G. The clinical course in one homosexual patient with ITP is shown in Table 2 This patient had severe thrombocytopenia unresponsive to prednisone therapy. Tests for platelet-associated immunoglobulin and serum antibody against the 25,000-dalton platelet antigen were positive. The patient underwent splenectomy, and his platelet count rose to 327,000 per microliter. Subsequently, studies for both the platelet-associated immunoglobulin and serum antibody became negative. <\connective form=however text=However id=F2091_FUL6_12.txt.raw_112 relation=Contrast\>, by two months after surgery, the platelet count had dropped to 160,000 and platelet antibody was again detectable by immunoblotting. Relapse occurred one month later, with a platelet count of 20,000 per microliter and elevated platelet-associated immunoglobulin. Testing for serum antibody remained positive. We have used a sensitive immunoblot technique to demonstrate serum-antibody binding to a particular platelet antigen. In 29 of 30 homosexual men with ITP, serum antibody bound to a target antigen of 25,000 daltons. This antibody activity was not detected in nonhomosexual patients with ITP or in patients with nonimmune thrombocytopenia. Furthermore, the antibody was shown to bind via the Fab2 portion of the molecule, indicating that it is an autoantibody and not an immune complex. The 25,000-dalton antigen appears to be an integral part of the platelet membrane rather than an adsorbed antigen, <\connective form=since text=since id=F2091_FUL6_12.txt.raw_91 relation=Cause\> it resists trypsin hydrolysis and thrombin stimulation of platelets. Previously, Phillips 8 showed that trypsin treatment of platelet membranes resulted in increased expression of a 26,000-dalton protein, which remains uncharacterized. Whether this component and the antigen that we identified are similar has not yet been determined. In 1982 Morris et al1 described a group of 11 homosexual men with thrombocytopenia, elevated platelet-associated immunoglobulin, and increased bone marrow megakaryocytes consistent with a diagnosis of ITP. A follow-up report by Walsh et al3 described 33 additional patients with thrombocytopenia. <\connective form=although text=Although id=F2091_FUL6_12.txt.raw_30 relation=Concession\> 10 of these patients had AIDS, the other 23 had a syndrome that was indistinguishable from idiopathic immune thrombocytopenia. The authors postulated that the mechanism of thrombocytopenia was related to immune-complex—mediated platelet destruction, on the basis of their observation that circulating immune complexes measured by a polyethylene glycol assay were increased in 88 per cent of homosexual patients with ITP but normal in five controls with ITP. <\connective form=however text=However id=F2091_FUL6_12.txt.raw_113 relation=Contrast\>, Trent20 and Lurhuma21 and their colleagues have shown increased circulating immune complexes in 89 per cent 102 of 115 of patients with "classic" ITP, using the Clq assay. Using this assay, we found elevated circulating immune complexes in 64 per cent  7 of 11  of our homosexual patients with ITP unpublished data. <\connective form=thus text=Thus id=F2091_FUL6_12.txt.raw_197 relation=Cause\>, elevated circulating immune complexes appear to be a common feature of ITP in homosexual and heterosexual patients. Walsh et al <\connective form=also text=also id=F2091_FUL6_12.txt.raw_226 relation=Conjunction\> noted that the "immune complex" fraction of serum isolated by polyethylene glycol precipitation bound to target platelets in 79 per cent of patients 3. <\connective form=however text=However id=F2091_FUL6_12.txt.raw_114 relation=Contrast\>, there is doubt whether the polyethylene glycol assay is specific for circulating immune complexes, <\connective form=since text=since id=F2091_FUL6_12.txt.raw_92 relation=Cause\> free IgG or IgM may <\connective form=also text=also id=F2091_FUL6_12.txt.raw_227 relation=Conjunction\> be precipitated <\connective form=when text=when id=F2091_FUL6_12.txt.raw_111 relation=Synchronous\> high serum concentrations are present 22,23. Since patients with AIDS-related syndromes have increased immunoglobulin levels, 24 the polyethylene glycol technique may precipitate autoantibody together with immune complexes in these patients. <\connective form=thus text=Thus id=F2091_FUL6_12.txt.raw_198 relation=Cause\>, <\connective form=although text=although id=F2091_FUL6_12.txt.raw_31 relation=Contrast\> circulating immune complexes may be elevated in homosexual men with ITP, direct evidence is lacking that thrombocytopenia results from these complexes. Whether the antibody against the 25,000-dalton platelet antigen is responsible for thrombocytopenia in these patients has not yet been demonstrated. The presence of antibody against this antigen on the surface of platelets suggests at least a partial explanation for thrombocytopenia, <\connective form=since text=since id=F2091_FUL6_12.txt.raw_94 relation=Cause\> antibody-coated platelets have been shown to be phagocytosed by leukocytes 25. Thus, accelerated destruction of these autoantibody-coated platelets by the reticuloendothelial system would be expected. In addition, the presence of serum antibody against the 25,000-dalton antigen seemed to parallel disease activity in the single patient studied longitudinally Table 2. The role of this antibody in the pathogenesis of ITP requires further evaluation. The possible derivation of the platelet autoantibody in our patients is intriguing. The antibody recognizes the same antigen in fibroblasts and monkey kidney cells, as well as on herpes simplex virus cultured in the kidney cells. An attractive hypothesis based on these observations is that in some patients with herpetic infections, the cellular 25,000-dalton protein may become incorporated into viral proteins or adsorbed to the virus. The protein may <\connective form=thus text=thus id=F2091_FUL6_12.txt.raw_200 relation=Cause\> be altered, rendering it immunogenic. <\connective form=alternatively text=Alternatively id=F2091_FUL6_12.txt.raw_194 relation=Alternative\>, the 25,000-dalton protein may be synthesized by the herpesvirus and some mammalian cells. Antibodies raised against the virus after infection may <\connective form=then text=then id=F2091_FUL6_12.txt.raw_69 relation=Asynchronous\> secondarily react with host cells, including platelets. Similar mechanisms of autoimmunity have been postulated in other forms of viral infection 26,27. The role of the AIDS-associated retrovirus in development of the autoantibody <\connective form=also text=also id=F2091_FUL6_12.txt.raw_228 relation=Conjunction\> requires clarification. Finally, the absence of thrombocytopenia among patients with AIDS or lymphadenopathy syndrome whose serum contains antiplatelet antibody is unexplained. As noted in Table 1, five such patients with normal platelet counts had increased amounts of platelet-associated immunoglobulin. A possible explanation is related to the finding of Bender et al 28 that Fc-receptor—mediated clearance is defective in patients with AIDS. <\connective form=thus text=Thus id=F2091_FUL6_12.txt.raw_201 relation=Cause\>, these patients may have increased antibody bound to their platelets but decreased clearance, as described by Kelton et al 29 in other diseases. An alternative explanation is that compensated thrombocytolysis is present in these cases, <\connective form=since text=since id=F2091_FUL6_12.txt.raw_95 relation=Cause\> borderline platelet counts were recorded in three of the five patients at the time that serum was obtained, and subsequently thrombocytopenia developed in all three patients. Further studies of platelet-associated antibody and Fc-receptor-mediated clearance in nonthrombocytopenic patients with AIDS or AIDS-related conditions should help to clarify this issue. In summary, we have identified a platelet autoantibody in the serum of 29 of 30 homosexual men with ITP. The antibody binds to an antigen of 25,000 daltons that appears to be a part of the platelet membrane. The nature of the target platelet antigen and the relation of the serum antibody to the pathogenesis of ITP in homosexual men require further study.