Regulation of voltage-dependent calcium channels  VDCCs3 plays  a  pivotal role in excitation-contraction coupling  in  cardiac  myocytes.  During  the action potential upstroke, membrane depolarization  causes  the  opening  of VDCCs,  encoded  by  the  pore-forming  α1 subunit,  Cav1.2 1.  Ca2+ entry through VDCCs triggers the release of Ca2+ from the  sarcoplasmic  reticulum via ryanodine receptors. <\connective form=although text=Although id=F336_FULL6_12.txt.raw_36 relation=Contrast\> the regulation of VDCCs in the  heart  has been  extensively  studied,  key  molecular  mechanisms  underlying  channel function, trafficking, membrane targeting,  retention,  and  internalization remain unknown.  Activation  of  the  β-AR,  a  G  protein-coupled  receptor GPCR, leads to positive inotropic effects mediated by  phosphorylation  of the VDCC via cAMP-dependent protein  kinase  A  2.  This,  <\connective form=however text=however id=F336_FULL6_12.txt.raw_76 relation=Contrast\>,  is  a transient phenomenon since persistent activation of the receptor causes  its subsequent phosphorylation by GPCR kinases GRKs 3, causing the  β-AR  to become a target for arrestin 4, which  mediates  the  recruitment  of  the receptor into clathrin-coated vesicles 5. In addition to decreasing single channel permeability,  persistent  membrane depolarization can regulate the number of  Cav1.2  channels  at  the  plasma membrane. For example, sustained KCl-induced depolarization of rat  cortical neurons effectively decreases Cav1.2 channel activity 6.  Cav1.2  channels have been proposed to  contain  a  membrane-targeting  domain  within  their calmodulin CaM-binding domain in the C terminus 7. Pitt  and  colleagues 8 showed that Ca2+-CaM interaction with this domain accelerated  the  rate of trafficking of Cav1.2 channels to distal regions of the dendritic  arbor. CaM imparts Ca2+-dependent regulation of not only mature Cav1.2 channels  at the cell surface but also during channel biosynthesis. Mechanisms underlying  Cav1.2  channel  trafficking  and  retention  at  the plasma membrane  have  not  been  studied  in  cardiomyocytes,  where  these channels play a pivotal role in excitation-contraction  coupling.  <\connective form=moreover text=Moreover id=F336_FULL6_12.txt.raw_150 relation=Conjunction\>, it is not known whether receptor  activity  that  modulates  ICa-L can  <\connective form=also text=also id=F336_FULL6_12.txt.raw_170 relation=Conjunction\> contribute to Cav1.2 targeting and retention at the plasma membrane. Our  results  show  that  sustained   activation   of   the   β-AR   induces internalization of VDCCs.  This  observation  raises  the  possibility  that during desensitization, not only does the β-AR  need  to  be  recycled,  but also that the recovery of the channel from the response  might  require  the recycling of the effector, ie the calcium channel itself. The time  course of channel internalization and its prevention by pertussis toxin  raise  the possibility that the internalization of calcium channels is a result  of  β- AR switch in coupling from Gs to Gi. Our results represent a  new  mechanism of cellular adaptation during hyperadrenergic simulation, which  might  have implications to  a  host  of  cardiac  pathologies,  including  hypertrophic remodeling. 



The following primary antibodies were used: rabbit polyclonal anti-Cavpan- α1 SubunitAlomone Labs, Jerusalem, Israel, anti-Cav1.2 NeuroMab; anti-β- Arr1 BD Biosciences; and polyclonal anti-clathrin heavy chain BD Biosciences. The following secondary antibodies were used: Oregon Green Alexa Flour 488-conjugated goat anti-rabbit IgG H+L Invitrogen; and Cy3- conjugated goat anti-mouse IgG H+L Jackson Laboratories. For live cell imaging experiments, calcium channels were visualized by incubation of the cells for 5 min at 37 °C with 2.5 μM DM-BODIPY --dihydropyridine high affinity enantiomer Invitrogen. Fluoresceinated 894–929 and 920–944 peptides used in this study were based on the Cav2.2 α1 sequence from chick dorsal root ganglion neurons CDB1, GenBank™ AAD51815. Peptides were synthesized by FastMoc chemistry at the Tufts University Core Facility Boston, MA and purified by high pressure liquid chromatography with >97 purity as determined by mass spectrometry. The N terminus included the sequence of the Penetratin domain of the Drosophila protein Antennapedia. Peptides were dissolved in 5 mMacetic acid at 1 mg/ml. Cardiomyocytes were isolated from adult rat hearts as described previously 9. <\connective form=after text=After id=F336_FULL6_12.txt.raw_69 relation=Asynchronous\> the cardiomyocyte isolation steps, the pellet was collected and resuspended in plating medium containing Dulbecco's modified Eagle's medium, low glucose 1× MEM, 10 fetal calf serum, 10 mM 2,3-butanedione, 100 units/ml penicillin, 2 mM glutamine, and gentamicin. Cardiomyocytes were plated on laminin-coated dishes and allowed to attach in a 2 CO2 incubator at 37 °C. After attachment, the cells were washed with plating medium and cultured for 3–18 h with a medium containing: MEM, 42.5 ml; bovine serum albumin, 0.1; 2,3-butanedione, 10 mM; penicillin, 100 units/ml; glutamine, 2 mM; gentamicin, 0.1 mg. No differences were found in the data obtained from rat cardiac myocytes plated for different time intervals. Cardiomyocytes were exposed to control solution culture medium or solution containing 100 μM isoproterenol ISO with 1 mM ascorbic acid. Cells were fixed and permeabilized in methanol at -20 °C for 5 min as described previously 10. Cells were incubated at 4 °C overnight with the primary antibody and for 1.5 h at room temperature with the secondary antibody. The Zeiss LSM-510 Meta UV microscope was used to perform confocal laser- scanning microscopy on the fixed cells. For the images taken by the Zeiss Meta microscope, the UV ×63 1.4NA oil objective lens was used with a pinhole setting of 1.0. The Zeiss Meta software was used to calculate the number of sections based on acquisition of sections at 380-nm intervals in the Z-plane. The Zeiss Meta microscope settings were kept the same for all scans. Metamorph Analysis software Universal Imaging Corp., West Chester, PA was used for all morphometric measurements. For the integrated density analysis and the correlation analysis, random cardiomyocytes were selected and manually traced, and background staining was subtracted. The average intensity of fluorescence signal was measured and expressed in arbitrary units of fluorescence per square area. 

The integrated values were obtained by measuring the fluorescence values as a function of area. The correlation coefficient Pearson's coefficient was calculated using Metamorph Molecular Devices, Inc to measure the degree of coincidence between the two signals. 

Cardiomyocytes, isolated and cultured in laminin-coated dishes as described above, were used for each condition. Cells were exposed to control solution culture medium or control solution containing 100 μM ISO plus ascorbic acid. After treatment with agonist, cells were lysed. VDCC was immunoprecipitated from 2 mg of lysate as described previously in Schiff et al 11. 





Indirect immunofluorescence  imaging  shows  that  under  basal  conditions treatment with saline, the vast majority of pore-forming  calcium  channel subunits Cav1.2 are located at  the  plasma  membrane  of  the  adult  rat cardiomyocyte  Fig  1, A and E.   Furthermore,   these   surface-targeted channels are  preassociated  with  β-Arr1  as  evidenced  from  the  Z-stack optical slices, which show a high degree of overlap between Cav1.2  labeled with a green fluorescent probe and β-Arr1 labeled with a  red  fluorescent probe, yielding a merged yellow hue, indicating co-localization of the  two proteins. The relative abundance of the merged signal in the top  slice  and its relative absence except for a discrete ring around  the  cell  periphery in deeper layers further underscores  the  selective  localization  of  both Cav1.2 and β-Arr1 at the cell membrane Fig 1A. Upon β-AR stimulation with ISO 100 μM for 5 min, the individual green  and red fluorescence signals become distinct and  more  intense  in  the  middle slices, suggesting dissociation of the Cav1.2/β-Arr1  complex  and  movement of each component to deeper layers away from the cell  surface  Fig  1, C, E, and F. The ISO-mediated internalization of the channels was observed  in 95 of the cells tested with a 40 ± 5 mean loss of  fluorescent  signal  in the  top  optical  slice.  This  pattern  of  Cav1.2/β-Arr1  separation  and internalization is further amplified following 15 min  of  exposure  to  ISO Fig 1, D and F. Exposure of cells to a lower concentration  of  ISO  100 nM yielded qualitatively similar results,  with  55.0  ±  2.of  the  signal associated with  the  cytosolic  region  observed  in  93  of  the  cardiac myocytes. Dynamic changes in the association of the two proteins  were  quantitatively measured using  the  Pearson's  correlation  coefficient  in  saline-treated myocytes sham, control and following ISO exposure for 20 s, 5 min, and  15 min. In accordance with the qualitative images,  the  Pearson's  coefficient was significantly reduced from 0.89 ± 0.05 in saline-treated  cardiomyocytes to 0.77 ± 0.02 20 s ISO, 0.69 ± 0.03 5 min ISO, and 0.67 ± 0.05 15  min ISO n = 10. Biochemical experiments  provided  further  evidence  of  the association between β-Arr1 and Cav1.2 under normal conditions. In fact,  our studies confirmed that β-Arr1 co-precipitates with  Cav1.2  channel  protein in lysates from normal rat cardiac myocytes Fig 1G,  as  well  as  normal porcine atrial and ventricular tissue Fig 1H. Since our  imaging  results suggested that β-AR activation with ISO for 5  min  significantly  decreased the association between β-Arr1 and Cav1.2, we tested  whether  the  physical interaction between the two proteins was <\connective form=also text=also id=F336_FULL6_12.txt.raw_172 relation=Conjunction\> decreased in  co-precipitation experiments Fig 1I. Cav1.2 was immunoprecipitated from  cardiac  myocytes treated with saline or 100 μM ISO, and the precipitates were probed  for  β- Arr1. <\connective form=indeed text=Indeed id=F336_FULL6_12.txt.raw_54 relation=Conjunction\>, the amount of β-Arr1 that  co-precipitated  with  Cav1.2  from cells treated with ISO was significantly p < 0.05 less than that  observed for saline treatment cells Fig 1J. Taken together, our data suggest  that the association between β-Arr1 and Cav1.2 channels decreases upon  sustained receptor activation. In heterologous expression  systems,  β-Arr1  is  thought  to  serve  as  an adaptor to components of the endocytotic machinery, such as  clathrin  12. To  test  whether  this  is   <\connective form=indeed text=indeed id=F336_FULL6_12.txt.raw_55 relation=Conjunction\>   the   case   in   cardiac   myocytes, immunofluorescence confocal microscopy was used to  image  the  distribution of β-Arr1 and clathrin prior to receptor  activation.  Optical  slices  from saline-treated myocytes show that both β-Arr1  and  clathrin  are  in  close proximity, as  indicated  by  the  yellow  signal  Fig  2A.  The  Pearson correlation coefficient for saline-treated cells was 0.80 ± 0.05  n =  10. Upon exposure  to  ISO  for  5  min,  the  fluorescent  signal  is  detected uniformly in deeper layers,  suggesting  a  cytosolic  distribution  of  the proteins with a Pearson correlation coefficient of 0.65  ±  0.02  n =  10. Indeed, these results indicate that components of the endocytotic  machinery are within close proximity of β-Arr1. The time course of ISO-induced  VDCC  internalization  suggests  that  this process might  contribute  at  least  in  part  to  the  desensitization  or termination of the β-AR response on ICa-L. β-AR-mediated  responses  can  be terminated  in  two  independent  ways:  1  through  GRK-mediated  receptor phosphorylation 13 or 2 through a switch  in  G  protein  coupling  14. Hyperadrenergic stimulation results in the switch of  β2ARs  to  Gi protein. To determine whether activation of heterotrimeric Gi/o proteins is  required for  ISO-induced  internalization  of  VDCC/β-Arr1  complexes   in   cardiac myocytes, cells were pretreated with 100 ng/ml pertussis toxin PTx  for  4 h and <\connective form=then text=then id=F336_FULL6_12.txt.raw_51 relation=Asynchronous\> exposed to either agonist ISO, 100 μM or saline. PTx  treatment effectively blocked the internalization of VDCC/β-Arr1 complexes in  95  of the cells tested. Confocal X-Y optical slices of cells pretreated  with  PTx showed that the VDCC complexes were retained  at  the  plasma  membrane.  In fact, the yellow signal representing the co-localization of  Cav1.2  and  β- Arr1 was limited to the top optical slice and the periphery of  the  myocyte in the middle slices. Integrated fluorescence signals for  cells  pretreated with PTx and exposed to ISO for 5 min demonstrate  that  Cav1.2  is  located predominantly at the plasma membrane in sharp contrast to  the  internalized channel distribution in myocytes treated with  ISO  for  5  min  Fig  2B. Pretreatment of myocytes with PTx prevents  ISO-induced  internalization  of Cav1.2 as the fluorescent signal remains membrane bound, even  following  15 min  of  ISO  treatment  Fig  2, B and C.  In  addition  to  its   potent inhibitory effect  upon  channel  internalization,  PTx  <\connective form=also text=also id=F336_FULL6_12.txt.raw_173 relation=Conjunction\>  prevents  the dissociation between Cav1.2  and  β-Arr1,  as  evident  by  a  high  Pearson coefficient measured in myocytes following exposure to ISO  for  5  0.81  ± 0.04 and 15 0.82 ± 0.01 min, indicating a high degree of  co-localization between  then  two  proteins.  These  results  indicate   that   ISO-induced internalization  of  Cav1.2/β-Arr1  complexes  requires  the  activation  of Gi/o proteins. We tested whether arrestin plays a role in agonist-induced  internalization of VDCCs. Cav1.2 channels at the cell surface were labeled for 5 min  at  37 °C  using  1.5  μM DM-BODIPY,   a   fluorescent   dihydropyridine.   <\connective form=because text=Because id=F336_FULL6_12.txt.raw_149 relation=Cause\> dihydropyridines bind to the extracellular domain of the channel,  only  the channels at the  plasma  membrane  are  labeled.  Preincubation  of  cardiac myocytes with unlabeled dihydropyridine prevents the binding  of  DM-BODIPY, demonstrating that  the  probe  binds  selectively  data  not  shown.  The pattern of VDCC subcellular  distribution  and  the  extent  of  ISO-induced internalization were not different in myocytes in which  the  channels  were labeled with anti-Cav1.2 antibodies  when  compared  with  the  labeling  by fluorescent dihydropyridine data  not  shown.  Image  acquisition  at  5-s intervals for 15 min produced <5 loss of signal, suggesting that  any  loss of fluorescence signal  observed  in  our  experiments  was  not  caused  by photobleaching. In live cell imaging  experiments,  exposure  of  cardiac  myocytes  to  ISO produced a decrease in the fluorescence signal in the  top  surface  of  the cell Fig 2D, concurrent with an increase in fluorescence  in  the  middle optical slices. Washout of the agonist ISO resulted  in  the  recovery  of the fluorescent signal at the top slice and the  cell  periphery  of  deeper optical slices to a  level  comparable  with  that  prior  to  ISO  exposure supplemental Fig 1. To test  whether  Cav1.2-β-Arr1  interaction  is  required  for  ISO-induced internalization of VDCCs,  we  used  cell-permeant  peptides  based  on  the sequence of the β-Arr1-binding site in Cav2.2 channel Gallus  gallus  CDB1, aa 894–944 15. We have previously used this peptide to interfere with  β- Arr1-channel interaction in dorsal root ganglion neurons and block  agonist- induced VDCC internalization 15. This peptide works as a “sponge” to  bind the endogenous β-Arr1, which should result  in  the  blockade  of  responses mediated  by  this  molecule.  In  control  experiments,  a  wide  range  of concentrations 100 ng/ml to 100 μg/ml and incubation times 5 min to 1  h was tested. Data shown in Fig 2D were obtained by  incubating  rat  cardiac myocytes with a saturating concentration of peptide 1.4 μg/ml for  5  min. In time-lapse experiments, the aa 894–929 peptide  prevents  agonist-induced Cav2.2 channel internalization without altering their basal distribution.  A structurally similar but inactive peptide containing aa 920–944 was  without effect Fig 2D. Gi-coupled receptors are known to activate  Src  kinase  16, 17.  To  test whether tyrosine kinase activity plays  a  role  in  ISO-induced,  pertussis toxin-sensitive  VDCC  internalization,  we  pretreated  adult  rat  cardiac myocytes with genistein 10 μM, 10 min, a tyrosine kinase  inhibitor  Fig 2E. ISO failed to induce VDCC  internalization  in  cells  pretreated  with genistein. Daidzein,  an  inactive  analog  of  genistein,  was  without  an effect. Internalization was prevented by an Src kinase inhibitor, 4-amino-5- 4-chlorophenyl-7-t-butylpyrazolo3,4-dpyrimidine PP2, 50 nM.  In  the presence of PP2, ISO induced a 6 ± 5 channel internalization n =  5  when compared with 45 ± 8 internalization n = 5  in  control  cells;  PP3,  an inactive analog, and a protein kinase  C  inhibitor,  bisindolylmaleimide  I 50 nM, were without effect n = 8. Precipitation of Cav1.2 channels  from rat cardiac myocytes showed that Src  kinase  is  constitutively  associated with the channel complex. 



Our results show that β-Arr1 interacts with Cav1.2 channels in  an  agonist- independent manner Fig 2G. This is in  contrast  to  the  interaction  of arrestin with receptors, which requires activation of the receptor, and GRK- mediated  phosphorylation  of  the   receptor.   Upon   sustained   receptor activation, Cav1.2 channels and β-Arr1 are internalized, and a  decrease  in association between the two proteins is observed over time. The decrease  in co-localization of  the  channels  and  β-Arr1  might  suggest  differential sorting of these proteins in later stages of endocytosis. In the present study,  we  demonstrate  that  GPCRs  strongly  regulate  the trafficking  of  cardiac  calcium  channels  at  the  plasma  membrane.  The internalization of calcium channels is  observed  upon  sustained  ≥5  min receptor activation, raising  the  possibility  that  desensitization  might require the recycling of VDCCs in addition to receptor  endocytosis.  Future experiments will address whether  the  channel  undergoes  dephosphorylation during the recycling phase in a manner analogous to that  of  the  receptor. Our  results  indicate  that  βAR-induced  internalization   and   decreased association between Cav1.2 and β-Arr1 are prevented by  PTx,  implicating  a role for Gi/Go Fig 2G. Phosphorylation  of  the  β2AR  by  cAMP-dependent protein kinase A switches its coupling from Gs to Gi16.  Our  observations raise the possibility that VDCC  trafficking  can  be  a  consequence  of  G protein switching of the β-AR, which might play a prominent role in  cardiac hypertrophy and disease progression. The  role  that  pertussis  toxin-sensitive  Gi/o proteins   play   in   the regulation of cardiac VDCCs  remains  unclear.  Activation  of  Gi/o-coupled receptors such as the muscarinic receptor does not modulate Cav1.2  channels by  themselves  but  prevents  β-AR-induced   enhancement   of   ICa-L 18. Interestingly, a  “rebound”  effect  has  been  described  in  contractility assays  following  activation  of  Gi/o-coupled  receptors  19.   In   the experimental paradigm used in these studies, contraction evoked by  ISO  was measured, followed by the simultaneous application of ISO with a  muscarinic agonist  in  which  no  ISO  effect  was  observed.  After  washout  of  the muscarinic agonist, the effect of ISO on contractility was  larger  than  in the  previous  applications  19, 20.  This   rebound   effect   has   been consistently observed. These results suggest  a  modulatory  effect  of  the adrenergic activity for Gi/o-coupled receptors.  A  similar  rebound  effect was <\connective form=also text=also id=F336_FULL6_12.txt.raw_174 relation=Conjunction\> observed in electrophysiological  experiments  in  which  ICa-L was measured 18, and hence our findings  potentially  offer  a  mechanism  for this phenomenon, linking alterations in  current  density  and  kinetics  to channel internalization. Several mechanisms could potentially  account  for  the  β-AR-mediated  VDCC internalization. The β-AR in the Gi-coupled state can activate  Src  kinase, and subsequently the GTPase dynamin, which is known to play a  role  in  the budding  of  vesicles  from  the  plasma  membrane  during   internalization 21, 22. In addition, it has been  shown  that  theβ-AR  can  activate  Src kinase  in  a  G  protein-independent  manner  16, 17.   The   ISO-induced internalization of VDCC complexes observed in  our  studies  is  G  protein- dependent as it is prevented by pertussis toxin. Another potential mechanism mediating the β2AR-mediated regulation  of  Cav1 channel  and  β-Arr1  internalization  is  the  ISO-stimulated   switch   to Gi coupling and downstream activation of a mitogen-activated protein  kinase MAPK  pathway  23.  MAPKs  are  known  to  play  a   role   in   cardiac pathophysiology, <\connective form=and text=and id=F336_FULL6_12.txt.raw_141 relation=Conjunction\> it has been  suggested  that  the  activation  of  this pathway by Gi protein might play a  role  in  the  onset  of  stress-induced cardiomyopathy Ref 25, and for review, see Ref 24. Finally, it has been suggested that β-Arr1 can  act  as  a  cardioprotective agent by virtue of its anti-apoptotic effects on myocytes 26. Our  present findings regarding the internalization of Cav1.2 channels through a  β-Arr1- and tyrosine kinase-mediated pathway could  represent  a  new  mechanism  by which β-Arr1 could exert its cardioprotective effects,  in  effect  limiting the surface expression of channels and <\connective form=thereby text=thereby id=F336_FULL6_12.txt.raw_37 relation=Cause\> reducing calcium entry.