Squamous cell carcinomas of the head and neck SCCHN arises in the mucosal lining of the upper aero-digestive tract and is the tenth most common cancer in men worldwide. Despite advances in current therapies, the 5-year mortality rate of SCCHN patients has not improved in the past few decades. To discover novel and effective molecular-targeted approaches, the molecular mechanisms that lead to a poorly differentiated phenotype in SCCHN must be better understood. Insulin-like growth factor I receptor IGF-IR is an attractive anti-tumor target for cancer therapy. Preclinical research have shown that the IGF-IR and its ligands IGF-I/II play important roles in the development and progression of human cancer. After IGF stimulation, the intrinsic tyrosine kinase of the b-subunit becomes activated and phosphorylates a series of adaptor proteins, such as insulin receptor substrate-1 IRS- 1, to activate intracellular signaling pathways. High expression of IGFs and IGF-IR has <\connective form=also text=also id=F483_FULL6_12.txt.raw_202 relation=Conjunction\> been associated with tumor metastatic potential and has been found in a variety of human malignancies such as non-small-cell lung cancer and gastrointestinal stromal tumors. Previous studies have demonstrated that IGF-IR expression is increased in human head and neck cancer <\connective form=and text=and id=F483_FULL6_12.txt.raw_91 relation=Conjunction\> that IGF-IR signaling significantly enhances the proliferation, motility and tumorigenicity of human head and neck cancer cell lines. <\connective form=however text=However id=F483_FULL6_12.txt.raw_76 relation=Contrast\>, the importance of IGF-IR overexpression with regard to therapy in human head and neck cancer is still unclear. In this study, we attempt to investigate whether IGF-IR downregulation results in an enhanced chemosensitive phenotype of head and neck cancer cells. 

IGF-IR phosphorothioate antisense oligodeoxynucleotide 50 - TCC TCC GGA GCC AGA CTT, ASSODN and phosphorothioate sense oligodeoxynucleotides SSSODN 50 -AAG TCT GGC TCC GGA GGA were used as controls ; and phosphorothioate oligodeoxynucleotides SODN was purchased from Biognostik Goettingen, Germany. For SODN transfection, cells were seeded at a density of 5000 cells/well in 96-well plates for the 3-4,5-dimethylthiazol-2-yl-2,5-diphenyltetrazolium bromide MTT assay or 1.5 · 10 cells/well in 6-well plates for reverse transcription-polymerase chain reaction RT-PCR and Western blot. <\connective form=when text=When id=F483_FULL6_12.txt.raw_72 relation=Synchronous\> cells had grown to 50–60 confluency, transfection was carried out with Lipofectin reagent Invitrogen, Carlsbad, CA, USA according to the manufacturer’s protocol. After a 6-h transfection at 37 C, the medium was replaced and incubated for an additional 72 h at 37 C before further assays were carried out. 

To quantify the levels of IGF-IR mRNA expression, real-time PCR was performed by using the DyNAmo SYBR Green QPCR kit finnzymes, Espoo, Finland and the Opticon CFD-3200 Thermocycler MJ Research according to manufacturer’s protocol. Previously described primers were used for these reactions. The primers for IGF-IR were 50 -GGG AAT GGA GTG CTG TAT G-30 forward and 50 -CAC AGA AGC TTC GTT GAG AA-30 reverse. For amplification of human GAPDH, which serves as an internal control, the primers were 50 -GGACCTGACTGACTACCTC-30 forward and 50 -TCATACTCCTGCTTGCTG-30 reverse. The number of copies of IGF-IR transcripts was normalized to the number of copies of the housekeeping gene GAPDH. 

Human head and neck cancer cell lines 183A and TU159 Rockville, MD, USA were grown in DMEM media with 10 foetal calf serum V/V at 37 C with 5 CO2 V/V. Exponentially growing 183A and TU159 cells 3 · 103 cells/well were treated with different concentrations of IGF-IR SODNs for 72 h. A 3- 4,5-dimethylthiazol-2-yl-2,5-diphenyltetrazolium bromide MTT assay Sigma, USA was used to measure cell viability. For the combined treatment assay, cells 3 · 103 cells/well were treated with IGF-IR antisense oligonucleotides 1.6 lM for 24 h followed by treatment with cisplatin or doxorubicin in the concentrations indicated. After a further incubation time of 48 h, cell viability was quantified using the MTT assay. Western blot analysis was performed according to the standard protocol, using antibodies against IGF-IRb at a 1:500 dilution, phospho-IGF-IR at a 1:500 dilution, p-erk1/2 at a 1:1000 dilution, erk1/2 at a 1:500 dilution, pAkt at a 1:500 dilution, Akt at a 1:1000 dilution, cyclinD1 at a 1:500 dilution, bcl-2 at a 1:200 dilution, p27 at a 1:500 dilution Santa Cruz Biotechnology, IRS-1 at a 1:1000 dilution, p-IRS-1 at a 1:500 dilution Epitomics and PARP at a 1:500 dilution Pharmigen. To determine changes in VEGF expression in human cell culture, we used an ELISA kit specific to human VEGF-A BioSource Europe, Nivelles, Belgium. Cells were plated at 40– 50 density and incubated with or without SODN for 72 h. The culture medium was <\connective form=then text=then id=F483_FULL6_12.txt.raw_54 relation=Asynchronous\> tested for VEGF using a commercial ELISA R&D Systems, Minneapolis, MN. 

After 24-h pretreatment with IGF-IR antisense oligonucleotides 1.6 lM, TU159 cells 3 · 103 cells/well were treated with doxorubicin in the concentrations indicated; a total of 1.0 · 106 TU159 cells were washed twice with ice-cold PBS before simultaneous addition of fluorescein isothiocyanate fiTC labeled Annexin-V and propidium iodide BD Biosciences. The final mixture was incubated for 15 min at room temperature in the dark and <\connective form=then text=then id=F483_FULL6_12.txt.raw_55 relation=Asynchronous\> analyzed by flow cytometry to determine the percentage of apoptotic cells. 

Caspase-3 activities were measured using a commercially available kit according to the manufacturer’s instructions. Briefly, cells were suspended in 50 ll of lysis buffer and incubated on ice for 10 min. The cells were <\connective form=then text=then id=F483_FULL6_12.txt.raw_56 relation=Asynchronous\> centrifuged for 1 min in a microcentrifuge 10,000 and the supernatants were collected for the assay. For each assay, 50–200 lg of protein was added to 50 ll of cell lysis buffer, followed by addition of 50 ll of 2X reaction buffer and 5 ll of 4 mM DEVD-pNA caspase-3. The mixture was incubated at 37 C for 1–2 h and read at 405 nm in a microtitre plate reader. 

TU159 cell xenografts were generated by the injection of 3 · 106 cells in the flanks of the severe combined immunodeficient SCID mice. Treatment started <\connective form=when text=when id=F483_FULL6_12.txt.raw_73 relation=Synchronous\> tumors were 100–200 mm3 . The mice were randomized into four groups of eight animals each and were given i.p. injections of ASSODN 100 mg/kg, doxorubicin 1 mg/kg or doxorubicin + ASSODN 100 and 1 mg/kg, respectively three times a week for 3 weeks. At each treatment, tumor volume was measured with calipers volume = L · w · w · 0.52 and the percentage of tumor growth inhibition was calculated as Inhibitory rate  = Vcontrol  Vtreatment/Wcontrol · 100. 

Statistical analysis was performed using SPSS software Release 11.0, SPSS Inc. Data were expressed as the mean ± SD. Results were considered significant <\connective form=if text=if id=F483_FULL6_12.txt.raw_175 relation=Cause\> p < 0.05, as obtained by an appropriate ANOVA procedure and Student’s t-test. 


The effects of IGF-IR ASSODN on mRNA and protein expression were assessed by real-time PCR and Western blotting, respectively fig 1A. In TU159 and 183A cells, the mRNA and protein levels of IGF-IR expression were significantly reduced after the addition of 1.6 lM ASSODN compared to untreated cells p < 0.01. Treatment with SSODN had only marginal effects on IGF-IR expression. These results indicate that treatment with ASSODN against IGF-IR <\connective form=specifically text=specifically id=F483_FULL6_12.txt.raw_205 relation=Asynchronous\> inhibited IGF-IR expression. 

Cells were incubated for 48 h with various doses of ASSODN, starved for 24 h and subsequently stimulated with IGF-I for 10 min. Western blot analysis shows that inhibition of IGF-IR and IRS-1 substrate with ASSODN was dose-dependent, and ultimately yields a marked reduction in phosphorylation of downstream signaling pathways fig 2A. To characterize ASSODN effects on the cell cycle, we performed additional Western blot experiments to elucidate underlying molecular mechanisms. TU159 and 183A cells were treated with different concentrations of ASSODN for up to 72 h and resulted in a dose-dependent suppression of cyclin D1, which is essential for the transition from G1 to S-phase. At the same time, expression of the cyclin-dependent kinase inhibitors p27Kip1 markedly increased fig 2B. Since the IGF-IR system has been shown to be important for regulating VEGF expression in cancer cells, the impact of ASSODN on VEGF secretion was measured by ELISA. The treatment of SCCHN cells with ASSODN leads to a substantial reduction in VEGF secretion. 


Treatment of TU159 and 183A cells with IGF-IR antisense oligonucleotides resulted in a dose-dependent decrease in cellular proliferation compared to untreated cells, as determined by the MTT assay fig 3A. No significant differences in cellular proliferation were detected between untreated or sense oligonucleotide-treated cells. Prior work on combination therapy of cytotoxic drugs with IGF-IR-inhibition by antisense oligonucleotide demonstrated encouraging results in other tumor entities. Based on this, we investigated whether IGF-IR downregulation enhances the chemosensitivity of TU159 and 183A cells. Cells were pretreated with IGF-IR ASSODN before adding increasing concentrations of either doxorubicin or cisplatin. The cells were subsequently analyzed by the MTT assay and the chemosensitivity of IGF-IR ASSODN-treated cells was compared to SSODN control cells. IGF-IR downregulation by ASSODN in TU159 cells resulted in a significant increase in chemosensitivity to doxorubicin but moderate to cisplatin fig 3B. When these cells were treated with doxorubicin alone or in combination with ASSODN, the IC50 values were 0.23 and 0.01 lg/ml, respectively p < 0.001. Compared with cisplatin alone, the effect of combination treatment with both ASSODN and cisplatin was more apparent IC50 values were 1.24 and 0.26 lg/ml, respectively, p < 0.01. <\connective form=however text=However id=F483_FULL6_12.txt.raw_77 relation=Contrast\>, the increased sensitivity of 183A cells to doxorubicin or cisplatin by IGF-IR downregulation was less apparent. For these cells, the IC50 values of doxorubicin with and without ASSODN were 0.31 and 0.60 lg/ml, respectively p < 0.05. The IC50 for treatment with cisplatin alone or in combination of ASSODN were 3.15 and 1.5 lg/ml, respectively p < 0.05. 


The MTT assay provided evidence that ASSODN treatment enhanced the sensitivity of SCCHN cells to doxorubicin, <\connective form=but text=but id=F483_FULL6_12.txt.raw_62 relation=Contrast\> it does not provide additional details behind the mechanism of cell death. To determine whether the increased chemosensitivity reflected an induction of apoptosis, Annexin-V/PI staining and flow cytometric analysis were performed to detect apoptotic cells. Treatment of TU159 cells with ASSODN and/or doxorubicin resulted in an increase of apoptotic cells fig 4A and B. <\connective form=although text=Although id=F483_FULL6_12.txt.raw_32 relation=Contrast\> single-agent doxorubicin <\connective form=also text=also id=F483_FULL6_12.txt.raw_203 relation=Conjunction\> induced apoptosis in TU159 cells P < 0.05, the number of apoptotic cells was significantly increased upon addition of antisense IGF-IR P < 0.01. These results were confirmed by a caspase-3 activity assay and by proteolytic processing of poly ADP-ribose polymerase PARP, which is involved in DNA repair predominantly with response to environmental stress. Our study found that the activity of caspase-3 in TU159 cells treated with both ASSODN and doxorubicin increased 6.28-fold compared to that in control. The activity after treatment with ASSODN or doxorubicin alone, <\connective form=however text=however id=F483_FULL6_12.txt.raw_78 relation=Contrast\>, increased only 2.50 and 2.13-fold higher than the control fig 4C. For these cells, doxorubicin treatment induces cleaved-PARP, <\connective form=while text=while id=F483_FULL6_12.txt.raw_174 relation=Contrast\> the combination of doxorubicin and ASSODN induces cleaved-PARP significantly fig 4D. These results indicate that IGF-IR signaling blockade combined with doxorubicin promotes caspase-mediated apoptosis in TU159 cells. SCID mice bearing TU159 xenografts were treated with these drugs alone or in combination using concentrations as described in Section 2. By the 4th week of treatment, statistically significant differences in tumor volume were noted between all groups fig 5A. An incremental reduction in tumor volume compared with controls was noted for all groups receiving treatment: ASSODN, doxorubicin or ASSODN combined with doxorubicin. At the conclusion of treatment, animals receiving both ASSODN and doxorubicin harbored tumors 2.9-fold smaller than controls P < 0.01. Tumors from animals receiving <\connective form=either or text=either id=F483_FULL6_12.txt.raw_207 relation=Conjunction\> ASSODN <\connective forme=either or text=or id=F483_FULL6_12.txt.raw_207 relation=Conjunction\> doxorubicin alone were 1.6-fold P < 0.05 and 2.1-fold P < 0.01 smaller than those from controls, respectively. These data indicate that ASSODN and doxorubicin displayed significantly higher anti-tumor activity than either agent alone. In order to investigate whether the anti-tumor activity of ASSODN was associated with the downregulation of IGF-IR, IGF-IR levels in ASSODN treatment of TU159 tumors were tested by Western blot. The results show that the IGF-IR level was lower in ASSODN treatment animals than the IGF-IR in untreated animals fig 5B. IGF-IR is overexpressed in a variety of malignant human tumors, including squamous cell carcinomas of the head and neck SCCHN. It is widely accepted that the IGF-axis activates anti-apoptotic signaling, which in turn upregulates the PI3K and MAPK pathways in cancer cells. Inhibition of IGF-IR signaling has been proposed as a potential means of optimizing anticancer therapy. In addition to its roles in transformation and survival, the IGF/IGF-IR system <\connective form=also text=also id=F483_FULL6_12.txt.raw_204 relation=Conjunction\> regulates vascular endothelial growth factor production, suggesting a role in angiogenesis. These factors nominate IGF-IR as an attractive anticancer target. In our study, we attempted to use phosphorothioate antisense oligonucleotides to silence endogenous IGF-IR expression and explored the effects of IGF-IR downregulation in head and neck cancer cells. We were able to demonstrate that IGF-IR mRNA and protein expression were significantly reduced in antisense oligonucleotide-treated cells as compared to those in control cells. IGF-IR downregulation in TU159/ 183A cells resulted in a dose-dependent decrease in cellular proliferation, induction of apoptosis, caspase activation and reduced expression of pro-angiogenic cytokines such as VEGF. These results are in line with previous findings in vitro of antisense oligonucleotide-mediated IGF-IR downregulation in human lung cancer cells, prostate cancer cells and malignant glioma cells. Since the IGF/IGF-IR pathway plays an important role in cell growth and proliferation, we investigated whether IGF-IR ASSODN could interfere with the activation of signaling pathways in SCCHN cells. Western blot analysis showed that blocking IGF-IR with ASSODN resulted in a dose-dependent inhibition of IGF-IR and IRS-1 substrate as well as brought about a marked reduction in phosphorylation of downstream signaling pathways. Results have shown that IGF-IR signaling prevents tumor cells from the cytotoxic effects of chemotherapy and may play an important role in cancer cell drug resistance. Consequently, blocking of IGF-IR signaling has led to the enhancement of the chemosensitivity, making it a logical target for therapeutic intervention. The present study discovered that combined treatment with IGF-IR ASSODN and doxorubicin significantly enhances the cytotoxic effects of chemotherapeutic drugs in vitro and in TU159 xenograft, <\connective form=but text=but id=F483_FULL6_12.txt.raw_63 relation=Contrast\> the combination of oligonucleotides with cisplatin is poorly efficient <\connective form=when text=when id=F483_FULL6_12.txt.raw_75 relation=Synchronous\> compared to doxorubicin to reduce cell viability. This may be related to the different action mechanism between doxorubicin and cisplatin. Most anticancer agents, including doxorubicin and cisplatin, killing cancer cells by inhibiting cell cycle and/or inducing apoptosis, the mechanisms underlying apoptosis depended on the drug used. Such as in hepatocellular carcinomas HepG2 cells, cisplatin upregulates p53 and p21 gene expression, whereas induction of apoptosis by doxorubicin is concomitant with downregulated p21 gene expression. Our results indicated that the combination of oligonucleotides with chemotherapeutic drugs might offer an alternative treatment strategy against squamous cell carcinomas of the head and neck. A number of authors have similarly reported that IGF-IR signaling results in resistance to chemotherapy in a wide variety of tumors. The induction of apoptosis by chemotherapeutic drugs has been extensively studied and is thought to be the main mechanism of action. <\connective form=however text=However id=F483_FULL6_12.txt.raw_79 relation=Contrast\>, ligand-activated IGF-IR is emerging as a powerful inhibitor of apoptosis induced by a variety of agents, including anticancer drugs and ionising radiation. In particular, Dunn and colleagues. first showed that IGF-IR could induce a 20–40 increase in survival of breast cancer cells treated with clinically relevant and functionally diverse anticancer drugs. This work supports the idea that IGF-IR activation may significantly decrease the effectiveness of chemotherapy. <\connective form=therefore text=Therefore id=F483_FULL6_12.txt.raw_201 relation=Cause\>, we treated SCCHN cell lines with IGF-IR AS- SODN in an attempt to further sensitize these cells to doxorubicin or cisplatin treatment. We observed that AS- SODN does sensitizes SCCHN cell lines to treatment with these drugs via induction of apoptosis, as shown by an increase in cleaved poly ADP-ribose polymerase and caspase-3. IGF-IR targeting offers the potential advantage that, in addition to regulating apoptosis susceptibility, the IGF pathway mediates other aspects of malignant phenotype, including tumor cell proliferation, motility, adhesion and response to DNA damage. Our results clearly demonstrate that IGF-IR antisense treatment suppresses SCCHN cell proliferation and sensitizes SCCHN cells to chemotherapy. The combination of IGF-IR antisense oligonucleotides with chemotherapeutic agents may serve as a novel approach for the treatment of SCCHN.