Several lines of evidence implicate Helicobacter pylori in the pathogenesis of active chronic gastritis, peptic ulcer disease, gastric carcinoma, and gastric B-cell lymphoma, even <\connective form=though text=though id=F607_FULL6_12.txt.raw_96 relation=Concession\> most H. pylori infections are asymptomatic 7, 29, 31. <\connective form=although text=Although id=F607_FULL6_12.txt.raw_38 relation=Contrast\> the exact mechanisms by which H. pylori infection results in gastroduodenal pathology are unclear, current opinion holds that H. pylori can induce an acute inflammatory reaction consisting of leukocyte infiltration and epithelium damage 4, 14. <\connective form=however text=However id=F607_FULL6_12.txt.raw_113 relation=Contrast\>, becauseH. pylori generally adheres to gastric epithelial cells without invading the epithelium, it is presumed that an interaction between bacteria and host epithelial cells may initiate H. pylori-induced inflammation. Because of the strong inflammatory response to H. pylori infections, the role of inflammatory cytokines was investigated. It was shown that mucosal biopsy specimens from patients with H. pylori infections contain significantly elevated levels of interleukin-1β IL-1β, IL-6, tumor necrosis factor alpha TNF-α, and IL-8 compared to those in specimens from uninfected individuals 9, 11, 13, 30. Exposure of gastric epithelial cell lines to H. pylori induced the secretion of a potent leukocyte chemotactic and activating factor, IL-8 19, 32. The association of IL-8 withH. pylori infection was further suggested by elevated levels of IL-8 in gastric epithelial cells in vivo 9, in tissue homogenates of mucosal biopsy specimens 13, 27, and in in vitro-cultured biopsy specimens from patients with H. pylori-associated gastritis and peptic ulcers 30. Cell-cell interactions play an important and probably central role in a large number of immunological processes in physiological and pathological conditions. These interactions are at least partially mediated by various cell adhesion molecules. Expression of cell adhesion molecules on gastric epithelial cells may participate in leukocyte homing and epithelial-cell adhesion in H. pylori-associated mucosal inflammation. In the context of H. pylori infection, the production of chemoattractive cytokines and cell adhesion molecules could provide a means of recruiting and retaining inflammatory cells within the gastric epithelial layer, contributing to H. pylori-mediated tissue injury. In this study, we show that gastric epithelial cells have the ability to initiate changes associated with inflammation through the upregulation of intercellular adhesion molecule-1 ICAM-1 after infection with H. pylori. Furthermore, we identify the molecular mechanism of ICAM-1 gene activation following H. pylori infection in gastric epithelial cell cultures. These data support the theory that the gastric epithelium plays an active role in initiating inflammation as part of the host response to H. pylori infection. 



The H. pylori strain ATCC 49503 was used in most of this study. Other clinical strains OHPC0001, OHPC0002, and OHPC0003, isolated from chronic gastritis patients, were kind gifts of T. Kitahora Ohkura Hospital, Tokyo, Japan. The presence of the cag pathogenicity island PAI and vacA in these strains was determined by PCR using specific sets of primers 1, 37. H. pylori strains were recovered from frozen stocks by seeding them on a blood agar plate Mueller-Hinton II agar with 7 horse blood at 37°C for 3 days under microaerophilic conditions 10, O2 and 10 CO2 generated with Anaeropack Campylo Mitsubishi Gas Chemicals Co, Tokyo, Japan. Bacteria harvested from the plates by using cotton swabs were suspended in 200 ml of brain heart infusion broth containing 10 fetal calf serum and were <\connective form=then text=then id=F607_FULL6_12.txt.raw_69 relation=Asynchronous\> liquid-cultured at 37°C for 3 days with vigorous shaking in a controlled microaerophilic atmosphere. Bacteria were harvested from a broth culture by centrifugation and were resuspended at the indicated concentrations in antibiotic-free medium. At this time, bacteria reached a concentration of 4 × 108CFU/ml. All procedures were performed with the approval of the respective institutional biosafety review committees and in compliance with their guidelines for biohazards. 

A panel of epithelial cell lines was cultured in RPMI 1640 or Ham's F-12 medium supplemented with 10 fetal bovine serum GIBCO Laboratories, Grand Island, N.Y. and antibiotics 50 U of penicillin/ml and 50 μg of streptomycin/ml. In these experiments, the gastric epithelial cancer cell lines MKN45, AGS, and KATO III were used. 

Peripheral blood mononuclear cells PBMCs and neutrophils were isolated from venous blood of healthy adults using standard dextran sedimentation and gradient separation on Ficoll-Hypaque Pharmacia LKB, Uppsala, Sweden. 

To measure ICAM-1 expression on epithelial cells after bacterial infection, epithelial-cell monolayers were infected by adding H. pylori final concentrations, 500 organisms/cell. Preliminary studies with MKN45 cells using varying numbers of H. pylori organisms indicated that higher concentrations of bacteria induced the death of epithelial cells, as determined by morphological analysis. In the same series of experiments, MKN45 cells were cocultured with culture supernatants fromH. pylori. In some experiments, MKN45 cells were treated with pyrrolidine dithiocarbamate PDTC; 20, 50, or 100 μM, which inhibits NF-κB activation 5, 21, 28, 38. After 1 h of PDTC exposure, the cells were infected with H. pylori. For surface expression of ICAM-1, cells were harvested, washed, and stained using the fluorescein isothiocyanate-conjugated mouse anti-CD54 monoclonal antibody MAb or the isotypic control immunoglobulin G1 IgG1 Coulter Immunology, Hialeah, Fla.. Fluorescence was measured on a FACScan flow cytometer Becton Dickinson, San Jose, Calif.. 

Gastric epithelial cells were cocultured with H. pylori for the indicated times. Total cellular RNA was extracted from the cells using Trizol as described by the manufacturer GIBCO-BRL, Gaithersburg, Md., and the amount of total RNA was determined by measuring the absorbance at 260 nm. Twenty micrograms of total RNA was electrophoresed on a formaldehyde-agarose gel and was transferred onto a nylon filter. The filters were prehybridized 0.5 M sodium phosphate–0.1 bovine serum albumin–7 sodium dodecyl sulfate SDS–100 μg of salmon testis DNA/ml–100 μg of yeast RNA/ml for 2 h at 65°C and <\connective form=then text=then id=F607_FULL6_12.txt.raw_70 relation=Asynchronous\> hybridized overnight with the following α-32PdCTP radiolabeled probes: cDNA of human ICAM-1 kindly provided by T. K. Kishimoto, Boehringer Ingelheim Pharmaceuticals, Inc, Ridgefield, Conn., IκB-α kindly provided by D. W. Ballard, Vanderbilt University School of Medicine, Nashville, Tenn. 15, and glyceraldehyde-3-phosphate dehydrogenase GAPDH 3. Radiolabeled probes were generated using a Megaprime DNA Labeling system Amersham, Arlington Heights, Ill.. 

The antibody used for Western blot analysis was a rabbit polyclonal antibody to IκB-α, C-21 Santa Cruz Biotechnology Inc, Santa Cruz, Calif.. Cells were lysed by incubation in radioimmunoprecipitation assay buffer 0.5 sodium deoxycholate, 1 Nonidet P-40, 0.1 SDS, 66 μg of aprotinin/ml, 100 μg of phenylmethylsulfonyl fluoride/ml, and 1 mM sodium orthovanadate for 30 min at 4°C. Equal amounts 50 μg of protein from cell lysates were electrophoresed on SDS–10 polyacrylamide gels and transferred to polyvinylidine difluoride membranes. The membranes were blocked with Tris-buffered saline–Tween 0.05 containing 3 nonfat dried milk overnight at 4°C, and <\connective form=then text=then id=F607_FULL6_12.txt.raw_71 relation=Asynchronous\> they were incubated for 45 min with a 1:500 dilution of the antibody. The membranes were washed with Tris-buffered saline–Tween, incubated with a 1:1,000 dilution of horseradish peroxidase-conjugated anti-rabbit immunoglobulin Amersham, and <\connective form=then text=then id=F607_FULL6_12.txt.raw_72 relation=Asynchronous\> developed using enhanced chemiluminescence reagents Amersham and fluorography. 

The various ICAM-1 promoter constructs have been described previously 25, 36. NF-κB-LUC is a luciferase expression plasmid controlled by five copies of the IL-2 receptor IL-2R α chain gene κB element a kind gift from J. Fujisawa, Kansai Medical University, Osaka, Japan 34. For the luciferase assay, 7 × 105 MKN45 cells were transfected with 5 μg of each luciferase vector along with 0.1 μg of pRL-TK, an internal control Renilla luciferase expression vector Toyo Ink Co, Tokyo, Japan, using the Calcium Phosphate Mammalian Cell Transfection kit 5 Prime→3 Prime, Inc, Boulder, Colo. according to the manufacturer's recommendations. After 24 h, the transfected cells were divided into two parts, and H. pylorifinal concentration, 500 organisms/cell was added separately to each part. After an additional 6 h of incubation, cell lysates were prepared using PicaGene Dual Toyo Ink Co Twenty microliters of the cell lysates was assayed for both firefly and Renilla luciferase activity using the dual-reporter assay system indicated above in a Lumat model LB9505C luminometer Berthold, Bad Wildbad, Germany. The firefly luciferase activity was normalized to the Renilla luciferase activity, and the fold stimulation was calculated as the ratio of the value for H. pylori-infected cells to that for uninfected cells. 

Nuclear proteins were extracted from epithelial cells incubated in the presence or absence of H. pylori 500 organisms/cell as described by Antalis and Godbolt 2 with modifications. Five-microgram aliquots of nuclear proteins were incubated for 15 min at room temperature with 1 ng of an α-32PdCTP- and α-32PdATP- labeled NF-κB binding site of the ICAM-1 gene 5′-tcgaTAGCTTGGAAATTCCGGAGC- 3′; lowercase letters indicate residues added for labeling purposes and 1 μg of polydI-dC Pharmacia, Piscataway, N.J. in 20 μl of a solution containing 10 mM Tris-HCl pH 7.5, 50 mM NaCl, 1 mM EDTA, 1 mM dithiothreitol, and 5 glycerol. In competition studies, a 100-fold excess of the unlabeled ICAM-1 κB probe, oligonucleotides containing a mutated NF- κB binding site 5′-tcgaTAGCTTCTAGATTAGGGAGC-3′ mutated sequences are underlined, or oligonucleotides bearing the IL-2R α chain gene NF-κB site 5′-gatcCGGCAGGGGAATCTCCCTCTC-3′ was included in the reaction mixture along with the radiolabeled probe. In some experiments, nuclear proteins were preincubated with 2 μg of antibodies to p65, p50, p52, or c-Rel Santa Cruz Biotechnology Inc for 45 min at room temperature before addition of the labeled probe. The mixtures were loaded onto a 4 polyacrylamide gel with 0.25× Tris-borate buffer. After electrophoresis, gels were dried and analyzed by autoradiography. 

MKN45 cells were plated at confluent density 105 cells/well in flat- bottom wells of a 96-well microtiter plate. THP-1 cells, PBMCs, or neutrophils were suspended in serum-free RPMI 1640 containing 5 μM 2′, 7′- bis-2-carboxyethyl-5- and 2′,7′-bis-2-carboxyethyl-6- carboxyfluorescein, acetoxymethyl ester BCECF-AM Dojin Chemicals, Kumamoto, Japan. After incubation for 45 min at 37°C, these cells were washed with phosphate-buffered saline PBS and <\connective form=then text=then id=F607_FULL6_12.txt.raw_73 relation=Asynchronous\> resuspended in culture medium. Before adhesion experiments, cells either remained untreated or were incubated at 4°C for 1 h in the presence of either an anti-CD18 MAb, an anti-CD54 MAb, or control IgG1 Immunotech, Marseille, France. Subsequently BCECF-labeled THP-1 cells 2 × 105 cells/well, PBMCs 106 cells/well, or neutrophils 106 cells/well were deposited on unstimulated or H. pylori-stimulated MKN45 cell monolayers for 30 min at 37°C. Each experiment was run in quadruplicate. Nonadherent cells were removed by inverting the plates and washing with PBS. Adherent cells were solubilized with 1 Nonidet P-40 in PBS, and the fluorescence intensity of each well was measured with a Fluoroscan II Labsystems, Helsinki, Finland. 



H. pylori induces ICAM-1 expression in human gastric epithelial cell lines. We first examined the capacity of several gastric epithelial cell lines to express ICAM-1 upon coculture with live H. pylori. AGS and KATO III cells constitutively expressed cell surface ICAM-1 and ICAM-1 mRNA, <\connective form=whereas text=whereas id=F607_FULL6_12.txt.raw_232 relation=Contrast\> MKN45 cells did not Fig 1A and B; <\connective form=also text=also id=F607_FULL6_12.txt.raw_266 relation=Conjunction\> data not shown. Coculture with H. pylori significantly enhanced steady-state levels of ICAM-1 mRNA in MKN45 cells and cell surface expression of ICAM-1 by these cells Fig 1A and B. Similar results were <\connective form=also text=also id=F607_FULL6_12.txt.raw_267 relation=Conjunction\> obtained using AGS and KATO III cells data not shown. Since theH. pylori-induced ratio of enhancement of ICAM-1 expression was greatest on MKN45 cells, we used MKN45 cells in the following experiments. We next examined the dose dependency of H. pylori- induced ICAM-1 expression on MKN45 cells. The cell surface expression of ICAM-1 was significantly increased after the addition of 0.5 H. pylori organism/cell Fig 1C. The highest level of ICAM-1 expression was observed after infection with 50 H. pylori organisms/cell Fig 1C. Flow cytometry studies indicated that MKN45 cells started to express a significant amount of ICAM-1 6 h after the initiation of coculture with the bacteria Fig 1B. ICAM-1 mRNA levels clearly increased 2 h after H. pylori infection, reached maximal levels at 6 h, and remained elevated at least 24 h following infection Fig1A. H. pylori culture supernatants failed to induce ICAM-1 mRNA or cell surface expression on MKN45 cells Fig1B and data not shown. H. pylori strains differ in their abilities to induce ICAM-1 expression.Since recent studies indicated that expression of multiple genes in the cag PAI is necessary for cytokine production by gastric epithelial cells in vitro 6, 35, we examined the abilities of several H. pylori strains to induce ICAM-1 expression. All isolates were positive for vacA 1 irrespective of ability to induce ICAM-1 expression Fig 2. Strain OHPC0002, which totally lacked the cag PAI, induced ICAM-1 mRNA and cell surface expression at levels considerably lower than those of strains ATCC 49503, OHPC0001, and OHPC0003, containing the entire cag PAI 37 Fig 2. These results suggest that the H. pylori cag PAI may play an important role in the induction of ICAM-1 expression, which parallels a previously reported observation on IL-8 expression 6, 35. Activation of the ICAM-1 promoter by H. pylori. To confirm that H. pylori- induced ICAM-1 upregulation occurred by activating gene transcription, the ICAM-1 5′-flanking region was analyzed with promoter/reporter gene constructs. MKN45 cells were transiently transfected with a plasmid, pBHluc1.3, which contains 1,344 bp of the ICAM-1 upstream region −1,353 to −9 relative to the start of transcription, directing expression of the firefly luciferase reporter gene, and the transfected cells were <\connective form=then text=then id=F607_FULL6_12.txt.raw_74 relation=Asynchronous\> stimulated withH. pylori. Stimulation of MKN45 cells with H. pylori resulted in a 6.6-fold increase in luciferase activity, <\connective form=whereas text=whereas id=F607_FULL6_12.txt.raw_233 relation=Contrast\> the negative-control vector, pBHlucOL1, showed only low background activity Fig 3B. Strains OHPC0001 and OHPC0003 induced ICAM-1 promoter activity to similar levels. <\connective form=however text=However id=F607_FULL6_12.txt.raw_114 relation=Contrast\>, strain OHPC0002, devoid of cag PAI, andH. pylori ATCC 49503 culture supernatants were not found to increase ICAM-1 promoter activity data not shown. These results indicated that the interaction with H. pylori induces ICAM-1 expression on MKN45 cells at the level of transcription. To locate the cis-regulatory elements present within the 5′-flanking sequence of the ICAM-1 promoter that confers H. pylori responsiveness, we transiently transfected a series of pBHluc1.3 mutants with 5′ deletions of various lengths the largest mutant beginning with bp −941 and the smallest beginning with bp −136 into MKN45 cells Fig 3A. High levels of induction were observed with the reporter constructs containing ICAM-1 5′- flanking sequence starting with position −1,353 pBHluc1.3 to position −353 construct D. <\connective form=however text=However id=F607_FULL6_12.txt.raw_115 relation=Contrast\>, further deletion to −136 construct E resulted in a complete loss of H. pylori-induced promoter activity. It was apparent that the ICAM-1 5′-flanking sequence between −353 and −136 was required for the promoter to respond to H. pylori. To further investigate this H. pylori-responsive region, the sequence spanning bp −445 to −289 was cloned into construct E, resulting in construct P. This was not induced by H. pylori. <\connective form=therefore text=Therefore id=F607_FULL6_12.txt.raw_262 relation=Cause\>, we concluded that the region of the ICAM-1 promoter most critical for H. pylori induction in gastric epithelial cells was located between −289 and −136. Sequence analysis of the H. pylori-responsive region between −289 and −136 revealed potential binding sites for five transcription factors, AP-1 −284 to −278, Sp1 −206 to −201, C/EBP −199 to −196, Ets −153 to −150, and NF-κB −187 to −178. Hou et al 18 and Ledebur and Parks 25 demonstrated that TNF-α-induced activation of the ICAM-1 promoter required the NF-κB site. In order to determine the functional importance of the NF- κB site, transient transfections with mutant ICAM-1 promoter/luciferase reporter gene constructs with specific mutations in either the NF-κB designated pGL1.3κB− or the Ets designated pGL1.3Ets− binding site 25 were performed Fig 3C. Mutation of the NF-κB site in the ICAM-1 promoter significantly reduced H. pylori-mediated luciferase activity in gastric cells, <\connective form=whereas text=whereas id=F607_FULL6_12.txt.raw_234 relation=Contrast\> the Ets site mutation had no effect Fig3D. These experiments indicated that activation of the ICAM-1 promoter in MKN45 cells in response to H. pylori stimulation required an intact binding site for NF- κB. Stimulation with H. pylori induces a single predominant κB binding complex.Transient transfection experiments with wild-type and mutant ICAM-1 promoter/luciferase reporter gene constructs indicated that the NF-κB site is essential for activation by H. pylori in MKN45 cells. To determine whether the increase in ICAM-1 expression seen in H. pylori-stimulated gastric epithelial cells was related to an alteration of NF-κB DNA binding activity, nuclear extracts from gastric epithelial cells were prepared, and EMSA was performed using the ICAM-1 promoter NF-κB element as a probe. Figure 4A shows the results for MKN45 cell nuclear extracts. Control MKN45 cell nuclear extracts contained little activated NF-κB Fig 4A, lane 1. A single κB binding complex was observed in MKN45 cells after stimulation withH. pylori Fig 4A. Infection of KATO III and AGS cells with H. pylori resulted in NF-κB activation similar to that observed in MKN45 cells data not shown. NF-κB activation was first evident at 30 min Fig 4A, lane 3 and appeared to be maximal at 1 h afterH. pylori infection Fig 4A, lane 4. The levels of active NF-κB in nuclear extracts prepared from MKN45 cells after 2 h of exposure to H. pylori culture supernatants were similar to those in the control data not shown. The specificity of this inducible κB-binding factor was confirmed by competition analysis with unlabeled oligonucleotides containing the ICAM-1 NF-κB site, the IL-2R α gene NF-κB site, or an ICAM-1 NF-κB site with a point mutation. NF-κB proteins appeared to mediate this H. pylori-induced binding, <\connective form=since text=since id=F607_FULL6_12.txt.raw_92 relation=Cause\> unlabeled wild-type ICAM-1 Fig 4B, lane 3 or IL-2R α κB lane 4, but not a mutant κB oligonucleotide lane 5, effectively competed for binding to the NF-κB complex. To identify the subunit composition of the NF-κB DNA binding complex, antibodies to NF-κB family members p65, c-Rel, p50, and p52 were preincubated with the nuclear extracts from MKN45 cells and used in supershift analysis Fig 4C. Anti-p65 <\connective form=specifically text=specifically id=F607_FULL6_12.txt.raw_269 relation=Asynchronous\> recognized the stimulated κB-DNA binding complex, resulting in supershifted complexes Fig 4C, lane 4. Preincubation with anti-c-Rel or anti-p52 did not affect the κB binding complex Fig 4C, lanes 5 and 6, but preincubation with anti-p50 resulted in the formation of a partially supershifted complex Fig 4C, lane 3. These results suggest that in MKN45 cells, an NF-κB p65–p50 heterodimer, and possibly a p65 homodimer, is rapidly induced in response to H. pylori infection. The NF-κB site is sufficient to mediate cagPAI+ strain-induced gene activation.Since it has been previously shown that cag PAI+ strains induce significantly more IL-8 mRNA and protein than do cagPAI− strains 8, 10,32, we sought to ascertain whether the difference between the abilities of differentH. pylori strains to induce ICAM-1 expression was related to their abilities to activate NF-κB Fig5A. NF-κB DNA binding activity was markedly induced by cag PAI+ H. pylori strains Fig 5A, lanes 2, 3, and 5 compared to the cag PAI− strain lane 4. To further determine whether the NF-κB site was sufficient for activation by H. pylori, a reporter construct driven by an NF-κB element was compared Fig 5B. The construct κB-LUC, which contains five tandem repeats of the NF-κB site, was markedly stimulated by cag PAI+ H. pylori strains, whereas infection of MKN45 cells with a cagPAI− strain resulted in only a slight increase in reporter activity Fig 5B. These results demonstrate that the NF-κB site is sufficient for cag PAI-specific activation of H. pylori- induced ICAM-1 gene expression. Degradation of IκB-α by H. pylori. Since signal-induced proteolytic degradation of IκB-α precedes the appearance of NF-κB DNA binding activity, we determined whether IκB-α was degraded in MKN45 cells that were stimulated by H. pylori. Kinetic analysis of H. pylori-induced degradation of IκB-α in MKN45 cells revealed a delayed loss of IκB-α which was maximal at 30 min, followed by restoration of IκB-α levels to those of unstimulated MKN45 cells after 3 h of culture Fig 6A. Induction of IκB-α mRNA expression in MKN45 cells by H. pylori. It is possible that H. pylori suppressed the transcription of the IκB-α gene. It has been reported that transcription of the IκB-α gene is regulated by the NF-κB binding site in the promoter and is activated by NF-κB p65 or c-Rel as part of a negative feedback loop 24. To examine whetherH. pylori induces IκB-α, we carried out Northern analysis on IκB-α mRNA from MKN45 cells stimulated with H. pylori. MKN45 cells were cultured with H. pylori or in medium alone, and total RNA was extracted at 1, 2, 6, and 24 h. Induction of IκB-α mRNA by H. pylori was observed at 1 h and was maximal at 2 h, decreasing <\connective form=thereafter text=thereafter id=F607_FULL6_12.txt.raw_41 relation=Asynchronous\> Fig 6B. These results clearly indicate that the decrease in IκB-α protein induced by H. pylori resulted not from suppression of transcription but from modulation of posttranscriptional events, probably at the protein level. Cumulatively, these results indicate that H. pylori activates MKN45 cells, as reflected by a loss of IκB-α protein and upregulation of its mRNA. Inhibition of NF-κB activation reduces ICAM-1 expression in response to H. pylori infection.PDTC potently inhibits NF-κB activation and/or NF-κB interaction with its upstream regulatory binding site, <\connective form=thereby text=thereby id=F607_FULL6_12.txt.raw_39 relation=Cause\> preventing NF-κB-mediated transcriptional activation 5, 21, 28, 38. We used PDTC to show a link between NF-κB activation and upregulation of ICAM-1 expression in H. pylori-infected MKN45 cells. As shown in Fig 7, PDTC treatment markedly inhibitedH. pylori-induced cell surface expression of ICAM-1 92 inhibition by 100 μM PDTC. <\connective form=however text=However id=F607_FULL6_12.txt.raw_116 relation=Contrast\>, PDTC had no effect on the viability of MKN45 cells data not shown. H. pylori infection of epithelial cells increases leukocyte adhesion.MKN45 cells were infected for 6 h withH. pylori. THP-1 cells, PBMCs, or purified neutrophils were used as leukocytes for adhesion experiments. The cells were fluorescently labeled and added to uninfected or 6-h-H. pylori- infected MKN45 cells, and after 30 min, the adherence of the leukocytes was measured. As shown in Fig8A, H. pylori significantly increased the adhesion of THP-1 cells, PBMCs, and purified neutrophils to MKN45 cells 11.8-, 5.8-, and 5.8-fold, respectively compared with adhesion to MKN45 cells cultured in medium alone. Neutrophils were treated with an anti-CD18 MAb, an anti-CD54 MAb, or a control IgG1 before addition to H. pylori- infected MKN45 cells, and the amount of adhesive cells was measured under these conditions. As shown in Fig 8B, the anti-CD18 MAb and the anti-CD54 MAb significantly decreased the adhesion of neutrophils to H. pylori- infected MKN45 cells, <\connective form=whereas text=whereas id=F607_FULL6_12.txt.raw_236 relation=Contrast\> the control IgG1 did not. 



ICAM-1 is one of several cell adhesion molecules that belong to the immunoglobulin superfamily and serve as ligands for the β2 integrins, lymphocyte function-associated antigen-1 LFA-1, <\connective form=also text=also id=F607_FULL6_12.txt.raw_268 relation=Conjunction\> referred to as CD11a/CD18, and Mac-1 CD11b/CD18. In contrast to LFA-1, which is constitutively expressed on leukocytes, ICAM-1 is an inducible cell surface glycoprotein expressed at a low level on a wide variety of cells, including leukocytes, vascular endothelium, fibroblasts, and certain epithelial cells. <\connective form=however text=However id=F607_FULL6_12.txt.raw_117 relation=Contrast\>, ICAM-1 expression is dramatically increased at sites of inflammation, providing important means of regulating cell-cell interactions and thereby presumably inflammatory responses. The function and indeed the importance of leukocyte adhesion in the generation and maintenance of inflammation have been demonstrated in numerous animal experimental systems using blocking MAbs directed against ICAM-1 as well as ICAM-1 knockout mice. Researchers in several laboratories have demonstrated the expression of ICAM-1 in chronic gastritis associated with H. pylori in vivo 12, 16, 17. <\connective form=however text=However id=F607_FULL6_12.txt.raw_118 relation=Contrast\>, the mechanism whereby H. pylori induces the expression of ICAM-1 remains largely unknown. This study was <\connective form=therefore text=therefore id=F607_FULL6_12.txt.raw_263 relation=Cause\> designed to evaluate ICAM- 1 expression on gastric epithelial cells exposed to H. pylori in vitro. First, we observed that H. pylori stimulated significant increases in steady-state mRNA levels and cell surface expression of ICAM-1 in gastric epithelial cells. Next, we investigated the molecular mechanisms by which ICAM-1 gene expression is regulated upon the exposure of gastric epithelial cells to H. pylori strains. TNF-α- and gamma interferon IFN-γ-induced activation of ICAM-1 have been reported to require different transcription factors. Hou et al 18 and Ledebur and Parks 25 demonstrated that TNF-α- induced activation of the ICAM-1 promoter required a variant NF-κB site, 178 to 187 nucleotides upstream of the transcription start site. In contrast, Look and coworkers 26 demonstrated that the IFN-γ response element located at nucleotides −76 to −66 of the ICAM-1 5′-flanking region conferred IFN-γ responsiveness. The IFN-γ-induced DNA binding complex contained STAT1α 18. The data presented here indicate that the NF-κB binding sequence in the ICAM-1 promoter is required for H. pylori-induced ICAM-1 upregulation, <\connective form=whereas text=whereas id=F607_FULL6_12.txt.raw_237 relation=Contrast\> the IFN-γ response element was not essential cag PAI+ strains, unlike cagPAI− strains, provoke potentially damaging inflammatory responses in infected host tissue and induce the synthesis of IL-8 in gastric biopsy specimens and cultured cells 8, 10, 32. Our study shows that the NF-κB p50–p65 heterodimer is activated in gastric epithelial cells in response to PAI+ strains ofH. pylori. Compared to a cag PAI− H. pylori strain, the more-virulent cagPAI+ strains showed an enhanced ability to induce NF-κB binding activity, paralleling observations that increased ICAM-1 induction in MKN45 cells was cag PAI+ strain specific. Along these lines, increased IL-8 expression in epithelial cells in response to cag PAI+ H. pylori strains may result from increased NF-κB binding to the IL-8 promoter 33. H. pylori infection of the gastric epithelium, <\connective form=therefore text=therefore id=F607_FULL6_12.txt.raw_264 relation=Cause\>, utilizes similar mechanisms to regulate the orchestrated production of ICAM-1 and IL-8. Like many other NF-κB activators, H. pylori induced the degradation of IκB- α in gastric epithelial cells. Degradation of IκB-α in H. pylori-induced epithelial cells was associated with translocation of NF-κB and increased levels of IκB-α mRNA. Activated NF-κB was evident within 30 min of bacterial infection and was pronounced at 1 h. These findings are consistent with the NF-κB activation observed in H. pylori-infected epithelial cells before ICAM-1 mRNA levels are increased, followed in turn by increased cell surface ICAM-1 expression. Furthermore, the blocking of NF-κB activation by PDTC markedly inhibited cell surface ICAM-1 expression after H. pylori infection. These findings suggest that NF-κB activation may be a necessary prerequisite for increased epithelial-cell ICAM-1 expression in response to bacterial infection by H. pylori. Our experiments using cell-free H. pylori culture supernatants suggest that the activation of ICAM-1 expression in gastric epithelial cells might not be mediated by a soluble product released from the bacterium. Other investigators have reported that direct contact with live H. pylori is indispensable for IL-8 production by gastric epithelial cells 1, 22. Expression of ICAM-1 was upregulated in vitro by inflammatory cytokines, including IL-1 and TNF-α 20, 23, 25, 36. These inflammatory cytokines increase in the gastric mucosa of patients with chronic gastritis associated with H. pylori. <\connective form=therefore text=Therefore id=F607_FULL6_12.txt.raw_265 relation=Cause\>, these cytokines produced in response to H. pylori infection may participate in the expression of this cell adhesion molecule. <\connective form=however text=However id=F607_FULL6_12.txt.raw_119 relation=Contrast\>,H. pylori could not induce the production of IL- 1 or TNF-α by MKN45 cells data not shown. <\connective form=thus text=Thus id=F607_FULL6_12.txt.raw_244 relation=Cause\>, gastric epithelial cells expressed ICAM-1 only through direct infection with H. pylori in vitro. The finding that H. pylori is a potent activator of NF-κB has important implications, <\connective form=since text=since id=F607_FULL6_12.txt.raw_95 relation=Cause\> other NF-κB-responsive genes, including those encoding IL-8, TNF-α, IL-1, and IL-6, have been found to be elevated in the gastric mucosa of persons with H. pylori 9, 11, 13, 30. H. pylori-induced NF-κB activation and the subsequent upregulation of ICAM-1 and cytokines could contribute to inflammatory-cell recruitment and retention at sites of infection. Because of its pivotal role in inflammation, NF-κB will be an obvious target for new types of anti-inflammatory treatments for H. pylori- induced gastritis. Blocking the activation of NF-κB, as by use of PDTC, may prevent the early events in the inflammatory cascade, decreasingH. pylori- induced inflammation and subsequent gastric injury. In conclusion, we showed that H. pylori is able to directly induce epithelial ICAM-1 expression, which mediates the adhesion of leukocytes to epithelium and may be important in the initiation and maintenance of gastric inflammation in H. pylori gastritis.