Proteinase 3 PR3;3 EC 3.4.21.76 is a 29-kDa serine proteinase with a high degree of homology to human leukocyte elastase HLE; EC 3.4.21.37 and cathepsin G Cat G; EC 3.4.21.20 1. PR3 exhibits many biological activities, including the degradation of extracellular matrix proteins 2, regulation of myeloid differentiation 3, 4, enhancement of TNF-α and IL-1β release by human monocytic cell lines 5 and IL-8 and MCP-1 production by human endothelial cells 6, 7, and antibacterial activity 8. These findings suggest that cell-bound and soluble PR3 actively contribute to inflammatory processes. In experimental models, PR3 caused severe tissue damage 1, and the cytotoxic effects of PR3 on endothelial cells are partially mediated by apoptosis 9. PR3 is mainly stored in azurophil granules of neutrophils and is <\connective form=also text=also id=F814_FULL6_12.txt.raw_412 relation=Conjunction\> generated by monocytes, basophils, and mast cells 10. Recently, human renal tubular epithelial cells were reported to express PR3 11, 12. In contrast, Brouwer et al 13 reported that PR3 detected in renal tissue was originally derived from neutrophils, and renal cells merely took up the released PR3. Therefore, it is still controversial whether or not PR3 is produced by nonhemopoietic cells 14, 15. Anti-neutrophil cytoplasmic Abs ANCA were first described in 1982 by Davies et al 16 in patients with necrotizing glomerulonephritis. ANCA is an autoantibody directed against the enzymes located in the primary granules of neutrophils and lysosomes of monocytes. PR3 is a major target Ag of ANCA in Wegener’s granulomatosis WG, a debilitating autoimmune disease characterized by necrotizing vasculitis 10, 17. Since then, ANCA have been detected in relation to a wide range of inflammatory, infectious, and neoplastic conditions 18, 19, 20, 21. Novo et al 22, 23 described a high rate of occurrence of ANCA in serum of patients with periodontal disease. In contrast, Hattar et al 12 reported that PR3 was detected in human renal tubular epithelial cells treated with TNF-α, and the primed cells responded to anti-PR3 Abs with activation of the phosphoinositide-related signal transduction pathway. Protease-activated receptor PAR family members are G protein-coupled receptors characterized by a proteolytic cleavage of the N terminus that exposes tethered ligands and autoactivates the receptor function, and <\connective form=therefore text=therefore id=F814_FULL6_12.txt.raw_409 relation=Cause\>, certain proteinases activate cells through the PAR family 24, 25, 26. Recently, we demonstrated that PR3 activates human epithelial and nonepithelial cells via the PAR-2 pathway 27, 28. Taken the above findings all together into consideration, we hypothesized that anti-PR3 Abs might activate inflamed oral epithelial cells bearing endogenous PR3 through the PAR-2 pathway. To test this hypothesis, we first examined whether oral epithelial cells express and produce PR3 upon stimulation with various proinflammatory cytokines. We demonstrated that proinflammatory cytokines induced expression of PR3 mRNA in oral epithelial cells in culture and PR3 protein with enzymatic activity on the cell surface and in the culture supernatants of the cells. <\connective form=then text=Then id=F814_FULL6_12.txt.raw_86 relation=Asynchronous\> we investigated the possibility that anti-PR3 Abs induce the production of chemokines IL-8 and MCP-1 by the epithelial cells through the PAR-2 pathway. 

Purified human PR3 and rabbit anti-human PR3 polyclonal Abs were obtained from Elastin Products Owensville, MO. Mouse anti-human PR3 mAb CLB-12.8 was obtained from CLB Amsterdam, The Netherlands. Phospholipase C PLC inhibitor U73122, its control compound U73343, and an NF-κB inhibitor, pyrrolidine dithiocarbamate PDTC, were obtained from Calbiochem-Novabiochem La Jolla, CA. Human natural IFN-α and IFN-γ were kindly provided by Hayashibara Biochemical Laboratories Okayama, Japan. Natural IFN-β was provided by Toray Tokyo, Japan. Human rIL-1α and rTNF-α were supplied by Dainippon Pharmaceutical Osaka, Japan. An ultrapurified LPS from Salmonella enterica serovar Abortus-equi 29 was a gift from C. Galanos Max Plank Institut für Immunbiologie, Freiburg, Germany. A low toxic serine proteinase inhibitor, Pefabloc SC, and a cysteine proteinase inhibitor, E-64, were obtained from Roche Diagnostics Indianapolis, IN. Recombinant human secretory leukocyte protease inhibitor SLPI was purchased from R&D Systems Minneapolis, MN. Nonenzymatic cell dissociation solution CDS was obtained from Sigma-Aldrich St Louis, MO. PAR-1 agonist peptide PAR-1AP; SFLLRN and PAR-2 agonist peptide PAR-2AP; SLIGKV were synthesized by Takara Shuzo Otsu, Japan. All other reagents were obtained from Sigma-Aldrich, unless otherwise indicated. 

Human oral epithelial cell lines HSC-2 30, HO-1-u-1 31, and KB 32, established from squamous cell carcinoma, were obtained from the Cancer Cell Repository, Institute of Development, Aging and Cancer, Tohoku University Sendai, Japan. A human colon adenocarcinoma cell line SW620 CCL-227 and a human cervical epitheloid carcinoma HeLa JCRB9004 were obtained from the American Type Culture Collection Rockville, MD and Health Science Research Resources Bank Osaka, Japan, respectively. HSC-2, HO-1-u-1, SW620, and HeLa were grown in RPMI 1640 with 10 FCS Invitrogen Life Technologies, Grand Island, NY, and KB cells were grown in α-MEM with 10 FCS. Human PBMCs from heparinized 10 U/ml peripheral venous blood of a healthy volunteer were isolated by Lympholyte-H Cedarlane Laboratories, Hornby, Canada gradient centrifugation, as described previously 33. 

Total cellular RNA was obtained using Isogen Nippon Gene, Tokyo, Japan and reverse transcripted using random hexamer primers and avian myeloblastosis virus reverse-transcriptase XL Life Sciences, St Petersburg, FL, as described previously 27. The primers used for PCR were as follows: PR3, forward, 5′-ATCGTGGGCGGGCACGAGGCG-3′, and reverse, 5′-GCGGCCAGGGACGAAAGTGCA-3′ 7; HLE, forward, 5′-AGTGCCTGGCCATGGGCTGG-3′, and reverse, 5′-CACCGGGGCAAAGGCATCGG-3′ 34; Cat G, forward, 5′-TGAGAGTGCAGAGGGATAGG-3′, and reverse, 5′-CAGGAAACTTGAGACCCTGG-3′ 34; plasminogen activator, forward, 5′-ATGACAGAGGATTCAGGTAC-3′, and reverse, 5′-GAAGGTGAAGTCATTGAAGA-3′; chymotrypsin-like enzyme, forward, 5′-CTTCTGCGGTGGTTCTCTCAT-3′, and reverse, 5′-GAGCACGGTCCCACTGAG-3′; trypsin, forward, 5′-CTCATCAGCGAACAGTGG-3′, and reverse, 5′-TTGGTGTAGACTCCAGGC-3′; PAR-2, forward, 5′-GCAGCCTCTCTCTCCTGCAGTGG-3′, and reverse, 5′-CTTGCATCTGCTTTACAGTGCG-3′ 35; and GAPDH, forward, 5′-TGAAGGTCGGAGTCAACGGATTTGGT-3′, and reverse, 5′-CATGTGGGCCATGAGGTCCACCAC-3′ 36. The primers for PR3, HLE, Cat G, plasminogen activator, chymotrypsin-like enzyme, trypsin, PAR-2, and GAPDH were designed to generate fragments of 662, 257, 216, 150, 468, 538, 1066, and 983 bp, respectively. PCR was performed for 35 cycles for 1 min at 94°C, 1 min at 55°C for HLE, Cat G, trypsin, and PAR-2; at 60°C for PR3 and GAPDH; and at 64°C for plasminogen activator and chymotrypsin-like enzyme; and 1 min at 72°C. Amplified samples were visualized on 2.0 agarose gels stained with ethidium bromide and photographed under UV light. The bands on the photographs were scanned and <\connective form=then text=then id=F814_FULL6_12.txt.raw_87 relation=Asynchronous\> analyzed using an Image Master 1D Pharmacia Biotech, Uppsala, Sweden. The results are expressed as relative mRNA accumulation corrected with reference to GAPDH mRNA as an internal standard. 

Flow cytometric analyzes were performed using a FACScan cytometer BD Biosciences, Mountain View, CA. Oral epithelial cells were stimulated with or without cytokines or LPS for up to 2 h at 37°C. <\connective form=after text=After id=F814_FULL6_12.txt.raw_123 relation=Asynchronous\> the incubation, cells were collected by nonenzymatic CDS and washed in PBS. Cells were stained with anti-PR3 polyclonal Ab at 4°C for 30 min, followed by FITC-conjugated swine anti-rabbit IgG DakoCytomation, Kyoto, Japan at 4°C for a further 30 min. 

Cell-free supernatants were precipitated with 10 TCA for 30 min at 4°C. <\connective form=after text=After id=F814_FULL6_12.txt.raw_124 relation=Asynchronous\> centrifugation at 13,000 × g for 30 min, pellets were washed in acetone. Oral epithelial cells were collected by CDS and washed three times with PBS. The precipitated culture supernatants equivalent to 3 × 105 cells each and cell pellets 3 × 105 cells each were solubilized with Laemmli sample buffer 37, and subjected to Western blotting using rabbit anti-human PR3 polyclonal Ab, as described previously 33. 

For the quantification of plasma membrane damage, lactate dehydrogenase LDH activity in the epithelial cell culture supernatants treated with cytokines was measured with a cytotoxicity detection kit Roche Diagnostics, according to the manufacturer’s instructions, as described previously 33. 

Cell membrane fractions were prepared by Dounce homogenization, as described previously 33. Amidolytic activities of proteinases in culture supernatants and membrane fractions of oral epithelial cells were assayed at 25°C for 10–60 min with 0.625 mM Boc-Ala-p-nitrophenyl ester Boc-Ala-ONp; Bachem, Bubendorf, Germany in 0.1 M HEPES buffer containing 0.1 M NaCl, 10 mM CaCl2, 0.005 Triton X-100, and 5 DMSO, pH 7.5. The liberation of p-nitrophenol was monitored at 405 nm using the Softmax data analysis program Molecular Devices, Menlo Park, CA. One unit of enzymatic activity was defined as the amount that liberated 1 μmol of p-nitrophenol from the substrate per minute at 25°C. To inhibit the enzymatic activities, test specimens were preincubated with different concentrations of inhibitors for 30 min before use. 

Confluent oral epithelial cells were collected by CDS and washed three times in PBS. The cells 104 cells/200 μl were seeded in culture medium in 96-well plates Falcon; BD Discovery Labware, Lincoln Park, NJ. After incubation for 1 day at 37°C in a 5 CO2 incubator, the cells were stimulated with anti-PR3 Abs or LPS in 200 μl of the medium without serum for a given period. Cultivation was conducted in triplicate, and levels of IL-8 and MCP-1 in the supernatants were measured using OptEIA ELISA kits BD Pharmingen, San Diego, CA. The concentrations of the cytokines in the supernatants were determined using the Softmax data analysis program Molecular Devices. Calcium mobilization Confluent oral epithelial cells were collected by nonenzymatic CDS, washed twice with PBS, and suspended at 2 × 106 cells/ml in an extracellular medium EM; 121 mM NaCl, 5.4 mM KCl, 0.8 mM MgCl2, 1.8 mM CaCl2, 6 mM NaHCO3, 5.5 mM glucose, 25 mM HEPES, 0.1 w/v BSA, pH 7.3. Cells were loaded with 1 μM fura 2-AM Molecular Probes, Eugene, OR with shaking for 30 min at room temperature. After being washed with EM, loaded cells suspended at 2 × 106 cells/ml in EM without BSA were transferred to stirred quartz cuvettes in a CAF-100 spectrofluorometer Jasco, Tokyo, Japan at 37°C. Fura 2 fluorescence was measured at 340- and 380-nm excitation and 510-nm emission, and the ratio of the fluorescence at the two excitation wavelengths, which is proportional to Ca2+i, was calculated. 

Transfection for targeting endogenous PAR-2, PR3, and Lamin A/C was conducted using Lipofectamine 2000 Invitrogen Life Technologies and small interfering RNA siRNA final concentration, 200 nM, according to the manufacturer’s instructions. The sequence of the target for PAR-2 and PR3 mRNA used in this study was 5′-AAAGAGCTTCCCCATAAATCC-3′ and 5′-AACCTCAGTGCGTCCGTCACC-3′, respectively, and siRNA for PAR-2 and PR3 were synthesized and purified by Silencer siRNA Construction Kit Ambion, Austin, TX. siRNA of Lamin A/C-targeted 5′-CTGGATTTCCAGAAGAACA-3′ was purchased from B-Bridge International San Jose, CA. 

Activated NF-κB was measured with an NF-κB assay kit specific for the p65 subunit, according to the manufacturer’s instructions Active Motif, Carlsbad, CA. Briefly, samples of whole cell extracts 1–10 μg of protein/well were added to 96-well plates coated with an oligonucleotide containing the NF-κB consensus site 5′-GGGACTTTCC-3′, and incubated for 1 h at room temperature with mild agitation. After washing three times, NF-κB p65 Ab was added and incubated for 1 h without agitation, followed by addition of HRP-conjugated anti-mouse IgG1. Colorimetric reactions were developed, stopped, and measured at 450 nm. The specificity of binding was <\connective form=also text=also id=F814_FULL6_12.txt.raw_413 relation=Conjunction\> examined using an oligonucleotide containing a wild-type or mutated NF-κB consensus binding site. 

Human gingival tissues were obtained with informed consent from five adult periodontitis patients undergoing periodontal surgery. Immunohistochemistry was conducted, as follows. Tissues were fixed in periodate-lysine-4 paraformaldehyde for 4 h at 4°C. <\connective form=after text=After id=F814_FULL6_12.txt.raw_128 relation=Asynchronous\> washing in PBS containing sucrose, fixed tissues were embedded in OCT compound Sakura, Tokyo, Japan, and immediately frozen. Six-micrometer frozen tissue sections were incubated with rabbit anti-human PR3 polyclonal Ab or anti-human integrin β2 CD18 mAb P4H9 mouse IgG3 Santa Cruz Biotechnology, Santa Cruz, CA overnight at 4°C. After that, sections were treated with secondary Abs such as the goat anti-rabbit Envision +/HRP kit or goat anti-mouse Envision +/HRP kit DakoCytomation. The chromogen used was 3′,3-diaminobenzidine tetrahydrochloride DakoCytomation. The sections were counterstained with hematoxylin. As a negative control, rabbit Ig or mouse Ig DakoCytomation was used. Double enzyme-linked immunohistochemistry was performed, as follows. First, anti-PR3 polyclonal Ab was applied overnight with the goat anti-rabbit Envision +/HRP kit. The chromogen used was 3′,3-diaminobenzidine tetrahydrochloride. Then anti-integrin β2 mAb was applied overnight, followed by application of goat anti-mouse Envision +/HRP kit. The chromogen in this second system was TrueBlue Kirkegaard & Perry Laboratories, Gaithersburg, MD. After drying, the specimens were mounted. As negative controls, rabbit and mouse control Abs were used in each step of double immunohistochemistry. The Ethical Review Board of Tohoku University Graduate School of Dentistry Sendai, Japan approved the experimental procedures. 

Oral epithelial HSC-2 cells were cultured on eight-chamber glass slides Falcon until confluent and treated with TNF-α 10 ng/ml for 2 h, washed three times with PBS, and incubated with rabbit anti-human PR3 polyclonal Ab for the time indicated at 37°C in a 5 CO2 incubator. After fixation with 4 paraformaldehyde for 15 min at room temperature, cells were treated with anti-human PAR-2 mAb mouse IgG2a 1/500; Santa Cruz Biotechnology for 2 h at room temperature without permeabilizing. As a control, HSC-2 cells were treated with or without TNF-α for 2 h, and fixed with 4 paraformaldehyde for 15 min at room temperature, and anti-PR3 polyclonal Ab and anti-PAR-2 mAb for 2 h at room temperature. Samples were <\connective form=then text=then id=F814_FULL6_12.txt.raw_89 relation=Asynchronous\> washed and incubated with Alexa Fluor 546 goat anti-rabbit IgG and Alexa Fluor 488 goat anti-mouse IgG2a 1/400; Molecular Probes. Nuclei were visualized by staining with 4′,6-diamidino-2-phenylindole Molecular Probes. Samples were photographed with a Leica DC 200 cooled charge-coupled device camera mounted on a Leica DMR microscope using the application Leica Qfluoro system Leica Microsystems, Solms, Germany. 

All experiments in this study were performed at least three times to confirm the reproducibility of the results. In most experiments, values are represented as means ± SD of triplicate assays. The statistical significance of differences between the two means was evaluated by one-way ANOVA using the Bonferroni or Dunnett method, and values of p < 0.05 were considered to be significant. 

We first examined by RT-PCR whether human oral epithelial cells express PR3 mRNA. Untreated human oral epithelial HSC-2, KB, and HO-1-u-1 cells did not express PR3 mRNA, and expression of PR3 mRNA was clearly induced after treatment with proinflammatory cytokines such as IL-1α, TNF-α, IFN-α, IFN-β, and IFN-γ for 2 h Fig 1A. <\connective form=however text=However id=F814_FULL6_12.txt.raw_136 relation=Contrast\>, treatment with LPS did not induce PR3 mRNA expression in oral epithelial cells. Significant induction of PR3 mRNA expression was observed in a concentration-dependent manner <\connective form=when text=when id=F814_FULL6_12.txt.raw_135 relation=Synchronous\> the cells were treated with these cytokines for 2 h, and the optimum concentration was 10 ng/ml IL-1α and TNF-α, and 1000 IU/ml IFN-α, IFN-β, and IFN-γ Fig 1B. Treatment with the cytokines for 1 h was not sufficient for PR3 expression in HSC-2 cells, whereas following the cytokine treatments for 2 h, the cells strongly expressed PR3 mRNA Fig 1C. As maximal PR3 expression was noted after 2-h treatment with the above concentrations of reagents, the subsequent experiments were performed under these conditions. In contrast to PR3 mRNA, the mRNAs of two other neutrophil serine proteinases, HLE and Cat G, were not induced by the cytokines in three oral epithelial cell lines, whereas PBMCs used as a positive control showed clear bands of the expected size Fig 1D, and data not shown. 

We next examined the cell surface expression of PR3 by flow cytometry. Consistent with the results of RT-PCR, unstimulated and LPS-treated HSC-2 cells did not express PR3 on the cell surface, whereas treatment with IL-1α, TNF-α, IFN-α, IFN-β, or IFN-γ caused a marked increase in the expression of PR3 on the cell surface Fig 2A. KB and HO-1-u-1 cells showed similar results data not shown. The induction of PR3 expression by these cytokines was detected at 30 min of incubation, and reached a plateau at 2 h Fig 2B, and data not shown. Furthermore, immunoblot analysis showed that 29-kDa PR3 protein was detected in the cell lysates and culture supernatants of the cytokine-treated HSC-2 cells; this is the same molecular mass as that of purified PR3 Fig 2C. KB and HO-1-u-1 cells showed the same results data not shown. LDH assays showed that no LDH activity was detected in the supernatants upon stimulation with cytokines, indicating that the epithelial cell membrane was not damaged by the cytokine treatment Fig 2D. These results suggest that PR3 is induced on the cell surface of oral epithelial cells and secreted by the cells in response to proinflammatory cytokines. We next examined whether the PR3 of oral epithelial cells induced by proinflammatory cytokines had enzymatic activity using Boc-Ala-ONp as a substrate 2. As shown in Fig 3A, the culture supernatants of TNF-α-treated cells showed substantial enzymatic activity. The enzymatic activities of the culture supernatants and cell membrane fractions were 0.3 U and 2.9 U/105 cells, respectively, and the enzymatic activity was significantly inhibited by a low toxic sulfonyl fluoride-type serine proteinase inhibitor, Pefabloc SC, at 4 μM, and a naturally occurring serine proteinase inhibitor, α1-antitrypsin α1-AT, at 1 μg/ml 0.02 μM Fig 3, B and C, as reported previously 6, 27, 28, 38. By contrast, treatment with a high dose of a cysteine proteinase inhibitor, E-64 up to 100 μM, did not inhibit the enzymatic activity of the culture supernatants or membrane fractions. Furthermore, SLPI, which inhibits HLE and Cat G, but not PR3 2 up to 20 μM, did not influence the enzymatic activity. In addition, oral epithelial cells used in this study did not express mRNAs of other serine proteases such as plasminogen activator, chymotrypsin-like enzyme, and trypsin Fig 3D, which are reported to be expressed in epithelial cells 39, 40, 41. Intestinal SW620 cells and crevicular HeLa cells were used as positive controls. These results suggest that the enzymatic activity derived from oral epithelial cells is due to PR3. The enzymatic activity of the culture supernatant and membrane fractions induced by other cytokines IL-1α, IFN-α, IFN-β, and IFN-γ showed the same results data not shown. 

We next examined whether the addition of anti-PR3 Abs caused cellular activation. <\connective form=although text=Although id=F814_FULL6_12.txt.raw_51 relation=Contrast\> nonprimed oral epithelial cells were not activated by anti-PR3 Abs data not shown, anti-PR3 Abs provoked marked production of IL-8 and MCP-1 by TNF-α-pretreated oral epithelial cells, whereas comparable amounts of control IgG and LPS were completely ineffective Fig 4A. Anti-PR3 Abs from two different sources showed the same results. Consistent with the results in Fig 3, B and C, the activation induced by anti-PR3 Abs was significantly inhibited by α1-AT and Pefabloc, but not SLPI or E-64 Fig 4B, indicating that the enzymatic activity of PR3 is required for the anti-PR3-mediated cell activation. 

As we recently showed that PR3 activates oral epithelial cells through PAR-2 27, we next examined whether the cell activation triggered by anti-PR3 Ab occurs through PAR-2. Ca2+ mobilization in the cytokine-primed KB cells was measured after exposure to anti-PR3 Abs from different sources, exogenous PR3, trypsin, or synthetic PAR agonist peptides. Anti-PR3 Abs rapidly induced a Ca2+ response and abolished the response to a second application of PAR-2AP and exogenous PR3 Fig 5, A–C. Exogenous PR3, trypsin as a reference PAR-2-activating serine proteinase, and PAR-2AP rendered cells refractory to subsequent stimulation with anti-PR3 Abs Fig 5, D–F, <\connective form=while text=while id=F814_FULL6_12.txt.raw_354 relation=Contrast\> stimulation with PAR-1AP did not cause such an effect Fig 5G. HSC-2 and HO-1-u-1 cells showed the same results, <\connective form=although text=although id=F814_FULL6_12.txt.raw_52 relation=Contrast\> the Ca2+ mobilization was less pronounced than that in KB cells data not shown. These results clearly indicated that the anti-PR3 Ab-induced cell activation is mediated by PAR-2. To further confirm the involvement of PAR-2, we used siRNA to block the expression of PAR-2. Transfection of HSC-2 cells with PAR-2-specific siRNA resulted in inhibition of PAR-2 mRNA, but not GAPDH mRNA from 8 h up to 72 h of culture Fig 6A. In the transfected cells, anti-PR3 Ab-induced activation of primed oral epithelial cells was almost completely inhibited by PAR-2-specific siRNA Fig 6B. In common with many G protein-coupled receptors, the principal mechanism of PAR-mediated activation is through Gαq proteins, resulting in activation of PLC 24, 25, 26. To examine whether PLC is <\connective form=also text=also id=F814_FULL6_12.txt.raw_414 relation=Conjunction\> involved in the Ab-induced activation of oral epithelial cells, TNF-α-pretreated HSC-2 cells were treated with Abs in the presence of the PLC inhibitor U73122 or the control compound U73343 for 24 h. As shown in Fig 6C, the inhibition of PLC completely abolished the production of IL-8 and MCP-1 induced by anti-PR3 Abs. PAR-2AP was used as a positive control and showed the same results as those with anti-PR3 Abs Fig 6, B and C. Furthermore, PR3-specific siRNA blocked the expression of PR3 in the TNF-α-treated HSC-2 cells Fig 7A and subsequently inhibited anti-PR3 Ab-induced production of IL-8 and MCP-1 Fig 7B and Ca2+ mobilization Fig 7C, <\connective form=while text=while id=F814_FULL6_12.txt.raw_355 relation=Contrast\> PAR-2AP was still effective on the cells. Lamin A/C-specific siRNA was used as a negative control Fig 7, A and B. These results clearly indicated that endogenous PR3 was responsible for the anti-PR3 Ab-induced activation of PAR-2. It has been reported that agonists of PAR-2 induced activation of NF-κB in human dermal microvascular endothelial cells 42. As shown in Fig 8A, addition of anti-PR3 Abs clearly activated NF-κB in oral epithelial cells. TNF-α-induced surface expression of PR3 was not affected by treatment with PDTC, an inhibitor of NF-κB Fig 8B, <\connective form=but text=but id=F814_FULL6_12.txt.raw_113 relation=Contrast\> PDTC markedly reduced the production of IL-8 and MCP-1 induced by anti-PR3 Abs as well as PAR-2AP on oral epithelial cells Fig 8C. These results exclude the possibility that inhibition of NF-κB interfered with PR3 expression on oral epithelial cells and indicate that anti-PR3 Ab-induced activation of the cells involves NF-κB downstream of PAR-2 signaling. 

To elucidate the mechanism of anti-PR3-induced activation of PAR-2, we examined mobilization of PR3 and PAR-2 by immunostaining. Untreated HSC-2 cells express PAR-2, but not PR3 Fig 9A. Treatment with TNF-α induced expression of PR3 Fig 9B, which is consistent with the results of RT-PCR Fig 1 and flow cytometry Fig 2. Addition of anti-PR3 polyclonal Ab induced aggregation of PR3, which peaked at 15–30 min and decreased <\connective form=thereafter text=thereafter id=F814_FULL6_12.txt.raw_62 relation=Asynchronous\> Fig 9, C–F. The Ab treatment did not induce aggregation of PAR-2. These results indicated the aggregation of membrane-bound PR3 by anti-PR3 Ab is important for PAR-2 activation. 

Finally, we examined by immunohistochemistry whether human oral gingival tissues actually express PR3 protein. PR3 was scarcely expressed in the cryosections of slightly inflamed gingival tissue from adult periodontitis patients Fig 10A. In contrast, PR3 was diffusely expressed in prickle cell layer of the epithelium in the severely inflamed epithelial tissues Fig 10B. In high magnification of the section, PR3 was expressed in epithelial cells surrounded by intercellular bridge, and strongly in infiltrating segmented cells Fig 10C. Integrin β2 was expressed by infiltrating segmented cells, but not by epithelial cells Fig 10, D and E. Double staining demonstrated that the segmented cells were double positive, <\connective form=but text=but id=F814_FULL6_12.txt.raw_116 relation=Contrast\> the epithelial cells were positive for only PR3 Fig 10, F and G. In addition, infiltrating cells in subepithelial tissues were <\connective form=also text=also id=F814_FULL6_12.txt.raw_415 relation=Conjunction\> double positive Fig 10, B, D, and F. The results clearly showed that inflamed gingival epithelial cells as well as inflammatory segmented cells express RP3 in vivo. In this study, we clearly demonstrated that human oral epithelial cells express PR3 on the cell surface, secrete it into the supernatant under inflammatory conditions, ie, in the presence of IL-1α, TNF-α, IFN-α, IFN-β, or IFN-γ, and could be activated by Ab directed to the surface PR3, resulting in marked production of chemokines IL-8 and MCP-1 through PAR-2. The induction of membrane PR3 expression by cytokines such as TNF-α is a well-established phenomenon in neutrophils and monocytes, <\connective form=but text=but id=F814_FULL6_12.txt.raw_117 relation=Contrast\> the ability of nonhemopoietic cells to express PR3 has remained controversial PR3 was found histologically in tubular epithelial cells as well as endothelial cells in inflamed human kidneys in patients with WG 13 and glomerulonephritis 43, <\connective form=although text=although id=F814_FULL6_12.txt.raw_53 relation=Concession\> it was assumed that PR3 in these cells might be due to the property of the cells to take up cationic proteins. TNF-α levels were elevated during active phases and not detected in remission in WG 14, and transcription of the TNF-α gene in PBMCs of patients with systemic vasculitis and WG was enhanced compared with that in healthy blood donors 44. PR3 mRNA and protein were detected in kidney biopsies of distal tubules and glomerular epithelia by in situ hybridization techniques 11. Furthermore, some studies have demonstrated PR3 mRNA and surface protein expression in endothelial 14, 45, 46, 47, 48 and epithelial cells in culture 11, 12, 49 treated with TNF-α or IL-1α. Consistent with these observations, we first demonstrated that cytokine exposure results in surface expression and secretion of enzymatically active PR3 by oral epithelial cells Figs 2 and 3. In support of this, PR3 expression was clearly found in inflamed gingival epithelium of patients with adult periodontitis Fig 10. In this study, we used Boc-Ala-ONp as a substrate of serine protease including PR3 2, and enzymatic activities of culture supernatants and cell membrane fractions were inhibited by Pefabloc SC at 4 μM and α1-AT at 1 μg/ml 0.02 μM, but not by SLPI at 20 μM or E64 at 100 μM Fig 3. We previously showed that 1 μg/ml α1-AT inhibited 10 μg/ml 345 nM HLE, Cat G, and PR3, and 2 μM SLPI inhibited 10 μg/ml HLE and Cat G, but not PR3 27. It is reported that epithelial cells possess other serine proteases, such as plasminogen activator 39, chymotrypsin-like enzyme 40, and trypsin 41, and Boc-Ala-ONp cannot distinguish between different serine proteases. <\connective form=however text=However id=F814_FULL6_12.txt.raw_137 relation=Contrast\>, oral epithelial HSC-2, KB, and HO-1-u-1 used in this study did not express these epithelial serine proteases Fig 3D. These observations suggest that the enzymatic activity was due to PR3. To clarify this point, we blocked PR3 by RNA interference, and the results showed that PR3-specific siRNA inhibited anti-PR3 Ab-induced production of IL-8 and MCP-1 and Ca2+ mobilization Fig 7. In contrast, transfection of Lamin A/C-specific siRNA did not influence the expression of PR3 mRNA and anti-PR3 Ab-induced production of IL-8 and MCP-1 Fig 7, A and B. These results clearly indicated that endogenous PR3 was responsible for anti-PR3 Ab-induced activation of oral epithelial cells. Abbott et al 50 first described in 1989 that a mAb to neutrophil cytoplasmic Ag PR3 and WG sera bound to human cultured glomerular epithelial and endothelial cells as well as to HUVEC. These investigators concluded that the Ag recognized by the ANCA-positive sera is <\connective form=also text=also id=F814_FULL6_12.txt.raw_416 relation=Conjunction\> expressed on vascular surface structures, suggesting a direct pathogenic role of ANCA. This finding, together with the evidence that neutrophils are not necessarily the exclusive source of PR3, acted as an impetus for investigations of the interaction between endothelial Ags and ANCA. Thereafter, Mayet et al showed that binding of anti-PR3 Abs to TNF-α-treated endothelial cells led to a marked increase of neutrophil adhesion via induction of E-selectin 45, anti-PR3 Abs displayed lytic activity against endothelial cells treated with TNF-α 46, incubation of TNF-α-treated endothelial cells with anti-PR3 Abs led to a marked increase of endothelial VCAM-1 expression 47, and binding of anti-PR3 Abs to TNF-α-treated tubular epithelial cells led to a marked increase of adhesion molecules, ICAM-1 and VCAM-1 48, <\connective form=although text=although id=F814_FULL6_12.txt.raw_54 relation=Contrast\> the underlying mechanisms have remained unclear. As ANCA have been detected in a wide range of autoimmune diseases, tumors, inflammatory conditions, and infection, ANCA might be involved in many steps of inflammatory processes together with other mediators. Hattar et al 12 reported that the interaction of ANCA with human renal tubular epithelium contributes to the development of renal lesions associated with WG. In fact, Novo et al 22, 23 found that 75 of the sera of patients with adult periodontitis were positive for ANCA, <\connective form=while text=while id=F814_FULL6_12.txt.raw_356 relation=Contrast\> none of the healthy controls was positive. The present study showed that binding of anti-PR3 Abs to oral epithelial cells led to a marked increase of the production of chemokines IL-8 and MCP-1 Fig 4, suggesting that the expression of PR3 is induced on the membranes of oral epithelial cells by proinflammatory cytokines, <\connective form=and text=and id=F814_FULL6_12.txt.raw_312 relation=Conjunction\> that these cells may in turn become targets of circulating ANCA. Nonspecific complement-dependent activation of oral epithelial cells could be ruled out, <\connective form=because text=because id=F814_FULL6_12.txt.raw_357 relation=Cause\> all the experiments in this study were performed under serum-free conditions. As untreated oral epithelial cells, lacking PR3 surface expression, were not activated by anti-PR3 treatment, specific targeting of PR3 is a prerequisite for ANCA-mediated activation of these epithelial cells. Isotype-matched control IgG was not capable of eliciting oral epithelial signaling, suggesting that ligation of solely Fc IgGRs is not sufficient for inducing oral epithelial activation. <\connective form=therefore text=Therefore id=F814_FULL6_12.txt.raw_410 relation=Cause\>, the present study provides a possible mechanism for active interplay of ANCA with oral epithelial cells. Activation of cellular signal transduction pathways by anti-PR3 Abs has been described in neutrophils with activation of protein kinase C and tyrosine phosphorylation of numerous proteins in relation to the activation of the neutrophil respiratory burst by these autoantibodies 51. <\connective form=although text=Although id=F814_FULL6_12.txt.raw_55 relation=Concession\> some studies showed that anti-PR3 Abs interact with HUVEC 52 and renal epithelial cells 12, <\connective form=thereby text=thereby id=F814_FULL6_12.txt.raw_57 relation=Cause\> provoking pronounced activation of the phosphoinositide-related signal transduction pathway, the signaling pathway elicited by the anti-PR3 Abs has remained unclear. We have recently shown that human epithelial and nonepithelial cells are activated by PR3 through PAR-2, resulting in activation of PLC, which is a common pathway among G protein-coupled receptors, including PARs 27, 28. RNA interference targeted to PAR-2 mRNA and the intracellular Ca2+ mobilization assays shown in this study provided the first evidence that cross-linking of PR3 on the epithelial cell surface with anti-PR3 Abs activated PAR-2, and <\connective form=consequently text=consequently id=F814_FULL6_12.txt.raw_100 relation=Cause\> provoked the PAR-2 signaling pathway, initiating the activation of PLC Figs 5 and 6. Immunostaining demonstrated that PR3 and PAR-2 coexpressed on TNF-α-treated oral epithelial cells, <\connective form=and text=and id=F814_FULL6_12.txt.raw_320 relation=Conjunction\> that the addition of anti-PR3 polyclonal Ab induced aggregation of PR3, but not PAR-2, on the epithelial cells Fig 9. The results indicate that anti-PR3 Abs concentrated enzymatic activity of PR3 via aggregation, <\connective form=consequently text=consequently id=F814_FULL6_12.txt.raw_101 relation=Cause\> leading to activation of PAR-2. PAR-2 is present in many types of cells, including smooth muscle cells, stromal cells, and endothelial and epithelial cells 53. PAR-2 expression is significantly increased in asthmatic bronchial epithelium in comparison with normal epithelium 54. PAR-2 deficiency in mice attenuates allergic dermatitis 55, delays the onset of inflammation 56, and decreases eosinophil infiltration and hyperreactivity in allergic inflammation of the airway 57. These findings suggest that PAR-2 plays a crucial role in the regulation of inflammation. Chemokines represent a group of chemotactic cytokines that induce cellular locomotion. The total amount of IL-8 in gingival crevicular fluid GCF in adult periodontitis was significantly higher than that in GCF in clinically healthy gingiva 58, and MCP-1 expression was induced in GCF in adult periodontitis 59, and the chemokines in GCF were derived from gingival tissues and other sources, such as leukocytes. <\connective form=although text=Although id=F814_FULL6_12.txt.raw_56 relation=Concession\> there are no data concerning basal tissue amounts of IL-8 and MCP-1 in oral epithelium, it was reported that the IL-8 concentration in GCF in adult periodontitis is about twice that in GCF from healthy subjects 317 and 189 ng/ml, respectively 58. The present study showed that there was a ∼3-fold increase in production of IL-8 and MCP-1 from cytokine-primed oral epithelial cells by adding anti-PR3 Abs in vitro. Findings in in vitro confluent monolayer culture do not necessarily apply to in vivo stratified oral epithelium, <\connective form=but text=but id=F814_FULL6_12.txt.raw_121 relation=Contrast\> we could consider the findings using cultured cells to be a reflection of conditions in vivo especially in periodontitis patients, whose serum levels of ANCA are higher than those of healthy donors. In addition, activation of NF-κB is required for the production of both IL-8 and MCP-1 60. Agonists of PAR-2 induce IL-6 and IL-8 release and activation of NF-κB in human dermal microvascular endothelial cells 39. The present study <\connective form=also text=also id=F814_FULL6_12.txt.raw_417 relation=Conjunction\> showed that production of IL-8 and MCP-1 from oral epithelial cells caused by anti-PR3 Abs was mediated through activation of NF-κB. As NF-κB is a crucial transcriptional factor among several signaling pathways, including production of proinflammatory cytokines, interaction of ANCA and host cells may <\connective form=also text=also id=F814_FULL6_12.txt.raw_418 relation=Conjunction\> cause activation of molecules other than IL-8 and MCP-1. ANCA have been detected in a wide range of inflammatory, infectious, and neoplastic conditions, and PR3 is present in many types of cells other than epithelial cells, including neutrophils, monocytes, basophils, and mast cells, independently of tissue type 10, 11. In addition, PAR-2 is <\connective form=also text=also id=F814_FULL6_12.txt.raw_419 relation=Conjunction\> present in many types of cells 52. <\connective form=therefore text=Therefore id=F814_FULL6_12.txt.raw_411 relation=Cause\>, endogenous PR3-mediated cell activation triggered by ANCA via PAR-2 may occur in various cells and play a principal role in tissue-specific inflammatory processes and physiological responses.