Nucleotide excision repair is an evolutionarily conserved pathway by which cells remove a wide variety of helix-distorting lesions from DNA. It is a complex multiprotein process involving dual incisions on either side of the lesion and removal of an oligonucleotide containing the damage 1. Defects in any of seven different human genes XPA through XPG encoding proteins with functions in the early steps of NER result in the hereditary disease xeroderma pigmentosum, characterized by sensitivity to sunlight, marked skin changes in exposed areas, and extreme susceptibility to skin cancer. Cells from patients with another hereditary disease, Cockayne syndrome, are specifically defective in the preferential removal of lesions from transcribed strands of active genes by a TCR process that has been regarded as a subclass of NER 2. Aside from sun sensitivity, <\connective form=however text=however id=m1685full6_12.txt.raw_46 relation=Contrast\>, there is little overlap in the clinical symptoms of XP and CS, with the latter including characteristic dwarfing with skeletal abnormalities and obligate neurological dysfunction 3. Two genes required for TCR, CSA and CSB, have been cloned, <\connective form=but text=but id=m1685full6_12.txt.raw_37 relation=Contrast\> their precise roles remain to be elucidated 4. 

XP and CS are usually genetically as well as clinically distinct, with the great majority of CS patients belonging to the CS-A or CS-B complementation groups. <\connective form=however text=However id=m1685full6_12.txt.raw_47 relation=Contrast\>, a few CS patients belong to XP complementation groups B, D, or G 5. Both XPB and XPD are helicases and are subunits of the transcription factor TFIIH, which is required both for initiation of transcription by RNA polymerase II and for NER, in which it presumably opens the DNA helix near the lesion 1. The XPG gene 6 encodes a large protein with an endonuclease activity required for making the 3′ incision in NER 1, 7. The dual role of XPB and XPD in transcription and in NER provides an explanation for the essential function of their homologs in Saccharomyces cerevisiae and has led to the suggestion that CS may be a transcription disorder rather than a repair-deficiency disease 5. The absence of CS in XP-A patients completely lacking in NER due to defective damage recognition is consistent with this idea. <\connective form=however text=However id=m1685full6_12.txt.raw_48 relation=Contrast\>, this model does not readily apply to XPG, <\connective form=because text=because id=m1685full6_12.txt.raw_100 relation=Cause\> it has no known function in transcription and <\connective form=because text=because id=m1685full6_12.txt.raw_101 relation=Cause\> disruptions of RAD2, encoding its S. cerevisiae homolog, are viable. 

We previously showed that both normal human cells and cells with mutations in the XPA gene preferentially remove ionizing radiation-induced damage from transcribed strands <\connective form=but text=but id=m1685full6_12.txt.raw_38 relation=Contrast\> that CSA and CSB mutant cells are defective in this TCR process 8. This observation suggested that lesion removal by a pathway other than NER might <\connective form=also text=also id=m1685full6_12.txt.raw_121 relation=Conjunction\> be coupled to transcription <\connective form=and text=and id=m1685full6_12.txt.raw_69 relation=Conjunction\> that such a repair pathway might be defective in CS. To examine the possible relation between TCR of ionizing radiation damage, CS, and NER functions, we measured TCR in x-irradiated XP-G mutant cell strains from patients with and without clinical symptoms of CS. 

There is considerable clinical heterogeneity among the few known XP-G patients. XP125LO is one of two siblings with a mild XP phenotype but no other clinical symptoms 9. Causative mutations have been identified in both XPG alleles, with the maternal allele resulting in a full-length protein with a missense mutation in the presumed active site of the endonuclease 10, 11. In contrast, three patients with severe infantile CS—XPCS1LV, XPCS2LV, and 94RD27 12—have mutations that would lead to truncated XPG proteins 11. Strand-specific repair in the active metallothionein IA MTIA gene was measured in x-irradiated primary fibroblasts from all these XP-G patients and from a normal individual Fig 1. In normal fibroblasts there was a much higher rate of repair in the transcribed strand TS than in the nontranscribed strand NTS or in the genome overall. In contrast, all three XP-G/CS cell strains XPCS1LV, XPCS2LV, and 94RD27 were completely defective in this preferential repair, with transcribed strands being repaired at the same rate as NTS or total DNA. <\connective form=moreover text=Moreover id=m1685full6_12.txt.raw_106 relation=Conjunction\>, repair in total DNA was reduced relative to that in normal cells compare right and left panels in Fig 1B. 

As in XP-A cells 8, TCR was normal in x-irradiated XP-F cells Fig 1, left, which are defective in the endonuclease activity that incises on the 5′ side of NER-recognized lesions 13. Repair of x-ray-induced damage in the XP-G mutant XP125LO was <\connective form=also text=also id=m1685full6_12.txt.raw_122 relation=Conjunction\> identical to that in normal cells Fig 1B, middle. <\connective form=although text=Although id=m1685full6_12.txt.raw_16 relation=Contrast\> full-length XPG is produced in XP125LO cells 11, their XPG mutations completely prevent NER by several criteria. The cells have low levels of unscheduled DNA synthesis after ultraviolet UV irradiation 6, and XP125LO extracts <\connective form=neither nor text=neither id=m1685full6_12.txt.raw_131 relation=Conjunction\> support repair synthesis on UV-irradiated DNA <\connective forme=neither nor text=nor id=m1685full6_12.txt.raw_131 relation=Conjunction\> incise cisplatin-adducted DNA 13, 14. Furthermore, there is no detectable removal of cyclobutane pyrimidine dimers from either strand of the MT1A gene in UV-irradiated XP125LO cells 11. <\connective form=thus text=Thus id=m1685full6_12.txt.raw_103 relation=Cause\>, defects in three different genes that result in inactivation of NER XPA, XPF, conservative mutation in XPG do not affect TCR of ionizing radiation damage, whereas mutations that severely truncate the XPG protein eliminate it. 

Oxidatively damaged bases are the most abundant class of damage from ionizing radiation or other processes that generate reactive oxygen species, including normal cellular metabolism 15. One of these is thymine glycol Tg, a prevalent, stable, and lethal lesion that blocks transcription 16. To determine whether the ionizing radiation repair defect in the XP-G/CS strains affected removal of Tg, we quantified its production and removal with a monoclonal antibody 17. In x-irradiated normal and XP-F mutant cells, Tg was removed rapidly half-time t1/2 < 45 min from the genome overall Fig 2, left. Removal was normal in the XP-G strain XP125LO but was significantly slower in the XP-G/CS strain XPCS1LV. Damage induced by treatment of cells with H2O2 to produce an ∼100-fold higher frequency of Tg was <\connective form=also text=also id=m1685full6_12.txt.raw_123 relation=Conjunction\> removed efficiently both by normal cells and by XP-A, XP-F, and CS-B mutant cells Fig 2, right. In all three H2O2-treated XP-G/CS mutants Tg was removed at about half the initial rate of the normal cells, whereas in the XP-G mutant XP125LO the rate of Tg removal was normal These results suggest that the reduced level of total repair in the x-irradiated XP-G/CS mutants Fig 1 reflects impaired removal of Tg and related damage. They further suggest the existence of two mechanisms for Tg removal in the genome overall. One of these requires a function of XPG other than incision, which is defective in both the XP-G and the XP-G/CS mutants 11, but neither requires NER. 

To examine gene-specific removal of Tg, we purified DNA from H2O2-treated cells, incubated it with antibodies to Tg anti-Tg, and separated the antibody-bound DNA from free DNA not containing Tg 18. Analysis of repair in the active MTIA gene of normal cells by hybridization of strand-specific probes revealed that Tg was removed more rapidly from the transcribed strand than from the nontranscribed strand or from the total DNA Fig 3. This was <\connective form=also text=also id=m1685full6_12.txt.raw_124 relation=Conjunction\> true for both XP-A and XP-F mutants as well as for the XP-G strain XP125LO, all of which are defective in NER. In contrast, there was no preferential removal of Tg in any of the XP-G/CS mutants or in the CS-B mutant CS1AN, which is <\connective form=also text=also id=m1685full6_12.txt.raw_125 relation=Conjunction\> defective in TCR of ionizing-radiation damage 8. <\connective form=thus text=Thus id=m1685full6_12.txt.raw_104 relation=Cause\>, preferential removal of Tg from transcribed strands of active genes correlates with TCR of ionizing radiation damage, and neither proceeds by NER. 

<\connective form=although text=Although id=m1685full6_12.txt.raw_17 relation=Contrast\> repair of a subclass of lesions induced by ionizing radiation depends on XP factors 19, most ionizing radiation-induced base lesions and single-strand breaks are thought to be repaired by the process of base excision repair BER, in which damaged bases are removed by specific N-glycosylases, followed by strand scission at the resulting apurinic/apyrmidinic AP site by an AP endonuclease 20. Presumably, Tg removal occurs by glycosylase-AP endonuclease action that is facilitated by XPG. The hypersensitivity to ionizing radiation, H2O2, and oxidative stress of human cells deficient in AP endonuclease is consistent with this hypothesis 21. The roles of XPG and of CSB in removal of oxidative base damage are clearly different, <\connective form=because text=because id=m1685full6_12.txt.raw_102 relation=Cause\> XPG participates in global removal as well as being essential for TCR, whereas absence of CSB affects only the TCR process Figs 2 and 3. The XPG homolog RAD2 <\connective form=similarly text=similarly id=m1685full6_12.txt.raw_105 relation=Conjunction\> participates in TCR of Tg in S. cerevisiae, <\connective form=although text=although id=m1685full6_12.txt.raw_18 relation=Concession\> its requirement is not as absolute as for XPG in human cells, and the mechanism in yeast is <\connective form=also text=also id=m1685full6_12.txt.raw_126 relation=Conjunction\> distinct from NER 22. Within XP group G, defects in TCR correlate with severe truncations of the XPG protein 11, consistent with the idea that certain domains of XPG are essential for protein-protein interactions that are required for efficient and preferential removal of Tg. Recent studies of the mechanism of NER have shown that the 5′-incisions in NER by ERCC1/XPF do not occur in the absence of XPG and have implicated XPG in assembly of a preincision complex in NER 23. Our data suggest that XPG may have a similar role in BER as well as interacting with proteins required for TCR, such as TFIIH, CSA, or CSB 24. 

In the case of genetic diseases for which the altered gene product has been identified, it is frequently not apparent how the clinical manifestations relate to the known biochemical defect. This is particularly so for CS, for which the difficulty is compounded by the fact that mutations in five different genes can give rise to the clinical syndrome. Among XP-G patients, we find a direct correlation between the clinical presence of CS and mutations that inactivate a second function of XPG, its role in TCR of oxidative damage. Mutations in CSA and CSB <\connective form=also text=also id=m1685full6_12.txt.raw_127 relation=Conjunction\> affect TCR of oxidative damage, further suggesting that this repair defect may relate directly to the clinical outcome. The unusual severity of the syndrome in the XP-G/CS patients, all of whom died in infancy or early childhood, may reflect the additional deficit in global removal of oxidative damage from the genome. The simplest interpretation of our results is that failure to rapidly repair endogenous oxidative base damage in critical active genes, rather than subtle transcription defects, results in the developmental defects of CS.