0	adj	0.8
783	adj->amod->noun<-acl<-verb	0.88
797	adj->amod->noun<-amod<-adj	0.92
832	adj->amod->noun<-compound<-noun	0.94
903	adj->amod->noun<-nmod<-noun	0.675
928	adj->amod->noun<-punct<-punct	0.94
2809	adj->nmod->noun->amod->adj	0.695
4464	adp	0.79
4789	adp->case->noun<-amod<-adj	0.62
4797	adp->case->noun<-amod<-verb	0.51
4835	adp->case->noun<-compound<-noun	0.86
4838	adp->case->noun<-compound<-propn	0.685
4849	adp->case->noun<-conj<-noun	0.675
4917	adp->case->noun<-nmod<-noun	0.735
4947	adp->case->noun<-punct<-punct	0.57
5131	adp->case->propn<-amod<-adj	0.575
5163	adp->case->propn<-compound<-propn	0.61
5251	adp->case->propn<-punct<-punct	0.76
6056	adv	0.74
8784	aux->aux->verb<-dobj<-noun	0.655
8849	aux->aux->verb<-punct<-punct	0.65
8887	aux->auxpass->verb<-advcl<-verb	0.615
9027	aux->auxpass->verb<-punct<-punct	0.78
9292	conj	0.575
10516	det	0.98
11013	det->det->noun<-acl:relcl<-verb	0.555
11041	det->det->noun<-amod<-adj	0.705
11071	det->det->noun<-cc<-conj	0.765
11083	det->det->noun<-compound<-noun	0.745
11156	det->det->noun<-nmod<-noun	0.865
11170	det->det->noun<-nummod<-num	0.59
11186	det->det->noun<-punct<-punct	0.505
12595	intj	0.575
13325	noun	1.0
13623	noun->acl->verb->dobj->noun	0.51
14671	noun->amod->adj	0.685
14828	noun->amod->verb	0.535
14833	noun->amod->verb->advmod->adv	0.68
14915	noun->amod->verb->punct->punct	0.685
15167	noun->appos->noun->nmod->noun	0.765
15289	noun->appos->noun<-punct<-punct	0.635
15805	noun->case->adp	0.645
16026	noun->compound->noun	0.715
16091	noun->compound->noun->punct->punct	0.57
16101	noun->compound->noun<-acl:relcl<-verb	0.505
16154	noun->compound->noun<-cc<-conj	0.505
16161	noun->compound->noun<-compound<-noun	0.745
16227	noun->compound->noun<-nmod<-noun	0.53
16253	noun->compound->noun<-punct<-punct	0.835
16350	noun->compound->propn	0.575
16367	noun->compound->propn->compound->propn	0.945
16425	noun->compound->propn<-compound<-propn	0.56
16979	noun->conj->noun<-conj<-noun	0.56
17032	noun->conj->noun<-punct<-punct	0.505
17320	noun->conj->propn<-conj<-noun	0.79
17323	noun->conj->propn<-conj<-propn	0.645
17700	noun->det->det	0.68
17927	noun->dobj->verb<-nmod<-noun	0.725
17954	noun->dobj->verb<-punct<-punct	0.74
18678	noun->nmod->noun	0.53
18715	noun->nmod->noun->amod->adj	0.96
18737	noun->nmod->noun->case->adp	0.515
18778	noun->nmod->noun->det->det	0.645
18834	noun->nmod->noun->nummod->num	0.58
18971	noun->nmod->noun<-nmod<-noun	0.61
19003	noun->nmod->noun<-punct<-punct	0.51
19277	noun->nmod->propn	0.79
19336	noun->nmod->propn->conj->propn	0.52
19395	noun->nmod->propn->punct->punct	0.545
19774	noun->nmod->verb<-punct<-punct	0.52
21255	noun->nsubj->verb<-dobj<-noun	0.815
21413	noun->nsubjpass->verb<-auxpass<-aux	0.7
21584	noun->nummod->num	0.65
22266	noun->punct->punct	0.605
22507	num	0.9
23427	num->case->adp	0.585
23952	num->conj->noun<-punct<-punct	0.7
23954	num->conj->num	0.85
26282	num->nummod->noun<-cc<-conj	0.62
26290	num->nummod->noun<-compound<-noun	0.84
26368	num->nummod->noun<-nummod<-num	0.645
26386	num->nummod->noun<-punct<-punct	0.605
27262	part	0.57
28040	part->neg->verb<-nmod<-noun	0.545
28161	pron	0.89
29309	pron->nmod:poss->noun<-amod<-adj	0.865
29715	pron->nsubj->verb<-advmod<-adv	0.56
30086	propn	0.78
31217	propn->compound->noun	0.68
31488	propn->compound->propn<-compound<-propn	0.675
31544	propn->compound->propn<-punct<-punct	0.68
32027	propn->conj->propn	0.615
32128	propn->conj->propn<-conj<-propn	0.715
32163	propn->conj->propn<-punct<-punct	0.59
32948	propn->name->propn<-name<-propn	0.56
32971	propn->name->propn<-punct<-punct	0.925
34495	propn->nummod->num	0.605
35008	punct	0.87
35422	punct->punct->adj<-punct<-punct	0.725
35632	punct->punct->noun<-cc<-conj	0.585
35641	punct->punct->noun<-compound<-noun	0.795
35746	punct->punct->noun<-punct<-punct	0.97
35784	punct->punct->num<-cc<-conj	0.565
35853	punct->punct->num<-punct<-punct	0.58
36040	punct->punct->propn<-punct<-punct	0.625
36183	punct->punct->verb<-conj<-noun	0.59
36252	punct->punct->verb<-nmod<-noun	0.99
36307	punct->punct->verb<-punct<-punct	0.685
37260	sconj->mark->verb<-punct<-punct	0.745
37386	sym	0.755
39364	verb	0.885
40343	verb->advcl->verb->mark->part	0.64
40359	verb->advcl->verb->nmod->noun	0.52
42166	verb->ccomp->verb->nmod->noun	0.52
43187	verb->conj->verb<-punct<-punct	0.71
44186	verb->dobj->noun	0.735
44213	verb->dobj->noun->amod->adj	0.815
44271	verb->dobj->noun->det->det	0.695
44771	verb->mark->part	0.575
44779	verb->mark->sconj	0.865
45062	verb->nmod->noun->amod->adj	0.725
45085	verb->nmod->noun->case->adp	0.505
45102	verb->nmod->noun->compound->noun	0.78
45125	verb->nmod->noun->det->det	0.595
45183	verb->nmod->noun->nummod->num	0.825
45774	verb->nmod:tmod->num	0.625
46069	verb->nsubj->noun->nmod->noun	0.605
46525	verb->nsubjpass->noun	0.77
46540	verb->nsubjpass->noun->amod->adj	0.655
46616	verb->nsubjpass->noun->nmod->noun	0.805
46644	verb->nsubjpass->noun->punct->punct	0.73
47801	verb->punct->punct	0.88
48588	x	0.645
48812	x->advmod->num<-punct<-punct	0.79
49285	x->compound->num<-compound<-x	0.64
49800	x->goeswith->noun<-goeswith<-x	0.905
