Recombinant hirudin is used for anticoagulation, particularly in patients with documented or suspected heparin-induced thrombocytopenia type II HIT-II 1, 2. The use of this direct thrombin inhibitor requires laboratory monitoring to avoid insufficient dosages and risk of thromboembolic events as well as overdosages and risk of bleeding. The clinical relevance of the latter complication is supported by studies reporting on major hemorrhage in approximately 10 of patients receiving hirudin in therapeutic dosage 1–3. Bleeding manifestations preferentially occur <\connective form=when text=when id=G9004_FUL6_12.txt.raw_39 relation=Temporal\> hirudin is combined with other antithrombotic agents 4 or in the presence of renal insufficiency 5. Bedside monitoring for the effects of hirudin could be valuable, in particular for patients undergoing cardiac surgery or patients in the intensive care unit. Thrombelastography, originally described by Hartert 6, measures shear-elastic modules during clot formation in whole blood samples 7. Rotational thrombelastometry is a variation of the classical method: a rotating pin, stabilized by a ball-bearing, submerges in a fixed cuvette. The time course of clot formation is displayed graphically and several coagulation parameters can be obtained. Besides the clotting time CT, the maximum clot firmness as well as the kinetics of clot formation expressed as the clot formation time and angle α are calculated. The usefulness of thrombelastography has preferentially been documented in the management of perioperative bleeding 8–11. To date, only sparse information is available on the effects of hirudin on thrombelastography variables. One case report demonstrates hirudin effects in a single patient, a second study shows the effects of hirudin on mercury ion-induced coagulation, and a third study reveals the effects of melagatran on thrombelastography 12–14. The present study aims to investigate the ability of rotational thrombelastometry to detect hirudin in whole blood samples at therapeutic concentrations. 

Venous blood was drawn from five healthy male volunteers mean age ±SD 35±4 years not receiving any medication. Samples of whole blood were collected in vacuum tubes containing 3.8 wt/vol sodium citrate in a ratio 1 : 9 vol/vol anticoagulant to blood Vacutainer, Becton Dickinson, Heidelberg, Germany. The study was performed in accordance with the Helsinki Declaration and written informed consent was given by all volunteers. Fifty microliters of recombinant hirudin Refludan, Schering/Pharmion Ltd, Hamburg, Germany of various concentrations prepared with sodium chloride 0.9 were added to 450 μl of whole blood to provide final concentrations of 0.1, 0.25, 0.5, 1.0, 2.5, 5.0, and 10.0 μg/ml, respectively. Citrated blood samples spiked with 50 μl isotonic saline served as the controls. Before rotational thrombelastometry, the samples were gently mixed and incubated at room temperature for 15 min. 

A rotational thrombelastometer ROTEM™, Pentapharm, Munich, Germany was used. After sample preparation, the coagulation process was started by recalcification and activation with tissue factor ExTem, ellagic acid InTem, or ecarin EcaTem according to the manufacturer's recommendations http://www.pentapharm.de. Briefly, 300 μl of citrated blood containing hirudin or vehicle were recalcified by adding 20 μl of 0.2 m CaCl2 solution and 20 μl of the respective activator. Standard parameters of thrombelastometry were determined, including i the CT, defined as the time period measured in seconds from clotting activation to initial fibrin formation, ii the clot formation time CFT, measuring the time in seconds from the beginning of clot formation <\connective form=until text=until id=G9004_FUL6_12.txt.raw_19 relation=Temporal\> the amplitude of the thrombelastogram reaches a width of 20 mm, iii the angle α, defined as tangential from the middle line to the body of the tracing, and iv the maximum clot firmness MCF reflecting the strength of the clot measured in mm amplitude Fig 1. 

Values are given as mean and standard deviation SD. For statistical evaluation, the Mann–Whitney test was used SPSS version 13. Statistical significance was set at a P-value below 0.05. Hirudin led to a dose-dependent prolongation of the CT irrespective of the activator ellagic acid, tissue factor, ecarin Figs 1, 2. All assays were capable to detect hirudin at concentrations between 0.5 and 5 μg/ml. Following the latter concentration of hirudin the CT was approximately 2.5-fold prolonged. Stimulation of samples with ellagic acid led to increased sensitivity for hirudin, hence the CT was significantly prolonged at concentrations as low as 0.1 μg/ml. At this concentration CT was prolonged from 141.7±18 to 172.7±6.7 s P<0.05. Following stimulation of the blood samples with tissue factor, a hirudin effect was observed at a concentration of 0.5 μg/ml with the prolongation of CT from 54.0±7.6 to 64.4±3.4 s P<0.05, Fig 2. Similarly, CT increased from 60.5±5.8 to 88.8±15.8 s upon stimulation with ecarin. With all activators used, the CFT, MCF, and angle α remained unaffected by hirudin at concentrations below 5 μg/ml. <\connective form=however text=However id=G9004_FUL6_12.txt.raw_45 relation=Comparison\>, at a hirudin concentration of 5 μg/ml, these variables were reduced in one of five samples <\connective form=when text=when id=G9004_FUL6_12.txt.raw_40 relation=Temporal\> ecarin was used as the activator. Following activation of samples with tissue factor and ellagic acid, respectively, the above-mentioned variables remained unaffected at this hirudin concentration. At 10 μg/ml hirudin, clot formation was completely inhibited in most samples. In the remaining samples a CFT exceeding 600 s, an MCF below 25 mm, and angle α below 30° were observed Fig 3. An important issue in bedside monitoring is the reproducibility of measurements. The intra-assay coefficient of variance obtained by the fourfold measurement of citrated whole blood samples n=5 was approximately 12 for CT and CFT, and below 4 for MCF and α. Storage of citrated whole blood samples for up to 5 h <\connective form=before text=before id=G9004_FUL6_12.txt.raw_34 relation=Temporal\> thrombelastography did not affect any of the variables. Our data demonstrate that the anticoagulant effects of recombinant hirudin can be detected by rotational thrombelastometry. Hirudin dose-dependently prolonged the CT, <\connective form=while text=while id=G9004_FUL6_12.txt.raw_88 relation=Comparison\> other thrombelastography variables remained largely unchanged. Only at high hirudin concentrations, which exceeded the therapeutic range, alterations of MCF, CFT, and angle α were observed. These effects may partly be explained by concomitant impairment of platelet-related hemostasis through inhibition of thrombin-induced platelet activation 15. Sensitivity of thrombelastography for hirudin was most optimal <\connective form=when text=when id=G9004_FUL6_12.txt.raw_41 relation=Temporal\> ellagic acid was used as the activator; hence, even 0.1 μg/ml hirudin significantly prolonged the CT. <\connective form=when text=When id=G9004_FUL6_12.txt.raw_42 relation=Temporal\> tissue factor and ecarin, respectively, were used, the sensitivity for hirudin was 0.5 μg/ml. Prolongation of CT was not dependent on the activator used: CT was 2.5-fold increased by 5 μg/ml hirudin <\connective form=when text=when id=G9004_FUL6_12.txt.raw_43 relation=Temporal\> coagulation was induced by tissue factor, ellagic acid, and ecarin, respectively. Activated partial thromboplastin time, thrombin time, and ecarin clotting time ECT are commonly used laboratory methods to monitor hirudin. These assays are limited through considerable variability 16, 17 and missing linearity of the standard curve at high hirudin plasma levels, so that overdosage may be missed 18–20. Thrombin time is maximally prolonged even at subprophylactic hirudin concentrations and <\connective form=thus text=thus id=G9004_FUL6_12.txt.raw_92 relation=Contingency\>, not useful for monitoring the agent. Chromogenic substrate methods are linear only at hirudin levels between 0.1  and 1.0 μg/dl 21 and not available for bedside use 17. Owing to these limitations, the ECT has been developed to monitor thrombin inhibitors. High sensitivity allowing the detection of hirudin concentrations as low as 0.05 μg/ml and linear correlation with hirudin concentrations up to 5.0 μg/ml are major advantages 22–24. In addition, ECT is insensitive to heparin or oral anticoagulants and interindividual variation is low 19. The results might be influenced by variations of prothrombin and fibrinogen plasma levels 21, 25. In the present study we added hirudin to whole blood samples of probands with physiological erythrocyte counts. <\connective form=thus text=Thus id=G9004_FUL6_12.txt.raw_93 relation=Contingency\> it might be expected that hirudin plasma levels as determined by conventional plasma-based assays are affected by the hematocrit. It will <\connective form=therefore text=therefore id=G9004_FUL6_12.txt.raw_115 relation=Contingency\> be important to determine appropriate CT ranges similar to those defined for the activated CT in different clinical settings. In intensive care medicine, as well as during management of perioperative bleeding, the number of patients treated with hirudin is steadily increasing. The most frequent indication for this anticoagulant is proven or suspected HIT-II. Abnormalities of plasmatic and platelet-related hemostasis are highly prevalent in critically ill patients and contribute to the therapy-induced risk of hemorrhage of patients treated with hirudin 3–5. Furthermore, pharmacokinetics of these agents is affected by concomitant disorders such as renal insufficiency in this setting. Thrombelastography has proved to be a valuable tool in diagnosing hemostatic abnormalities, particularly in perioperative medicine 26–28. The diagnostic spectrum of the method, which is capable of measuring both clot formation kinetics and clot strength, is further expanded by different commercially available activators ellagic acid, tissue factor, and ecarin 29. Performed in whole blood, thrombelastometry is capable of detecting different hemostatic abnormalities predisposing to bleeding including heparin effects, thrombocytopenia, and hyperfibrinolysis in a one-step procedure, providing an overall view of hemostasis. In addition, our current in vitrodata demonstrate that rotational thrombelastometry might be useful for the rapid detection and monitoring of hirudin. <\connective form=because text=Because id=G9004_FUL6_12.txt.raw_90 relation=Contingency\> citrated whole blood is used for analysis, time-consuming sample preparation, particularly centrifugation, is not required. In principle, detection of hirudin by thrombelastometry can be achieved by activation of samples with ellagic acid, tissue factor, and ecarin. In our study activation of samples with ellagic acid has the advantage to detect hirudin even at low concentrations <\connective form=while text=while id=G9004_FUL6_12.txt.raw_89 relation=Temporal\> ECT specifically detects the effect of hirudin. The accuracy of the method can be further enhanced by the construction of a dose–response curve for an individual patient before administration of hirudin. In summary, the results of the present study demonstrate that rotational thrombelastometry is a suitable method for the bed-side monitoring of hirudin, especially in critical care and perioperative medicine.