Acute ischemia of the kidney, a major cause of renal failure, occurs most commonly in the setting of renal artery stenosis, renal transplantation, and shock because of hemorrhage or sepsis. Even <\connective form=when text=when id=G9017_FUL6_12.txt.raw_197 relation=Temporal\> a kidney that has been rendered ischemic regains normal perfusion, pathological changes may persist and progress to chronic functional insufficiency resulting in end-stage renal disease 1. Although immunosuppressive drugs have been highly successful in preventing acute kidney allograft rejection, they have not had an impact on late graft failure, which may result in part from early ischemic injury 2 and 3. Late allograft failure afflicts a growing number of patients, fed by the large increase in patients living with end-stage renal disease since the advent of hemodialysis 4, 5 and 6. Recently, chronic allograft nephropathy, characterized by progressive renal dysfunction, interstitial inflammation and fibrosis, and vascular occlusion, has been identified as the chief cause of late graft failure 7. All other causes of ischemic renal disease are <\connective form=also text=also id=G9017_FUL6_12.txt.raw_475 relation=Expansion\> characterized by inflammation and fibrosis. Rodent models of renal ischemia-reperfusion injury have been developed in an effort to develop insights into pathogenesis at the molecular level. Recent studies using such models have succeeded in delineating many factors that are involved in inflammation 8; <\connective form=however text=however id=G9017_FUL6_12.txt.raw_202 relation=Comparison\>, osteopontin is the only molecular determinant of fibrosis identified to date 9. Transforming growth factor TGF-β and platelet-derived growth factor PDGF are well-characterized factors that promote fibrosis in many diseases and organs, including the kidney 10 and 11. PDGF, which stimulates fibroblast proliferation and production of extracellular matrix, is actually a family of four molecules, PDGF-A and -B and the newly discovered PDGF-C and –D 12. PDGF-B has been implicated in renal fibrosis based on the effects of direct injection of the factor into rat kidney in vivo.13 Infiltrating inflammatory cells are rich sources of these and potentially other fibrogenic mediators 14. For this reason we and others have focused on molecular mechanisms responsible for inflammatory leukocyte trafficking to the kidney after ischemia-reperfusion injury. Chemokines, a major class of leukocyte chemoattractants, are particularly relevant in this regard and have been implicated in the pathogenesis of numerous fibrotic disorders; <\connective form=however text=however id=G9017_FUL6_12.txt.raw_203 relation=Comparison\>, none has been linked to fibrosis resulting from renal ischemia-reperfusion injury 7. In the present report we focus on the chemokine fractalkine CX3CL1 in standard nomenclature and its 7-transmembrane domain G protein-coupled receptor CX3CR1. Fractalkine is the only known member of the CX3C chemokine subclass, one of the four major structural divisions of the chemokine family. In addition to functioning as a leukocyte chemoattractant, fractalkine is unusual in that it is <\connective form=also text=also id=G9017_FUL6_12.txt.raw_476 relation=Expansion\> able to function as an adhesion molecule. CX3CR1 is expressed on NK cells, monocytes, T cells, mast cells, and platelets 15, 16,17 and 18. Recently, patients with systemic sclerosis were reported to have increased serum levels of fractalkine and increased CX3CR1+ macrophages and T cells in fibrotic skin and lung 19. These data have suggested that fractalkine/CX3CR1 may promote tissue fibrosis through inflammatory cell infiltration. Here we test this hypothesis in a mouse model of ischemia-reperfusion injury of the kidney. 


Male wild-type and CX3CR1−/− C57BL/6 mice were purchased from Taconic Germantown, NY. CX3CR1−/−mice, generated as previously described,20 had been backcrossed onto the C57BL/6 background for 10 generations and maintained under specific pathogen-free housing conditions. No significant differences in growth or weight were found between CX3CR1−/− and wild-type C57BL/6 mice. All animals were used at 6 to 8 weeks of age under the auspices of a protocol approved by the National Institute of Allergy and Infectious Diseases Animal Care and Use Committee. 

After general anesthesia was established with xylazine, ketamine, and isoflurane, the left renal artery and vein of CX3CR1−/− and wild-type control mice were exposed by flank incision and clamped for 60 minutes. Kidneys that did not completely recover after unclamping, as assessed by restoration of normal color, were not used for analysis. After releasing the clamp the flank incision was closed in two layers with silk sutures. The animals received warm saline instilled into the peritoneal cavity during the procedure and were allowed to recover with free access to food and water. Sham surgery was performed in a similar manner, except that the renal vessels were not clamped. To evaluate function of the injured kidney, the uninjured kidney was removed on day 12 in a subset of mice. Renal tissues were removed for pathological examination 24 hours, 48 hours, 7 days, and 14 days after ischemia-reperfusion from 14 mice at each time point. Blood samples were taken from the abdominal aorta just before sacrifice to evaluate renal function. Purified polyclonal rabbit anti-CX3CR1 antibodies or control rabbit IgG Torrey Pines Biolabs, San Diego, CA were used to evaluate the therapeutic effects of CX3CR1 blockade in ischemia-reperfusion injury as described previously.21Seventy-five μl of anti-CX3CR1 antibodies or control rabbit IgG at a concentration of 20 μg/ml were injected intraperitoneally 1 day before or 1 day after ischemic injury and each day thereafter for a total of 8 or 6 days, respectively. To evaluate effects of anti-CX3CR1 antibodies or control IgG on blood cell counts, we collected whole blood 8 days after injection of the animals five per group. Effects of anti-CX3CR1 antibodies or control IgG on complement were evaluated by serum C5a concentration by enzyme-linked immunosorbent assay using rat anti-mouse complement component C5a monoclonal antibody clone 295103, goat biotinylated anti-mouse complement component C5a antibody, and recombinant mouse complement component C5a protein all from R&D Systems, Minneapolis, MN. 

Platelets were prepared and labeled for injection using a previously described method with some modifications 22 and 23. Briefly, peripheral blood was drawn from anesthetized wild-type mice or CX3CR1-deficient mice by cardiac puncture using citrate and disodium ethylenediaminetetraacetic acid as anti-coagulants. Fresh anti-coagulated blood was centrifuged at 600 × g for 3 minutes, and platelet-rich plasma was then collected. Centrifugation of the platelet-rich plasma at 1300 × g for 10 minutes produced a platelet pellet. Platelets were labeled with PKH26 red fluorescent cell linker mini kit Sigma, St Louis, MO using the method of Michelson and colleagues 24 with minor modifications. Platelets were resuspended in Diluent C at 4 × 109/ml to which 10 μmol/L prostaglandin I2 PGI2 was added. An equal volume of Diluent C containing freshly prepared 4 μmol/L PKH26 was added, and the suspension was mixed and incubated for 8 minutes at room temperature with occasional inversion. An equal volume of citrate-albumin PGE1 buffer 11 mmol/L dextrose, 128 mmol/L NaCl, 4.3 mmol/L NaH2PO4, 7.5 mmol/L Na2HPO4, 4.8 mmol/L trisodium citrate, 2.4 mmol/L citric acid, 0.35 bovine serum albumin, 0.33 μmol/L PGE1, pH 6.5 was added. The mixture was incubated for 1 minute and centrifuged. The pellet was resuspended in 5 ml of citrate-albumin-PGE1 buffer, incubated for 10 minutes, centrifuged, and resuspended in Tyrode's solution Sigma with 0.35 albumin and 3 U/ml apyrase at a platelet count of 2.0 × 109/ml. To evaluate the role of CX3CR1 in the accumulation of platelets in the injured kidney, 2 × 108 PKH26-labeled platelets from wild-type mice or CX3CR1-deficient mice in a total volume of 100 μl were injected in the tail vein of wild-type mice just <\connective form=before text=before id=G9017_FUL6_12.txt.raw_112 relation=Temporal\> ischemia-reperfusion injury. 

One portion of the renal tissue was fixed in 10 buffered formalin, embedded in paraffin, sectioned, and stained with periodic acid-Schiff reagent, naphthol AS-D chloroacetate esterase, Gomori's trichrome, or indicated antibodies. Another portion of fresh renal tissue was embedded in OCT compound Sakura Finetek, Torrance, CA and snap-frozen on dry ice. Frozen sections were used to detect PKH26-labeled platelets and for immunohistochemistry using antibodies directed against CX3CR1 and F4/80. Deparaffinized sections were treated with Target river solution DAKO, Carpinteria, CA before staining of fractalkine and α-smooth muscle actin α-SMA, with 10 mmol/L Tris buffer and 1 mmol/L ethylenediaminetetraacetic acid for TGF-β staining, or with proteinase K DAKO for staining of PDGF-B. Endogenous peroxidase activity and nonspecific binding in the sections was blocked by peroxidase-blocking reagent DAKO, biotin-blocking system DAKO and protein block, serum-free DAKO. Sections were <\connective form=then text=then id=G9017_FUL6_12.txt.raw_105 relation=Temporal\> incubated with the following primary antibodies and conditions: goat anti-rat fractalkine antiserum R&D Systems, which cross-reacts with mouse fractalkine, at 1 μg/ml overnight at 4°C; rabbit anti-human PDGF-B antiserum Calbiochem, San Diego, CA, which cross-reacts with mouse PDGF-B,25 at 10 μg/ml for 2 hours at room temperature; rabbit anti-human TGF-β antiserum Abcam, Cambridge, MA, which cross-reacts with mouse TGF-β, at 4 μg/ml for 2 hours at room temperature; or rabbit anti-mouse CX3CR1 antiserum kind gift from Dr T. Imai, Kyoto University at 5 μg/ml for 2 hours at room temperature. Normal goat or rabbit IgG was used as a negative control. Thereafter, the sections were incubated with biotinylated secondary antibody, followed by incubation with peroxidase-conjugated streptavidin or the EnVision+/HRP kit DAKO. For α-SMA, polymer-immunocomplex methods were used. Briefly, a mixture of diluted primary antibody, mouse α-SMA monoclonal antibody clone 1A4, 10 μg/ml DAKO, 26 and EnVision+/HRP for mouse were incubated at room temperature for 60 minutes. After the incubation, normal mouse serum was added, and the mixture was incubated for 60 minutes. Tissues were incubated with the final mixture at room temperature for 60 minutes. Normal mouse IgG was used as a negative control. After washing with phosphate-buffered saline containing 0.01 Tween, the sections were stained with 3,3′-diaminobenzidine solution and <\connective form=then text=then id=G9017_FUL6_12.txt.raw_106 relation=Temporal\> counterstained with hematoxylin. Tubular necrosis was quantitated in a blinded manner as the percentage of tubules in the outer medulla in which epithelial necrosis or necrotic debris was observed in periodic acid-Schiff-stained sections. Interstitial renal fibrosis was quantitated as the area staining blue in sections stained with Gomori's trichrome. The area of tubular necrosis and interstitial fibrosis in the outer medulla was evaluated by NIH image and expressed as the percentage of total area imaged. Infiltrating leukocytes were quantitated in the outer medulla of the injured kidney, where cell migration was maximal, and the data were expressed as leukocytes/mm2 at magnification ×320. Neutrophils were identified by naphthol AS-D chloroacetate esterase staining Sigma 27 and 28. T cells and macrophages were detected immunohistochemically with rabbit anti-CD3 antibody DAKO29 and rat anti-mouse F4/80 monoclonal antibody clone BM8; eBioscience, San Diego, CA, respectively. Rabbit anti-CD3 antibody was detected by EnVision+ System peroxidase DAKO, and rat anti-F4/80 antibody was detected by biotinylated polyclonal rabbit anti-rat immunoglobulin antibodies DAKO and the LSAB+ system peroxidase DAKO. To identify F4/80 and CX3CR1 double-positive cells, the sections were first incubated for 2 hours at room temperature with rabbit anti-mouse CX3CR1 antibody and <\connective form=then text=then id=G9017_FUL6_12.txt.raw_107 relation=Temporal\> with Alexa Fluor 568-conjugated donkey anti-rabbit IgG Molecular Probes, Eugene, OR at 20 μg/ml for 1 hour at room temperature. For staining of F4/80, sections were incubated with rat anti-mouse F4/80 monoclonal antibody. Subsequently, the samples were incubated with Alexa Fluor-488-conjugated donkey anti-rat IgG Molecular Probes at 20 μg/ml for 1 hour at room temperature. Alexa Fluor 568-labeled CX3CR1-positive cells and Alexa Fluor 488-labeled F4/80-positive cells were observed by fluorescent microscopy. 

Tissue homogenates were used to determine TGF-β and PDGF-B expression using murine Quantikine immunoassay kits R&D Systems following the manufacturer's directions. All enzyme-linked immunosorbent assay samples were run in duplicate. The amount of TGF-β and PDGF-B was standardized by tissue weight. Total RNA was extracted from the kidney using RNAqueous kit Ambion Inc, Austin, TX. RNA was treated with deoxyribonuclease and purified with DNA-free Ambion, Inc. The RNA was quantified by absorbance at 260 nm in a spectrophotometer BioPhotometer; Eppendorf AG, Hamburg Germany. cDNA was reverse-transcribed from 1 μg of total RNA using a RETROscript kit Ambion, Inc. Fractalkine and CX3CR1 mRNA were detected by 28 cycles of polymerase chain reaction PCR. PCR was found to be linear between 20 and 35 cycles. β-actin was used as internal standard QuantumRNA β-actin internal standards, Ambion. The following primers were used for fractalkine: forward 5′-TGGTCCAGAGCTGGCAATAA and reverse 5′-TGGCTTCCTCACTCTCAGGA. Mouse/rat CX3CR1 PCR primer pair R&D Systems was used to detect CX3CR1 expression. The mRNA expression of cytokines, chemokines, chemokine receptors, and the housekeeping gene glyceraldehyde-3-phosphate dehydrogenase GAPDH was analyzed using an MPCR kit Maxim Biotech, Inc, San Francisco, CA according to the manufacturer's protocol. Images of UV-illuminated agarose gels were captured, and the density of cDNA bands was analyzed using NIH Image software. PCR was found to be linear between 24 and 36 cycles, and 33 cycles were chosen for all results shown. Cytokine, chemokine, and chemokine receptor mRNA levels were standardized by GAPDH signals and are expressed relative to the levels found in sham-operated mice. Hydroxyproline content was measured as an index of collagen accumulation in the injured kidney, as described previously30 with some modification. Briefly, a portion of the kidney was weighed, dried for 16 hours at 110°C, then hydrolyzed in 6 N HCl at 110°C for 12 hours. Fifty-μl aliquots were added to 1 ml of a solution containing 1.4 chloramine T Sigma, 10 n-propanol, and 0.5 mol/L sodium acetate, at pH 6.0. After 20 minutes of incubation at room temperature, 1 ml of Erlich's solution 1 mol/L p-dimethylaminobenzaldehyde in 70 n-propanol, 20 perchloric acid was added, and the mixture was incubated at 65°C for 15 minutes. Absorbance was measured at 550 nm, and the amount of hydroxyproline was determined against a standard curve generated using known concentrations of reagent hydroxyproline Sigma, and expressed as the amount μg per mg of kidney. 

Serum creatinine was measured as a marker of renal function. Blood was collected from each mouse at the time of sacrifice and stored at −80°C until use. Creatinine concentration was measured by colorimetric microplate assay Oxford Biomedical Research, Oxford, MI. 

The mean and SE SEM were calculated on all of the parameters determined in this study. Statistical analyzes were performed using unpaired Student's t-test, Kruskal-Wallis test, and analysis of variance test.P < 0.05 was accepted as statistically significant. 

Fractalkine mRNA was constitutively expressed under homeostatic conditions in normal mouse kidney data not shown; <\connective form=however text=however id=G9017_FUL6_12.txt.raw_204 relation=Comparison\>, as assessed by PCR analysis of total kidney RNA, the level did not increase significantly in sham-operated mice or with time after ischemia-reperfusion injury in either wild-type or CX3CR1-deficient mice Figure 1, A and B. Nevertheless the protein level, as assessed by immunohistochemistry, and the spatial distribution did change after injury Figure 1C. Anti-fractal-kine immunoreactivity was detected mainly on endothelial cells throughout the kidney in sham-operated mice Figure 1C, i but by 24 hours after ischemia-reperfusion was redistributed to the outer medulla where it could <\connective form=also text=also id=G9017_FUL6_12.txt.raw_477 relation=Expansion\> be detected in association with infiltrating cells and tubular epithelial cells Figure 1C, ii. Increased expression persisted throughout the course of experiment but began to wane by day 7 <\connective form=after text=after id=G9017_FUL6_12.txt.raw_151 relation=Temporal\> injury data not shown. The difference between RNA and protein induction in the model may reflect infiltration of inflammatory cells that constitutively express fractalkine. In contrast to fractalkine's temporal and spatial pattern of expression, constitutive expression of CX3CR1 mRNA was extremely low in sham-operated mice but was markedly increased after ischemia-reperfusion injury, peaking at ∼48 hour in wild-type mice and remaining high throughout the 2-week course of the experiment Figure 1, D and E. The increase in mRNA corresponded with an increase in anti-CX3CR1 immunoreactivity of wild-type kidney subjected to ischemia-reperfusion injury that was particularly intense in the outer medulla. This co-localized with infiltrating cells, which were mainly macrophages Figure 1F as demonstrated by dual staining with anti-F4/80 and anti-CX3CR1 antibodies Figure 1G. CX3CR1 was expressed by 86.7 ± 1.5 of infiltrating macrophages. This suggested that CX3CR1 might mediate macrophage trafficking to the kidney and promote the inflammatory response after ischemia-reperfusion injury. To test this we examined CX3CR1-deficient mice in greater detail. 

Like fractalkine and CX3CR1, severe acute tubular necrosis was found consistently most intensely in the outer medulla of mouse kidney 24 to 48 hours after ischemia-reperfusion injury Figure 2, A–D. With time, tubular epithelial cells proliferated, and tubules were regenerated in both wild-type and CX3CR1-deficient mice, as shown for days 7 and 14 <\connective form=after text=after id=G9017_FUL6_12.txt.raw_155 relation=Temporal\> injury in Figure 2, E–H. Little <\connective form=if then text=if id=G9017_FUL6_12.txt.raw_490 relation=Expansion\> any evidence of acute tubular necrosis was detectable in the kidneys of sham-operated mice at 24 hours after surgery Figure 2I. Quantitation of the area of acute tubular necrosis failed to reveal a significant difference between wild-type and CX3CR1-deficient mice at any time point Figure 2J. Collagen fibers, which stain blue with trichrome, are normally present at low levels in the renal interstitium and did not increase in the first 48 hours after injury Figure 3. <\connective form=however text=However id=G9017_FUL6_12.txt.raw_205 relation=Comparison\>, by day 7 large increases were observed in the interstitium of the outer medulla, <\connective form=and text=and id=G9017_FUL6_12.txt.raw_317 relation=Expansion\> this continued to increase through day 14 <\connective form=after text=after id=G9017_FUL6_12.txt.raw_158 relation=Temporal\> injury, the latest time point tested. Unlike acute tubular necrosis, the extent of fibrosis in the outer medulla of the injured kidney was significantly diminished in CX3CR1-deficient mice compared with wild-type mice Figure 3, A–C. This was confirmed independently and more quantitatively with assays for hydroxyproline content, an index of collagen accumulation in the interstitial space Figure 3D, and α-SMA, a marker of activated fibroblasts Figure 4. α-SMA immunoreactivity, which localized with spindle-shaped cells in the interstitium, was <\connective form=also text=also id=G9017_FUL6_12.txt.raw_478 relation=Expansion\> mainly detected in the outer medulla where fibrosis progressed most intensely. Both of these factors were significantly increased in the late phase of injury, eg, 7 and 14 days after reperfusion, but to a significantly lower level in CX3CR1-deficient mice compared to wild-type mice Figure 3 and Figure 4. In sham-operated mouse kidney, α-SMA expression was detected in the blood vessel wall data not shown. <\connective form=although text=Although id=G9017_FUL6_12.txt.raw_58 relation=Comparison\> fibroblasts are the direct source of collagen in fibrotic lesions, many of the fibrogenic mediators likely to regulate this process come from inflammatory cells. The number of neutrophils increased massively and rapidly after reperfusion, peaking at 31-fold over sham-operated mice 24 hours after injury and <\connective form=then text=then id=G9017_FUL6_12.txt.raw_109 relation=Temporal\> gradually decreasing, <\connective form=but text=but id=G9017_FUL6_12.txt.raw_128 relation=Comparison\> there was no significant difference between CX3CR1-deficient and wild-type mice at any time point Figure 5A, suggesting that this type of leukocyte may not play a large role in coordinating the CX3CR1-dependent fibrotic response. Lymphocytes <\connective form=also text=also id=G9017_FUL6_12.txt.raw_479 relation=Expansion\> do not appear to be playing a significant role <\connective form=because text=because id=G9017_FUL6_12.txt.raw_416 relation=Contingency\> CD3+ cells were only a small fraction of total infiltrating cells and <\connective form=because text=because id=G9017_FUL6_12.txt.raw_417 relation=Contingency\> there was no significant difference between CX3CR1-deficient and wild-type mice in the number of these cells at any time point Figure 5B. In contrast, large numbers of F4/80+ macrophages progressively infiltrated the interstitial space throughout the 14-day course of the experiment after reperfusion, resulting in a 35-fold increase at day 14 relative to sham-operated mice, but were ∼40 lower in CX3CR1-deficient mice on day 7 <\connective form=after text=after id=G9017_FUL6_12.txt.raw_163 relation=Temporal\> reperfusion Figure 5C. We next investigated specific molecular mediators that might contribute to CX3CR1-dependent fibrosis in renal ischemia-reperfusion injury. TGF-β is a major fibrogenic factor that is clearly relevant in this model <\connective form=because text=because id=G9017_FUL6_12.txt.raw_418 relation=Contingency\> it was significantly upregulated after ischemia-reperfusion both at the mRNA Figure 6, A and B and protein Figure 6C levels; <\connective form=however text=however id=G9017_FUL6_12.txt.raw_206 relation=Comparison\>, there was no significant difference in expression in wild-type versus CX3CR1-deficient mice. Immunohistological staining showed that <\connective form=although text=although id=G9017_FUL6_12.txt.raw_59 relation=Comparison\> tubular epithelial cells were mainly positive for TGF-β in the outer medulla at 24 hours after reperfusion Figure 6D, i and ii, infiltrating cells or interstitial spindle-shaped cells were positive for TGF-β at 14 days after reperfusion Figure 6D, iii and iv. These data <\connective form=also text=also id=G9017_FUL6_12.txt.raw_480 relation=Expansion\> show that TGF-β from infiltrating cells might play a role in interstitial fibrosis after renal reperfusion in the later phase, <\connective form=but text=but id=G9017_FUL6_12.txt.raw_130 relation=Comparison\> it appeared to contribute mainly, if not exclusively, to CX3CR1-independent fibrosis in the model. PDGF-B, an important fibrogenic factor produced by macrophages, platelets, and endothelial cells, was significantly increased in the early phase of injury in wild-type mice, peaking at approximately fourfold over sham-operated mice at 48 hours after reperfusion Figure 7. PDGF-B was detected mainly in the outer medulla of the injured kidney and at lower levels in CX3CR1-deficient than wild-type mice through 48 hours after reperfusion Figure 7, A and B. Most impressively, levels were reduced by 100 and 80 at 24 and 48 hours after injury, respectively, in CX3CR1−/− mice relative to wild-type controls. <\connective form=when text=When id=G9017_FUL6_12.txt.raw_198 relation=Temporal\> sections were analyzed at high magnification, PDGF-B was observed to co-localize with some tubular epithelial cells as well as with interstitial areas associated with infiltrating cells and peritubular capillaries, the latter possibly reflecting the presence of PDGF-B-laden platelets Figure 7A, iii. This suggested the possibility that platelets, which express CX3CR1 on the cell surface and are a rich source of PDGF-B, might accumulate at lower levels in the outer medulla of CX3CR1 knockout mice compared with wild-type mice. In mice that underwent ischemia-reperfusion injury, we did not detect any fluorescently labeled platelets in the uninjured right kidney negative control, <\connective form=whereas text=whereas id=G9017_FUL6_12.txt.raw_408 relation=Temporal\> we were able to demonstrate accumulation of labeled platelets in the injured left kidney Figure 7C. <\connective form=however text=However id=G9017_FUL6_12.txt.raw_207 relation=Comparison\>, we did not observe a significant difference in platelet accumulation in the injured kidney between wild-type and CX3CR1 knockout mice in this regard data not shown. It is possible that reduced levels of macrophages and fibrosis in the kidneys of CX3CR1 knockout mice undergoing ischemia-reperfusion injury are not caused by direct loss of CX3CR1 regulation of these processes but <\connective form=instead text=instead id=G9017_FUL6_12.txt.raw_474 relation=Comparison\> result from skewed expression of another factors whose expression is dependent on CX3CR1. To begin to test this possibility we performed a focused survey of mRNA expression levels for other chemokines and chemokine receptors in CX3CR1 knockout mice. As expected many inflammatory chemokines were upregulated after injury, <\connective form=although text=although id=G9017_FUL6_12.txt.raw_60 relation=Comparison\> the kinetics of induction varied considerably. For example, macrophage inflammatory protein MIP-1αCCL3 peaked 24 hours after injury, monokine induced by interferon-γ MIG, or CXCL9 and monocyte chemoattractant protein MCP-2 CCL8 were significantly increased in the late phase of injury, and MCP-1 CCL2 was rapidly induced to high levels that persisted throughout the 14-day period of observation. <\connective form=however text=However id=G9017_FUL6_12.txt.raw_208 relation=Comparison\>, there was no significant difference in expression of any of these chemokines at any time point between wild-type and CX3CR1-deficient mice Figure 8, A and B. Inflammatory chemokine receptors were <\connective form=also text=also id=G9017_FUL6_12.txt.raw_481 relation=Expansion\> upregulated after ischemia-reperfusion injury Figure 8C. CCR1 and CXCR2 peaked in the early phase of the injury, and CCR4 and CXCR3 increased significantly in the late phase. Like its ligand MCP-1, CCR2 was induced early after injury and persisted at high levels throughout the 14-day period of observation. As with all of the chemokine receptor ligands examined, there were no significant differences between wild-type mice and CX3CR1-deficient mice in expression of these chemokine receptors at the times monitored after reperfusion. These results are consistent with a model in which CX3CR1 directly mediates macrophage infiltration and subsequent fibrotic processes after ischemia-reperfusion injury of the kidney. To test this model directly, we injected mice intraperitoneally with CX3CR1-neutralizing antibodies or control IgG 1 day before or 1 day after ischemic injury and each day thereafter for a total of 8 or 6 days, respectively. <\connective form=although text=Although id=G9017_FUL6_12.txt.raw_61 relation=Comparison\> antibody injection may activate complement and reduce peripheral white blood cell and platelet counts, we did not observe a significant difference in these parameters in mice injected with CX3CR1 neutralizing antibodies versus control rabbit IgG after ischemia-reperfusion C5a levels: 5.1 ± 0.7 ng/ml versus 5.0 ± 0.9 ng/ml; total WBC: 4794 ± 476/μl versus 5092 ± 499/μl; monocytes: 246 ± 20/μl versus 241 ± 53/μl; lymphocytes: 3719 ± 4451/μl versus 4092 ± 371/μl; platelets: 1047 ± 50 × 103/μl versus 985 ± 36 × 103/μl. CX3CR1 neutralization resulted in significant and specific reduction in the area of fibrosis after injury, measured either by trichrome-stained collagen fibers or α-SMA-staining area Figure 9, A and B. CX3CR1 neutralization before and after injury reduced F4/80+ cell recruitment to the outer medulla by 25 P= 0.087 and 0.077, respectively, whereas genetic inactivation of CX3CR1 reduced F4/80+ cell recruitment to a slightly greater extent 40, P = 0.0013 Figure 9C. <\connective form=thus text=Thus id=G9017_FUL6_12.txt.raw_425 relation=Contingency\> both experimental approaches reduced recruitment of these cells in the model. The small difference in magnitude of the reduction that was achieved with these two techniques may reflect incomplete receptor coverage by the antibody relative to genetic ablation, which by definition affects 100 of receptors. The lack of statistical significance for the neutralization experiments could indicate a chance effect but more likely represents a power issue, <\connective form=because text=because id=G9017_FUL6_12.txt.raw_419 relation=Contingency\> the P values were quite close to the 0.05 cutoff. Renal function, measured as serum creatinine, decreased by ∼50 from baseline by 48 hours after injury in both wild-type mice and CX3CR1-deficient mice Figure 10. To test injured kidney function directly, we analyzed serum creatinine at day 14 <\connective form=after text=after id=G9017_FUL6_12.txt.raw_182 relation=Temporal\> injury in mice that underwent right nephrectomy at day 12 <\connective form=after text=after id=G9017_FUL6_12.txt.raw_183 relation=Temporal\> injury. The results showed an ∼400 increase in serum creatinine of injured wild-type mice relative to sham-operated wild-type mice. Relative to this, in CX3CR1-deficient mice creatinine was reduced by ∼25 at this time point Figure 10. 

In the present study, we have demonstrated a role for the chemokine receptor CX3CR1 in the pathogenesis of renal ischemia-reperfusion injury, based on both CX3CR1 blockade and gene inactivation experiments in a robust mouse model of disease. Taken together, the data support further evaluation of CX3CR1 in the pathogenesis of specific conditions associated with renal ischemia, such as renal transplantation, renal arterial stenosis, or shock because of hemorrhage or sepsis. Our findings confirm previous work identifying acute tubular necrosis and fibrosis as major pathological sequelae of injury in this model and demonstrate for the first time that fibrosis but not acute tubular necrosis results in part from CX3CR1-dependent processes. CX3CR1 is the first chemokine receptor and only the second molecule, with osteopontin, shown to have a major effect on the fibrosis stage of pathogenesis in this model. On a quantitative level, ∼40 of renal fibrosis 7 days after injury could be attributed to CX3CR1 when assessed in either CX3CR1−/− mice or mice injected with neutralizing anti-CX3CR1 antibodies before injury. This resulted in relatively preserved renal function on day 14 in the injured kidney relative to wild-type mice. The mechanism appears to involve in part CX3CR1-dependent accumulation of infiltrating macrophages, which was <\connective form=also text=also id=G9017_FUL6_12.txt.raw_482 relation=Expansion\> reduced by ∼40 by either CX3CR1 deletion or blockade. Macrophages are thought to be important in this model for the fibrotic response, acting through TGF-β 10, 31, 32, 33 and 34. Although TGF-β expression was clearly induced in the model and interstitial infiltrating cells expressed TGF-β, we found no evidence that expression depended on CX3CR1 function. Additional work will be needed to test whether this result is a false negative, which might occur if for example CX3CR1 affected regional localization of TGF-β. In contrast, CX3CR1 did regulate production of the potent fibrogenic macrophage and platelet product PDGF-B, one of the four known PDGF subtypes 12 considered to be an important endogenous fibrogenic mediator in renal disease, both for initiation and progression stages. This pathological function of PDGF-B is thought to result from dysregulation and exaggeration of its normal activity as a mitogenic and chemotactic factor for fibroblasts, which is important in restorative processes such as wound healing 35. These findings are consistent with expression of CX3CR1 on platelets, monocytes, and macrophages, 36 and 37 but its mechanism of action could differ on these cell types. CX3CR1-dependent macrophage infiltration is most likely to involve the known adhesive and chemotactic functions of CX3CR1. In addition, there is precedent for a role for platelets in progression of ischemia-reperfusion injury, both in brain and in coronary artery disease, by facilitating neutrophil infiltration in both cases 38 and 39. We demonstrated in the present study that platelets aggregated in the tubulointerstitial space of the outer medulla <\connective form=and text=and id=G9017_FUL6_12.txt.raw_374 relation=Expansion\> that the blood vessel lumen was positive for PDGF-B. <\connective form=moreover text=Moreover id=G9017_FUL6_12.txt.raw_426 relation=Contingency\>, CX3CR1 on platelets has been reported to regulate platelet adhesion to collagen and fibrinogen 37. Nevertheless, we found no evidence from adoptive transfer studies that CX3CR1 is required for platelet infiltration in the kidney after injury in our model data not shown. <\connective form=if text=If id=G9017_FUL6_12.txt.raw_424 relation=Contingency\> platelets are a significant source of PDGF-B in the model, CX3CR1 could still regulate this at the level of PDGF-B release. This possibility is supported by previous work indicating that CX3CR1 is capable of regulating cell responses unrelated to cell motility, such as neuronal apoptosis and perforin release from cytotoxic T cells. Additional work will be needed to test this hypothesis. Our study <\connective form=also text=also id=G9017_FUL6_12.txt.raw_483 relation=Expansion\> defined the spatial and temporal relationships among CX3CR1-dependent events in this model. With regard to location, all of the molecular and cellular changes that we monitored after injury, whether they were dependent on CX3CR1 or not, co-localized mainly in the outer medulla, which is consistent with previously published descriptions of this model. At the cellular level, F4/80+ macrophages accounted for the great majority of CX3CR1+ cells in situ in the damaged kidney. Geissmann and colleagues 40 have described two populations of mouse monocytes distinguished by expression of CX3CR1. In this regard it appears that ischemia-reperfusion injury of the kidney induces factors, perhaps fractalkine itself, that may selectively recruit the CX3CR1+ subset. With regard to temporal aspects of pathogenesis, CX3CR1-dependent fibrosis was a late event between 2 to 7 days after injury that clearly followed induction of fractalkine, CX3CR1, and PDGF-B in the outer medulla of the kidney, consistent with a causal relationship. Interestingly, fractalkine was constitutively expressed at low levels throughout the kidney but after injury was selectively upregulated in the outer medulla, co-localizing with inflammatory and fibrotic changes. Upregulation <\connective form=also text=also id=G9017_FUL6_12.txt.raw_484 relation=Expansion\> appeared to result from an expansion of the cell types expressing fractalkine in the kidney from endothelial cells in sham-operated mice to include infiltrating cells and tubular epithelial cells after injury. Additional studies will be needed to precisely define the cell types expressing fractalkine in the model; <\connective form=however text=however id=G9017_FUL6_12.txt.raw_209 relation=Comparison\>, the data are consistent with its role in pathogenesis. Injection of exogenous PDGF-B into rat has demonstrated the importance of PDGF-B in renal tubulointerstitial cell proliferation and fibrosis 13. Peak accumulation of type III collagen occurred at 5 to 7 days after PDGF-B injection. These kinetics match favorably the kinetics we observed in our model for both CX3CR1-dependent and -independent PDGF-B expression and the evolution of fibrosis. <\connective form=moreover text=Moreover id=G9017_FUL6_12.txt.raw_427 relation=Expansion\>, differentiation of fibroblasts to myofibroblasts, as indicated by an increase in α-SMA, is a key step of interstitial fibrosis 41 and 42. Consistent with this, the α-SMA-positive area was diminished in CX3CR1-deficient mice to the same degree as for fibrosis, ∼40 7 and 14 days after reperfusion. Taken together, these results demonstrate a cascade of CX3CR1-dependent and -independent molecular and cellular events, involving TGF-β, PDGF-B, macrophages, fibroblasts, and fibrosis, localized mainly to the fragile outer medulla in this model. Molecular regulation of CX3CR1-independent fibrosis is likely to be complex and could include one or more chemokines and chemokine receptors. As we showed in Figure 8, many chemokines were rapidly induced to high levels, suggesting a role in the acute neutrophil-mediated inflammatory phase of injury. <\connective form=however text=However id=G9017_FUL6_12.txt.raw_210 relation=Comparison\>, the kinetics of expression of several such as Mig and MCP-2 and the receptors CCR4, CCR9, and CXCR3 were delayed in the model suggesting that they may be particularly good candidates for future studies of additional chemokine regulation of renal interstitial fibrosis. Recently, chronic allograft nephropathy has been identified as the major factor leading to long-term graft loss after renal transplantation, and progressive tubulointerstitial fibrosis is characteristic of chronic allograft nephropathy 43. Whether CX3CR1 affects outcome in renal allograft transplantation and potentially other clinical settings in which transient renal ischemia occurs is unknown but could possibly be tested by gene association studies of appropriate cohorts using the defective variant of CX3CR1 known as M280, which has been reported to be a risk factor in HIV/AIDS, adult macular degeneration, and atherosclerosis in humans 44,45 and 46. Fractalkine/CX3CR1 has <\connective form=also text=also id=G9017_FUL6_12.txt.raw_485 relation=Expansion\> been reported to play a protective role in certain settings, eg, lipopolysaccharide or interferon-γ challenge in the central nervous system, 47 and 48 and in a model of cardiac allograft tolerance induced by donor-specific blood transfusion 49. This serves as a safety caution for attempts to develop CX3CR1 blocking agents. In summary, our data show that CX3CR1 deletion or blockade attenuates macrophage infiltration and early PDGF-B expression as well as late-phase interstitial fibrosis and renal dysfunction after ischemia-reperfusion injury in a mouse model. These results identify both CX3CR1-dependent and CX3CR1-independent mechanisms of pathogenesis in this model. The results further suggest that CX3CR1 and its cognate ligand, fractalkine, could play roles in the molecular pathogenesis of interstitial fibrosis after renal ischemia-reperfusion injury in humans. Further research is needed to evaluate the clinical relevance of these findings and the potential utility of CX3CR1 as a therapeutic target in relevant clinical settings, particularly in renal transplantation <\connective form=when text=when id=G9017_FUL6_12.txt.raw_200 relation=Temporal\> the time of injury is precisely known and is under exact medical control.