Effective therapy for metastatic melanoma continues to elude us. Experimental therapies include manipulating tumor-infiltrating T lymphocytes to boost immune recognition of melanoma cells via specific antigens, as well as enhancing the antigenicity of tumor cells themselves 1–4. Melanoma–associated antigens include MART-1, TYRP-1 gp75 or gp100 SILV, the transcription of which is governed by the transcription factors SOX10, PAX3 and MITF. A recent study demonstrated that melanomas could be separated into three dominant cohorts based on their MITF status, motility and proliferation 5. Of these samples known as the Mannheim data set, Cohort A consisted of highly proliferative melanoma cells with low metastatic potential and high MITF expression and Cohort C of weakly proliferative cells with high metastatic potential and low MITF expression. Another key discriminator between these cohorts was the gene Wnt5A, which was more highly expressed in the metastatic samples. 

We have previously implicated the gene Wnt5A in melanoma progression 6–8. Wnt5A is a non-canonical Wnt protein that signals via Ca2+/PKC 9. This gene was downregulated in melanomas that had better outcome, and its overexpression correlated with more aggressive disease 7. Interestingly, in the initial study by Bittner et al, the gene Melan-A/MART-1 Melanoma Antigen Recognized by T cells-1 was second only to Wnt5A in its ability to distinguish less aggressive tumors from more aggressive ones and was inversely correlated with Wnt5A expression. Wnt5A overexpression or knockdown using siRNA in melanoma cells identified several genes that were suppressed by Wnt5A overexpression, including metastasis suppressors such as Kiss-1 8. Further analysis of this data set has <\connective form=also text=also id=G9108_FULL.txt.raw_359 relation=Expansion\> highlighted the inverse relationship between Wnt5A and various tumor-associated antigens of melanocytic lineage, including TYRP-1, DCT, gp100, and MART-1. The implication of these data is that the overexpression of Wnt5A correlates with the downregulation of potent melanocytic antigens such as MART-1, and may actually regulate their expression in melanoma. In this study, we examine the mechanism by which Wnt5A regulates the expression of these tumor-associated antigens and the implications of this regulation for melanoma therapy. The Mannheim data is available from NCBI’s gene expression omnibus www.ncbi.nlm.nih.gov/geo, under GEO Series accession #GSE4845. This data set was generated from microarray analysis of 45 primary cultures of melanoma biopsies, using Affymetrix HG-U133 microarray chips. A Student’s two-tailed T-test assuming equal variance was used to determine statistical significance of variation of the specific genes among the cohorts. 

UACC-1273EV, UACC1273-4-3 and UACC1273-4-7, as well the cell lines UACC647, M93-047, and UACC903 have been previously described 8. T2 is a lymphoblastoid cell line deficient in TAP function, whose HLA class I proteins can be easily loaded with exogenous peptides 10 and was grown in RPMI, as were B16 melanoma cells. The melanoma cell line Mel526 <\connective form=also text=also id=G9108_FULL.txt.raw_360 relation=Expansion\> grown in RPMI was a generous gift from Drs. Steven A. Rosenberg and John Wunderlich, Surgery Branch, National Cancer Institute, National Institutes of Health, Bethesda, MD and expresses high levels of MART-1. All media was supplemented with 10 fetal bovine serum, 100 units/ml penicillin/streptomycin, and 2mM L-glutamine all from GIBCO/BRL, Grand Island, NY. Human T lymphocytes were cultured in RPMI with 10 human AB serum Sigma, St. Louis, MO, 0.05μM mercaptoethanol, 0.1mM non-essential amino acids, 0.1mM sodium pyruvate, 10mM HEPES all from Invitrogen, Grand Island, NY and 300 IU/ml IL-2 Hoffmann-LaRoche. Murine splenocytes, collected from 8 week old Pmel-1 TCR Tg mice, were stimulated as described below and cultured in the same media as human T lymphocytes with the exception that human AB serum was replaced with 10 FCS. All T-cell cultures were supplemented with 100 units/ml penicillin/streptomycin and 2mM L-glutamine Invitrogen. 

MART-1 peptide 27–35 AAGIGILTV 11, 12 was synthesized at the University of Maryland Biopolymer Laboratory. Rhodamine-tagged Wnt5A siRNA was designed as previously described 8 and purchased from Qiagen, Valencia, CA. Lipofectamine Plus was from Invitrogen, recombinant murine Wnt5A was from R and D Biosystems, Minneapolis, MN. Gö6983 a specific inhibitor of PKC α, β, γ, δ, and ζ, but not μ and the STAT3 inhibitor peptide were purchased from Calbiochem San Diego, CA. 

SiRNA transfections were performed as previously described; “mock” conditions refer to control siRNAs at 48h 8. RWnt5A was reconstituted in PBS containing 0.1 endotoxin-free BSA 10μg/mLstock, and used at 0.2μg/ml for human melanoma cells and 0.05 μg/ml for mouse B16 melanoma cells. PKC inhibition studies using Gö6983 1μM were performed as previously described 8. Cells were pre-treated with inhibitor for 1 hour and <\connective form=then text=then id=G9108_FULL.txt.raw_102 relation=Temporal\> treated with rWnt5A for 12–16 hours. For vehicle controls, cells were treated with equivalent amounts of DMSO. For STAT3 inhibitor studies, cells were pretreated for 6–12 hours with 100 μg/ml of STAT3 inhibitor peptide in serum-free media SFM, after which rWnt5A was added for 12–16 hours. For vehicle controls, cells were treated with equivalent amounts of sterile water. All experiments were performed in triplicate, and incubated in a 37°C, 5 CO2 incubator. 

Western blots were performed as previously described 8. Sources of antibody and concentrations used are as follows: phospho-pan-PKC 1:1000, phospho-STAT3 ser727 1:500, β-tubulin 1:1000 antibodies were obtained from Cell Signaling Technology Inc Danvers, MA, biotinylated Wnt5A antibody 1:100, R&D, MART-1 mAb clone M2–7C10 1:500, LabVision, Fremont, CA, PAX3 antibody 1:250, Abcam, Cambridge, MA, gp100 antibody 1:500, Novus Biologicals Littleton, CO. 

Primers were designed to generate products of less than 200bp for efficient analysis, and are listed below: 

Vimentin:	forward 5′- ATTCCACTTTGCGTTCAAGG -3′, reverse 5′- CTTCAGAGAGAGGAAGCCGA -3′ CD44:	forward 5′-CCATCTGTGCAGCAAACAAC- 3′, reverse 5′-GAGCTGAAGCATTGAAGCAA -3′ Wnt5A:	forward 5′-TAAGCCCAGGAGTTGCTTTG- 3′, reverse 5′-GCAGAGAGGCTGTGCTCCTA-3′ MART-1:	forward 5′-AGAAGATGCCCACAAGAAGG- 3′, reverse 5′-CGCTGGCTCTTAAGGTGAAT-3′ SOX10:	forward 5′-AAAGACCACCCGGACTACAA- 3′, reverse 5′-TTGCCGAAGTCGATGTGA-3′ IL-6R:	forward 5′-GGGACCATGGAGTGGTAGC- 3′, reverse 5′-ACTGGTCAGCACGCCTCT-3′. 

cDNA was transcribed from 1 μg of total RNA according to the manufacturer’s protocol Applied Biosystems, Foster City, CA, and 200ng was used for real time RT-PCR. Samples were normalized to 18S, using universal 18S primers Ambion, Austin, TX, and the ratio of signal to 18S and the fold increase as compared to controls was calculated using the calculation 2 −ΔΔCT according to the manufacturer’s protocol Perkin Elmer. 

Cells were fixed and blocked as previously described 7 and incubated overnight at 4°C in phospho-STAT3Tyr705 primary antibody Cell Signaling Technology Inc, and <\connective form=then text=then id=G9108_FULL.txt.raw_103 relation=Temporal\> washed three 5 minute washes in PBS-T and stained 1 hour, RT with Alexafluor 594 anti-rabbit IgG Molecular Probes, Eugene, OR. Slides were washed, <\connective form=then text=then id=G9108_FULL.txt.raw_104 relation=Temporal\> mounted in Prolong gold anti-fade Molecular Probes and imaged using a Zeiss Axiovert microscope Thornwood, NY. Tissue arrays were obtained from the Tissue Array Research Program of the National Cancer Institute, Bethesda, MD and the Moffit Cancer Center, University of South Florida, Tampa, FL. Deparaffinization, antigen-retrieval and staining of tissue arrays were performed as previously described 13, 14. Scoring of tissue arrays was performed by a board-certified pathologist SMH. 

HLA-A2-FITC monoclonal antibodies and FITC and PE IgG isotype controls were obtained from BD PharMingen San Diego, CA. Other antibodies and controls used were: MART-1 mAb clone M2–7C10 LabVision, Fremont, CA, rat anti-mouse IgG-FITC ICN Costa Mesa, CA, CD8-PE and human IgG-PE R & D Biosystems. Tumor cells and T cells were stained for the cell surface marker HLA-A2 and tumor cells only were stained internally for MART-1. For surface staining, 2×105 cells were harvested directly or first trypsinized, followed by washing in PBS containing 1 BSA, 0.1 sodium azide FACS buffer, and incubated with target antibody or control FITC/PE isotype control antibodies for 30 min on ice. Intracellular staining for MART-1 was performed by fixing cells in 2 paraformaldehyde for 10 min at 4°C, and permeabilizing cells with 0.02 saponin Sigma in PBS containing 0.2 FCS fetal calf serum <\connective form=before text=before id=G9108_FULL.txt.raw_113 relation=Temporal\> staining with primary antibody 30 minutes, 4°C followed by secondary anti-mouse IgG-FITC antibody 30 minutes, 4°C. Stained cells were washed and resuspended in 600μl PBS, and for each histogram, 5000 cells were counted on a Becton-Dickinson FACScan. Values given in tables reflect the mean channel of fluorescence of the cells. 

2.5×103 human melanoma cells were cultured in a 96-well flat bottom microtiter plate Corning, Inc, Corning, NY for 24–48 hours, after which supernatant was collected and analyzed by ELISA for IL-6 Invitrogen, VEGF and IL-10 both from R & D Biosystems according to the manufacturer’s instructions. 

CD8+ T-lymphocytes were isolated from anti-CD3 200ng/ml, anti-CD28 1 μg/ml stimulated HLA-A2 positive donor T-cells using a CD8 isolation kit Dynal, Invitrogen. Donor T-cells were obtained from healthy volunteers under IRB protocol #NIA2003-054. Anti-CD8-coated beads were added to T-cells in a ratio of 1ul beads per 1×108 T cells in Dynal buffer 2mM EDTA, 0.1 BSA in PBS and incubated for 30 min at 4°C. CD8+ T-cells were magnetically isolated and washed 0.1 BSA in PBS. Finally, a detach solution Dynal, Invitrogen at a 1:10 dilution 1 hour, room temperature was used to remove the beads attached to the CD8+ T-cell fraction. The resulting population, consisting of >90 CD8+ T cells as analyzed by FACS, was electroporated with IVT-capped anti-MART-1 TCR α and β mRNA. 

mRNA encoding GFP was prepared from plasmid pGEM4Z/EGFP/A64 and mRNA encoding TCRα and β chains of MART-1 were prepared from plasmids pGEM4Z/TCRα/A64 and pGEM4Z/TCR β/A64 15, 16 kindly provided by Dr Richard Morgan and Dr Cyrille Cohen, Surgery Branch, National Cancer Institute, Bethesda, Maryland. Briefly, 10 μg of DNA encoding GFP, anti-MART-1 TCRα or TCRβ was linearized with SpeI and run on a 1 agarose gel, after which linearized DNA was purified using the QIAquick gel extraction kit Qiagen InC. IVT RNA was transcribed using the mMESSAGE mMACHINE High Yield Capped RNA Transcription Kit Ambion Inc, Austin TX and purified using LiCl supplied in the mMESSAGE mMACHINE kit. Denaturing gel electrophoresis was used to ensure a single RNA product before electroporation. 10 μg of RNA was electroporated into 5×106 stimulated T-cells or CD8+ T-cells using the human T-cell Nucleofector kit Amaxa Biosystems, Gaithersburg, MD. Electroporated cells were >90 positive for GFP as analyzed by FACS, 8 hours post electroporation. T-cells electroporated with anti-MART-1 TCRα/β RNA were used in an antigen presentation assay with human melanoma cells 8 hours post-electroporation. 

Anti-MART-1 TCR expressing T cells or CD8+ T cells were co-cultured with melanoma cells expressing high and low amounts of Wnt5A or stimulated with MART-1 peptide-pulsed 9μg/mL T2 cells. To test for effects of Wnt5A in priming T cell activation, melanoma cells were pre-treated with rWnt5A or Wnt5A siRNA and used as effectors in T cell activation assays. Briefly, 5×104 irradiated 30Gy melanoma cells were co-cultured in triplicate in a 96-well microtiter plate with 1×105 responder T cells in 200μl T cell culture medium in a 96-well flat bottom plate. Cells were incubated at 37°C for 24 hours and supernatants were assayed by ELISA for interferon gamma according to the manufacturer’s instructions Endogen, Rockford, IL. Each experiment was repeated in triplicate, and standard deviations are represented by error bars. 

C57BL/6 mice and pMEL mice were housed at the National Institute of Aging animal facility, Baltimore, MD. Animal care was provided according to the Guide for the Care and Use of Laboratory Animals ref: National Research Council. Guide for the Care and Use of Laboratory Animals. Washington, DC: National Academy Press; 1985. NIH publication number. 86–23. 

Mice were vaccinated subcutaneously twice at 3-week intervals with 10μg human gp10025–33 peptide emulsified in 100μl incomplete Freund’s adjuvant IFA. Three weeks after the second vaccination, splenocytes were cultured with 20 IU/ml rhIL-2 and 1μg/ml gp10025–33 as previously described 17 and used on day 7 <\connective form=after text=after id=G9108_FULL.txt.raw_133 relation=Temporal\> the initiation of the culture. For in vitro activation of T cells, 1×104 B16 melanoma cells treated or untreated with 50ng/ml rWnt5A were irradiated 30Gy and co-cultured in triplicate with 5×104 pMEL responder T cells in a 96-well flat bottom microtiter plate Corning, Inc, Corning, NY in 200μl T cell culture medium. Cells were incubated at 37°C for 24 hours and supernatants were assayed by ELISA for IFNγ according to the manufacturer’s instructions Endogen, Rockford, IL. Values are the averages of triplicate points, with S.E.M. Control experiments indicated that Wnt5A could not suppress T-cell activation in cells that are pulsed with GP100 peptide Supplementary Figure 3. All assays were repeated at least in triplicate. 

2×105 B16-F10 murine melanoma cells treated with 0.05μg/ml of rWnt5A protein for 16 hours experimental group or untreated control group, were inoculated into the tail vein of 8-week old C57BL/6 mice Jackson Laboratories, Alameda, CA. The experimental group received bi-weekly injections of rWnt5A 75ng/mouse starting the 3rd day after primary tumor cell inoculation. Lung metastases were scored 2 weeks after the inoculation of cells. 

B16 melanoma cells were plated in slide chambers coated with fibronectin or collagen. <\connective form=after text=After id=G9108_FULL.txt.raw_136 relation=Temporal\> cells reached confluency, a scratch was made through the matrix using a sterile pipette tip. Photographs of the scratch were taken at the indicated time points. 

All in vitro assays were repeated in triplicate, or more, and S.E.M was calculated as shown in the individual figures error bars. For staining of tissue arrays, statistical analysis of MART-1 and Wnt5A expression across tumor types was calculated using a test for linear trends in proportions. For in vivo mouse assays a Fisher’s exact test was used to calculate significance between control and Wnt5A treated groups. 





We examined the Mannheim data set 5 for the relationship between melanosomal antigens and Wnt5A expression. Wnt5A was highly expressed in the more metastatic Cohort C, but not in the less metastatic Cohorts A and B Figure 1A. Conversely, expression of MART-1 Figure 1B, MITF, DCT, TYRP1 and SILV GP100 Supplementary Figure 1C—F was significantly lower in Cohort C than in A and B. To confirm these observations in patient biopsies, we performed immunohistochemistry on a melanoma tissue microarray NCI- TARP. These lesions were first scored for Wnt5A and MART-1 status independently. Staining was scored as negative, weak or positive. Overall scoring for the staining of each of these antigens confirmed that Wnt5A expression is increased in subcutaneous and visceral metastases of melanoma as compared to primary melanoma and nevi. On the other hand, MART-1 staining decreases from positivity in almost all nevi to positivity in only about half of all visceral metastases Supplementary Table 1. We then compared Wnt5A and MART-1 levels in each corresponding patient sample on the tissue array examples are shown in Figure 1 C. Scoring was performed as follows: 33 of nevi n=43 had equal staining for Wnt5A and MART-1 and stained positive for both antigens. <\connective form=however text=However id=G9108_FULL.txt.raw_141 relation=Comparison\>, in the 67 of nevi where MART-1 and Wnt5A staining was unequal, every lesion expressed higher MART-1 than Wnt5A Table 1. 56 of primary melanomas n=39 were equivalently stained for MART-1 and Wnt5A, <\connective form=and text=and id=G9108_FULL.txt.raw_235 relation=Expansion\> most were either weakly positive n=11 or positive n=9 for both antigens. 2 tumors were negative for both antigens. In the unequally stained primaries, 18 n=7 expressed more Wnt5A than MART-1, and 27 expressed less n=10. 44 n=8 of subcutaneous metastases total=20 exhibited equal levels of MART-1 and Wnt5A, 28 scored higher for Wnt5A than MART-1 n=6, and 28 scored lower n=6. 50 of visceral metastases n=16 exhibited equal levels of Wnt5a and MART-1 n=8, 44 had higher Wnt5A n=7 and 6 n=1 had lower Wnt5A than MART-1. <\connective form=however text=However id=G9108_FULL.txt.raw_142 relation=Comparison\>, we found a striking discrepancy between staining for Wnt5A in lymph node metastases and other types of melanoma metastases. 51 of lymph node metastases n=23 stained equivalently for Wnt5A and MART-1. Of these over half 23 of total stained negative for both MART-1 and Wnt5A. In the 49 that had differential staining for Wnt5A and MART-1, only 4 expressed less Wnt5A than MART-1. To confirm that these observations were not due to selection bias, we stained a melanoma TMA obtained from a different institution the Moffit Cancer Center. We confirmed the same trend: in the 16 visceral metastases scored, 10 were positive for both Wnt5A and MART-1, 5 had greater Wnt5A staining than MART-1 staining, and only 2 had weak Wnt5A staining as compared to strong MART-1 staining. In the 30 lymph node metastases scored, the reverse was true: 5 had stronger Wnt5A staining than MART-1, 13 had stronger MART-1 staining than Wnt5A. Adding both sets of lesions gave a ratio of Wnt5A high: MART-1 low samples of 12:3 in visceral metastases as compared to 6:23 in lymph node metastases confirming our observation of a striking difference in Wnt5A expression in different types of metastatic lesions. These lesions were not selected based on MART-1 status and the staining results are consistent across two different arrays composed of samples from several different institutes, making artificial bias unlikely. Furthermore, these results were supported by the demonstration that transfection of Wnt5A-low UACC1273 cells with a plasmid overexpressing WNT5A results in a dramatic downregulation of MART-1 RNA by 24h Figure 1D. 

MART-1 transcription is controlled by MITF, which in turn is regulated by the transcription factor PAX3 18. PAX3 expression can be downregulated by STAT3 activation 19. PKC has been implicated in the phosphorylation of STAT3 on its serine727 residue 20, and Wnt5A activates PKC 21. We hypothesized that Wnt5A activation of PKC could lead to STAT3 phosphorylation, and ultimately MART-1 downregulation Figure 2A. 

Upon transfection with WNT5A, UACC1273 cells showed a dramatic and sustained increase of nuclear, phosphorylated STAT3 Figure 2B, UACC1273. Conversely, treatment of Wnt5A-high M93-047 cells with siRNA against WNT5A resulted in a loss of PO4-STAT3 Figure 2B, M93-047. Western analysis confirms that there was a dramatic increase in the levels of PO4-STAT3 ser727 upon treatment with recombinant Wnt5A rWnt5A Figure 2C- PO4-STAT3. Treatment of UACC903 Wnt5A-high cells with Wnt5A siRNA results in a significant decrease of PO4-STAT3 Figure 2C. Furthermore, PO4-STAT3 increases corresponded to decreases in MART-1 expression, and PO4-STAT3 decreases corresponded to MART-1 increases Figure 2C. It has been shown that STAT3 phosphorylation can decrease the expression of PAX3, which is required for MITF transcription. Treatment of Wnt5A-low cells with rWnt5A downregulated the expression of PAX3, and MITF Figure 2D. Knockdown of Wnt5A with siRNA results in an increase in expression of both PAX3 and MITF Figure 2D. These data imply that Wnt5A can modulate MART-1 expression, as well as that of MITF and PAX3. 

We have previously demonstrated that both rWnt5A and PMA treatment of Wnt5A-low melanoma cells results in a sustained increase of PKC activity 8. PMA treatment <\connective form=also text=also id=G9108_FULL.txt.raw_361 relation=Expansion\> increased the level of PO4-STAT3 Ser727, which correlated with decreases in MART-1 Figure 3A. Conversely, PKC inhibition of Wnt5A-high UACC903 melanoma cells resulted in reduced PO4-STAT3 Ser727 levels, and increased MART-1 expression Figure 3B. To ascertain whether PKC activation was required for Wnt5A-mediated STAT3 phosphorylation and MART-1 down-regulation, cells were pre-treated with the PKC inhibitor GÖ 6983 and <\connective form=then text=then id=G9108_FULL.txt.raw_106 relation=Temporal\> treated with rWnt5A. In the presence of PKC inhibitors, rWnt5A had no effect on either PO4-STAT3 or MART-1 Figure 3C. Similarly, when cells were pre-treated with the STAT3 inhibitor peptide PpYLKTK-AAVLLPVLLAAP, subsequent treatment with rWnt5A in the continued presence of inhibitor did not alter MART-1 or PAX3 levels, indicating that Wnt5A signaling requires both PKC and STAT3 activation for the regulation of MART-1 Figure 3D. 

Donor T-cells were transfected with capped mRNA coding for the α- and β-chains of the T-cell receptor for MART-1, according to the protocol of Cohen et al 15. These cells were then co-cultured with melanoma cells in which Wnt5A levels were manipulated. Figure 4A, B. UACC903 cells have moderate to high levels of Wnt5A expression, <\connective form=but text=but id=G9108_FULL.txt.raw_122 relation=Comparison\> unlike other Wnt5A-high lines eg, UACC647, UACC903 <\connective form=also text=also id=G9108_FULL.txt.raw_362 relation=Expansion\> express some MART-1, albeit less than UACC1273EV cells Figure 4B. Interferon-γ release was assayed as a measure of T-cell activation and demonstrated that Wnt5A-high, MART-1 negative UACC647 cells could not activate T cells Figure 4C, whereas UACC1273EV cells low Wnt5A, high MART-1 could. Upon incubation of UACC1273EV cells with rWnt5A, they lose their ability to activate T cells Figure 4C. RWnt5A alone has no effect on IFNγ release, excluding the possibility that Wnt5A in the media could affect T cells directly Figure 4C. UACC903 cells, which express both Wnt5A and low levels of MART-1, are <\connective form=also text=also id=G9108_FULL.txt.raw_363 relation=Expansion\> able to efficiently activate T cells Figure 4C, but inhibiting Wnt5A with siRNA greatly increased T-cell activation by these cells Figure 4C. Mel526 cells, and T2 cells pulsed with MART-1 peptide, were used as positive controls for T-cell activation. 

B16 melanoma cells were assayed in vitro for expression of Wnt5A, and were shown to express very little Wnt5A data not shown. B16 cells were <\connective form=then text=then id=G9108_FULL.txt.raw_108 relation=Temporal\> treated with rWnt5A and analyzed for the expression of the SOX10 transcription factor Figure 5A, and <\connective form=also text=also id=G9108_FULL.txt.raw_364 relation=Expansion\> for increases in PO4-PKC and concomitant downregulation of gp100 Figure 5B. The downregulation of gp100 upon treatment of B16 cells with rWnt5A was associated with a decreased ability of B16 cells to activate gp100-specific T cells Figure 5C. Gp100 specific T-cells were isolated from pMEL transgenic mice as described in the Methods section. Wnt5A treatment does not cause a general immunosuppressive effect, as gp100-pulsed EL4 cells continue to activate gp100 specific T-cells even in the presence of rWnt5A Supplementary Figure 3. 

Upon treatment with rWnt5A, B16 melanoma cells demonstrated increases in CD44 and vimentin, two molecules we have previously shown to be increased by Wnt5A in human cells and associated with increased melanoma metastases Supplementary Figure 4A. These changes correlated with increases in B16 cell motility, as measured by an in vitro wound-healing assay Supplementary Figure 4B. Briefly, cells were grown to confluency on a fibronectin-coated dish, and a scratch wound was inflicted on the monolayer. RWnt5A-treated B16 cells closed the wound much faster than untreated cells, indicating that Wnt5A increases the motility of these cells. <\connective form=although text=Although id=G9108_FULL.txt.raw_70 relation=Comparison\> B16 cells are known to be metastatic in vivo, we could decrease the number of metastases to almost zero by decreasing both the number of cells injected into the mouse, and the time allowed for the mice to develop metastases. B16 cells were pre-treated with either a vehicle control or rWnt5A and 2×105 cells were injected via the tail vein into C57BL/6 mice. Injections of 75ng of rWnt5A per mouse were given twice a week to the mice bearing rWnt5A-treated B16 cells. After two weeks, mice were sacrificed and scored for lung metastases. 100 of Wnt5A-treated mice had metastases, <\connective form=and text=and id=G9108_FULL.txt.raw_274 relation=Expansion\> most 7/10 had too many metastases to count scored as “greater than 50”. In contrast, 3/10 mice injected with untreated B16 cells had metastases p<0.01, only one of which had over 50 metastases Figure 5D. <\connective form=although text=Although id=G9108_FULL.txt.raw_71 relation=Comparison\> many of the individual metastatic colonies are highly pigmented, several others showed lighter pigment Figure 5D, arrows. This is a phenomenon we have observed with cultured cells upon treatment with Wnt5A, and may be attributable to decreases in melanosomal antigens involved in melanin production Supplementary Figure 2. These data clearly demonstrate the ability of Wnt5A to increase metastases in vivo. We <\connective form=also text=also id=G9108_FULL.txt.raw_365 relation=Expansion\> attempted to perform subcutaneous tumor growth and metastasis assays to determine the effects of co-transfecting gp100 specific T-cells with B16 melanoma cells in the presence or absence of rWnt5A. <\connective form=however text=However id=G9108_FULL.txt.raw_143 relation=Comparison\>, rWnt5A caused such severe ulceration of the primary lesion, that we could not draw any conclusions from these assays. 


We have previously demonstrated that Wnt5A signaling increases melanoma cell motility 7, 8 and here, we confirm this finding in vivo. We show here that the ratio of Wnt5A positive to MART-1 negative tumors increased dramatically <\connective form=as text=as id=G9108_FULL.txt.raw_350 relation=Temporal\> tumors progressed. A striking exception to this rule was in lymph node metastases, where most tumors had lower Wnt5A expression than MART-1 expression. Much discussion has focused on the origins of metastases in melanoma. Studies have shown that in animal models of melanoma, pulmonary metastases occur even in the absence of lymph node metastases, underscoring a potential difference between hematogenous and lymphatic routes of tumor cell dissemination 22. In support of this, recent studies have shown that even <\connective form=though text=though id=G9108_FULL.txt.raw_128 relation=Comparison\> younger patients develop more sentinel lymph node metastases than older patients, outcome is poorer for older patients, due to increased visceral metastases 23. This may depend on the type of invasion, whether it is an “amoeboid” type of migration, which does not involve proteases, and is more likely to favor lymphatic dissemination, or whether the invasion is a mesenchymal-type invasion that requires the secretion of matrix-metalloproteinases and molecules such as CD44 24, 25. <\connective form=if text=If id=G9108_FULL.txt.raw_312 relation=Contingency\> indeed the phenotype of invasion dictates the route of metastatic dissemination, these observations would account for why less than 30 metastases identified in the lymph nodes tend to be Wnt5A positive as opposed to 95 in the other metastatic subtypes. Importantly, these data indicate that Wnt5A may be modulating a very specific type of tumor invasion, which sentinel node imaging might overlook. How the expression levels of Wnt5A and MART-1 correlate to survival in melanoma patients is the subject of a larger ongoing study in our laboratory. 

Tumor-associated antigens are used as targets for immunotherapy 11, 26. <\connective form=but text=but id=G9108_FULL.txt.raw_124 relation=Comparison\> the clinical success of targeted immunotherapy has been somewhat limited. We propose that this may be due to the presence of Wnt5A-positive tumor cells, prone to metastasis, which <\connective form=also text=also id=G9108_FULL.txt.raw_366 relation=Expansion\> express less MART-1 and other similar antigens. Indeed, overexpression of Wnt5A has been associated with poorer outcome for patients with both cutaneous and uveal melanoma 7, 27, where increased MART-1 expression in primary tumors is a predictor of more favorable outcome 28. In the present study, we have shown that the inverse relationship between the expression of Wnt5A and melanoma antigens is not simply a correlation, but is cause and effect. <\connective form=although text=Although id=G9108_FULL.txt.raw_72 relation=Comparison\> our current study has focused on MART-1, other antigens such as gp100, DCT and TYRP1, regulated by the same set of transcription factors PAX3, SOX10 and MITF, show a similar inverse relationship to Wnt5A Supplementary Figures 1, 2. 

It has been shown that STAT3 activation results in a loss of PAX 3 expression 19. Several studies have implicated various PKC isoforms in the phosphorylation of STAT3 at serine727. Signaling via janus kinases activates PKC epsilon, which in turn phosphorylates STAT3 29. Phorbol ester causes STAT3 activation, and inhibitors of PKC can ablate STAT3 in thyrocytes 30. Our current data support these observations and further, Wnt5A-mediated STAT3 activation did not occur in the presence of PKC inhibitors, demonstrating the necessity of PKC in this process. STAT3 is a known immunosuppressor 31, and melanoma cells that have activated STAT3 <\connective form=also text=also id=G9108_FULL.txt.raw_367 relation=Expansion\> secrete increased levels of immunosuppressive cytokines such as VEGF 32, IL10, and IL-6 31. IL-6 expression can inhibit the maturation of dendritic cells, contributing to the immunosuppressive effects exerted by tumor cells 33. In our melanoma cells, increased Wnt5A expression corresponded to IL-6 release, but not IL-6 receptor status Supplementary Figure 5A and B. Other studies have <\connective form=also text=also id=G9108_FULL.txt.raw_368 relation=Expansion\> identified a relationship between Wnt5A and IL-6 34, 35. We believe that in our cells it is unlikely that increased IL-6 is acting to activate STAT3, due to high SOCS3 levels, and IL-6 receptor levels that do not correlate with increases in STAT3 Supplementary Figure 5C. 

In summary, we demonstrate for the first time that, in addition to promoting melanoma metastasis, Wnt5A can downregulate the expression of melanoma differentiation antigens via PKC and STAT3 activation. <\connective form=although text=Although id=G9108_FULL.txt.raw_73 relation=Comparison\> common, these are not the only antigens used as targets for immunotherapy. <\connective form=however text=However id=G9108_FULL.txt.raw_144 relation=Comparison\>, even other immunotherapeutic targets such as β-catenin, can <\connective form=also text=also id=G9108_FULL.txt.raw_369 relation=Expansion\> be affected by Wnt5A expression. Wnt5A can downregulate β-catenin expression, by promoting its degradation via a Siah2/APC dependent pathway 36, 37. In the current study, we focused on the part of the Wnt5A signaling pathway that involves PKC, <\connective form=but text=but id=G9108_FULL.txt.raw_127 relation=Comparison\> data from these other groups suggest that the effects of Wnt5A may be even more widespread, lending further credence to our proposal that targeting Wnt5A may enhance the current immunotherapy available for melanoma. Further, for viable immunotherapeutic targets that are Wnt5A-independent, our data suggest that these targets may be more appropriate targets upon which to focus. Current improvements to techniques such as the efficient generation of antigen-specific CTLs hold great promise for immunotherapy 4, 11, and our data suggest that the efficacy of such treatments could be improved upon by pretreatment with either STAT3 inhibitors or Wnt5A inhibitors.