A 2005 National Assessment of Adult Literacy report indicated that 14 of American adults have below basic literacy skills, and another 29 have only basic skills,1 reflecting an Institute of Medicine IOM report that 90 million Americans have difficulty understanding and acting on health information 2. Limited capacity to read, understand, and act on health information is associated with poor health outcomes. 3Y10 Low literacy is correlated strongly with low formal education level, which in turn is associated significantly with a higher incidence, prevalence, morbidity, and mortality of rheumatoid arthritis RA11Y13; other rheumatic diseases 14; and most other diseases 15. Low literacy may be a mutable risk factor for poor health and outcomes in rheumatic and other chronic diseases. Several tests have been designed to assess literacy in medical care settings; the most commonly cited is the Rapid Estimate of Adult Literacy in Medicine REALM 16Y18. Identifying low literacy in adults with arthritis and other rheumatic diseases could be helpful to caregivers and researchers. One consideration was that a more disease-specific literacy test for people with arthritis might provide a useful supplement or even alternative to the REALM for these patients, leading to development of an Arthritis-Adapted REALM A-REALM 19. This report presents observations concerning unexpected difficulties with literacy identified on the REALM and A-REALM in a rheumatology clinical care setting in which no patient met the criteria for severely low literacy. 


All setting were seen at a weekly academic rheumatology setting by T.P. at Vanderbilt University between April and September 2000. Each patient seen in this setting completed a Multidimensional Health Assessment Questionnaire MDHAQ20 in the waiting room before each visit21 in the infrastructure of routine care22 from 1982 to 2007. Over the 10-week period of this study, each of 194 consecutive patients with various rheumatic diseases was seen in a private room by C.J.S. before being seen by T.P. to administer the REALM and A-REALM, alternating which was administered first. Administration of patient questionnaires and maintenance of a longitudinal database were approved by the Committee to Protect Human Subjects of the institutional review board of Vanderbilt University. The data were analyzed in a deidentified data set in compliance with regulatory and institutional guidelines. 

The REALM is a word recognition test that measures an individual’s ability to pronounce words in ascending order of difficulty Table 1. <\connective form=although text=Although id=G9244_FULL.6_10.txt.raw_17 relation=Comparison\> not designed to measure comprehension, <\connective form=if text=if id=G9244_FULL.6_10.txt.raw_123 relation=Contingency\> an individual has difficulty pronouncing words in isolation, a beginning-level reading skill, he/she is likely to have difficulty with comprehension, a higher-order skill 17. All test words on the REALM are commonly used health terms,17 and REALM scores are correlated significantly with the Test of Functional Literacy in Adults and other standardized reading tests commonly used in health, education, and occupational settings 18. Minimal training is required to administer the REALM. Patients who take the REALM are asked to say the words out loud, beginning with the first word in column 1. Dictionary pronunciation is the scoring standard 16. When a patient encounters a word that he/she cannot read, he/she is told to do the best he/she can, or say ‘‘skip’’ and go on to the next word. <\connective form=if text=If id=G9244_FULL.6_10.txt.raw_124 relation=Contingency\> the patient stops, he/she is asked to look down the list and pronounce as many of the remaining words that he/she can. There is no time limit, <\connective form=although text=although id=G9244_FULL.6_10.txt.raw_18 relation=Comparison\> the test is generally completed within 2 to 3 minutes 17. The examiner marks patient responses on a separate form, which is easily scored by counting the number of incorrect pronunciations and skipped words and subtracting from the total Raw REALM scores can be classified into 1 of 4 reading grade levels: third grade or less score range, 0Y18, fourth to sixth grade score range, 19Y44, seventh to eighth grade score range, 45Y60, and ninth grade and above score range, 61Y66. In this study, low literacy is defined as a score of less than 61, indicating a reading level of eighth grade or less 16. The A-REALM is modeled after the REALM, also as a 1- page instrument that lists 66 health words arranged in increasing order of difficulty on 3 widely spaced columns Table 2. Words included on the A-REALM are commonly used in forms, patient education materials, and patient care, but differ from those on the REALM in being specific to arthritis. An identical procedure was used to administer and score the REALM and A-REALM. 

MDHAQ,20,23 a self-report questionnaire derived from the Health Assessment Questionnaire HAQ,24 was completed by all patients at all visits in the infrastructure of routine care.22 The MDHAQ includes scores for physical function in 10 activities of daily living,20,23 as well as visual analog scales for pain, global status, and fatigue, and demographic data 20. Rheumatology function tests of grip strength, walk time, and button test25 were administered to patients as part of standard care at every visit. Erythrocyte sedimentation rate ESR and C-reactive protein CRP were <\connective form=also text=also id=G9244_FULL.6_10.txt.raw_149 relation=Expansion\> determined for each patient with RA. All other measures were recorded on the same date as the REALM and A-REALM. 

Scores on the REALM and A-REALM were compared with one another using Pearson and intraclass correlations ICCs consistent with REALM analyzes in the medical literature 16. A univariable regression using the A-REALM score as an independent predictor of the REALM score was <\connective form=also text=also id=G9244_FULL.6_10.txt.raw_150 relation=Expansion\> completed to estimate the variation observed in REALM scores explained by A-REALM scores; kappa statistics were computed to estimate agreement of REALM and A-REALM scores based on the accepted dichotomization of low literacy as a score of less than 61 16. Measures of MDHAQ physical function, pain, global status, and laboratory tests and physical measures were com- pared across the dichotomized literacy score groups, using appropriate 2-group independent tests to assess statistical significance. REALM and A-REALM scores were <\connective form=also text=also id=G9244_FULL.6_10.txt.raw_151 relation=Expansion\> compared with changes in MDHAQ scores from the patient’s first clinic visit to the visit at which the literacy tests were administered. All analyzes were performed using Stata 9.2 College Station, TX. 

A total of 194 patients participated in the study: 153 79 were female, and 183 94 were white. Patients ranged in age from 22 to 86 years, with a mean age of 56.5 years. No patient refused to complete the REALM and A-REALM, each of which was completed in 2 to 3 minutes, possibly in part <\connective form=because text=because id=G9244_FULL.6_10.txt.raw_122 relation=Contingency\> patients in this clinical setting are accustomed to completing questionnaires and additional studies from time to time to improve the quality of their care 26. The mean score on the REALM was 61.9 SD, 7.9, with a range of 21 to 66. Scores of less than 61, indicating low literacy reading below a ninth-grade level, were seen in 35 patients 18 on the REALM, including 13 of the 86 of all patients who reported having completed 12 years of education Table 3. The mean score on the A-REALM was 61.6 SD, 6.5, with a range of 30 to 66. A-REALM scores of less than 61 were seen in 46 patients 24, including 33 of 35 patients with REALM scores of less than 61 Table 3. No participant was classified as having severely low literacy at or below a third-grade level, with scores of less than 18 on the REALM or A-REALM. Nonetheless, words that were not read correctly by more than 10 of patients included, on the REALM, diagnosis 14, osteoporosis 17, and inflammatory 10 Table 1, and on the A-REALM, rheumatologist 11, cartilage 14, and symptom 14 Table 2. More than 20 of patients could not read impetigo on the REALM Table 1, and Plaquenil, anesthetic, toxicity, cardiovascular, degenerative, and Naprosyn on the A-REALM Table 2. REALM and A-REALM scores were correlated significantly Fig Pearson r = 0.94, P G 0.0001. As noted, 33 of 35 patients with REALM scores below 61 had A-REALM score below 61, and 33 of 46 patients with A-REALM scores below 61 had REALM scores below 61 Table 4, P G 0.001. The measure of concordance between the dichotomized REALM and A-REALM showed high agreement beyond chance alone J = 0.77, P G 0.001; the ICC between the continuous measures indicated even higher agreement ICC = 0.95, P G 0.0001. In a univariable linear regression, REALM scores explained 88 of variation in A-REALM scores r2 = 0.88, P G 0.001 Fig. 

Patients with REALM or A-REALM scores below 61 and those with scores of 61 or greater differed significantly in age and level of formal education, but not duration of disease Table 3. Patients with REALM or A-REALM scores below 61 had poorer status for physical function, pain, fatigue, and global status, and ESR, CRP, walking time, button test, and grip strength the only measure for which higher values indicated better status Table 3, but only differences in scores for global status were statistically significant. 

REALM and A-REALM results indicated an unexpected observation that more than 10 of patients who had been living with RA for an average of 11 years could not read the words diagnosis, osteoporosis, inflammatory rheumatologist, cartilage, and symptom correctly Tables 1 and 2. This information was ascertained in about 5 minutes in usual clinical care, without any requirement for special training or equipment. The proportion of patients reading below a ninth-grade level 18 was almost identical to that found in a study of RA patients in Glasgow, Scotland,27 which indicated that 18 15 of 127 patients had REALM scores of less than 61 low literacy. In that study, 4 patients refused to take the test, 3 of whom said they could not read, <\connective form=so text=so id=G9244_FULL.6_10.txt.raw_43 relation=Contingency\> the low literacy rate might be 17 27. We are unaware of other previous reports concerning literacy in rheumatology settings. The current study may underestimate a relationship be- tween low literacy and poor clinical status for 3 reasons. a Literacy levels in this study population seen in a clinical setting of one rheumatologist at Vanderbilt University in Nashville, TN, were higher than reported previously from other clinical settings in the United States,16,28Y36 including from a diabetes clinic at Vanderbilt 28b. Patients in this setting are accustomed to complete self-report questionnaires at each visit. c Insufficient numbers were available to document statistically significant relationships between low literacy and health status, as have been seen with low levels of formal education 14,37Y40. The finding of similar results on the REALM and A-REALM in this study reflects evidence that the REALM is useful in many types of diseases and healthcare settings. Disease-specific words did not seem to offer an important ad- vantage, as seen for a 60-word Literacy Assessment of Diabetes scale, modeled after the REALM, which <\connective form=also text=also id=G9244_FULL.6_10.txt.raw_152 relation=Expansion\> is correlated significantly with REALM scores r = 0.90 41. The REALM was informative in patients with all types of rheumatic diseases ranging from systemic lupus erythematosus to ankylosing spondylitis, as was the MDHAQ in this clinical setting 42. The data confirm that the general underlying skill measured in the REALM is reading ability, rather than disease-specific knowledge. Several limitations are seen in this study. First, there were relatively few patients with low literacy, and none with severely low literacy. Furthermore, word recognition tests such as the REALM and A-REALM are informative only in English- speaking patients or in any single language. Improvement of literacy alone may have limited benefits to improve health, as low literacy is a marker correlated with psychosocioeconomic and self-management variables associated with health status 43. <\connective form=nonetheless text=Nonetheless id=G9244_FULL.6_10.txt.raw_147 relation=Comparison\>, development of self-management skills and enhanced patient capacity to access information and participate in programs would be advanced by adhering to the recently released US Department of Health and Human Services National Action Plan to Improve Health Literacy, which calls for development and dissemination of health information that is accurate, accessible, and actionable and for more patient-centered health services 44. The Health Literacy Action Plan emphasizes the IOM’s Health Literacy report, which states that people need information they can understand and use to make informed decisions and take action to promote their health 2. Yet, this plan reports that research has clearly indicated that most health information is presented in a way that is not usable by the average adult to enhance capacities to access information and participate in programs. We suggest that wider use of the REALM in research studies as well as in usual clinical settings would be more desirable than development of further ‘‘disease-specific’’ versions of the REALM. We regard the HAQ and MDHAQ as ‘‘generic’’ indices of function for patients with all diseases 45,46 and <\connective form=similarly text=similarly id=G9244_FULL.6_10.txt.raw_125 relation=Expansion\> would regard the REALM as a ‘‘generic’’ indicator of literacy in all diseases. Reduction of literacy-related barriers may help to narrow widening disparities in health according to socioeconomic status.