Idiopathic Parkinson's disease PD, a neurodegenerative disorder of unknown etiology, is second only to Alzheimer's disease in incidence Dauer and Przedborski, 2003. PD is characterized pathophysiologically by the loss of dopaminergic neuronal bodies within the substantia nigra pars compacta SNpc and striatal termini in the caudate and putamen Marsden, 1983. Current therapies for PD provide, in significant measure, only palliative or symptomatic relief. Recent works from our laboratory demonstrated that Cop-1 immunization elicits significant neuroprotection from MPTP-induced degeneration of dopaminergic neurons in the SNpc and striata Benner et al, 2004 and Boska et al, 2005. Immunocytes from Cop-1 immunized mice, when adoptively transferred to MPTP-treated recipients modulate microglial responses and protect the nigrostriatal system with associated increased expression of astrocyte-associated glial cell derived neurotrophic factor GDNF. The protective response was Cop-1 specific as adoptive transfer of immune cells from ovalbumin OVA immunized mice did not elicit neuroprotective activities. These results are in keeping with a variety of other reports that demonstrated T cell-mediated neuroprotection in degenerative and traumatic disease models of the nervous system Hammarberg et al, 2000, Hauben et al, 2000, Kipnis et al, 2000, Moalem et al, 2000a, Moalem et al, 2000b, Schluter et al, 1995 and Shaked et al, 2004. Indeed, activated T cells that accumulate at sites of central nervous system CNS injury can elicit protection against damaged areas of the brain and spinal cord Kipnis et al, 2000, Kipnis et al, 2004 and Moalem et al, 2000b. Cop-1 is a mixture of randomly synthesized polymers comprised of 4 amino acids, glutamic acid, alanine, tyrosine, and lysine and is approved for clinical use in remitting-relapsing multiple sclerosis. It is thought to act at several different levels in the immune response including as a blocker of MHC class II function, a T cell receptor antagonist, and a potent inducer of regulatory T cells Arnon and Aharoni, 2004. <\connective form=although text=Although id=G9275_FUL6_12.txt.raw_35 relation=Comparison\> the exact molecular mechanism by which Cop-1 mediates neuroprotection is not fully understood, Cop-1 reactive T cells and antibodies have partial cross-reactivity with myelin basic protein and other self-antigens expressed in the brain Arnon and Sela, 2003, and immunization with Cop-1 leads to increased T lymphocyte infiltration in areas of neural injury. In the current report, the relative roles of cellular or humoral mechanisms associated with Cop-1-mediated protection were <\connective form=also text=also id=G9275_FUL6_12.txt.raw_219 relation=Expansion\> investigated. T cells from Cop-1 immunized animals protected the nigrostriatal system of MPTP-intoxicated mice in a dose-dependent manner. Transfer of anti-Cop-1 antibodies showed no protective activities. Interestingly, CD4+ T lymphocytes elicited a more robust neuroprotective capacity when compared to the same numbers of CD8+ T cells. These data, taken together, extend our previous observations one significant step by delineating the primary role of CD4+ T cells in the neuroprotective responses. Such observations have relevance in the development of an effective vaccine for PD. 


Male, 7–10 weeks old SJL mice Jackson Laboratory, Bar Harbor, ME received one of four i.p. injections every 2 h consisting of either phosphate-buffered saline PBS vehicle 10 ml/kg body weight or MPTP–HCl Sigma-Aldrich, St Louis, MO at 21.78 mg/kg body weight 18 mg/kg free base in PBS. All animal procedures were in accordance with National Institutes of Health guidelines and were approved by the Institutional Animal Care and Use Committee of the University of Nebraska Medical Center. MPTP handling and safety measures were in accordance with established published guidelines and current safety practices within our own laboratories Przedborski et al, 2001. 

Mice were immunized with a total dose of 200 μg of Cop-1 emulsified in complete Freund's adjuvant Sigma-Aldrich and administered s.c. at the base of the tail in 2–50 μl boli. Six days after immunization, mice were sacrificed, peripheral blood harvested, and single-cell suspensions prepared from the inguinal lymph nodes and spleen. Erythrocytes were lysed from cell suspensions and the remaining cells washed and resuspended. For high titered serum, mice were boosted twice every 14 days with an equivalent amount of Cop-1 in incomplete Freund's adjuvant and peripheral blood was harvested 6 days <\connective form=after text=after id=G9275_FUL6_12.txt.raw_69 relation=Temporal\> the final boost. Blood was allowed to clot and serum was harvested. Lymphoid cells in 250 μl of Hanks' balanced salt solution and pooled serum were adoptively transferred i.v. to separate groups of MPTP-intoxicated mice 12 to 18 h <\connective form=after text=after id=G9275_FUL6_12.txt.raw_70 relation=Temporal\> the last MPTP injection. 

Titers of Cop-1 antibodies in mouse serum from immunized mice were determined by ELISA. Wells of Immulon II plates Thermo Electron Corp., Waltham, MA were coated with 100 μl of 10 μg/ml Cop-1 Sigma-Aldrich in PBS, pH 7.2 and incubated at 37 °C for 2 h. Plates were washed with PBS and nonspecific binding was blocked by the addition of 1 BSA in PBS, pH 7.2 with incubation at 37 °C for 1 h. Plates were washed with 0.5 Tween 20 Sigma-Aldrich in PBS PBS-T, and to each well was added 100 μl of diluted serum from samples that were initially diluted 1:50 in PBS-BSA <\connective form=then text=then id=G9275_FUL6_12.txt.raw_56 relation=Temporal\> diluted by either 2-fold or half-log10 serial dilutions. Plates were incubated at 37 °C for 1 h and washed with PBS-T. To each well was added 100 μl of a 1:5000 dilution of horseradish peroxidase conjugated goat anti-mouse antibody that recognized mouse IgM, IgA, IgG1, IgG2a, IgG2b, or IgG3 SouthernBiotech, Inc, Birmingham, AL. Plates were incubated at 37 °C for 1 h, washed with PBS-T, and reacted with 100 μl of 2.2 mM o-phenylenediamine dihydrochloride/0.012 hydrogen peroxide Sigma-Aldrich, Inc in citrate buffer, pH 5.2. Reactions were allowed to proceed for 15 min and stopped with 50 μl of 2N H2SO4. Plates were read at 490 nm with an ELISA reader Vmax Kinetic Microplate Reader, Molecular Devices, Corp, Sunnyvale, CA and data acquired with software provided by the manufacturer SOFTmax Pro 3.0. Titers were determined as the dilution from the last well to achieve reactivity greater than control wells without samples. 

Single cell suspensions of unfractionated lymphoid cells and T cells were prepared from Cop-1 vaccinated donors. T cells were enriched by negative selection with either magnetic cell sorting using a T cell enrichment kit and AutoMACS Miltenyi Biotech, Auburn, CA or CD3 T cell isolation columns R&D Systems, Minneapolis, MN. For purification of specific T cell subsets, CD3+ T cells from columns were incubated with superparamagnetic beads conjugated to anti-CD8 or anti-CD4 antibodies Miltenyi Biotech and enriched by negative selection with AutoMACS Miltenyi Biotech. For flow cytometric FCM analysis, samples of enriched cells were incubated with FITC- or PE-conjugated antibodies that recognized epitopes to CD3, CD19, CD4, or CD8 BD Biosciences, San Jose, CA. Anti-CD4 and anti-CD8 antibodies used for FCM analysis recognize disparate epitopes than antibodies used for negative selection. FCM analysis was performed with a FACSCalibur cytometer BD Biosciences and Cell Quest software BD Biosciences. 

Seven days after MPTP intoxication, mice were sacrificed, transcardially perfused with PBS followed by 4 paraformaldehyde in PBS, brains excised, post-fixed overnight, cryopreserved for 48 h in 30 sucrose, and snap-frozen in 2-methylbutane. Frozen brains were mounted in OCT media, cut into 30 μm thick sections with a cryostat Leica, Bannockburn, IL, and sections from the SN and striata collected as free floating tissues. Sections from SN and striata were concomitantly immunostained for expression of tyrosine hydroxylase TH with rabbit anti-TH antibody 1:2000; Calbiochem/EMD Biosciences, Inc, San Diego, CA. Anti-TH immunoglobulin was detected with biotinylated goat IgG anti-rabbit Ig 1:200 to 1:400 followed by streptavidin-conjugated horseradish peroxidase HRP Vectastain ABC kit; Vector Laboratories, Burlingame, CA. HRP was visualized with 3,3′-diaminobenzine Vector Laboratories after reaction with glucose oxidase-generated hydrogen peroxide. Sections were mounted to microscope slides and nigral sections were stained for Nissl with thionin. All sections were dried and covered with glass coverslips. Numbers of TH+ and Nissl-stained neurons in SN were analyzed by unbiased stereological analysis using the optical fractionator module of Stereo Investigator software MicroBrightfield, Williston, VT. From every 4th coronal section thorough the ventral midbrain, the SN lateral to the ventral tegmental area was circumscribed by electronic bit maps. Counting areas were randomly placed within the bit maps by computation to sample 20 of the sections and deliver counts with typical mean coefficient of error ± SD approaching 0.13 ± 0.03. Regions of constant area within striata were sampled from concomitantly immunostained sections, analyzed by densitometric analysis and densities of TH expression in each of 6–8 sections/mouse were digitally quantitated Scion, Frederick, MD. 

All values are expressed as a mean ± SEM. Differences among means were analyzed by one-way ANOVA and appropriate pair-wise post-hoc tests for significant differences between means. 


We previously demonstrated that adoptive transfer of immune cells from Cop-1 immunized mice to MPTP-treated recipients significantly inhibited dopaminergic neurodegeneration Benner et al, 2004. To evaluate whether the neuroprotective response is dependent on the Cop-1 immune cell number, increased numbers of lymphoid cells 25, 50, and 92 × 106 from Cop-1 immunized donors were adoptively transferred to MPTP-treated animals. PBS or MPTP-injected mice that did not receive lymphoid cells served throughout these studies as non-intoxicated and intoxicated controls, respectively. Seven days after MPTP treatment, brains were harvested, sectioned and assessed for expression of TH by surviving TH+ neuronal bodies in the SN and TH+ termini in the striatum. Stereological counts of TH+ Nissl+ neurons within the SN revealed that the number of surviving dopaminergic neurons increased with the number of immune cells adoptively transferred to MPTP-treated recipients, <\connective form=whereas text=whereas id=G9275_FUL6_12.txt.raw_195 relation=Comparison\> no effect on non-TH+ neurons TH− Nissl+ was detected Fig 1A. Adoptive transfer of less than 92 × 106 resulted in increased, though not significantly, numbers of surviving TH+ neuronal bodies in the SN compared to mice treated with MPTP alone. TH+ neurons were significantly increased by 70 in mice receiving 92 × 106 cells compared to MPTP administered alone. Regression analysis of the number of surviving TH+ neurons demonstrated a significant correlation r = 0.96, p = 0.03 with the number of immune cells transferred, whereas no such correlation r = 0.47, p = 0.52 was seen for TH− SN neurons. Similarly, densitometric analysis of striatal TH expression revealed an increase in the level of TH density in MPTP-intoxicated mice treated with Cop-1 recovered lymphoid cells compared to MPTP-treated controls Fig 1B. Congruent with nigral neurons, significant sparing of TH+ termini was not attained in mice receiving < 92 × 106 cells. Regression analysis <\connective form=also text=also id=G9275_FUL6_12.txt.raw_220 relation=Expansion\> indicated a positive correlation between the density of spared TH termini and the number of Cop-1 lymphoid cells transferred r = 0.998, p = 0.006. 

To test the role of T cells in Cop-1 neuroprotective activities, we enriched for CD3+ lymphocytes from immunized mice by negative selection using magnetic bead sorting. Sorted cells were consistently > 94 CD3+ as determined by FCM analysis data not shown. Increasing numbers of 6.25, 12.5, and 25 × 106 enriched CD3+ T cells were adoptively transferred to MPTP-treated mice and the effect of dopaminergic neuronal survival was assessed 7 days post-MPTP injection. Adoptive transfer of enriched T cells afforded increased protection of dopaminergic neurons in those mice compared to MPTP-treated controls Fig 2. In the SN, transfer 6.25 × 106 T cells produced an insignificant 39 increase in the number of TH+ neurons above those from MPTP control mice. Transfer of 12.5 and 25 × 106 T cells afforded significant survival 55 and 79, respectively of TH+ neuronal cell bodies. No significant effects were detectable on numbers of TH− Nissl+ neurons Fig 2A. <\connective form=moreover text=Moreover id=G9275_FUL6_12.txt.raw_205 relation=Expansion\>, regression analysis indicated the number of surviving TH+ neurons were strongly correlated with the number of T cells transferred r = 0.95, p = 0.046, <\connective form=and text=and id=G9275_FUL6_12.txt.raw_142 relation=Expansion\> no significant effect was detected among TH− neurons p = 0.577. For TH density of the striata, transfer of 6.25 × 106 T cells afforded an insignificant 3 increase, whereas transfer of 12.5 and 25 × 106 T cells from Cop-1 immunized mice, yielded significant increases of 19 and 28 over those from MPTP-controls Fig 2B. Regression analysis demonstrated a positive correlation r = 0.96, p = 0.037 between the numbers of surviving TH+ termini and T cells transferred. 

To further delineate the cellular mechanism associated with the Cop-1-mediated neuroprotective response and assess the role of the 2 major T cell subsets, CD3+ T cells from Cop-1 immunized mice were enriched for CD4+ and CD8+ T cell subsets by negative selection. FCM analysis of enriched T cell subsets indicated that CD3+ CD4+ and CD3+ CD8+ T cell subsets were both enriched to > 95 purity Fig 3. MPTP-treated recipients received 15 × 106 CD4+ or CD8+ T cells, or unfractionated lymphocytes containing 30 × 106 T cells and levels of dopaminergic neurons were evaluated 7 days post-MPTP. Adoptive transfer of lymphoid cells from Cop-1 immunized mice afforded a significant 56 increase in number of TH neurons in the SN compared to MPTP-controls Fig 4A. Similarly, the number of dopaminergic neurons was significantly increased by 60 from mice receiving CD4+ T cells, whereas transfer of CD8+ T cells produced a 32 increase, though not significant. For the striata, small, though significant increases of 8 and 12 in TH densities were observed in MPTP-treated mice receiving immune lymphoid cells or CD4+ T cells, respectively, whereas significant changes in TH density were not detected after transfer of CD8+ T cells from Cop-1 immunized mice Fig 4B. 

To assess whether anti-Cop-1 antibodies play a role in the dopaminergic neurodegenerative process, we isolated sera from Cop-1 vaccinated mice and passively transferred it to MPTP-intoxicated mice. Anticipating a relatively low antibody titer in mice primed with Cop-1 only once, we <\connective form=also text=also id=G9275_FUL6_12.txt.raw_221 relation=Expansion\> obtained sera from mice that were primed and twice boosted with Cop-1. We utilized a Cop-1-specific ELISA using different horseradish peroxidase-conjugated goat secondary antibodies to detect anti-Cop-1 mouse antibodies of differing classes and IgG subclasses. Results showed the pooled sera from once-primed mice exhibited relatively low anti-Cop-1 titers including 1:400 for IgM, 1:200 for IgG2b and 1:50 for IgA Fig 5A. In contrast, sera from primed and twice-boosted mice exhibited high titers of mostly IgG1 and IgG2b anti-Cop-1 antibodies with titers of 1:106 and 1:107, respectively. Passive transfer of either low or high titer anti-Cop-1 containing sera to MPTP intoxicated mice resulted in no significant effects on dopaminergic neuronal survival as shown for TH+ neuronal bodies within the SNpc Fig 5D and their termini in the striata Fig 5E, even <\connective form=though text=though id=G9275_FUL6_12.txt.raw_67 relation=Comparison\> transfer of lymphocytes from donors of low-titer sera were capable of producing significant protection Fig 5C. 

Extending our previous investigations Benner et al, 2004 and Boska et al, 2005, we now provide convincing evidence that Cop-1-mediated neuroprotection in MPTP-induced dopaminergic neurodegeneration is primarily T cell-mediated. This is based on several experimental observations. First, passive immunization with Cop-1 specific antibodies was incapable of providing a neuroprotective benefit. Second, adoptive transfer of T cells from Cop-1 immunized donors into acutely MPTP-intoxicated mice protected dopaminergic neurons within the SNpc and their termini in the striatum. Third, the CD4+ subset was responsible for the majority of this protection. Of interest, the IgG subclass profile in high titered serum contained mostly IgG1 and IgG2b anti-Cop-1 antibodies. Such subclass switches require specific cytokine signals of IL-4/IL-5 and transforming growth factor TGF-β, respectively  McIntyre et al, 1993, Snapper et al, 1997 and Zhang, 2003. Furthermore, Cop-1 preferentially induces Th2 and Th3 regulatory T cells, which secrete anti-inflammatory cytokines such as interleukin IL-4, IL-5, IL-10, and TGF-β  Aharoni et al, 2003, Ho and Glimcher, 2002 and Wang et al, 2006, suggesting that neuroprotection afforded by T cells after Cop-1 vaccination may be of a regulatory T cell lineage. The neuroprotective functions following Cop-1 immunization are likely linked to the production of anti-inflammatory cytokines such as IL-4, IL-10, TGF-β and neurotrophins such as brain derived neurotrophic factor BDNF and GDNF. These regulatory factors have been shown to emanate primarily from Th2- and Th3-mediated immune responses, which are known to suppress innate immunity Aharoni et al, 2003, Blanco et al, 2006 and Hong et al, 2005. Cop-1 immunization may <\connective form=also text=also id=G9275_FUL6_12.txt.raw_222 relation=Expansion\> exert neuroprotective effects in other disease sites including amyloid clearance in Alzheimer's disease, microglial activation in human immunodeficiency virus type 1-associated dementia, and in growth factor and immune modulator functions in PD and models of human neurologic disorders due to trauma Bakalash et al, 2005, Benner et al, 2004, Butovsky et al, 2006 and Frenkel et al, 2005. Cop-1 is approved for treatment of relapsing-remitting multiple sclerosis with therapeutic responses in 30 to 80 of patients Simpson et al, 2002. <\connective form=although text=Although id=G9275_FUL6_12.txt.raw_36 relation=Comparison\> the mechanisms by which Cop-1 mediates neuroprotection are not completely understood, modulation of innate immunity, blocking presentation of antigen by MHC molecules, antagonism of T cells through the T cell receptor, and induction of Th2/Th3 regulatory T cells Aharoni et al, 2003, Arnon and Aharoni, 2004 and Arnon and Sela, 2003 have been proposed. In agreement with the latter proposed mechanism, we previously showed that adoptive transfer of Cop-1 immunocytes mediates neuroprotection in MPTP intoxicated mice Benner et al, 2004 and Boska et al, 2005. Recent works in our laboratories have extended this observation and shown that CD4+ CD25+ regulatory T cells activated by polyclonal stimulation can <\connective form=also text=also id=G9275_FUL6_12.txt.raw_223 relation=Expansion\> induce a robust neuroprotective response in MPTP treated animals Reynolds et al, 2006 and Reynolds et al, submitted for publication. In additional studies, we demonstrated that microglia activated to a neurotoxic phenotype by aggregated and nitrated α-synuclein induce large amounts of reactive oxygen species ROS. These ROS responses are attenuated by regulatory T cells Glanzer et al, 2006 and Thomas et al, in press; and unpublished data. These observations, taken together, support the idea that subpopulations of T cells can, under specific circumstances, mitigate neurodegeneration in animal models of PD. These results, perhaps most importantly, raise new options for PD therapeutics. <\connective form=however text=However id=G9275_FUL6_12.txt.raw_80 relation=Comparison\>, there are several obstacles that remain before human therapies are realized. First, <\connective form=although text=although id=G9275_FUL6_12.txt.raw_37 relation=Comparison\> Cop-1 induction of Th2/Th3 regulatory T cells is possible, the changes in adaptive immune profiles may have secondary side effects in responses to microbial infections as they commonly affect the elderly. Second, is how best to define a neuroprotective immune response. This is a most important question as it is possible that at different times in disease progression, elicited immune responses may have divergent effects on the nervous system. For example, Cop-1 vaccine regimens are ineffectual in some multiple sclerosis patients with relapsing-remitting disease despite the induction of seemingly adequate immune responses. Whether this represents patient HLA haplotypes, rate of disease progression, or simply inadequate immunization is not known. Third, adjuvants are now available and currently under development in our laboratories that can direct the immune response from a proinflammatory effector to a regulatory phenotype and have been used successfully in models of autoimmunity Ganea et al, 2006. Fourth, transferable neuroprotection with Cop-1 T cells may, by itself, prove ineffective, <\connective form=thus text=thus id=G9275_FUL6_12.txt.raw_202 relation=Contingency\> raising the question of how to best administer the cells in affected subjects. All together, such obstacles need be overcome before such cell-based therapies can see clinical utility. In conclusion, to characterize the specific Cop-1 reactive T cell subset responsible for neuroprotection, our study focused on two T cell subsets, CD4+ and CD8+ T cells. We found that CD4+ T cells elicited the greatest degree of neuroprotection. Such results are in keeping with observations made by others. Indeed, CD4+ T cells are essential for both cell-mediated and antibody-mediated components of the immune system Arthur and Mason, 1986 and Weber et al, 1985. CD8+ T cells, the cytotoxic T lymphocytes, <\connective form=on the other hand text=on the other hand id=G9275_FUL6_12.txt.raw_79 relation=Comparison\>, secrete molecules that lyse target cells and would theoretically provide diminished cell trophic support Buller et al, 1987 and Weber et al, 1985. The identification of the Cop-1 reactive T cell subsets that protect nigrostriatum after MPTP intoxication can lead to new therapeutic pathways cellular and molecular for PD.