Intrapartum electronic fetal heart monitoring is relatively a new modality at service for obstetricians and is being used widely in western countries. <\connective form=while text=While id=G9340_FUL6_12.txt.raw_78 relation=Temporal\> it is currently recommended to use continuous intrapartum electronic fetal monitoring for all high risk pregnancies, screening with a short recording has been done for low risk pregnancies. <\connective form=however text=However id=G9340_FUL6_12.txt.raw_37 relation=Comparison\>, limited resources do not permit use of continuous electronic F H R monitoring even in high risk labors, in most of the maternity centers in India. Intermittent auscultation is still the method used for monitoring low risk as well as high risk pregnancies. Hence, it was decided to study the predictive utility of A T for forecasting fetal distress in high risk pregnancies. 

A hundred patients with risk factors suggestive of uteroplacental insufficiency were screened with admission test. High risk pregnancies with PIH, post-datism > 42 weeks, IUGR, oligohydramnios, reduced fetal movements or those with medical disorders like diabetes or chronic hypertension. The recordings of F H R with uterine tractions were interpreted and classified as reactive, equivocal or ominous as per the criteria suggested by Ingemarsson et al in 1986’ Table 1. The results were kept concealed and the patients were managed as per the clinical judgement of the obstetrician in charge. Perinatal morbidity as indicated by 1The FHR abnormality requiring operative delivery and/or 2 Passage of thick meconeum and/or 3 Apgar score < 7 at 5 minutes, was noted and correlated with the initial F H R pattern. The Chi square test was applied to the results to know their statistical significance. 

PIH was observed to the commonest risk factor in 67 patients. Post-dated pregnancy, IUGR, oligohydramnios were other common conditions complicating the pregnancy Table 2. Six patients had risk factors other than these. One of them had gestational diabetes, 2 had uninvestigated glycosuria, whereas remaining 3 had history of loss of fetal movements over variable periods. Some patients had multiple risk factors. The analysis of the nature of FHR pattern at admission revealed that 58 patients had reactive tracing, 35 had equivocal and 7 had ominous tracing at admission to the labor room. In all, 69 patients delivered vaginally. The incidence of operative delivery was 31 comprising of, 20 caesarean sections, 10 forceps and 1 vacuum delivery Table 3. The incidence of operative delivery for fetal distress was 13 of these, 9 patients had tern developed fetal distress within 5 hours of initial reactive recording Table 5. The analysis of the type of decelerations revealed that the late decelerations were associated with the highest incidence of fetal distress of 60. Presence of only early decelerations in the trace was associated with 17.64 incidence of fetal distress Table 6. The difference between these 2 groups is statistically significant  p < 0.05. The lowest incidence of perinatal morbidity 9.09 was observed with the absence of decelerations. Thirty-six patients had decelerations of less than 60 beats below the baseline, of whom 22.22 showed evidence of fetal distress. <\connective form=whereas text=Whereas id=G9340_FUL6_12.txt.raw_77 relation=Temporal\> the patients with decelerations of 60 or more beats below the baseline had 88.88incidence of fetal distress Table 6. The difference between the 2 groups is highly significant p < 0.01. Sixty-three patients had a baseline variability of less than 10 beats/min, out of which 17 patients 26.9 developed fetal distress Table 6. In comparison the incidence of fetal distress in 37 patients with good variability 2 10 beats/min was 10.81. The difference is only marginally significant p = 0.1. The proportion of low birth weight babies < 2.5 kg was 40. Out of them 7 had severe growth retardation with birth weights of less than 2 kg. In all, 20 babies were asphyxiated at birth. There was one perinatal death. The admission trace of this baby revealed an ominous pattern. T h e patient was receiving oxytocin for augmentation of the labor. Ninety minutes <\connective form=after text=after id=G9340_FUL6_12.txt.raw_32 relation=Temporal\> the trace, post contraction drop in the FHR was observed clinically. The oxytocin infusion was discontinued. The decelerations <\connective form=however text=however id=G9340_FUL6_12.txt.raw_38 relation=Comparison\> persisted and 30 minutes <\connective form=later text=later id=G9340_FUL6_12.txt.raw_29 relation=Temporal\> were followed by baseline bradicardia  F H R 80-90 beats/min. Fetal heart became inaudible 30 minutes <\connective form=after text=after id=G9340_FUL6_12.txt.raw_33 relation=Temporal\> the development of the baseline bradycardia. Surgical intervention was not done as the fetus was thought to be nonsalvageable. Time interval between the initial ominous recording and the fetal death was 2.5 hours. 

The present study was carried out to study the distribution of FHR patterns in early labor in high risk pregnancies and to study their predictive utility for subsequent fetal distress likely to develop during the course of labor. Admission test AT has been first reported by me. Ingemarsson, S. Arulkumaran et al for deciding the need for cardiotocographic monitoring in the low risk labors. T h e study was conducted in 1,043 low risk women. They observed reactive pattern in 94.3 patients, equivocal in 4.7 and ominous in 1 patients, and perinatal morbidity of 1.3, 10and 40in the reactive, equivocal and ominous patterns respectively. T h e present study however includes all high risk pregnancies with possibility of chronic placental insufficiency. This explains the relatively higher percentage of abnormal FHR patterns as well as higher incidence of abnormal outcome in each F H R pattern Table 4 observed in the present study. The study does indicate a possible role of A T in high risk labors <\connective form=also text=also id=G9340_FUL6_12.txt.raw_99 relation=Expansion\>. <\connective form=however text=However id=G9340_FUL6_12.txt.raw_40 relation=Comparison\>, 4 cases, 6.89with the initial reactive pattern, did develop fetal distress during labor, but, with an interval of minimum 5 hours from the initial recording. So, it can be said that the reactive pattern in early labor can be assuring of fetal well-being for next 5 hours in high risk labors <\connective form=also text=also id=G9340_FUL6_12.txt.raw_100 relation=Expansion\>, unless intervened by an acute event. A repeat tracing 4 hours apart could be helpful in predicting the ability of the compromised fetus to withstand the stress of active labor. The occurrence of fetal distress in these 4 cases was attributable to the other contributory factors <\connective form=also text=also id=G9340_FUL6_12.txt.raw_101 relation=Expansion\>. Oxytocic hyperstimulation and postamniotormy severe fetal brandycardia possibly due to occult cord compression required cesarean section in 2 cases. T w o other cases had prolongation of second stage beyond one hour. The babies in the present study were expected to be already compromised in their capacity to withstand the stress of labor, and, exceptionally high stress of prolonged second stage may itself cause fetal distress in such babies. <\connective form=thus text=Thus id=G9340_FUL6_12.txt.raw_79 relation=Contingency\>, in these cases A T doesn’t appear to have missed the fetal jeopardy already existing at admission. Seven patients had ominous pattern at admission and 6 out of them 85.71 had thick meconeum at delivery. One of these babies died during labor. This gave an opportunity to observe the F H R pattern before death. T h e interval between the ominous F H R pattern and fetal death was 2.5 hours. The overall incidence of the operative delivery was 31, 13 operative deliveries were for fetal distress and 18 for other reasons. T h e incidence of operative delivery for fetal distress was significantly higher in both equivocal and ominous patterns, as compared to the reactive pattern. <\connective form=however text=However id=G9340_FUL6_12.txt.raw_41 relation=Comparison\>, there was no significant difference between the equivocal and ominous pattern. <\connective form=though text=Though id=G9340_FUL6_12.txt.raw_31 relation=Comparison\>, the highest perinatal morbidity of 85.7  was observed, in the ominous pattern, the equivocal pattern with the perinatal morbidity of almost 30 should <\connective form=also text=also id=G9340_FUL6_12.txt.raw_102 relation=Expansion\> be considered as an indicator of the risk of fetal jeopardy in high risk pregnancies. After analysis of the individual components of the F H R recordings, 45 patients were found to have decelerations in their A T. In these patients, presence of the late decelerations and presence of decelerations of 60 or more beats below the baseline, were observed to be two definite ominous characteristics associated with a significant rise in perinatal morbidity Table 6. Lenox JW, Uguru V et ~ 1 .a~lso, in 1990 study have shown the significant association of neonatal depression with the late decelerations and intrapartum fixed baseline. <\connective form=although text=Although id=G9340_FUL6_12.txt.raw_15 relation=Comparison\>, 80 of the total 21 patients, with fetal distress had poor variability, the difference between the perinatal morbidity of good variability and poor variability group patients was only marginally significant. Samueloff and associates 1994 evaluated fetal heart variability during labor as a predictor of fetal outcome in 2,200 consecutive deliveries and concluded that the variability by itself cannot be used as the only indicator of fetal well-being. They <\connective form=also text=also id=G9340_FUL6_12.txt.raw_103 relation=Expansion\> concluded that good F H R variability during labor should not be interpreted as necessarily reassuring. Considering the significant increase in the perinatal morbidity as well as operative delivery for fetal distress in the equivocal group as compared to the reactive group, further screening of patients in this group with Fetal Acoustic Stimulation Test should be done to improve the predictive accuracy of this pattern in high risk labors. Lastly, with, a striking 85 perinatal morbidity including one intrapartum death, detection of the ominous pattern should be taken as an indicator of impending fetal distress in high risk labors. And after reviewing the clinical situation, operative intervention on the basis of detection of this pattern, can be thought of. The number of cases with the ominous pattern is, however small in this study and a larger number of patients with this pattern needs to be studied <\connective form=before text=before id=G9340_FUL6_12.txt.raw_25 relation=Temporal\> any definitive conclusion can he drawn. Continuous electronic monitoring in labor is currently not practicable in most of the maternity centers in India, and cardiographic screening in early labor would definitely help in reducing the perinatal morbidity where resources are scare.