Squamous cell carcinoma of the head and neck SCCHN is diagnosed in approximately half a million individuals worldwide each year. Major risk factors are the use of tobacco products, betel nut chewing and alcohol consumption 1, 2 and 3. The majority of patients present with locally advanced disease and are treated with a multi-disciplinary approach that includes chemotherapy, radiation therapy and surgery 4. Up to 25 of patients with head and neck cancer, particularly cancer in the oropharynx, have no known risk factors. Recent epidemiologic and molecular studies have identified high risk types of human papillomavirus HPV, especially HPV16 in these tumors 5 and 6. It is generally accepted that infection with HPV16 is a risk factor for SCCHN7 and 8 but little is known in regard to latency of these cancers, the risk of transmission to a partner; and the risk developing an HPV-related tumor from a direct viral transmission. Infection with high risk HPV, predominantly HPV16, is known to be necessary for the development of cervical cancer in women and is <\connective form=also text=also id=G9345_FUL6_12.txt.raw_146 relation=Expansion\> a risk factor for the development of anal cancer. In the head and neck area, the oropharynx, particularly the tonsils and tongue base, is the site that is mostly associated with HPV infection. It is not clear why the keratinocytes of the oropharynx are more susceptible to HPV-related carcinogenesis. Some have cited similarities to the uterine cervix with easy access for infection as well as embryonic development from endoderm. The tonsils <\connective form=also text=also id=G9345_FUL6_12.txt.raw_147 relation=Expansion\> contain deep invaginations of the mucosal surface believed to favor the retention of viral particles and the capture and processing of antigens which may facilitate viral access to basal cells 9 and 10. The prognostic significance of HPV positivity is a subject of intense debate with emerging data that suggests a different pathogenesis and a better prognosis as well as the potential for viral specific, targeted therapy for those patients with HPV-related SCCHN 11. 

The mechanism of HPV carcinogenesis has been characterized in cervical cancer where more than 90 of cases are related to HPV infection, mostly types 16 and 18 12. It is well established that the transmission of genital HPV infections is associated with sexual contact. Common risk factors for HPV infection include high number of sexual partners, early age at first intercourse, infrequent use of condoms and coinfection with Chlamydia trachomatis or herpes simplex virus 7, 13 and 14. 

The mode of transmission of HPV to the oropharynx, an area that is continually in intimate contact with material from the external environment is less understood and less defined at this stage. Sexual behavior and practices are one possible mode of transmission to the oropharynx 15. 

Here, we present the case of a married couple, diagnosed synchronously with locally advanced head and neck cancer. Both, the husband and wife were found to have an HPV16 related tumor and molecular analysis on tissue specimens was carried out in an effort to further characterize the HPV viral isolates. Patient A: 75 year old Caucasian male presented to the clinic with a large 3.5 cm level II neck mass. CT scan and PET scans were performed but failed to identify a primary site. An examination under anesthesia with biopsies of the nasopharynx, right and left tonsillar fossa, right and left tongue base, failed to identify the primary. Patient has a history of tonsillectomy as a child. Fine needle aspiration from the neck mass confirmed a diagnosis of squamous cell carcinoma. Overall stage is TXN2AM0 Stage IV. Patient smoked for 12 years but quit 25 years ago. He <\connective form=also text=also id=G9345_FUL6_12.txt.raw_148 relation=Expansion\> drank alcohol heavily in the past and quit <\connective form=also text=also id=G9345_FUL6_12.txt.raw_149 relation=Expansion\> 25 years ago. 

Patient B: 75 year old female, wife of patient A, presented with a neck mass level II. She first noticed the mass at the same time her husband was diagnosed but waited <\connective form=until text=until id=G9345_FUL6_12.txt.raw_19 relation=Temporal\> he finished his therapy <\connective form=before text=before id=G9345_FUL6_12.txt.raw_30 relation=Temporal\> seeking medical attention. At her initial evaluation, she was found to have a 2.5 cm level II neck mass. CT scan of the neck did not reveal a primary site and an office examination failed to reveal the primary site. She went to the operating room and underwent an examination under anesthesia, biopsies of the nasopharynx, tongue base, a bilateral tonsillectomy in an effort to find the primary and a selective neck dissection. Final pathology report showed a well differentiated squamous cell carcinoma of the right tonsil with metastasis in the neck. Overall stage is T1N1M0 Stage III. She has a 25-year history of smoking but stopped 10 years ago. She does not use alcohol. Notably she had a hysterectomy 45 years prior to the current diagnosis. Pathology is not available for review. 

HPV DNA testing was performed using primers provided by Access Genetics Minneapolis, MN that are designed to identify a range of HPV types. DNA was extracted following incubation with Proteinase K as previously described.16 Extracted DNA was amplified in 35 cycles, digested with Pst I, Rsa 1, and Hae III, and the products resolved by gel analysis. Restriction fragments were analyzed and the HPV type designated based on restriction pattern, as previously described 16. 

To characterize the HPV16 variant strain in each tumor sample, we amplified and directly sequenced five fragments totally 1405 bp. AmpliTaq Gold DNA polymerase Perkin–Elmer Applied Biosystems, Foster City, CA was utilized for polymerase chain reaction PCR amplification. Purified products were submitted directly for sequencing in the Einstein Sequencing Facility, New York. Oligonucleotide primer sequences are available from the authors upon request. Sequence information was obtained on 1228 bp E6:228-320, E2:3205-3461, L2:5001-5256, and URR:7407-7822. Both specimens were positive for HPV16 by PCR analysis. Sequencing revealed that both genomes were closely related to the revised European prototype, HPV16R 17. <\connective form=however text=However id=G9345_FUL6_12.txt.raw_43 relation=Comparison\>, a signal variant nucleotide was identified within the L2 ORF at position 5226 A5226C in both genomes that is not present in the HPV16R18 Table 1. P16 staining was performed on the wife’s specimen where enough material was present and was positive with mostly cytoplasmic staining. 


The role of HPV infection in head and neck cancer has gained significant attention recently. It is now well accepted, based on epidemiological studies that a significant and increasing subset of oropharyngeal cancers is caused by this virus. A causative relationship between HPVs and oral cancer is strongly supported by the oncogenicity of these viruses particularly HPV16 in genital disease 12. The most recent systematic review included 5046 SCCHN specimens from 60 studies that used PCR based methods to detect HPV-DNA in tumor cells. The estimated prevalence was 35.6 for oropharyngeal cancer and HPV16 accounted for the majority of those 86.7 6. HPV Carcinogenesis is thought to occur independently of other “common” risk factor such as tobacco and alcohol use 5 and 19. 

Two viral genes are mainly responsible for HPV-related malignant transformation. The HPV E6 and E7 oncogenes encode proteins that are largely responsible for the onset and persistence of the malignant process in both ano-genital and head and neck cancers. E6 and E7 proteins are best known for their ability to alter the functions of tumor suppressors p53 and pRb, leading to the malignant transformation of epithelial cells. The absence of genetic or epigenetic alterations in the p53 and pRb pathways in HPV-positive SCCHN is in sharp contrast to what is observed in HPV-negative HNSCC. In typical HPV-negative squamous cell carcinomas, p53 mutations are very frequently demonstrated. In contrast, HPV-positive carcinomas usually do not contain any p53 mutations, and predominantly occur in patients with no excessive tobacco and/or alcohol consumption history implying that HPV-positive and HPV-negative HNSCC represent distinct entities. Furthermore, it has been suggested that the prognosis of patients with HPV-positive tumors is better compared to those with a smoking related, HPV-negative tumor. The association between HPV infection and other tumor suppressor genes, such as p16 is <\connective form=also text=also id=G9345_FUL6_12.txt.raw_150 relation=Expansion\> of interest. The p16 protein functions as a tumor suppressor by binding to the cyclin D1 CDK4/CDK6 complex, preventing phosphorylation of the Rb protein. Overexpression of p16 protein has been reported repeatedly in HPV-associated SCCHN. In a recently published study only the dually HPV-positive and p16-overexpressing tumors were associated with favorable prognosis. Those represented close to 25 of tumors analyzed 19. 

<\connective form=although text=Although id=G9345_FUL6_12.txt.raw_20 relation=Comparison\> HPV-related oropharynx cancer represents an increasing fraction of head and neck tumors and a significant health risk, little is known of the latency, transmission, susceptibility, and risk of secondary cancers in the oropharynx from this oncogenic virus. We report here a likely example of human to human transmission of a relatively rare variant of HPV16 in a couple who developed SCCHN within the same time frame. This confluence of events suggests a shared etiology or co-transmission of the cancers. 

In Caucasians women infected with HPV16, approximately 70 of the HPV16 genomes are phylogenetically related to the European clade. The HPV16 variants detected in DNA from the two individuals with head and neck carcinomas were closely related to the HPV16R genome, but differed at a single nucleotide position A5226C <\connective form=previously text=previously id=G9345_FUL6_12.txt.raw_128 relation=Temporal\> described as a related European HPV16 variant.18 The HPV16 variants found in both samples were identical and represent approximately 10 of HPV16 European variants.18 Approximately 35 of oropharynx cancers are HPV-positive and ∼80 of these are HPV16 positive. <\connective form=thus text=Thus id=G9345_FUL6_12.txt.raw_131 relation=Contingency\>, we calculated the probability of observing these results in a pair of tumors to be exceedingly small at 1.9 0.35 × 0.8 × 0.7 × 0.1 = 0.019. This calculation does not take into account the probability of a married couple both being diagnosed with a head and neck cancer, an extremely rare event by itself. <\connective form=if text=If id=G9345_FUL6_12.txt.raw_130 relation=Contingency\> one is to take into account the incidence of SCCHN in the general population 15/100,000 men and 6/100,100 women, the probability of this event becomes even smaller. It is highly likely that an oncogenic HPV transmission occurred in this couple and this resulted in the development of SCCHN in both husband and wife. The couple appears to have developed the tumors in the same time span which suggests that HPV16 infection occurred and was transmitted within a short time frame, based on the subsequent appearance of the tumors synchronously. 

A recently reported study from Europe looked at a broad spectrum of HPV genotypes and viral loads in sex partners. Type-specific concordance was more prevalent among these partners than expected by chance and was associated with increased viral loads in genital secretions and swabs 20. There is <\connective form=also text=also id=G9345_FUL6_12.txt.raw_151 relation=Expansion\> ample epidemiological data to suggest an increased incidence of anal and tonsillar cancer in women with cervical cancer9 and an excess of tonsillar cancer among husbands of women with HPV-associated cervical cancer 21. <\connective form=however text=However id=G9345_FUL6_12.txt.raw_44 relation=Comparison\>, our observation is the first in the literature to document the same molecular viral genome shared by the tumors of a couple with head and neck cancer. The implications of such a shared transmission should be considered <\connective form=when text=when id=G9345_FUL6_12.txt.raw_40 relation=Temporal\> counseling couples with one or more of these disorders. <\connective form=furthermore text=Furthermore id=G9345_FUL6_12.txt.raw_29 relation=Expansion\> there is a need to understand mechanisms of transmission in the oropharynx and markers of infection, which may be distinct and different from those of the ano-genital region and the implications of this viral infection for close and intimate contacts of infected individuals. <\connective form=while text=While id=G9345_FUL6_12.txt.raw_129 relation=Temporal\> we may ascribe transmission to specific sexual activity, it is conceivable that transmission may occur by other means in the oropharynx and sexual contact serves as a marker of intimacy rather than the only means of transmission. Recently published data show that oral-genital contact is strongly associated with oropharyngeal cancer but other methods of transmission such as direct mouth to mouth contact or other means cannot be ruled out at this moment 7. 

The recent development of HPV vaccines is an important step toward decreasing the risk of HPV infection in young adults and subsequently the risk of developing HPV-related malignancies such as oropharyngeal cancer. There may be a role for vaccination in intimate relations of the index cases.