The observation of postanesthetic apnea in former premature infants has led to a resurgence in the use of spinal anesthesia in infants, particularly for herniorrhaphy 1, 2, 3 and 4. Spinal anesthesia is safe and effective, <\connective form=and text=and id=G9391_FUL6_12.txt.raw_62 relation=Expansion\> it decreases the rate of postoperative apnea 2 and 3. According to one study, it eliminates the need for postoperative hospital admission in an outpatient population of preterm infants undergoing inguinal hernia repair 5. Furthermore, spinal anesthesia can be successfully performed in extremely low-birth-weight infants 6 and for upper abdominal surgery 7. In adults, spinal anesthesia is followed by symptoms of sympatholysis, such as vasodilation of the lower limbs, which results in increase in skin temperature of the legs and a decrease in blood pressure. <\connective form=however text=However id=G9391_FUL6_12.txt.raw_57 relation=Comparison\>, spinal anesthesia in infants is not accompanied by severe hemodynamic changes as in adults 8. This phenomenon has been attributed to a relative immaturity of the sympathetic nervous system or a smaller venous capacitance in the lower extremities, which leads to less venous pooling 9. More recent studies observed a slight decrease in mean arterial pressure 10. We hypothesized that sympatholysis during spinal anesthesia in infants leads to an increase in skin temperature of the lower extremity and a decrease in arterial pressure within 20 minutes. As a primary indicator of sympathetic vasomotor tone, we assessed changes in skin temperature of the feet, which result from increases in blood flow. The noninvasive blood pressure was determined as a secondary, indirect sign of sympathetic block. 

After approval of the local ethics committee and informed parental consent were obtained, spinal anesthesia was performed in 15 unpremedicated infants scheduled for repair of inguinal hernia. Skin temperature was measured at the T4 level and at the plantar foot dermatomes L5 and S1 10 and 5 minutes before and 10 and 20 minutes after injection of the local anesthetic. Skin-temperature measurements were performed by use of a noncontact infrared temperature probe C600-M Biotherm Infrared Thermometer; Linear Laboratories, Fremont, Canada. Sensitivity of the device was 0.1°C. Room temperature was measured continuously and remained stable at 27°C ± 0.5°C. No sedatives or anticholinergic drugs were administered, <\connective form=and text=and id=G9391_FUL6_12.txt.raw_74 relation=Expansion\> no fluid loading was performed before the block. The infants fasted for 4 hours for solids and for 2 hours for fluids before anesthesia. Crystalloids were infused at 6 mL/kg/h, starting at the induction of spinal anesthesia. Spinal anesthesia was induced in lateral position at the L4/L5 interspace with 0.5 hyperbaric bupivacaine 1 mg/kg with 10 μg/kg adrenaline added by use of a 25-gauge neonatal spinal cannula Becton Dickinson, Franklin Lakes, NJ. Success of anesthesia was controlled by sudden loss of leg movement, and normal tonus in the arms proved that anesthesia did not extend to cervical levels. Surface electrocardiogram, noninvasive blood pressure, and oxygen saturation were measured before, during, and after the operation. Arterial blood pressure was measured via oscillometry Dinamap; Critikon Inc, Tampa, FL at the lower extremity midthigh with an appropriately sized cuff. None of the infants received any sedatives before or during surgery. After the operation, the infants were brought to the postanesthetic care unit, where they remained <\connective form=until text=until id=G9391_FUL6_12.txt.raw_11 relation=Temporal\> they could fully move their legs. The time of recurrence of leg movement was recorded. All data are presented as means ± standard deviation. Comparisons were made between baseline measurements and values 10 or 20 minutes after spinal anesthesia by paired Student t test corrected for multiple comparisons Bonferroni. 

Demographics of the patients are presented in Table 1. Blood pressure values and skin temperature were stable before induction of spinal anesthesia Fig 1 and Fig 2. Spinal anesthesia was performed without complications in all 15 infants and resulted in a complete sensory and motor block of the legs. Oxygen saturation remained stable in all infants during the operation and at the postanesthetic care unit ≥97. Systolic blood pressure decreased in all infants 95 ± 12 mm Hg before and 79 ± 9 mm Hg after subarachnoid block; P < .0001. Diastolic blood pressure decreased in 13 infants and increased in 2 infants 47 ± 11 mm Hg before and 37 ± 6 mm Hg after subarachnoid block; P < .01 Fig 1. <\connective form=although text=Although id=G9391_FUL6_12.txt.raw_12 relation=Comparison\> a significant decrease in arterial blood pressure from baseline was noticed, no infant required vasopressors or anticholinergics. Heart rate tended to decrease from 153 ± 18/min to 148 ± 17 /min after spinal anesthesia P = .2. Skin temperature before block was 35.8°C ± 0.6°C at T4 level and 33.0°C ± 1.3°C at the plantar foot. Ten minutes <\connective form=after text=after id=G9391_FUL6_12.txt.raw_48 relation=Temporal\> the injection of local anesthetics, the temperature at the plantar feet rose to 34.7°C ± 1.4°C P < .0001, <\connective form=while text=while id=G9391_FUL6_12.txt.raw_99 relation=Comparison\> at the same time, temperature at the thorax remained at 35.7°C ± 0.8°C P = .49. Twenty minutes <\connective form=after text=after id=G9391_FUL6_12.txt.raw_49 relation=Temporal\> the block, foot temperature increased further to 35.6°C ± 0.9°C P < .0001, whereas thorax temperature slightly decreased to 35.5°C ± 0.8°C P = .15 Fig 2. Motor block lasted 82.4 ± 15.3 minutes. After surgery, no apneic spells or desaturation were observed. 

In the presented study, spinal anesthesia in infants led to a temperature increase of the feet within 10 minutes, which indicates a sympatholysis, as seen in adults 11 and 12. Skin temperature of the distal extremities during regional anesthesia serves as an indicator of sympathetic block and, <\connective form=thus text=thus id=G9391_FUL6_12.txt.raw_104 relation=Contingency\>, sufficient sensory block 11, 12, 13 and 14. Therefore, we evaluated skin temperature of the feet as the best indicator of peripheral sympatholysis, 14 whereas the thoracic skin temperature was used as a reference <\connective form=because text=because id=G9391_FUL6_12.txt.raw_101 relation=Contingency\> the skin temperature of the trunk is unaltered during neuraxial block 13. Warming of the feet was certainly not caused by accommodation of the infants to the environment, <\connective form=because text=because id=G9391_FUL6_12.txt.raw_102 relation=Contingency\> temperature remained stable before the spinal anesthesia Fig 2. Furthermore, one may argue that the effect was caused by the sedation induced by spinal anesthesia as recently described, 15 but this cause is unlikely <\connective form=because text=because id=G9391_FUL6_12.txt.raw_103 relation=Contingency\> the skin-temperature increase of the feet was prominent within 10 minutes, <\connective form=whereas text=whereas id=G9391_FUL6_12.txt.raw_98 relation=Comparison\> a significant sedation occurred later. All infants reacted to the block with a decrease in systolic blood pressure. In previous studies, relative cardiovascular stability in infants after high thoracic spinal anesthesia without prehydration has been reported 1, 8, 9 and 16. Some authors attributed these findings to a relative immaturity of the sympathetic nervous system, which resulted in less dependence on sympathetic control of vasomotor tone 9. In contrast, we observed a decline in arterial blood pressure in infants, as did others 10 and 17. A possible explanation might be that we consciously chose not to evaluate the sensory extent of the spinal in detail so as not to increase the blood pressure by painful stimuli. These painful stimuli, which result in artificially elevated blood pressure, may have been the reason why some investigators were not able to observe a drop in blood pressure 8. On the other hand, all blood pressure values were within the normal range of this age group, <\connective form=although text=although id=G9391_FUL6_12.txt.raw_13 relation=Comparison\> preinduction blood pressure values appeared relatively high. This outcome might be explained by the inevitable preoperative excitement that leads to artificially increased values before spinal anesthesia. Consequently, the significant blood pressure decline after induction we observed might simply be a return to normal values. Power-spectral analysis of heart-rate variability in infants after high thoracic spinal anesthesia revealed a significant decrease in sympathetic tone to the heart 8. Blood pressure, <\connective form=however text=however id=G9391_FUL6_12.txt.raw_58 relation=Comparison\>, remained stable in that study, which leads the authors to conjecture that a reflex reduction occurred in parasympathetic modulation of cardiac function. Furthermore, a sympathetic predominance at rest and during anesthesia has been observed. Examination of heart-rate response to tilting in unanesthetized newborn infants revealed considerable maturity of neural control of heart rate, 18 which suggests again that sympathetic autonomic control of heart rate is well developed in newborn infants. The level of block after spinal anesthesia was roughly quantified by observation of loss of motor tone in the legs <\connective form=while text=while id=G9391_FUL6_12.txt.raw_100 relation=Temporal\> the arms could still be moved. Hence, the level of sympathetic block might have varied in the higher thoracic region Th1-Th8 as observed by Rochette et al 10 with the same dose of bupivacaine. <\connective form=thus text=Thus id=G9391_FUL6_12.txt.raw_105 relation=Contingency\>, sympathetic block of the lower extremities was certainly present in all cases. For the first time, we have demonstrated that spinal anesthesia in infants leads to a rapid increase in blood flow to the legs, as indicated by an increase of skin temperature. The time course and extent of temperature changes in the lower limb were similar to those in adults 11. Arterial pressure, despite a statistically significant reduction after spinal anesthesia within 10 minutes remained within the normal range in any case, despite the observed sympatholysis. The mechanism responsible for this phenomenon has to be elucidated in future studies.