T lymphocyte activation requires the interaction of processed antigen in the context of the major histocompatibility complex MHC* on an antigen-presenting cell with the T cell receptor TCR/CD3 complex on T lymphocytes, usually stabilized by either CD4 or CD8 molecules binding to nonpolymorphic regions of the MHC molecule. According to the "two-signal hypothesis", a complete T cell response can occur only in the presence of additional costimulatory signals. TCR ligation in the absence of such costimulatory signals generates no T cell response and may result in the induction of antigen-specific T cell anergy, characterized by failure of the T cells to proliferate and secrete cytokines, or by apoptosis 1-4. The potential for therapeutic induction of T cell tolerance has considerable implications for transplantation medicine and the treatment of autoimmune disease. 

The surface glycoprotein CD28 represents one of the primary costimulatory T cell receptors. In humans and rodents, CD28 is expressed on virtually all peripheral blood T cells and approximately 50 of natural killer NK cells in rats 5,6. Upon stimulation, CD28 enhances T cell proliferation, interleukin-2 production, and the expression of Bcl-xL. Inhibition of the interaction of CD28 and its ligands B7-1 and B7-2 in vitro has been shown to induce profound suppression of T cell activation and the induction of anergy 4. In conjunction with its homologue coreceptor, CTLA-4 CD152, and their two respective ligands, B7-1 CD80 and B7-2 CD86, CD28 forms a complex regulatory system for T cell activation. Initially, it was believed that CTLA-4 acted as another costimulatory receptor similar to CD28. <\connective form=however text=However id=G9454_FUL6_12.txt.raw_159 relation=Comparison\>, there is now increasing experimental evidence that CTLA-4 may function as an immune attenuator, either limiting the ongoing T cell response after primary activation or suppressing already the initial activation of T cells, especially in the context of low B7-1 density on antigen-presenting cells 7-10. 

The costimulatory CD28 system plays an important part in the generation of cell-mediated allograft rejection reactions. Significant upregulation of CD28 and its ligands has been demonstrated in liver allograft rejection 11. More important, blocking the interaction of CD28 and CTLA-4 with their ligands employing a CTLA-4 immunoglobulin Ig fusion protein, which competitively binds B7-1 and B7-2 with high affinity, results in significant prolongation of allograft survival or even the induction of sustained antigen-specific tolerance in mouse models of vascularized organ grafts 12-16. In rat heart transplantation, tolerance induction could not be achieved thus far by administration of CTLA-4/lg fusion protein alone, but only in conjunction with donor-specific transfusion or CD4 monoclonal mAb treatment 17-20. 

Animal studies for the induction of allograft tolerance have thus far exclusively used the CTLA-4/lg fusion protein, which competes binding of B7-1 and B7-2 to both their receptors CD28 and CTLA-4. In the context of growing evidence for the function of CTLA-4 as an inhibitory T cell receptor 5,7,8,10, the therapeutic administration of a blocking/modulating CD28 mAb represents a promising concept, <\connective form=because text=because id=G9454_FUL6_12.txt.raw_260 relation=Contingency\> it would leave the purported inhibitory or tolerizing signal mediated through CTLA-4 unaffected. <\connective form=indeed text=Indeed id=G9454_FUL6_12.txt.raw_98 relation=Expansion\>, blockade of CTLA-4 signaling has recently been shown to prevent anergy induction in a mouse model 9. 

In the present study, we investigated the effects of therapeutic administration of the modulating anti-rat CD28 mAb JJ319 on allograft survival and ex vivo immune reactions after rat heart transplantation to determine whether this concept might result in the induction of sustained allograft tolerance, which could not be achieved by CTLA-4/lg fusion protein. 

Inbred rat strains D-Agouti-RT1a DA and Lewis-RT11 LEW were obtained from Harlan CPB Zeist, The Netherlands. Male rats were used exclusively.  For in vitro studies, cells were prepared from cervical and mesenteric lymph nodes LNC by standard procedures. Cells were finally resuspended in RPMI complete RPMI 1640/2.5 fetal calf serum supplemented with 0.5 mM sodium pyruvate, 2 mM L-glutamine, 0.0125 mM 2-ME, 50 U/I penicillin, and streptomycin.  Hybridoma cells for production of the following mAb were obtained from European Collection of Animal Cell Cultures Porton, England: OX1 CD45; OX8 CD8, cytotoxic/suppressor T cells Tc/s and NK cells, OX12 B cells, OX19 CD5; OX34 CD2; OX38 CD4, T helper cells Th cells; OX45 CD48, and R73 alpha/beta-TCR. JJ319 rat CD28 is a mouse anti-rat CD28 mAb IgG1 that was raised against activated rat T cells and has been extensively characterized elsewhere 6; in the present study, complete antibody was used for in vitro and in vivo experiments. MAb 10/788 recognizes the NK cell antigen NKR-P1 6. Cells were grown in spinner flasks Tecnomara, Waldulm, Germany, and mAb were affinity-purified from tissue culture supernatant on protein A-Sepharose Pharmacia, Uppsala, Sweden. For in vivo studies, mAb were used at a final concentration of 1 mg/ml. Mouse antihuman CD58 mAb 1C7 IgG1 and 1A3 IgG2a were used as unspecific controls in vitro 22.  T cells were stimulated in vitro with immobilized alpha/beta-TCR mAb R73. Briefly, flat-bottom microtiter plates were coated with 100 µl R73 at a concentration of 10 µg/ml antibody in phosphate-buffered saline PBS for 2 hr at room temperature. LNC, 105/well, were incubated with CD28 mAb JJ319, OX34, or unrelated control mAb 1C7 at indicated concentrations in a final volume of 200 µl/well. 3H-thymidine, 50 µl, 1 µCi, Amersham, Karlsruhe, Germany were added for the last 18 hr of a 72-hr incubation period at 37°C in 5 CO2. Cells were harvested on glass fibre filters with an automatic cell harvester Pharmacia, Freiburg, Germany, and thymidine uptake was measured in a beta-counter Pharmacia, Freiburg, Germany. 

For primary mixed lymphocyte reaction MLR, 1.75×105 responder LEW-LNC and 2.5×105 irradiated 30 Gy stimulator DA-LNC were incubated with CD28 mAb JJ319, OX34, or unrelated control mAb 1C7 at indicated concentrations for 4 days in round-bottom microtiter plates at 37°C in 5 CO2 at a final volume of 200 µl. Again, 1 µCi of 3H-thymidine was added for the last 18 hr <\connective form=before text=before id=G9454_FUL6_12.txt.raw_99 relation=Temporal\> harvesting the cells. 

CD28-modulated LNC for use in the in vitro assays were generated by i.p. injection of 1 mg of CD28 mAb JJ319 1 mg/ml. LNC were harvested from cervical and mesenteric lymph nodes after 24 hr and used immediately for in vitro experiments. Successful CD28 modulation and time course of re-expression after harvesting were measured by flow cytometric analysis see Flow Cytometric Analysis of a respective cell aliquot. Control LNC from untreated animals were prepared identically at the same time and used in parallel with modulated LNC in the same T cell proliferation assays for direct comparison. 

All T cell proliferation assays were performed in 6 replicate wells per data point, and results are presented as mean ± SD of six replicates of representative experiments.  LEW-LNC, 2.5×105, were incubated with 50 µl staining antibody 10 µg/ml for 30 min at 4°C and <\connective form=then text=then id=G9454_FUL6_12.txt.raw_93 relation=Temporal\> washed twice with PBS. OX1 was used as a positive control, unspecific binding of 1C7 or 1A3 as a negative control. After washing, the cells were labeled with an isotype-specific fluorescein-conjugated goat anti-mouse antiserum Southern Biotechnology Associates, U.S.A. for 15 min at 4°C, washed twice in PBS, and fixed in 1 PBS/formaldehyde. Fluorescence-activated cell sorter FACS analysis was performed on a Facscalibur flow cytometer Becton Dickinson, Frankfurt, Germany using CellQuest® for Macintosh analysis software.  LEW-LNC of untreated animals were prepared for flow cytometric analysis according to the protocol above, using serum diluted 1:2 and 1:8 in PBS of CD28 mAb-treated animals as a source of primary staining antibody. Saturating mAb levels in the serum were assumed <\connective form=when text=when id=G9454_FUL6_12.txt.raw_155 relation=Temporal\> surface staining of the cells for CD28 was similar to control staining with JJ319 at 10 µg/ml.  A fully allogeneic high-responder rat heart transplant model from DA 200-220 g to LEW 220-250 g was used. Recipient rats were anesthetized with ketamine 90 mg/kg and xylazine hydrochloride 10 mg/kg, and heterotopic heart transplantation to the abdomen was performed as described previously 22. 

For antibody therapy, CD28 mAb JJ319 was injected i.p. as indicated in Results and in the figure legends. Rejection was defined as loss of palpable contraction and cessation of electrical activity in the electrocardiogram. 

All animal experiments were performed according to the guidelines set forth in the Helsinki declaration on animal experiments.  Anti-mouse Ig antibodies generated against the therapeutic mAb were detected with an ELISA. Blood samples were taken from the retrobulbar plexus at the indicated timepoints. To differentiate between allospecific and xenospecific, anti-isotypic, and anti-idiotypic antibodies 96-well microtiter plates were coated with the following mAbs 5 µg/ml, 1 hr, 4°C; CD28 mAb JJ319 IgG1; R73 IgG1, alpha/beta-TCR; and OX34 IgG2a, CD2. Plates were <\connective form=then text=then id=G9454_FUL6_12.txt.raw_94 relation=Temporal\> blocked with 1 bovine serum albumin in PBS for 1 hr and washed twice. Rat serum, 100 µl, diluted serially with PBS from 1:2 to 1:64 were added for 1 hr at 4°C, followed by 5 washes. Alkaline phosphatase-conjugated goat anti-rat IgG heavy and light chain, 100 µl, diluted 1:300 was <\connective form=then text=then id=G9454_FUL6_12.txt.raw_95 relation=Temporal\> added for 1 hr at 4°C Dianova, Hamburg, Germany. The second antibody was pre-absorbed against human, goat, equine, bovine, and mouse IgG for minimal crossreaction with mouse IgG. The ELISA was finally developed with p-nitrophenyl phosphate 1 mg/ml, Sigma Chemicals, Germany for 20 min, and absorption was measured at 405 nm in a microtiter photo-meter SLT, Crailsheim, Germany. All assays were performed in duplicates, means per time point and animal were used for final analysis of pooled data.  Graft survival after heart transplantation in antibody-treated animals was compared with that in the untreated control group in a log rank sum test. The p values <0.05 were regarded as significant. CD28 mAb JJ319 was raised against recombinant rat CD28, it seems not to be cross-reacting with rat CTLA-4 as shown by Western Blotting, immunoprecipitation, and FACS analysis 6, and our unpublished data. Dengler, September 1997. The effects of CD28 mAb JJ319 on in vitro T cell activation and proliferation were investigated for various modes of stimulation. JJ319 markedly costimulated both TCR-driven T cell proliferation by mAb R73 and MLR against MHC-incompatible LNC LEW v. DA in a dose-dependent fashion Figs 1A and 1B. T cell activation exclusively through the CD2 pathway by the mitogenic antibody pair OX-54 and OX-55 described in reference 22 was <\connective form=also text=also id=G9454_FUL6_12.txt.raw_310 relation=Expansion\> markedly enhanced by JJ319. Depletion of adherent cells from LNC did not affect costimulation by JJ319 of any mode of T cell activation data not shown. The effect of JJ319 on TCR-mediated T cell activation corresponds to previous findings 6. As a comparison for the validation of the experimental system, blocking CD2 mAb OX34 10 µg/ml inhibited all three modes of T cell activation by >50 as described previously Figs 1A and 1B 22,23. CD28 modulation from the surface of immune cells was studied by flow cytometry of cells harvested from nontransplanted animals at various timepoints after i.p. administration of different doses of CD28 mAb JJ319. Presence of circulating JJ319 was investigated by flow cytometry at the same time points. Figures 2A and B show the modulation of surface CD28 on LNC at several time points after the administration of 3×1 mg i.p. or 8×1 mg i.p. daily dose of 1 mg for 3 or 8 days, respectively until complete re-expression has occurred. In control animals, the proportion of CD28-positive cells was approximately 75-80. After mAb administration, CD28 was completely down-modulated <10 positive cells from the cell surface of LNC within 24 hr, modulation <\connective form=then text=then id=G9454_FUL6_12.txt.raw_96 relation=Temporal\> persisted in a dose-dependent fashion. After application of 3×1 mg, CD28 remained modulated at 24 hr and at 3 days after administration, at 5 days CD28 was partially re-expressed, and after 11 days complete re-expression had occurred, which persisted thereafter. After 8×1 mg, CD28 remained modulated for 10 days; on day 15 <\connective form=after text=after id=G9454_FUL6_12.txt.raw_131 relation=Temporal\> administration gradual re-expression occurred approximately 50 positive cells; on day 21 re-expression was complete. Administration of 1×1 mg resulted in CD28 down-modulation for <3 days, administration of 1×0.2 mg had no effect on CD28 expression on LNC data not shown. As <\connective form=also text=also id=G9454_FUL6_12.txt.raw_311 relation=Expansion\> shown in figure 2A 3×1 mg dose and figure 2B 8×1 mg dose, CD28 administration did not affect the expression of other cell surface antigens on LNC, including CD2, TCR, CD4, CD8, and CD48 and <\connective form=also text=also id=G9454_FUL6_12.txt.raw_312 relation=Expansion\> did not induce any T cell depletion, as indicated by constant proportions of cells positive for CD2 or OX12-antigen Ig light chain, B cells. The proportion of NK cells in LNC remained constant at approximately 1 not shown. Analysis of surface molecule modulation on spleen cells of the same animals gave similar results, with the exception of a slightly higher proportion of NK cells approximately 5, data not shown. 

The presence of mAb JJ319 in the circulation showed a close temporal association with the modulation of surface CD28 on LNC Figs 2A and 2B. <\connective form=thus text=Thus id=G9454_FUL6_12.txt.raw_276 relation=Contingency\>, surface re-expression of CD28 occurred at a time point when circulating CD28 mAb JJ319 could no longer be detected in the serum. <\connective form=because text=Because id=G9454_FUL6_12.txt.raw_261 relation=Contingency\> mAb JJ319 was administered to transplanted animals beginning 1 day before transplantation, time points for the flow cytometric analysis and the transplant survival data relate to each other by the following function: days after transplantation=days after administration of first antibody dose -1. The potential immunosuppressive effect of CD28 modulation in vivo by mAb JJ319 was further tested in a model of fully allogeneic, heterotopic heart transplantation using a high responder rat strain combination Fig 3. In the untreated control group n = 16, the allograft was almost uniformly rejected after 7 days median graft survival time MST 7 days, range: 6-8. There was a dose-dependent prolongation of allograft survival after i.p. administration of CD28 mAb JJ319. Figure 3 shows Kaplan-Meier survival curves for the respective therapeutic doses. <\connective form=while text=While id=G9454_FUL6_12.txt.raw_258 relation=Temporal\> the administration of 1×0.2 mg JJ319 n=3 had no effect on MST of the allografts, MST was already increased to 14 days range: 9-20 p<0.05 after 1×1 mg JJ319 n=5 given on the day of transplantation day 0. After 3×1 mg JJ319 n=5 starting 1 day before transplantation days -1 to +1, MST further increased to 28 days range: 12-31; p<0.01. At the maximum dose administered 8×1 mg, day -1 to +6; n=5, MST was 36 days range: 30-40; p<0.001. Even with this maximum dose, ensuring complete CD28 surface modulation on LNC for nearly 2 weeks, no indefinite graft survival or sustained immunological unresponsiveness were seen. MST increased in parallel with CD28 surface modulation, but there was a temporal delay between complete re-expression of surface CD28 and allograft rejection. Taking into consideration the time required for rejection to occur in untreated animals 7 days, this delay amounted to 10-14 days. 

It was decided to start administration of mAb JJ319 on the day before transplantation <\connective form=because text=because id=G9454_FUL6_12.txt.raw_262 relation=Contingency\> preliminary experiments with the 3×1 mg dose n=3 showed a trend toward longer MST for this mode of application. MST for 3×1 mg starting on the day of transplantation days 0 to +2 was 19 days range: 15-21, compared with 28 days range: 26-31; see paragraph above when JJ319 was started on the day before transplantation days -1 to +1. Anti-mouse IgG antibodies in serum generated against the therapeutic CD28 mAb JJ319 were detected by ELISA. Such antibodies appeared in significant titers as soon as day 7 <\connective form=after text=after id=G9454_FUL6_12.txt.raw_138 relation=Temporal\> administration, titres reached a maximum at day 14, and persisted at this level thereafter Table 1. The titres of anti-mouse antibodies did not differ after application of 3×1 mg or 8×1 mg of CD28 mAb JJ319, respectively. The anti-mouse IgG antibodies detected seemed to be directed against xenogeneic or allogeneic and idiotypic epitopes, <\connective form=because text=because id=G9454_FUL6_12.txt.raw_263 relation=Contingency\> the reactivity of the sera was clearly higher with CD28 than with unrelated mouse antibodies of different or identical isotype Table 1. Emergence of the anti-mouse IgG antibodies was not associated with removal of CD28 mAb from the circulation or abrogation of its immunomodulatory activity. To address the potential mechanism of immunosuppression by CD28 mAb JJ319, in vitro T cell activation was compared between control LNC and LNC after in vivo modulation of CD28. In vivo modulation was necessary, <\connective form=because text=because id=G9454_FUL6_12.txt.raw_264 relation=Contingency\> in vitro modulation with CD28 mAb JJ319 was incomplete after 24 hr or 72 hr >50 CD28 positive cells, not shown. Figure 4A shows complete in vivo modulation of surface CD28 after 1×1 mg JJ319 i.p. and the rapid re-expression to pre-treatment levels within 24 hr after harvesting LNC and ex vivo culture. Expression of other surface antigens was unchanged, <\connective form=and text=and id=G9454_FUL6_12.txt.raw_236 relation=Expansion\> no residual CD28 mAb was detectable Fig 4A. Ex vivo prolongation of this CD28 modulation by application of JJ319 in vitro was not feasible. Increasing the dose or duration of in vivo application of CD28 mAb did not induce prolonged persistence of ex vivo down modulation data not shown. <\connective form=however text=However id=G9454_FUL6_12.txt.raw_160 relation=Comparison\>, even in these briefly modulated LNC the proliferative response to TCR-mediated T cell stimulation and to allogeneic stimulation in an MLR was reduced by approximately 50 Fig 4B. In comparison, CD2 mAb OX-34 a strongly inhibitory mAb inhibited TCR stimulation and MLR by approximately 70. <\connective form=after text=After id=G9454_FUL6_12.txt.raw_144 relation=Temporal\> re-expression of surface CD28, T cell responses of formerly modulated LNC were immediately restored to normal in both assays Fig 4B. In the present study, significant immunosuppressive effects of selective modulation of the CD28 antigen by a monoclonal antibody on allograft survival are demonstrated after vascularized, heterotopic cardiac transplantation in a high-responder rat model. Administration of CD28 mAb induced dose-dependent, profound immunosuppression with allograft survival lasting up to 5 weeks compared with 7 days in control animals Fig 3. <\connective form=however text=However id=G9454_FUL6_12.txt.raw_161 relation=Comparison\>, even with the maximal mAb dose, ensuring complete CD28 modulation for >10 days, indefinite graft survival indicative of persistent immune unresponsiveness or tolerance could not be induced. <\connective form=thus text=Thus id=G9454_FUL6_12.txt.raw_277 relation=Contingency\>, the results of immune modulation using a CD28 mAb seem to be qualitatively and quantitatively similar to treatment with CTLA-4/Ig fusion protein 17-20. <\connective form=while text=While id=G9454_FUL6_12.txt.raw_259 relation=Comparison\> CD28 mAb JJ319 co-stimulates various modes of T cell activation in vitro Fig 1. its immunosuppressive mechanism of action in vivo seems to operate through selective down modulation of the CD28 antigen from the cell surface without T cell depletion Fig 2, <\connective form=thus text=thus id=G9454_FUL6_12.txt.raw_278 relation=Contingency\> making it unavailable for signaling at the time of primary alloantigen contact and T cell receptor stimulation. Graft rejection <\connective form=then text=then id=G9454_FUL6_12.txt.raw_97 relation=Temporal\> follows CD28 re-expression after a delay phase, but with a strict dose-dependent temporal relationship. 

Accessory T cell stimulation through CD28 is of central importance in the generation of the alloimmune response after organ transplantation 5,10; inhibition of CD28 signals can induce anergy in vitro 12-16. Many interventional transplant studies have shown profound immunosuppressive effects in mice using a CTLA-4/Ig fusion protein, including long-term graft survival and development of tolerance either with CTLA-4/Ig alone 12,13,24 or in combination with CD2 mAbs 16, blockade of the CD40 pathway 25, or donor-specific blood transfusions 26. In rats, CTLA-4/Ig induced marked prolongation of allograft survival times but no graft-specific tolerance after heterotopic heart transplantation 18,27-29, <\connective form=unless text=unless id=G9454_FUL6_12.txt.raw_110 relation=Expansion\> additional therapies were administered, including CD4 mAb 19 or donor-specific bone marrow transfusions 20. 

Recently, evidence has accumulated that the CD28 co-receptor CTLA-4 may act as an immune attenuator 10. Inhibition of CTLA-4 signaling leads to increased T cell proliferation 7; CTLA-4 knockout mice develop a lymphoproliferative disorder 8, and selective activation of CTLA-4 inhibits the T cell immune response 7. CTLA-4 activation has even been suggested as a requirement for anergy induction 9. In all therapeutic approaches with CTLA-4/Ig fusion protein, <\connective form=however text=however id=G9454_FUL6_12.txt.raw_162 relation=Comparison\>, binding of B7-1 CD80 and B7-2 CD86 to both receptors is inhibited, <\connective form=thus text=thus id=G9454_FUL6_12.txt.raw_279 relation=Contingency\> <\connective form=also text=also id=G9454_FUL6_12.txt.raw_313 relation=Expansion\> blocking a potential negative tolerizing signal through CTLA-4. In contrast, selective inhibition of CD28 signaling would leave the CTLA-4 pathway intact and might represent a more successful immunosuppressive strategy. 

In the current study, cardiac transplantation in a high-responder rat strain combination was chosen <\connective form=because text=because id=G9454_FUL6_12.txt.raw_265 relation=Contingency\> tolerance induction in this setting has not been possible using CTLA-4/Ig fusion protein alone and a possible qualitative advantage of CD28 modulation might be most clearly shown in this model. The effects of CD28 modulation were, <\connective form=however text=however id=G9454_FUL6_12.txt.raw_163 relation=Comparison\>, very similar to those reported with CTLA-4/Ig fusion protein. There was a temporal delay between CD28 re-expression and rejection of 10-14 days, which, <\connective form=however text=however id=G9454_FUL6_12.txt.raw_164 relation=Comparison\>, does not represent temporary immune unresponsiveness or a persistent negative signal to T cells, <\connective form=because text=because id=G9454_FUL6_12.txt.raw_266 relation=Contingency\> T cells in vitro immediately regained their reactivity after CD28 re-expression Fig 4B. These data, <\connective form=therefore text=therefore id=G9454_FUL6_12.txt.raw_308 relation=Contingency\>, cannot substantiate a superior therapeutic role of selective CD28 modulation over CTLA-4/Ig as an immunosuppressive strategy after transplantation; they seem to be more in line with reports of allograft rejection in CD28 negative animals 30-32. <\connective form=moreover text=Moreover id=G9454_FUL6_12.txt.raw_280 relation=Expansion\>, these findings correspond to the reported failure to induce transplant tolerance in rats after therapeutic blockade of the accessory receptors CD2 or LFA-1, <\connective form=either or text=either id=G9454_FUL6_12.txt.raw_320 relation=Expansion\> targeted alone <\connective forme=either or text=or id=G9454_FUL6_12.txt.raw_320 relation=Expansion\> in combination with their respective ligands 22,23,33. 

The effects of CD28 mAb JJ319 are notable for the differential influence on the T cell immune response in vitro costimulation and in vivo inhibition of graft rejection. A potential explanation is the timing of CD28 ligation and down-modulation relative to TCR activation. For co-stimulation of T cell activation, CD28 ligation has to occur with or after TCR activation by antigen; CD28 mAb do not induce T cell proliferation on their own. <\connective form=if text=If id=G9454_FUL6_12.txt.raw_271 relation=Contingency\>, as in our animal model, CD28 ligation and subsequent modulation from the T cell surface occurs in the absence ie, before TCR stimulation, CD28 will not be available for co-stimulation of the T cell response any more, making T cells less responsive <\connective form=as long as text=as long as id=G9454_FUL6_12.txt.raw_109 relation=Contingency\> CD28 remains down modulated. In addition, the different effects of JJ319 in vitro and in vivo can further be explained by the experimental findings that mAb JJ319 can only effectively modulate CD28 in vivo, but not in vitro data not shown. This explanation would <\connective form=also text=also id=G9454_FUL6_12.txt.raw_314 relation=Expansion\> correspond well with the documented optimal graft survival <\connective form=when text=when id=G9454_FUL6_12.txt.raw_158 relation=Temporal\> JJ319 was administered 1 day before transplantation as opposed to 2 days after transplantation for CTLA-4/Ig 18, which is not co-mitogenic. Similar differential effects on the T cell immune response have been described for co-mitogenic CD2 mAbs in rats 22. 

The failure of CD28-directed therapy to induce tolerance might result from an alloimmune response triggered by other co-stimulatory systems, such as CD2/CD58 or CD154 CD40 ligand/CD40. The lack of a superior effect of specific anti-CD28 therapy over the use of CTLA-4 could <\connective form=also text=also id=G9454_FUL6_12.txt.raw_315 relation=Expansion\> be explained <\connective form=if text=if id=G9454_FUL6_12.txt.raw_272 relation=Contingency\> CTLA-4 was not significantly upregulated in the absence of CD28 engagement and without active graft rejection. Several recent reports do, <\connective form=however text=however id=G9454_FUL6_12.txt.raw_165 relation=Comparison\>, show functional effects of CTLA-4 ligation in resting T cells 7,9,32, including in vitro activation of CD28-negative T cells from knockout mice with B7.1. The lack of tolerance induction after rat cardiac transplantation compared with various mouse models might have a basis in the greater immunogenicity of the high-responder rat strain combinations. Similar discrepancies between mouse and rat transplant models have been reported for CD2/CD48 22,23 and LFA-1/ICAM-1 33. The results <\connective form=also text=also id=G9454_FUL6_12.txt.raw_316 relation=Expansion\> should not be confounded by insufficient dose, incomplete modulation, or the occurrence of rat anti-mouse antibodies, <\connective form=because text=because id=G9454_FUL6_12.txt.raw_267 relation=Contingency\> complete down modulation of CD28 in close correlation to serum levels of the therapeutic antibody was ascertained throughout the study by flow cytometry. Finally, blockade of certain CD28 epitopes rather than complete down-modulation of the molecule might be a more successful therapeutic approach for tolerance induction, <\connective form=because text=because id=G9454_FUL6_12.txt.raw_268 relation=Contingency\> some parts of the CD28 molecule might be required for the development of an "active" form of immune unresponsiveness. Use of Fab fragments of mAb JJ319 might, <\connective form=therefore text=therefore id=G9454_FUL6_12.txt.raw_309 relation=Contingency\>, be a useful future approach. 

In summary, the present study describes the concept of therapeutic interference with the costimulatory CD28 system by selective CD28 modulation in a high-responder rat model. Profound dose-dependent immunosuppression was demonstrated in close relation to CD28 modulation, which could be clinically applicable. Long-term survival or tolerance, <\connective form=however text=however id=G9454_FUL6_12.txt.raw_166 relation=Comparison\>, could not be induced, rendering these results similar to data generated using the CTLA-4/Ig fusion protein and reported failures to induce transplant tolerance by therapeutic inhibition of CD2 or LFA-1 in rats. These data seem to indicate that the therapeutic exploitation of a potential tolerizing signal delivered by CTLA-4 is not feasible by this approach, either <\connective form=because text=because id=G9454_FUL6_12.txt.raw_269 relation=Contingency\> CTLA-4 is not sufficiently expressed in the absence of CD28 co-stimulation or <\connective form=because text=because id=G9454_FUL6_12.txt.raw_270 relation=Contingency\> CTLA-4 does not negatively regulate other pathways of T cell activation or co-stimulation CD2, CD40 ligand. Ongoing studies combining CD28 mAb therapy with CD2- or CD40- ligand-directed immunomodulation should help to improve our understanding of the relative roles of these costimulatory pathways in allograft rejection and potential induction of transplant tolerance.