b7__dc	607.0	5.026409927938555e-134
il__15	562.45	2.465024920359535e-124
factor__xi	415.0	2.9906855749030155e-92
nf__κb	405.59	3.348301428787168e-90
ang__ii	232.0	2.183654701533326e-52
cell__lines	208.89	2.400220710816118e-47
map__kinase	183.08	1.028345713936325e-41
ifn__αβ	183.0	1.0725753402525143e-41
il__12p40	166.0	5.531794849766882e-38
cag__pai	122.0	2.3083790118582795e-28
coated__pits	116.0	4.7529653819625526e-27
inkt__cells	108.0	2.6877817946493693e-25
ampk__α1	105.0	1.221358380729662e-24
cd4__bffi	102.0	5.552176260080092e-24
oral__epithelial	97.0	6.932733083405917e-23
cell__proliferation	95.43	1.5292538862862346e-22
pi3k__akt	94.04	3.090841192945139e-22
il__12	91.27	1.2555800031844596e-21
thymine__glycols	91.0	1.4367211464103852e-21
vegf__r2	91.0	1.4367211464103852e-21
cll__cells	82.0	1.3608668146478877e-19
ts1__infected	82.0	1.3608668146478877e-19
sofa__hdv	78.0	1.0304055432109602e-18
apo2l__trail	76.0	2.83664736699921e-18
ras__gtp	73.0	1.2964983720780151e-17
cd14__vegfr	71.0	3.5722488876697415e-17
mip__1γ	70.0	5.930445850082478e-17
er__stress	69.05	9.576544266140197e-17
osk__mrna	69.0	9.84634403142533e-17
mda__neurons	67.0	2.7150713219425247e-16
snare__complex	66.0	4.509229801533842e-16
cox__expression	63.61	1.5203953297575417e-15
hiv__tat	63.22	1.8490760597155742e-15
skeletal__muscle	61.45	4.548670383289776e-15
nt__hesc	61.0	5.707480873424356e-15
pm__cholesterol	60.0	9.485737571073857e-15
granulosa__cells	59.06	1.526655753463367e-14
actor__perspective	59.0	1.5767196656728065e-14
mmp__26	58.0	2.6211778256716213e-14
shp__mice	58.0	2.6211778256716213e-14
sodium__channels	57.88	2.790714492149889e-14
endothelial__cells	56.11	6.836447680250858e-14
hbsag__seroreversion	56.0	7.247101964362903e-14
htlv__iii	56.0	7.247101964362903e-14
jztx__iii	56.0	7.247101964362903e-14
santa__cruz	55.68	8.509904267152529e-14
socs__promoter	55.0	1.2052982584446408e-13
igf__ir	53.26	2.9185501984845166e-13
oral__cancer	52.51	4.274487840370112e-13
th1__cells	52.51	4.274487840370112e-13
mk__801	52.07	5.351799658568329e-13
chorda__tympani	52.0	5.550063481222692e-13
dna__methylation	51.86	5.968913756076589e-13
cd4__x4	50.0	1.537459794428033e-12
il__13	49.31	2.189172501432012e-12
lc__lf	49.0	2.559625087771672e-12
drg__neurons	48.65	3.061792058783724e-12
cd133__cells	48.0	4.262191597843651e-12
granule__cells	47.52	5.458045164928294e-12
cells__transfected	47.09	6.790609452025511e-12
red__wine	46.3	1.0165593635824554e-11
bm__mscs	46.0	1.1825298845719106e-11
stat3__phosphorylation	46.0	1.1825298845719106e-11
kupffer__cells	45.63	1.427219863258293e-11
mushroom__body	45.0	1.970344471179912e-11
patients__oh	45.0	1.970344471179912e-11
vein__grafts	45.0	1.970344471179912e-11
insulin__secretion	44.45	2.6153149050698078e-11
ss__dna	43.0	5.47398647800516e-11
p38__mapk	42.88	5.813269249958932e-11
oxidative__stress	42.29	7.856392556355462e-11
shear__stress	42.19	8.261919196265214e-11
hsnf5__ini1	42.0	9.127341799289188e-11
pires2__egfp	42.0	9.127341799289188e-11
sle__patients	42.0	9.127341799289188e-11
rt__pcr	41.98	9.201733823325796e-11
central__obesity	40.0	2.5396285894708634e-10
ligand__binding	39.2	3.8254023259386267e-10
17α__met	39.0	4.238055426079462e-10
cell__size	38.35	5.919399366560502e-10
pml__nbs	37.0	1.1812924646610715e-09
blood__vessels	36.94	1.2191705595781528e-09
β1__integrin	36.8	1.3118461561507477e-09
gastric__cancer	36.21	1.7687622835890062e-09
bas2714__12	36.0	1.9731752900753933e-09
saint__18	36.0	1.9731752900753933e-09
pc__cells	34.0	5.511207251989962e-09
root__filling	34.0	5.511207251989962e-09
fusion__protein	33.0	9.215887201256233e-09
tgrb1__tgrc1	33.0	9.215887201256233e-09
adhd__symptoms	32.92	9.583036055514454e-09
high__glucose	32.44	1.2301871968008583e-08
western__blotting	31.42	2.077690360925099e-08
obese__patients	31.39	2.109234423822453e-08
pc12__cells	30.86	2.7773798106167572e-08
electron__transport	29.63	5.22993551550672e-08
vcam__expression	29.12	6.798849974791912e-08
anti__rbmpa	29.0	7.23782987174e-08
need__structure	29.0	7.23782987174e-08
sh__rats	29.0	7.23782987174e-08
δf508__cftr	29.0	7.23782987174e-08
xp__cs	28.12	1.1372725656979661e-07
wky__rats	27.13	1.903182129217055e-07
pigeon__fanciers	27.0	2.0345546145444302e-07
il__1α	26.45	2.704484788633552e-07
30__min	26.06	3.3079589463102843e-07
cpg__odn	26.04	3.3412791127020217e-07
cs__cells	25.6	4.200393976022008e-07
il__17	24.08	9.225533466358126e-07
hcv__rna	24.03	9.491672398804044e-07
muscle__dysmorphia	24.0	9.63357008643095e-07
u1__cells	24.0	9.63357008643095e-07
heat__shock	23.14	1.5040084860090868e-06
chlamydophila__psittaci	23.0	1.620013982466468e-06
lif__lifr	23.0	1.620013982466468e-06
target__vessel	23.0	1.620013982466468e-06
area__risk	22.5	2.1014359560124407e-06
pr__mice	22.0	2.726504656155499e-06
intraductal__cooling	21.0	4.592833711753971e-06
shoot__apex	21.0	4.592833711753971e-06
cell__stage	19.88	8.235705275029582e-06
dna__content	19.27	1.1367369557661892e-05
described__previously	19.23	1.1583130623164477e-05
gtpase__activity	18.62	1.5992473593247364e-05
gene__transfer	18.28	1.9034055630689197e-05
prostate__cancer	18.12	2.0785390329886304e-05
encapsulated__islets	18.0	2.2090496998585475e-05
fetal__distress	18.0	2.2090496998585475e-05
plasma__membrane	17.52	2.8417667670336965e-05
xpb__ercc	17.0	3.737981840170153e-05
μg__ml	16.58	4.67549743010816e-05
bone__marrow	15.45	8.486012343553561e-05
methylene__atp	15.24	9.44812939149016e-05
month__olds	15.0	0.00010751117672950066
t4v__cells	15.0	0.00010751117672950066
white__matter	14.29	0.00015635271159998698
life__span	14.23	0.00016213175204392638
pkc__activity	14.22	0.000162440845186801
al__2000	13.55	0.00023277769985728856
magnetic__field	13.24	0.0002747267638079425
dupuyten__disease	12.0	0.0005320055051392492
reactome__array	12.0	0.0005320055051392492
100__mm	8.4	0.003754743625196106
dna__repair	6.91	0.00855097923712532
spinal__cord	4.9	0.02688306854400372
cell__death	3.21	0.07305029748636326
bile__duct	3.18	0.07473549830588237
cell__line	2.9	0.08833140308405586
wild__type	2.21	0.13681780624826673
ng__ml	1.39	0.23920959658474694
sigma__aldrich	0.62	0.4307911212275324
gene__expression	0.59	0.443598431957837
amino__acids	0.19	0.6611275095163061
et__al	0.0	0.9886905444519529
