--------------------------------------------
-- SPEARMAN conn
Data size: (506, 70)
if: -0.12889412902973982, p=0.0036801058883346657
so: -0.12827732460864516, p=0.003848248688243219
since: -0.1267995411483194, p=0.004279757466114903
moreover: 0.119677409422735, p=0.007036511620933235
as: -0.11169953726126162, p=0.011927657775525208
therefore: 0.0971821341535483, p=0.028828217384355186
that: -0.0961729787099287, p=0.030539388863559135
additionally: -0.0926368840952384, p=0.03723821801218409
but: -0.09249226214676425, p=0.03753685854501288
thereafter: 0.09036250314788406, p=0.042175392665080635
although: -0.08958418496760903, p=0.043987074151634956
thereby: 0.08943684454016967, p=0.04433730868141583
also: 0.07808090220500165, p=0.07930681802315745


--------------------------------------------
-- SPEARMAN hedges
Data size: (506, 121)
much: -0.1623687346661075, p=0.0002447156956476954
would: -0.1458555885574692, p=0.001000312425936212
overall: -0.12395318057328814, p=0.005236116017085086
practically: -0.11844009503637037, p=0.007652064627552518
appeared: -0.11768764615765825, p=0.008049520869308888
assume: -0.11243474769455725, p=0.011375995331069897
must: -0.11012178195595038, p=0.013191980940702007
occasionally: -0.10221862183176854, p=0.021465736439029
conceivably: 0.09989888873718121, p=0.024624924479326602
should: -0.0918087536826047, p=0.0389759253404768
most: -0.08881970325308662, p=0.04582987886598694
suggest: 0.08721033132470321, p=0.049921844139632195
effectively: 0.08578616109385902, p=0.05379348800997146
estimate: -0.08577689719636676, p=0.05381946784010592
assumed: -0.08524032393242766, p=0.055342160475832416
somehow: -0.08466593945725819, p=0.05701165137687017
perhaps: -0.08448179875325677, p=0.057555631997897934
will: -0.08293410232876153, p=0.06229992729384775
presumably: 0.08291763904425208, p=0.062352077057961815
speculate: -0.0825486209101386, p=0.06353047288801811
suggestive: -0.08235722961844336, p=0.06414883605507203
some: -0.07985115469756497, p=0.07271242569032713
find: 0.07931965341758943, p=0.07464357438749265
surely: 0.0772283284276542, p=0.08265147512248865
apparent: -0.076212885989731, p=0.08678282249060468


--------------------------------------------
-- SPEARMAN inquirer
Data size: (506, 180)
enlpt: 0.1860931917821381, p=2.5248989728889132e-05
compare: -0.15701757322151255, p=0.0003921627542245091
begin: 0.15511795951353582, p=0.0004619857623037941
rcends: -0.13808186328105201, p=0.0018499606155874748
exert: 0.1249240024345866, p=0.004890216526274808
solve: -0.12254043396318716, p=0.005778888101227881
affoth: 0.12249188348676111, p=0.005798408899323154
powpt: 0.12046923115854163, p=0.006666230664342499
powaupt: -0.1203706639030529, p=0.006711351830800572
natobj: 0.12009059624342858, p=0.006841055994059062
rspoth: -0.11469386376545407, p=0.009819545752954299
aquatic: 0.11003986032041722, p=0.013260740877752721
bldgpt: 0.10944495244862121, p=0.013769616037107898
wlttran: 0.10886363075696025, p=0.014283399991547688
freq: -0.10800198500185167, p=0.015075953422843666
pos: -0.10773977206726765, p=0.015324684279840853
rsptot: -0.10438657160905883, p=0.018837542955945297
undrst: -0.0995779721094105, p=0.025092145442161966
quan: -0.09578253484798369, p=0.03122440146511433
power: 0.09554157435901822, p=0.031653679667005025
wlbpsyc: 0.09305231150226789, p=0.036391564553877286
ought: -0.09259510228253238, p=0.03732428850497769
exch: 0.09068043956707987, p=0.041453657948369194
wlbpt: -0.0903613613708544, p=0.04217800354808775
afftot: 0.08798702855830612, p=0.04791040797413916
object: 0.08513203797846118, p=0.05565375660827735
affloss: 0.08466593945725819, p=0.05701165137687017
surelw: -0.08376932600812062, p=0.05970107128925833
powgain: -0.08365975714799126, p=0.060036806446083196
socrel: 0.08196775256629056, p=0.06542249467435715
pain: -0.08087805655811577, p=0.06909680457188135
affpt: 0.08070457003108401, p=0.0696970841693366
route: 0.080185737436195, p=0.07151780737196219
pleasur: 0.0784061519715865, p=0.07806013541887584
food: 0.07768037247210631, p=0.08086417605004247
male: -0.07762530672184062, p=0.08108020799872036
polit: -0.07731701382655025, p=0.08229833446820546
causal: 0.07715051672215996, p=0.08296232493539364
yes: -0.07473694354732621, p=0.09308240143381821
negaff: 0.0738828875456676, p=0.09689158826417556
our: 0.07354622921951752, p=0.09842685819547078


--------------------------------------------
-- SPEARMAN pronounsep
Data size: (506, 7)
we: 0.08117068387064948, p=0.0680938856147526
they: -0.08081353357435006, p=0.06931956367733155
he: -0.07880136337628134, p=0.07656674905190138


--------------------------------------------
-- SPEARMAN relexpl
Data size: (506, 4)
22_comparison: -0.0741826117012492, p=0.09554087243980874

--------------------------------------------
-- SPEARMAN causal
Data size: (506, 68)
stimulation: 0.1579562671602974, p=0.0003614131995590172
preventive: 0.1267408264588595, p=0.0042977721407976305
therefore: 0.1153263081337415, p=0.009419159076642442
trend: -0.10753017481797218, p=0.015526087752536374
since: -0.10602082759253588, p=0.0170462496969966
stimulate: 0.10545406683375755, p=0.017649831565613148
impossible: -0.10466430427045988, p=0.018522011283498372
precipitate: 0.10465863721566232, p=0.01852840324193786
detrimental: -0.0928914384413972, p=0.036717467933440585
should: -0.0918087536826047, p=0.0389759253404768
thereby: 0.09103312645361872, p=0.04066526508296844
substantiate: -0.0809143368349422, p=0.06897180829821369
impetus: 0.0772283284276542, p=0.08265147512248865
liable: -0.0772283284276542, p=0.08265147512248865
result: 0.07595769320710595, p=0.08784679918084158
necessitate: -0.07476021733604278, p=0.09298029956228157


--------------------------------------------
-- SPEARMAN cat_causal
Data size: (506, 2)
ought: -0.09259510228253238, p=0.03732428850497769
causal: 0.07710936810723162, p=0.0831270908553363


--------------------------------------------
-- SPEARMAN relexpl-lvl2
Data size: (506, 10)
27_concession: -0.09463796847741258, p=0.03330870929974039
5_synchronous: -0.09344909608530982, p=0.035598232934040984
32_conjunction: 0.08317859580394407, p=0.061529685078970636


--------------------------------------------
-- SPEARMAN bow
Data size: (506, 118)
activation: 0.2209860381820438, p=5.143815579458373e-07
akt: 0.2031998726613299, p=4.071068458903806e-06
induced: 0.1774677895539723, p=5.968001551622711e-05
cell: 0.13216806449786847, p=0.0028940612516389253
receptor: 0.129103144572203, p=0.003624656492820031
2: 0.12610143990550496, p=0.004498431978723309
between: -0.12559480904108355, p=0.004663396495843154
b: 0.12536183752275595, p=0.004741071695149143
g: 0.12462989536758629, p=0.004992763939082709
antibody: 0.12420198101058914, p=0.005145430287472615
integrin: 0.12173120199705119, p=0.0061120950403553585
ddr1: 0.11843640957330541, p=0.0076539678259893
d: 0.11392920429493482, p=0.010323776771382685
from: 0.11228685889370592, p=0.011485113136063815
low: -0.11021553587203131, p=0.01311367556254679
be: -0.10740420072422731, p=0.015648251293968757
vascular: 0.10561447885224874, p=0.017477131442434762
=: -0.10489875592716313, p=0.018259250426027173
nf: 0.10476694781897002, p=0.018406570596599545
apoptosis: 0.10108250727649892, p=0.02296608210838775
cells: 0.09899209592610539, p=0.025964874718202018
il: 0.09744031528742046, p=0.02840389049093763
patient: -0.09120247737513344, p=0.04029122581078014
by: 0.08951499355495192, p=0.04415125402094734
years: -0.08724804030301411, p=0.049822582974153956
that: 0.08456020725723402, p=0.057323477225669814
level: -0.08287243793172404, p=0.062495443069365324
we: 0.08117068387064948, p=0.0680938856147526
wall: -0.08075732621470177, p=0.06951409285786979
expression: 0.08069751042950206, p=0.0697216011500121
and: 0.0793685298653499, p=0.07446426103256448
mm: 0.07729228177772113, p=0.0823966933326754
twins: 0.07722802499971086, p=0.08265268545552729
hescs: 0.07722792385785784, p=0.08265308889988632
flow: 0.07333552762326406, p=0.09939753832022365


--------------------------------------------
-- SPEARMAN ngram
Data size: (506, 154)
santa__cruz: 0.20916261335727726, p=2.07524739039016e-06
described__previously: 0.1863007763575619, p=2.4719514560090685e-05
western__blotting: 0.17295211214752068, p=9.216402491073502e-05
pi3k__akt: 0.16492155297096014, p=0.00019439661573686997
b7__dc: 0.14905929660787123, p=0.0007695461489147767
map__kinase: 0.1434232034401683, p=0.0012164870943279773
rt__pcr: 0.13692094205076508, p=0.0020226021668134347
skeletal__muscle: 0.13096559883653297, p=0.0031630204200529775
heat__shock: -0.11870524350960579, p=0.007516244905022491
blood__vessels: 0.11597216728348012, p=0.009025328868004008
factor__xi: 0.10954213017626091, p=0.013685334594499117
nf__κb: 0.10801305772018707, p=0.015065528489691385
cag__pai: 0.09989865230251194, p=0.02462526591823826
oral__epithelial: 0.09989857349132858, p=0.024625379731578773
cell__lines: 0.08954183436369072, p=0.044087504064214
thymine__glycols: 0.08926357785567735, p=0.044752170056604944
ang__ii: 0.08926349000366174, p=0.04475238123040642
cell__proliferation: 0.08882663197587833, p=0.04581289022698267
ligand__binding: -0.08628901808962727, p=0.05239884904371163
fusion__protein: -0.07988403318537603, p=0.0725943171479774
pc__cells: 0.07722792385785784, p=0.08265308889988632
cell__death: 0.07324458280896122, p=0.09981885740633471


--------------------------------------------
-- SPEARMAN treelet
Data size: (506, 136)
noun->compound->propn<-compound<-propn: 0.16004137044456948, p=0.0003009722023083217
noun->nmod->propn->conj->propn: 0.1439380374033891, p=0.0011674296641768244
noun->nmod->propn->punct->punct: 0.13691737519432967, p=0.002023154590019406
propn->compound->propn<-punct<-punct: 0.13297666266207667, p=0.00272508581089872
noun->amod->verb->punct->punct: 0.13091723371135428, p=0.0031742989394288883
pron->nmod:poss->noun<-amod<-adj: 0.12527872632952988, p=0.004769063166610399
noun->conj->noun<-punct<-punct: 0.12405547184944594, p=0.0051986588313420075
noun->compound->propn->compound->propn: 0.12131199157185835, p=0.0062914047405203295
punct->punct->noun<-compound<-noun: 0.1212095043588635, p=0.006335953761098596
punct->punct->noun<-punct<-punct: 0.11966271250494778, p=0.0070435550823308045
num->conj->num: -0.11472800334693324, p=0.009797552681039445
noun->conj->propn<-conj<-noun: 0.11116525668023494, p=0.012343260500479576
propn->nummod->num: 0.11107988427951779, p=0.012410841353986998
propn->conj->propn: 0.11107588786890421, p=0.012414012905613345
punct->punct->noun<-cc<-conj: 0.11067413737168144, p=0.012736517205123829
intj: 0.1106179015720185, p=0.012782245252896726
noun->nmod->propn: 0.11021036242782055, p=0.01311798583231621
propn->compound->propn<-compound<-propn: 0.10699982000488326, p=0.016046115603698795
punct->punct->propn<-punct<-punct: 0.10521822803268736, p=0.017906443988832878
propn: 0.10039151723151638, p=0.023922333885001243
verb->nmod:tmod->num: 0.09787343266287157, p=0.02770409792430353
part->neg->verb<-nmod<-noun: -0.09546456957296817, p=0.031791925642381084
punct->punct->adj<-punct<-punct: -0.09304490001766982, p=0.03640652485904393
verb->ccomp->verb->nmod->noun: 0.0928281054766047, p=0.03684644881612618
verb->mark->sconj: 0.09223054070295557, p=0.03808247344147785
verb->nsubjpass->noun->nmod->noun: -0.09007937226425697, p=0.042827011934109115
propn->conj->propn<-punct<-punct: 0.09003475601817675, p=0.04293046521251614
num->nummod->noun<-cc<-conj: 0.08771430485592589, p=0.04860881211096666
noun->conj->noun<-conj<-noun: 0.08503543247972822, p=0.055932970533158245
noun->punct->punct: 0.08389985688716219, p=0.05930313371450641
verb->nmod->noun->nummod->num: 0.0830920607092262, p=0.06180139805741233
num->nummod->noun<-compound<-noun: 0.08289802064932235, p=0.06241426808452922
propn->compound->noun: 0.0820466009208449, p=0.06516298178311908
noun->amod->verb: 0.08011904570188175, p=0.07175464008840966
punct->punct->verb<-conj<-noun: 0.07886592867107113, p=0.07632499765266076
num->nummod->noun<-nummod<-num: 0.07831394860547826, p=0.07841192452900994
adp->case->propn<-punct<-punct: 0.0772599926951515, p=0.08252524935599534
propn->conj->propn<-conj<-propn: 0.07657371754577096, p=0.08529613432138301

