Generalized epilepsy with febrile seizures plus GEFS+, a familial epilepsy syndrome, 1 is characterized by phenotypic variation ranging from mild to severe forms of epilepsy Online Mendelian Inheritance in Man OMIM,http://www.ncbi.nlm.nih.gov/Omim/; for GEFS+: MIM 604233.   The most common phenotypes in GEFS+ families are febrile seizures FS, FS plus FS+, in which seizures persist beyond the age of 6 years, and afebrile generalized tonic–clonic seizures. Less common phenotypes include absence, myoclonic, or atonic seizures. Myoclonic–astatic epilepsy and severe myoclonic epilepsy of infancy reside at the severe end of the GEFS+ spectrum. In GEFS+ families, mutations in SCN1A, 2SCN2A, 3GABRG2, 4 and SCN1B5 have been described.   The only mutation identified in SCN1B so far is a missense mutation substituting a conserved Cys C residue for a Trp W or C121W and disrupting a putative disulfide bridge in the extracellular immunoglobulin Ig-like fold 5 figure 1. Here we describe a novel SCN1B mutation in this domain in a GEFS+ family. Interestingly, the proband presented with early-onset absence epilepsy without the occurrence of FS. 


We obtained peripheral blood from 28 unrelated familial patients with FS+ or GEFS+ and 46 unrelated patients with FS of whom 6 were isolated cases. Diagnostic classification of the patients followed the proposal of the Commission on Classification and Terminology of the International League Against Epilepsy 1989. The Commission for Medical Ethics of the University of Antwerp approved this study, and participants or their legal representative signed an informed consent.     

  Genomic DNA was extracted using standard methods, and all exons and flanking intronic sequences were PCR amplified. Primer sequences used to amplify SCN1B exons can be obtained upon request. PCR products were analyzed by denaturing high-performance liquid chromatography DHPLC. PCR fragments that showed an aberrant DHPLC pattern were sequenced with the BigDye Terminator Cycle Sequencing kit from Perkin-Elmer Applied Biosystems Foster City, CA. Sequences were analyzed on an ABI 3700 automated sequencer Weiterstadt, Germany. PCR restriction fragment length polymorphism analysis with Xho II was performed for segregation analysis. To assess the mutation in a healthy control population, we screened genomic DNA of 94 individuals of the Belgian population, using pyrosequencing 6.      

  The effect of the mutation at the RNA level was assessed using reverse transcription RT PCR. We isolated total RNA from peripheral blood with the PURESCRIPT RNA Isolation Kit Gentra Systems, Minneapolis, MN and synthesized single-strand cDNA using the SUPERSCRIPT preamplification system GibcoBRL, Grand Island, NY. To detect putative exon skipping or usage of cryptic splice sites, PCR amplification was performed with the 5'-CCGTGTATGGGATGACCTTCA-3' forward primer located in exon 2 and the 5'- GCGGCAGCGATCTTCTTGTA-3' reverse primer in exon 4. Wild-type and aberrant PCR fragments were sequenced as described above.   

A series of 74 unrelated patients with GEFS+, FS+, or FS were screened for mutations in SCN1B. In one patient, an aberrant DHPLC pattern was observed in a PCR fragment containing exon 3 and flanking splice sites. Subsequent sequence analysis of this fragment identified a heterozygous IVS2-2A>C transversion in the splice acceptor site of exon 3. The patient is the proband IV-5 of a GEFS+ family in which FS, FS+, and early-onset absence epilepsy segregated figure 2. The propositus IV-5 started with absence seizures at the age of 17 months. An EEG showed 3-Hz spike–waves. She had frequent absences, sometimes four to five episodes a day. Initially, seizures were only partially controlled with valproate, and the dose had to be adapted frequently. The girl, currently 4 years old, has been seizure-free for 1 year. She never presented other seizure types, and the absences were not provoked by fever. Her older brother IV-4, currently 6 years old, had a first tonic–clonic seizure at the age of 1 year. He subsequently had two other episodes. All episodes were provoked by fever. After the third seizure, a treatment with valproate was initiated. The mother III-7 never developed seizures. Her younger brother III-6 had a first tonic seizure at the age of 2.5 years. <\connective form=later text=Later id=G9331_FUL6_12.txt.raw_21 relation=Asynchronous\> he had four additional seizures, the last one at the age of 7 years. All episodes were provoked by fever. The older brother III-4 had, at the age of 3 years and associated with fever, two tonic seizures the same day. His daughter IV-3 had a tonic seizure at the age of 2.5 years and another one a few months later. Both episodes were provoked by fever. Both grandparents II-3 and II-4 never had a seizure. Individual III-1 had, at the age of 9 months, one tonic–clonic seizure associated with fever. He did not develop subsequent seizures.   The IVS2-2A>C mutation results in the loss of an Xho II site, which was used to analyze the segregation of the mutation in Family EP146 see figure 2. The A-to-C transversion was present in 8 of 17 at-risk individuals. Five of the six patients carried the mutation, of which four were diagnosed with FS III-4, IV-3, and IV-4 or FS+ III-6 and one with early-onset absence epilepsy IV-5. The three remaining mutation carriers were symptom-free: One person is 3 years old and is an individual at risk, and II-3 and III-7 are obligate carriers. The segregation pattern of the mutation demonstrates that the disease in this GEFS+ family shows an autosomal dominant inheritance with reduced disease penetrance of 63. Individual III-1 has FS without carrying the mutation. <\connective form=also text=Also id=G9331_FUL6_12.txt.raw_69 relation=Conjunction\>, his mother did not segregate the mutation, indicating that III-1 is a phenocopy <\connective form=and text=and id=G9331_FUL6_12.txt.raw_53 relation=Conjunction\> that his FS are thus not related to the mutation segregating in the pedigree. The mutation was absent from 188 control chromosomes.   As the mutation affects a splice acceptor site, we examined its effect on mRNA splicing by RT-PCR analysis of total RNA isolated from peripheral blood leukocytes obtained from three mutation carriers III-4, III-7, and IV-5 and three control individuals III-5, IV-6, and IV-7. We observed, beside the wild-type transcript, an additional aberrant transcript in all mutation carriers. Sequencing of the aberrant transcript revealed a 15-bp deletion at the 5' end of exon 3, indicating that the splice site mutation results in the utilization of a cryptic acceptor splice site within exon 3. At the protein level, this would lead to the deletion of five amino acids I70_E74del situated in the extracellular Ig-like fold of SCN1B see figure 1. 

So far, the missense mutation C121W was the only mutation described inSCN1B in GEFS+ families with multiple epilepsy phenotypes 5,7,8.  In this study, we performed an extensive mutation analysis of SCN1B in 74 unrelated GEFS+, FS+, or FS patients and observed a novel mutation IVS2-2A>C in 1 patient, destroying the acceptor splice site of exon 3. The IVS2-2A>C mutation was absent from 188 control chromosomes and results in the in-frame deletion of 15 nucleotides of exon 3, predicting a deletion of five amino acids I70_E74del. The patient with the SCN1Bmutation was the propositus of a GEFS+ family, in which six patients were diagnosed with FS, FS+, or early-onset absence epilepsy. <\connective form=thus text=Thus id=G9331_FUL6_12.txt.raw_65 relation=Cause\>, the mutation in this family manifests with clinical heterogeneity. Three individuals carried the mutation without having seizures, of whom two are obligate carriers. This results in a disease penetrance of 63, similar to the degree of penetrance observed in the first described GEFS+ family with the C121W mutation 5.  One patient diagnosed with FS did not segregate the mutation and is likely to represent a phenocopy <\connective form=because text=because id=G9331_FUL6_12.txt.raw_63 relation=Cause\> his mother did not carry the mutation and given the high frequency 3 of FS in the general population.   Most remarkably, the proband of the GEFS+ family was diagnosed with early-onset absence epilepsy without associated FS. Early-onset absence epilepsy is most uncommon in the GEFS+ spectrum. So far, only one patient with absence seizures due to the C121W mutation has been reported 5.  However, this patient <\connective form=also text=also id=G9331_FUL6_12.txt.raw_70 relation=Conjunction\> had a history of FS. The propositus of the GEFS+ family clearly showed that the IVS2-2A>C transition in SCN1B can lead to absences without preceding FS. This demonstrates that mutations in SCN1B can have a causal role in eliciting absence seizures. Interestingly, absence epilepsy is a common phenotype in GEFS+ families with a GABRG2 mutation 4.  However, the patient with absences in our family shows an earlier age at onset.   The IVS2-2A>C transition deletes amino acids 70 until 74 I70_E74del, which are located in the central hydrophobic core of the extracellular Ig domain see figure 1. Electrophysiologic studies in Xenopus laevis oocytes expressing mutant beta1 subunits showed slowly inactivating Na+ currents, resembling those exhibited by the alpha subunit in the absence of the beta1 subunit, suggesting a loss of function 9.  Similar results were observed with the C121W mutation 5,10.  Both the C121W and the I70_E74del mutations could disrupt the hydrophobic interaction in the Ig-like fold and prevent proper beta1 folding, possibly inhibiting interaction with the alpha subunit or preventing cell surface expression. Eventually, this will reduce the inactivation rate of the voltage-gated Na+ channels, consistent with the inactivation rates of Na+ channels in the absence of beta1 subunits. As a consequence, Na+ channels remain in the “open” state for a longer time. This may cause a persistent inward Na+ current, resulting in hyperexcitability.